parte2/esp10/Data/h/f2/1.csv

X,CH1,CH2,Start,Increment,
Sequence,Volt,Volt,2.010200e-04,5.000000e-08,
0,-2.464000e-02,0.000000e+00,
1,-2.464000e-02,4.160000e-04,
2,-2.464000e-02,0.000000e+00,
3,-2.464000e-02,4.160000e-04,
4,-2.728000e-02,2.080000e-04,
5,-2.728000e-02,4.160000e-04,
6,-2.992000e-02,2.080000e-04,
7,-3.080000e-02,-2.080000e-04,
8,-3.256000e-02,4.160000e-04,
9,-3.256000e-02,6.240000e-04,
10,-3.432000e-02,0.000000e+00,
11,-3.520000e-02,2.080000e-04,
12,-3.696000e-02,6.240000e-04,
13,-3.696000e-02,2.080000e-04,
14,-3.960000e-02,-4.160000e-04,
15,-3.872000e-02,0.000000e+00,
16,-4.136000e-02,8.320000e-04,
17,-4.136000e-02,1.040000e-03,
18,-4.312000e-02,-2.080000e-04,
19,-4.400000e-02,0.000000e+00,
20,-4.576000e-02,-4.160000e-04,
21,-4.576000e-02,-2.080000e-04,
22,-4.752000e-02,2.080000e-04,
23,-4.840000e-02,-2.080000e-04,
24,-4.928000e-02,0.000000e+00,
25,-4.928000e-02,2.080000e-04,
26,-5.192000e-02,-2.080000e-04,
27,-5.192000e-02,-4.160000e-04,
28,-5.456000e-02,-2.080000e-04,
29,-5.456000e-02,-4.160000e-04,
30,-5.632000e-02,2.080000e-04,
31,-5.632000e-02,6.240000e-04,
32,-5.808000e-02,0.000000e+00,
33,-5.808000e-02,4.160000e-04,
34,-5.984000e-02,-8.320000e-04,
35,-5.984000e-02,-1.040000e-03,
36,-6.160000e-02,-1.040000e-03,
37,-6.160000e-02,-6.240000e-04,
38,-6.336000e-02,2.080000e-04,
39,-6.336000e-02,6.240000e-04,
40,-6.424000e-02,0.000000e+00,
41,-6.512000e-02,4.160000e-04,
42,-6.600000e-02,8.320000e-04,
43,-6.600000e-02,4.160000e-04,
44,-6.776000e-02,2.080000e-04,
45,-6.776000e-02,-2.080000e-04,
46,-6.952000e-02,8.320000e-04,
47,-6.952000e-02,8.320000e-04,
48,-7.040000e-02,0.000000e+00,
49,-6.952000e-02,4.160000e-04,
50,-7.216000e-02,-4.160000e-04,
51,-7.128000e-02,0.000000e+00,
52,-7.304000e-02,-2.080000e-04,
53,-7.304000e-02,0.000000e+00,
54,-7.392000e-02,6.240000e-04,
55,-7.480000e-02,1.040000e-03,
56,-7.480000e-02,2.080000e-04,
57,-7.480000e-02,0.000000e+00,
58,-7.568000e-02,6.240000e-04,
59,-7.568000e-02,4.160000e-04,
60,-7.656000e-02,0.000000e+00,
61,-7.656000e-02,-2.080000e-04,
62,-7.832000e-02,-2.080000e-04,
63,-7.744000e-02,0.000000e+00,
64,-7.920000e-02,4.160000e-04,
65,-7.832000e-02,6.240000e-04,
66,-7.920000e-02,-4.160000e-04,
67,-7.920000e-02,-2.080000e-04,
68,-8.008000e-02,2.080000e-04,
69,-8.096000e-02,6.240000e-04,
70,-8.096000e-02,4.160000e-04,
71,-8.096000e-02,8.320000e-04,
72,-8.096000e-02,-2.080000e-04,
73,-8.096000e-02,0.000000e+00,
74,-8.184000e-02,0.000000e+00,
75,-8.184000e-02,4.160000e-04,
76,-8.184000e-02,6.240000e-04,
77,-8.096000e-02,4.160000e-04,
78,-8.184000e-02,2.080000e-04,
79,-8.184000e-02,4.160000e-04,
80,-8.184000e-02,4.160000e-04,
81,-8.272000e-02,6.240000e-04,
82,-8.184000e-02,-4.160000e-04,
83,-8.184000e-02,-6.240000e-04,
84,-8.184000e-02,0.000000e+00,
85,-8.272000e-02,4.160000e-04,
86,-8.272000e-02,8.320000e-04,
87,-8.272000e-02,4.160000e-04,
88,-8.184000e-02,6.240000e-04,
89,-8.184000e-02,4.160000e-04,
90,-8.184000e-02,-4.160000e-04,
91,-8.184000e-02,-2.080000e-04,
92,-8.184000e-02,-4.160000e-04,
93,-8.096000e-02,-2.080000e-04,
94,-8.096000e-02,-2.080000e-04,
95,-8.008000e-02,2.080000e-04,
96,-8.008000e-02,2.080000e-04,
97,-8.096000e-02,-2.080000e-04,
98,-7.920000e-02,2.080000e-04,
99,-8.008000e-02,0.000000e+00,
100,-7.920000e-02,1.040000e-03,
101,-7.920000e-02,6.240000e-04,
102,-7.832000e-02,2.080000e-04,
103,-7.832000e-02,6.240000e-04,
104,-7.744000e-02,-4.160000e-04,
105,-7.744000e-02,-2.080000e-04,
106,-7.656000e-02,-2.080000e-04,
107,-7.656000e-02,0.000000e+00,
108,-7.568000e-02,-6.240000e-04,
109,-7.568000e-02,-2.080000e-04,
110,-7.480000e-02,2.080000e-04,
111,-7.480000e-02,6.240000e-04,
112,-7.304000e-02,2.080000e-04,
113,-7.304000e-02,0.000000e+00,
114,-7.216000e-02,0.000000e+00,
115,-7.216000e-02,-2.080000e-04,
116,-7.128000e-02,2.080000e-04,
117,-7.128000e-02,4.160000e-04,
118,-6.952000e-02,2.080000e-04,
119,-6.952000e-02,0.000000e+00,
120,-6.776000e-02,-4.160000e-04,
121,-6.776000e-02,0.000000e+00,
122,-6.688000e-02,2.080000e-04,
123,-6.600000e-02,4.160000e-04,
124,-6.512000e-02,2.080000e-04,
125,-6.512000e-02,4.160000e-04,
126,-6.424000e-02,2.080000e-04,
127,-6.336000e-02,4.160000e-04,
128,-6.160000e-02,-2.080000e-04,
129,-6.160000e-02,0.000000e+00,
130,-5.896000e-02,0.000000e+00,
131,-5.896000e-02,4.160000e-04,
132,-5.808000e-02,2.080000e-04,
133,-5.808000e-02,6.240000e-04,
134,-5.632000e-02,6.240000e-04,
135,-5.544000e-02,2.080000e-04,
136,-5.368000e-02,-4.160000e-04,
137,-5.368000e-02,0.000000e+00,
138,-5.280000e-02,4.160000e-04,
139,-5.280000e-02,2.080000e-04,
140,-5.016000e-02,6.240000e-04,
141,-4.928000e-02,8.320000e-04,
142,-4.752000e-02,2.080000e-04,
143,-4.752000e-02,-2.080000e-04,
144,-4.664000e-02,-4.160000e-04,
145,-4.576000e-02,-6.240000e-04,
146,-4.400000e-02,0.000000e+00,
147,-4.400000e-02,2.080000e-04,
148,-4.224000e-02,8.320000e-04,
149,-4.224000e-02,4.160000e-04,
150,-3.960000e-02,-6.240000e-04,
151,-3.960000e-02,-2.080000e-04,
152,-3.696000e-02,2.080000e-04,
153,-3.696000e-02,4.160000e-04,
154,-3.520000e-02,0.000000e+00,
155,-3.520000e-02,-2.080000e-04,
156,-3.344000e-02,0.000000e+00,
157,-3.256000e-02,4.160000e-04,
158,-2.992000e-02,4.160000e-04,
159,-2.992000e-02,6.240000e-04,
160,-2.816000e-02,2.080000e-04,
161,-2.728000e-02,4.160000e-04,
162,-2.552000e-02,-4.160000e-04,
163,-2.552000e-02,-6.240000e-04,
164,-2.288000e-02,4.160000e-04,
165,-2.288000e-02,6.240000e-04,
166,-2.024000e-02,-2.080000e-04,
167,-2.024000e-02,2.080000e-04,
168,-1.760000e-02,0.000000e+00,
169,-1.848000e-02,-4.160000e-04,
170,-1.584000e-02,6.240000e-04,
171,-1.584000e-02,4.160000e-04,
172,-1.232000e-02,2.080000e-04,
173,-1.320000e-02,6.240000e-04,
174,-1.056000e-02,2.080000e-04,
175,-9.680000e-03,-2.080000e-04,
176,-7.040000e-03,-4.160000e-04,
177,-7.920000e-03,-6.240000e-04,
178,-5.280000e-03,0.000000e+00,
179,-4.400000e-03,-2.080000e-04,
180,-2.640000e-03,2.080000e-04,
181,-1.760000e-03,4.160000e-04,
182,8.800000e-04,-2.080000e-04,
183,0.000000e+00,2.080000e-04,
184,2.640000e-03,-4.160000e-04,
185,2.640000e-03,-8.320000e-04,
186,5.280000e-03,4.160000e-04,
187,5.280000e-03,6.240000e-04,
188,8.800000e-03,0.000000e+00,
189,8.800000e-03,2.080000e-04,
190,1.056000e-02,4.160000e-04,
191,1.144000e-02,0.000000e+00,
192,1.320000e-02,-6.240000e-04,
193,1.320000e-02,-2.080000e-04,
194,1.584000e-02,1.248000e-03,
195,1.672000e-02,1.664000e-03,
196,1.848000e-02,1.040000e-03,
197,1.848000e-02,6.240000e-04,
198,2.112000e-02,0.000000e+00,
199,2.112000e-02,-4.160000e-04,
200,2.376000e-02,6.240000e-04,
201,2.376000e-02,2.080000e-04,
202,2.640000e-02,4.160000e-04,
203,2.640000e-02,6.240000e-04,
204,2.816000e-02,4.160000e-04,
205,2.816000e-02,6.240000e-04,
206,2.992000e-02,-2.080000e-04,
207,3.080000e-02,0.000000e+00,
208,3.256000e-02,-4.160000e-04,
209,3.344000e-02,2.080000e-04,
210,3.520000e-02,4.160000e-04,
211,3.520000e-02,0.000000e+00,
212,3.696000e-02,8.320000e-04,
213,3.696000e-02,6.240000e-04,
214,3.960000e-02,-2.080000e-04,
215,4.048000e-02,-4.160000e-04,
216,4.136000e-02,6.240000e-04,
217,4.136000e-02,2.080000e-04,
218,4.400000e-02,6.240000e-04,
219,4.400000e-02,1.040000e-03,
220,4.664000e-02,4.160000e-04,
221,4.664000e-02,2.080000e-04,
222,4.840000e-02,-4.160000e-04,
223,4.928000e-02,0.000000e+00,
224,5.104000e-02,0.000000e+00,
225,5.104000e-02,2.080000e-04,
226,5.192000e-02,0.000000e+00,
227,5.280000e-02,2.080000e-04,
228,5.456000e-02,-2.080000e-04,
229,5.456000e-02,0.000000e+00,
230,5.632000e-02,-4.160000e-04,
231,5.632000e-02,-2.080000e-04,
232,5.808000e-02,4.160000e-04,
233,5.808000e-02,0.000000e+00,
234,5.984000e-02,-2.080000e-04,
235,5.984000e-02,-4.160000e-04,
236,6.160000e-02,-8.320000e-04,
237,6.072000e-02,-4.160000e-04,
238,6.336000e-02,0.000000e+00,
239,6.424000e-02,-4.160000e-04,
240,6.512000e-02,6.240000e-04,
241,6.600000e-02,2.080000e-04,
242,6.688000e-02,4.160000e-04,
243,6.688000e-02,2.080000e-04,
244,6.776000e-02,-4.160000e-04,
245,6.864000e-02,-2.080000e-04,
246,6.952000e-02,2.080000e-04,
247,6.952000e-02,6.240000e-04,
248,7.040000e-02,8.320000e-04,
249,7.128000e-02,6.240000e-04,
250,7.304000e-02,4.160000e-04,
251,7.304000e-02,8.320000e-04,
252,7.304000e-02,2.080000e-04,
253,7.392000e-02,6.240000e-04,
254,7.480000e-02,4.160000e-04,
255,7.568000e-02,6.240000e-04,
256,7.656000e-02,0.000000e+00,
257,7.656000e-02,-4.160000e-04,
258,7.656000e-02,0.000000e+00,
259,7.744000e-02,2.080000e-04,
260,7.744000e-02,6.240000e-04,
261,7.832000e-02,2.080000e-04,
262,7.832000e-02,0.000000e+00,
263,7.920000e-02,-4.160000e-04,
264,7.920000e-02,-6.240000e-04,
265,7.920000e-02,-2.080000e-04,
266,8.008000e-02,0.000000e+00,
267,7.920000e-02,-2.080000e-04,
268,8.008000e-02,8.320000e-04,
269,8.008000e-02,6.240000e-04,
270,8.096000e-02,2.080000e-04,
271,8.096000e-02,0.000000e+00,
272,8.184000e-02,0.000000e+00,
273,8.184000e-02,2.080000e-04,
274,8.184000e-02,8.320000e-04,
275,8.184000e-02,1.248000e-03,
276,8.272000e-02,4.160000e-04,
277,8.272000e-02,0.000000e+00,
278,8.272000e-02,-2.080000e-04,
279,8.184000e-02,0.000000e+00,
280,8.272000e-02,0.000000e+00,
281,8.272000e-02,4.160000e-04,
282,8.272000e-02,4.160000e-04,
283,8.272000e-02,6.240000e-04,
284,8.184000e-02,0.000000e+00,
285,8.272000e-02,-2.080000e-04,
286,8.184000e-02,-2.080000e-04,
287,8.184000e-02,-4.160000e-04,
288,8.184000e-02,4.160000e-04,
289,8.184000e-02,2.080000e-04,
290,8.096000e-02,0.000000e+00,
291,8.096000e-02,2.080000e-04,
292,8.096000e-02,-2.080000e-04,
293,8.184000e-02,-4.160000e-04,
294,8.184000e-02,-2.080000e-04,
295,8.184000e-02,0.000000e+00,
296,8.096000e-02,2.080000e-04,
297,8.008000e-02,0.000000e+00,
298,8.008000e-02,0.000000e+00,
299,8.008000e-02,-2.080000e-04,
300,7.920000e-02,0.000000e+00,
301,8.008000e-02,-4.160000e-04,
302,7.920000e-02,-2.080000e-04,
303,7.920000e-02,0.000000e+00,
304,7.744000e-02,4.160000e-04,
305,7.832000e-02,8.320000e-04,
306,7.656000e-02,-2.080000e-04,
307,7.656000e-02,0.000000e+00,
308,7.656000e-02,-8.320000e-04,
309,7.656000e-02,-4.160000e-04,
310,7.480000e-02,-2.080000e-04,
311,7.480000e-02,4.160000e-04,
312,7.392000e-02,2.080000e-04,
313,7.392000e-02,-2.080000e-04,
314,7.304000e-02,-2.080000e-04,
315,7.216000e-02,-4.160000e-04,
316,7.128000e-02,-4.160000e-04,
317,7.128000e-02,-6.240000e-04,
318,6.952000e-02,-2.080000e-04,
319,7.040000e-02,2.080000e-04,
320,6.776000e-02,4.160000e-04,
321,6.864000e-02,6.240000e-04,
322,6.776000e-02,4.160000e-04,
323,6.688000e-02,2.080000e-04,
324,6.600000e-02,0.000000e+00,
325,6.600000e-02,4.160000e-04,
326,6.336000e-02,8.320000e-04,
327,6.424000e-02,1.040000e-03,
328,6.248000e-02,4.160000e-04,
329,6.160000e-02,6.240000e-04,
330,6.072000e-02,4.160000e-04,
331,6.160000e-02,2.080000e-04,
332,5.896000e-02,-2.080000e-04,
333,5.896000e-02,-4.160000e-04,
334,5.632000e-02,-4.160000e-04,
335,5.720000e-02,-2.080000e-04,
336,5.544000e-02,2.080000e-04,
337,5.544000e-02,4.160000e-04,
338,5.280000e-02,-2.080000e-04,
339,5.280000e-02,2.080000e-04,
340,5.104000e-02,4.160000e-04,
341,5.104000e-02,2.080000e-04,
342,4.928000e-02,4.160000e-04,
343,4.840000e-02,6.240000e-04,
344,4.664000e-02,-2.080000e-04,
345,4.664000e-02,-2.080000e-04,
346,4.400000e-02,0.000000e+00,
347,4.400000e-02,-2.080000e-04,
348,4.224000e-02,2.080000e-04,
349,4.224000e-02,4.160000e-04,
350,4.048000e-02,-4.160000e-04,
351,4.048000e-02,0.000000e+00,
352,3.784000e-02,4.160000e-04,
353,3.784000e-02,0.000000e+00,
354,3.520000e-02,4.160000e-04,
355,3.520000e-02,0.000000e+00,
356,3.344000e-02,-4.160000e-04,
357,3.344000e-02,-6.240000e-04,
358,3.080000e-02,2.080000e-04,
359,3.080000e-02,0.000000e+00,
360,2.904000e-02,6.240000e-04,
361,2.816000e-02,4.160000e-04,
362,2.552000e-02,0.000000e+00,
363,2.552000e-02,-2.080000e-04,
364,2.288000e-02,-4.160000e-04,
365,2.288000e-02,0.000000e+00,
366,2.112000e-02,2.080000e-04,
367,2.112000e-02,6.240000e-04,
368,1.848000e-02,2.080000e-04,
369,1.848000e-02,4.160000e-04,
370,1.584000e-02,2.080000e-04,
371,1.584000e-02,0.000000e+00,
372,1.408000e-02,0.000000e+00,
373,1.408000e-02,-2.080000e-04,
374,1.144000e-02,4.160000e-04,
375,1.144000e-02,6.240000e-04,
376,7.920000e-03,4.160000e-04,
377,8.800000e-03,2.080000e-04,
378,6.160000e-03,-2.080000e-04,
379,6.160000e-03,2.080000e-04,
380,3.520000e-03,0.000000e+00,
381,3.520000e-03,4.160000e-04,
382,1.760000e-03,6.240000e-04,
383,1.760000e-03,2.080000e-04,
384,-8.800000e-04,0.000000e+00,
385,-1.760000e-03,4.160000e-04,
386,-4.400000e-03,-1.040000e-03,
387,-4.400000e-03,-8.320000e-04,
388,-7.040000e-03,0.000000e+00,
389,-7.040000e-03,0.000000e+00,
390,-9.680000e-03,-2.080000e-04,
391,-9.680000e-03,2.080000e-04,
392,-1.232000e-02,-2.080000e-04,
393,-1.232000e-02,-4.160000e-04,
394,-1.496000e-02,2.080000e-04,
395,-1.496000e-02,0.000000e+00,
396,-1.672000e-02,8.320000e-04,
397,-1.672000e-02,4.160000e-04,
398,-1.936000e-02,2.080000e-04,
399,-2.024000e-02,0.000000e+00,
400,-2.200000e-02,4.160000e-04,
401,-2.200000e-02,6.240000e-04,
402,-2.464000e-02,6.240000e-04,
403,-2.376000e-02,8.320000e-04,
404,-2.728000e-02,2.080000e-04,
405,-2.728000e-02,4.160000e-04,
406,-2.992000e-02,6.240000e-04,
407,-2.992000e-02,1.040000e-03,
408,-3.168000e-02,0.000000e+00,
409,-3.168000e-02,2.080000e-04,
410,-3.432000e-02,0.000000e+00,
411,-3.432000e-02,-2.080000e-04,
412,-3.696000e-02,4.160000e-04,
413,-3.696000e-02,0.000000e+00,
414,-3.872000e-02,6.240000e-04,
415,-3.960000e-02,1.040000e-03,
416,-4.136000e-02,-2.080000e-04,
417,-4.136000e-02,0.000000e+00,
418,-4.312000e-02,2.080000e-04,
419,-4.400000e-02,4.160000e-04,
420,-4.576000e-02,0.000000e+00,
421,-4.576000e-02,4.160000e-04,
422,-4.840000e-02,0.000000e+00,
423,-4.752000e-02,2.080000e-04,
424,-4.928000e-02,2.080000e-04,
425,-5.016000e-02,0.000000e+00,
426,-5.192000e-02,0.000000e+00,
427,-5.192000e-02,-2.080000e-04,
428,-5.456000e-02,-2.080000e-04,
429,-5.456000e-02,-4.160000e-04,
430,-5.544000e-02,6.240000e-04,
431,-5.632000e-02,4.160000e-04,
432,-5.808000e-02,0.000000e+00,
433,-5.808000e-02,-2.080000e-04,
434,-5.984000e-02,-4.160000e-04,
435,-5.984000e-02,-8.320000e-04,
436,-6.160000e-02,0.000000e+00,
437,-6.160000e-02,4.160000e-04,
438,-6.248000e-02,4.160000e-04,
439,-6.336000e-02,6.240000e-04,
440,-6.512000e-02,-2.080000e-04,
441,-6.424000e-02,2.080000e-04,
442,-6.600000e-02,-2.080000e-04,
443,-6.688000e-02,-6.240000e-04,
444,-6.776000e-02,4.160000e-04,
445,-6.776000e-02,2.080000e-04,
446,-6.952000e-02,4.160000e-04,
447,-6.952000e-02,2.080000e-04,
448,-7.040000e-02,4.160000e-04,
449,-7.040000e-02,6.240000e-04,
450,-7.216000e-02,0.000000e+00,
451,-7.216000e-02,-2.080000e-04,
452,-7.304000e-02,2.080000e-04,
453,-7.304000e-02,6.240000e-04,
454,-7.392000e-02,4.160000e-04,
455,-7.480000e-02,8.320000e-04,
456,-7.480000e-02,2.080000e-04,
457,-7.480000e-02,0.000000e+00,
458,-7.568000e-02,0.000000e+00,
459,-7.568000e-02,-2.080000e-04,
460,-7.656000e-02,2.080000e-04,
461,-7.656000e-02,6.240000e-04,
462,-7.744000e-02,0.000000e+00,
463,-7.832000e-02,2.080000e-04,
464,-7.920000e-02,-4.160000e-04,
465,-7.832000e-02,-8.320000e-04,
466,-8.008000e-02,-2.080000e-04,
467,-8.008000e-02,2.080000e-04,
468,-8.008000e-02,1.040000e-03,
469,-8.008000e-02,6.240000e-04,
470,-8.096000e-02,4.160000e-04,
471,-8.096000e-02,6.240000e-04,
472,-8.096000e-02,0.000000e+00,
473,-8.096000e-02,-2.080000e-04,
474,-8.096000e-02,4.160000e-04,
475,-8.184000e-02,1.040000e-03,
476,-8.184000e-02,2.080000e-04,
477,-8.184000e-02,6.240000e-04,
478,-8.184000e-02,0.000000e+00,
479,-8.184000e-02,-2.080000e-04,
480,-8.184000e-02,-2.080000e-04,
481,-8.272000e-02,-4.160000e-04,
482,-8.272000e-02,2.080000e-04,
483,-8.184000e-02,6.240000e-04,
484,-8.184000e-02,6.240000e-04,
485,-8.272000e-02,1.040000e-03,
486,-8.184000e-02,0.000000e+00,
487,-8.272000e-02,4.160000e-04,
488,-8.184000e-02,-2.080000e-04,
489,-8.184000e-02,-6.240000e-04,
490,-8.184000e-02,6.240000e-04,
491,-8.184000e-02,4.160000e-04,
492,-8.096000e-02,6.240000e-04,
493,-8.096000e-02,2.080000e-04,
494,-8.096000e-02,4.160000e-04,
495,-8.096000e-02,6.240000e-04,
496,-8.008000e-02,-2.080000e-04,
497,-8.008000e-02,-4.160000e-04,
498,-7.920000e-02,-2.080000e-04,
499,-8.008000e-02,0.000000e+00,
500,-7.920000e-02,2.080000e-04,
501,-7.832000e-02,0.000000e+00,
502,-7.832000e-02,2.080000e-04,
503,-7.744000e-02,-2.080000e-04,
504,-7.744000e-02,-2.080000e-04,
505,-7.744000e-02,-4.160000e-04,
506,-7.656000e-02,2.080000e-04,
507,-7.656000e-02,4.160000e-04,
508,-7.568000e-02,0.000000e+00,
509,-7.568000e-02,-4.160000e-04,
510,-7.480000e-02,-4.160000e-04,
511,-7.480000e-02,-2.080000e-04,
512,-7.392000e-02,-4.160000e-04,
513,-7.304000e-02,0.000000e+00,
514,-7.216000e-02,0.000000e+00,
515,-7.216000e-02,-4.160000e-04,
516,-7.040000e-02,8.320000e-04,
517,-7.040000e-02,4.160000e-04,
518,-6.952000e-02,2.080000e-04,
519,-6.952000e-02,6.240000e-04,
520,-6.776000e-02,-4.160000e-04,
521,-6.776000e-02,0.000000e+00,
522,-6.688000e-02,4.160000e-04,
523,-6.688000e-02,6.240000e-04,
524,-6.512000e-02,1.248000e-03,
525,-6.512000e-02,8.320000e-04,
526,-6.336000e-02,4.160000e-04,
527,-6.336000e-02,2.080000e-04,
528,-6.160000e-02,4.160000e-04,
529,-6.072000e-02,2.080000e-04,
530,-5.984000e-02,2.080000e-04,
531,-5.984000e-02,6.240000e-04,
532,-5.808000e-02,0.000000e+00,
533,-5.808000e-02,-2.080000e-04,
534,-5.632000e-02,-4.160000e-04,
535,-5.632000e-02,-6.240000e-04,
536,-5.456000e-02,4.160000e-04,
537,-5.368000e-02,0.000000e+00,
538,-5.280000e-02,4.160000e-04,
539,-5.192000e-02,8.320000e-04,
540,-5.016000e-02,2.080000e-04,
541,-5.016000e-02,4.160000e-04,
542,-4.840000e-02,0.000000e+00,
543,-4.752000e-02,-2.080000e-04,
544,-4.576000e-02,-2.080000e-04,
545,-4.576000e-02,0.000000e+00,
546,-4.400000e-02,0.000000e+00,
547,-4.400000e-02,4.160000e-04,
548,-4.224000e-02,6.240000e-04,
549,-4.136000e-02,2.080000e-04,
550,-3.960000e-02,0.000000e+00,
551,-3.872000e-02,4.160000e-04,
552,-3.696000e-02,0.000000e+00,
553,-3.784000e-02,-2.080000e-04,
554,-3.520000e-02,6.240000e-04,
555,-3.520000e-02,2.080000e-04,
556,-3.256000e-02,-2.080000e-04,
557,-3.256000e-02,-6.240000e-04,
558,-2.992000e-02,0.000000e+00,
559,-3.080000e-02,-2.080000e-04,
560,-2.816000e-02,4.160000e-04,
561,-2.816000e-02,2.080000e-04,
562,-2.552000e-02,4.160000e-04,
563,-2.552000e-02,6.240000e-04,
564,-2.288000e-02,2.080000e-04,
565,-2.288000e-02,0.000000e+00,
566,-2.024000e-02,0.000000e+00,
567,-2.024000e-02,2.080000e-04,
568,-1.760000e-02,0.000000e+00,
569,-1.760000e-02,-6.240000e-04,
570,-1.584000e-02,-2.080000e-04,
571,-1.496000e-02,-4.160000e-04,
572,-1.232000e-02,6.240000e-04,
573,-1.232000e-02,4.160000e-04,
574,-9.680000e-03,6.240000e-04,
575,-9.680000e-03,4.160000e-04,
576,-7.920000e-03,0.000000e+00,
577,-7.040000e-03,2.080000e-04,
578,-5.280000e-03,0.000000e+00,
579,-5.280000e-03,2.080000e-04,
580,-1.760000e-03,0.000000e+00,
581,-1.760000e-03,2.080000e-04,
582,0.000000e+00,-2.080000e-04,
583,0.000000e+00,-4.160000e-04,
584,2.640000e-03,4.160000e-04,
585,3.520000e-03,6.240000e-04,
586,5.280000e-03,2.080000e-04,
587,5.280000e-03,-2.080000e-04,
588,7.920000e-03,-6.240000e-04,
589,8.800000e-03,-2.080000e-04,
590,1.056000e-02,0.000000e+00,
591,1.056000e-02,4.160000e-04,
592,1.320000e-02,4.160000e-04,
593,1.408000e-02,6.240000e-04,
594,1.584000e-02,2.080000e-04,
595,1.584000e-02,6.240000e-04,
596,1.848000e-02,4.160000e-04,
597,1.848000e-02,6.240000e-04,
598,2.112000e-02,4.160000e-04,
599,2.112000e-02,2.080000e-04,
600,2.288000e-02,2.080000e-04,
601,2.376000e-02,4.160000e-04,
602,2.552000e-02,6.240000e-04,
603,2.640000e-02,2.080000e-04,
604,2.816000e-02,0.000000e+00,
605,2.904000e-02,4.160000e-04,
606,3.080000e-02,4.160000e-04,
607,3.080000e-02,2.080000e-04,
608,3.344000e-02,6.240000e-04,
609,3.256000e-02,8.320000e-04,
610,3.520000e-02,6.240000e-04,
611,3.520000e-02,4.160000e-04,
612,3.696000e-02,-4.160000e-04,
613,3.784000e-02,0.000000e+00,
614,3.960000e-02,6.240000e-04,
615,3.960000e-02,2.080000e-04,
616,4.224000e-02,4.160000e-04,
617,4.224000e-02,2.080000e-04,
618,4.400000e-02,6.240000e-04,
619,4.400000e-02,8.320000e-04,
620,4.664000e-02,2.080000e-04,
621,4.576000e-02,-2.080000e-04,
622,4.840000e-02,2.080000e-04,
623,4.840000e-02,-2.080000e-04,
624,5.016000e-02,2.080000e-04,
625,5.016000e-02,0.000000e+00,
626,5.280000e-02,-2.080000e-04,
627,5.280000e-02,2.080000e-04,
