parte2/esp10/Data/h/f2/4.csv

X,CH1,CH2,Start,Increment,
Sequence,Volt,Volt,2.010200e-04,5.000000e-08,
0,-2.464000e-02,-2.080000e-04,
1,-2.464000e-02,2.080000e-04,
2,-2.464000e-02,-2.080000e-04,
3,-2.464000e-02,2.080000e-04,
4,-2.728000e-02,2.080000e-04,
5,-2.728000e-02,4.160000e-04,
6,-2.904000e-02,6.240000e-04,
7,-2.904000e-02,4.160000e-04,
8,-3.256000e-02,4.160000e-04,
9,-3.256000e-02,0.000000e+00,
10,-3.432000e-02,4.160000e-04,
11,-3.520000e-02,2.080000e-04,
12,-3.696000e-02,2.080000e-04,
13,-3.696000e-02,0.000000e+00,
14,-3.872000e-02,4.160000e-04,
15,-3.960000e-02,2.080000e-04,
16,-4.136000e-02,4.160000e-04,
17,-4.136000e-02,6.240000e-04,
18,-4.312000e-02,-2.080000e-04,
19,-4.312000e-02,0.000000e+00,
20,-4.488000e-02,6.240000e-04,
21,-4.488000e-02,4.160000e-04,
22,-4.752000e-02,2.080000e-04,
23,-4.752000e-02,4.160000e-04,
24,-4.928000e-02,6.240000e-04,
25,-5.016000e-02,4.160000e-04,
26,-5.192000e-02,8.320000e-04,
27,-5.192000e-02,1.040000e-03,
28,-5.368000e-02,8.320000e-04,
29,-5.368000e-02,1.040000e-03,
30,-5.544000e-02,0.000000e+00,
31,-5.544000e-02,4.160000e-04,
32,-5.720000e-02,0.000000e+00,
33,-5.808000e-02,4.160000e-04,
34,-5.896000e-02,8.320000e-04,
35,-5.984000e-02,6.240000e-04,
36,-6.160000e-02,2.080000e-04,
37,-6.072000e-02,0.000000e+00,
38,-6.336000e-02,2.080000e-04,
39,-6.336000e-02,0.000000e+00,
40,-6.512000e-02,2.080000e-04,
41,-6.424000e-02,0.000000e+00,
42,-6.600000e-02,6.240000e-04,
43,-6.600000e-02,1.040000e-03,
44,-6.776000e-02,6.240000e-04,
45,-6.776000e-02,4.160000e-04,
46,-6.952000e-02,6.240000e-04,
47,-6.864000e-02,4.160000e-04,
48,-7.040000e-02,6.240000e-04,
49,-7.040000e-02,4.160000e-04,
50,-7.216000e-02,4.160000e-04,
51,-7.216000e-02,8.320000e-04,
52,-7.304000e-02,0.000000e+00,
53,-7.304000e-02,4.160000e-04,
54,-7.392000e-02,2.080000e-04,
55,-7.392000e-02,6.240000e-04,
56,-7.568000e-02,6.240000e-04,
57,-7.480000e-02,4.160000e-04,
58,-7.568000e-02,6.240000e-04,
59,-7.656000e-02,4.160000e-04,
60,-7.656000e-02,2.080000e-04,
61,-7.744000e-02,0.000000e+00,
62,-7.744000e-02,1.040000e-03,
63,-7.832000e-02,6.240000e-04,
64,-7.832000e-02,6.240000e-04,
65,-7.920000e-02,8.320000e-04,
66,-7.920000e-02,2.080000e-04,
67,-7.920000e-02,6.240000e-04,
68,-8.008000e-02,2.080000e-04,
69,-8.008000e-02,4.160000e-04,
70,-8.008000e-02,2.080000e-04,
71,-8.096000e-02,4.160000e-04,
72,-8.096000e-02,4.160000e-04,
73,-8.096000e-02,2.080000e-04,
74,-8.184000e-02,0.000000e+00,
75,-8.184000e-02,0.000000e+00,
76,-8.096000e-02,8.320000e-04,
77,-8.184000e-02,6.240000e-04,
78,-8.184000e-02,4.160000e-04,
79,-8.184000e-02,6.240000e-04,
80,-8.184000e-02,1.040000e-03,
81,-8.184000e-02,8.320000e-04,
82,-8.272000e-02,6.240000e-04,
83,-8.272000e-02,2.080000e-04,
84,-8.184000e-02,2.080000e-04,
85,-8.184000e-02,4.160000e-04,
86,-8.184000e-02,6.240000e-04,
87,-8.184000e-02,4.160000e-04,
88,-8.096000e-02,4.160000e-04,
89,-8.096000e-02,2.080000e-04,
90,-8.096000e-02,2.080000e-04,
91,-8.184000e-02,0.000000e+00,
92,-8.096000e-02,2.080000e-04,
93,-8.184000e-02,0.000000e+00,
94,-8.096000e-02,6.240000e-04,
95,-8.096000e-02,2.080000e-04,
96,-8.008000e-02,-2.080000e-04,
97,-8.008000e-02,2.080000e-04,
98,-8.008000e-02,2.080000e-04,
99,-8.008000e-02,6.240000e-04,
100,-7.920000e-02,4.160000e-04,
101,-7.832000e-02,6.240000e-04,
102,-7.744000e-02,6.240000e-04,
103,-7.832000e-02,8.320000e-04,
104,-7.656000e-02,2.080000e-04,
105,-7.744000e-02,6.240000e-04,
106,-7.568000e-02,2.080000e-04,
107,-7.656000e-02,2.080000e-04,
108,-7.568000e-02,6.240000e-04,
109,-7.480000e-02,2.080000e-04,
110,-7.392000e-02,0.000000e+00,
111,-7.480000e-02,2.080000e-04,
112,-7.392000e-02,2.080000e-04,
113,-7.304000e-02,6.240000e-04,
114,-7.216000e-02,6.240000e-04,
115,-7.216000e-02,8.320000e-04,
116,-7.128000e-02,1.040000e-03,
117,-7.040000e-02,8.320000e-04,
118,-6.952000e-02,8.320000e-04,
119,-7.040000e-02,6.240000e-04,
120,-6.776000e-02,0.000000e+00,
121,-6.864000e-02,2.080000e-04,
122,-6.600000e-02,6.240000e-04,
123,-6.688000e-02,4.160000e-04,
124,-6.512000e-02,4.160000e-04,
125,-6.424000e-02,4.160000e-04,
126,-6.336000e-02,4.160000e-04,
127,-6.336000e-02,0.000000e+00,
128,-6.160000e-02,4.160000e-04,
129,-6.160000e-02,6.240000e-04,
130,-5.984000e-02,0.000000e+00,
131,-6.072000e-02,4.160000e-04,
132,-5.808000e-02,4.160000e-04,
133,-5.808000e-02,6.240000e-04,
134,-5.632000e-02,4.160000e-04,
135,-5.632000e-02,4.160000e-04,
136,-5.456000e-02,6.240000e-04,
137,-5.456000e-02,8.320000e-04,
138,-5.280000e-02,6.240000e-04,
139,-5.192000e-02,4.160000e-04,
140,-5.016000e-02,6.240000e-04,
141,-5.104000e-02,4.160000e-04,
142,-4.840000e-02,0.000000e+00,
143,-4.840000e-02,4.160000e-04,
144,-4.576000e-02,2.080000e-04,
145,-4.576000e-02,4.160000e-04,
146,-4.312000e-02,2.080000e-04,
147,-4.312000e-02,4.160000e-04,
148,-4.136000e-02,-2.080000e-04,
149,-4.136000e-02,0.000000e+00,
150,-3.872000e-02,1.040000e-03,
151,-3.960000e-02,6.240000e-04,
152,-3.696000e-02,4.160000e-04,
153,-3.696000e-02,6.240000e-04,
154,-3.520000e-02,4.160000e-04,
155,-3.520000e-02,2.080000e-04,
156,-3.256000e-02,4.160000e-04,
157,-3.256000e-02,4.160000e-04,
158,-2.992000e-02,6.240000e-04,
159,-2.904000e-02,4.160000e-04,
160,-2.728000e-02,0.000000e+00,
161,-2.728000e-02,2.080000e-04,
162,-2.464000e-02,0.000000e+00,
163,-2.464000e-02,4.160000e-04,
164,-2.200000e-02,6.240000e-04,
165,-2.288000e-02,4.160000e-04,
166,-2.024000e-02,-4.160000e-04,
167,-2.024000e-02,0.000000e+00,
168,-1.760000e-02,0.000000e+00,
169,-1.760000e-02,2.080000e-04,
170,-1.496000e-02,2.080000e-04,
171,-1.408000e-02,6.240000e-04,
172,-1.320000e-02,6.240000e-04,
173,-1.232000e-02,4.160000e-04,
174,-9.680000e-03,4.160000e-04,
175,-9.680000e-03,6.240000e-04,
176,-7.040000e-03,6.240000e-04,
177,-7.920000e-03,1.040000e-03,
178,-4.400000e-03,0.000000e+00,
179,-5.280000e-03,2.080000e-04,
180,-1.760000e-03,8.320000e-04,
181,-1.760000e-03,4.160000e-04,
182,0.000000e+00,4.160000e-04,
183,0.000000e+00,6.240000e-04,
184,2.640000e-03,4.160000e-04,
185,2.640000e-03,2.080000e-04,
186,5.280000e-03,4.160000e-04,
187,5.280000e-03,8.320000e-04,
188,7.920000e-03,1.248000e-03,
189,7.920000e-03,8.320000e-04,
190,1.056000e-02,4.160000e-04,
191,1.056000e-02,8.320000e-04,
192,1.320000e-02,4.160000e-04,
193,1.232000e-02,2.080000e-04,
194,1.584000e-02,6.240000e-04,
195,1.584000e-02,4.160000e-04,
196,1.936000e-02,1.040000e-03,
197,1.848000e-02,8.320000e-04,
198,2.112000e-02,6.240000e-04,
199,2.024000e-02,8.320000e-04,
200,2.288000e-02,-4.160000e-04,
201,2.288000e-02,-2.080000e-04,
202,2.552000e-02,6.240000e-04,
203,2.552000e-02,8.320000e-04,
204,2.904000e-02,6.240000e-04,
205,2.904000e-02,4.160000e-04,
206,3.168000e-02,4.160000e-04,
207,3.080000e-02,0.000000e+00,
208,3.256000e-02,2.080000e-04,
209,3.344000e-02,4.160000e-04,
210,3.608000e-02,6.240000e-04,
211,3.520000e-02,2.080000e-04,
212,3.784000e-02,4.160000e-04,
213,3.784000e-02,6.240000e-04,
214,3.960000e-02,6.240000e-04,
215,3.960000e-02,4.160000e-04,
216,4.224000e-02,2.080000e-04,
217,4.136000e-02,2.080000e-04,
218,4.400000e-02,2.080000e-04,
219,4.488000e-02,0.000000e+00,
220,4.664000e-02,2.080000e-04,
221,4.664000e-02,4.160000e-04,
222,4.928000e-02,4.160000e-04,
223,4.840000e-02,8.320000e-04,
224,5.016000e-02,4.160000e-04,
225,5.104000e-02,8.320000e-04,
226,5.280000e-02,8.320000e-04,
227,5.280000e-02,1.040000e-03,
228,5.544000e-02,8.320000e-04,
229,5.544000e-02,6.240000e-04,
230,5.632000e-02,4.160000e-04,
231,5.720000e-02,2.080000e-04,
232,5.808000e-02,4.160000e-04,
233,5.896000e-02,6.240000e-04,
234,5.984000e-02,6.240000e-04,
235,5.984000e-02,8.320000e-04,
236,6.248000e-02,6.240000e-04,
237,6.248000e-02,4.160000e-04,
238,6.424000e-02,4.160000e-04,
239,6.336000e-02,0.000000e+00,
240,6.600000e-02,4.160000e-04,
241,6.512000e-02,2.080000e-04,
242,6.688000e-02,-2.080000e-04,
243,6.688000e-02,2.080000e-04,
244,6.864000e-02,1.040000e-03,
245,6.864000e-02,8.320000e-04,
246,6.952000e-02,6.240000e-04,
247,7.040000e-02,8.320000e-04,
248,7.128000e-02,4.160000e-04,
249,7.040000e-02,2.080000e-04,
250,7.216000e-02,8.320000e-04,
251,7.216000e-02,6.240000e-04,
252,7.304000e-02,4.160000e-04,
253,7.304000e-02,6.240000e-04,
254,7.480000e-02,2.080000e-04,
255,7.480000e-02,4.160000e-04,
256,7.568000e-02,2.080000e-04,
257,7.656000e-02,4.160000e-04,
258,7.656000e-02,8.320000e-04,
259,7.656000e-02,6.240000e-04,
260,7.744000e-02,8.320000e-04,
261,7.744000e-02,1.040000e-03,
262,7.832000e-02,4.160000e-04,
263,7.920000e-02,2.080000e-04,
264,7.920000e-02,4.160000e-04,
265,7.920000e-02,0.000000e+00,
266,8.008000e-02,0.000000e+00,
267,8.008000e-02,4.160000e-04,
268,8.096000e-02,1.040000e-03,
269,8.096000e-02,8.320000e-04,
270,8.096000e-02,4.160000e-04,
271,8.184000e-02,6.240000e-04,
272,8.096000e-02,4.160000e-04,
273,8.096000e-02,0.000000e+00,
274,8.184000e-02,6.240000e-04,
275,8.184000e-02,4.160000e-04,
276,8.272000e-02,6.240000e-04,
277,8.184000e-02,4.160000e-04,
278,8.272000e-02,2.080000e-04,
279,8.272000e-02,6.240000e-04,
280,8.272000e-02,2.080000e-04,
281,8.272000e-02,0.000000e+00,
282,8.184000e-02,1.248000e-03,
283,8.184000e-02,1.040000e-03,
284,8.272000e-02,4.160000e-04,
285,8.360000e-02,0.000000e+00,
286,8.272000e-02,4.160000e-04,
287,8.272000e-02,0.000000e+00,
288,8.272000e-02,-2.080000e-04,
289,8.272000e-02,-4.160000e-04,
290,8.184000e-02,0.000000e+00,
291,8.184000e-02,4.160000e-04,
292,8.184000e-02,4.160000e-04,
293,8.184000e-02,6.240000e-04,
294,8.184000e-02,2.080000e-04,
295,8.096000e-02,4.160000e-04,
296,8.008000e-02,6.240000e-04,
297,8.008000e-02,4.160000e-04,
298,8.008000e-02,6.240000e-04,
299,7.920000e-02,4.160000e-04,
300,7.920000e-02,-2.080000e-04,
301,8.008000e-02,2.080000e-04,
302,7.832000e-02,4.160000e-04,
303,7.920000e-02,6.240000e-04,
304,7.832000e-02,8.320000e-04,
305,7.832000e-02,1.040000e-03,
306,7.744000e-02,1.040000e-03,
307,7.656000e-02,8.320000e-04,
308,7.656000e-02,0.000000e+00,
309,7.568000e-02,-2.080000e-04,
310,7.480000e-02,2.080000e-04,
311,7.480000e-02,0.000000e+00,
312,7.392000e-02,0.000000e+00,
313,7.392000e-02,-2.080000e-04,
314,7.216000e-02,2.080000e-04,
315,7.304000e-02,0.000000e+00,
316,7.128000e-02,6.240000e-04,
317,7.128000e-02,8.320000e-04,
318,6.952000e-02,2.080000e-04,
319,6.952000e-02,-2.080000e-04,
320,6.864000e-02,6.240000e-04,
321,6.864000e-02,4.160000e-04,
322,6.688000e-02,0.000000e+00,
323,6.688000e-02,4.160000e-04,
324,6.600000e-02,4.160000e-04,
325,6.512000e-02,6.240000e-04,
326,6.424000e-02,0.000000e+00,
327,6.424000e-02,-2.080000e-04,
328,6.248000e-02,8.320000e-04,
329,6.248000e-02,1.040000e-03,
330,6.072000e-02,0.000000e+00,
331,5.984000e-02,2.080000e-04,
332,5.808000e-02,6.240000e-04,
333,5.896000e-02,4.160000e-04,
334,5.720000e-02,8.320000e-04,
335,5.632000e-02,6.240000e-04,
336,5.456000e-02,0.000000e+00,
337,5.456000e-02,-2.080000e-04,
338,5.280000e-02,4.160000e-04,
339,5.280000e-02,2.080000e-04,
340,5.104000e-02,2.080000e-04,
341,5.104000e-02,4.160000e-04,
342,4.928000e-02,8.320000e-04,
343,4.840000e-02,4.160000e-04,
344,4.664000e-02,0.000000e+00,
345,4.664000e-02,2.080000e-04,
346,4.488000e-02,6.240000e-04,
347,4.488000e-02,2.080000e-04,
348,4.312000e-02,2.080000e-04,
349,4.312000e-02,0.000000e+00,
350,4.048000e-02,4.160000e-04,
351,3.960000e-02,2.080000e-04,
352,3.784000e-02,8.320000e-04,
353,3.784000e-02,6.240000e-04,
354,3.520000e-02,6.240000e-04,
355,3.520000e-02,4.160000e-04,
356,3.344000e-02,0.000000e+00,
357,3.344000e-02,-2.080000e-04,
358,3.168000e-02,4.160000e-04,
359,3.168000e-02,2.080000e-04,
360,2.904000e-02,4.160000e-04,
361,2.904000e-02,2.080000e-04,
362,2.640000e-02,2.080000e-04,
363,2.640000e-02,-2.080000e-04,
364,2.376000e-02,-4.160000e-04,
365,2.376000e-02,2.080000e-04,
366,2.112000e-02,6.240000e-04,
367,2.200000e-02,2.080000e-04,
368,1.936000e-02,0.000000e+00,
369,1.848000e-02,-4.160000e-04,
370,1.584000e-02,6.240000e-04,
371,1.584000e-02,8.320000e-04,
372,1.408000e-02,2.080000e-04,
373,1.320000e-02,2.080000e-04,
374,1.056000e-02,6.240000e-04,
375,1.056000e-02,4.160000e-04,
376,7.920000e-03,6.240000e-04,
377,8.800000e-03,8.320000e-04,
378,6.160000e-03,6.240000e-04,
379,6.160000e-03,4.160000e-04,
380,3.520000e-03,1.040000e-03,
381,3.520000e-03,8.320000e-04,
382,1.760000e-03,2.080000e-04,
383,8.800000e-04,4.160000e-04,
384,-8.800000e-04,4.160000e-04,
385,-8.800000e-04,6.240000e-04,
386,-4.400000e-03,2.080000e-04,
387,-4.400000e-03,0.000000e+00,
388,-7.040000e-03,6.240000e-04,
389,-7.040000e-03,1.040000e-03,
390,-9.680000e-03,4.160000e-04,
391,-1.056000e-02,4.160000e-04,
392,-1.232000e-02,2.080000e-04,
393,-1.320000e-02,4.160000e-04,
394,-1.496000e-02,4.160000e-04,
395,-1.496000e-02,6.240000e-04,
396,-1.760000e-02,2.080000e-04,
397,-1.760000e-02,6.240000e-04,
398,-1.936000e-02,0.000000e+00,
399,-2.024000e-02,4.160000e-04,
400,-2.288000e-02,4.160000e-04,
401,-2.288000e-02,2.080000e-04,
402,-2.464000e-02,6.240000e-04,
403,-2.376000e-02,4.160000e-04,
404,-2.728000e-02,2.080000e-04,
405,-2.728000e-02,4.160000e-04,
406,-2.992000e-02,2.080000e-04,
407,-2.992000e-02,4.160000e-04,
408,-3.168000e-02,8.320000e-04,
409,-3.256000e-02,4.160000e-04,
410,-3.432000e-02,2.080000e-04,
411,-3.432000e-02,0.000000e+00,
412,-3.696000e-02,4.160000e-04,
413,-3.696000e-02,6.240000e-04,
414,-3.872000e-02,0.000000e+00,
415,-3.872000e-02,-2.080000e-04,
416,-4.048000e-02,2.080000e-04,
417,-4.136000e-02,4.160000e-04,
418,-4.312000e-02,8.320000e-04,
419,-4.312000e-02,1.040000e-03,
420,-4.488000e-02,2.080000e-04,
421,-4.488000e-02,0.000000e+00,
422,-4.752000e-02,2.080000e-04,
423,-4.752000e-02,4.160000e-04,
424,-5.016000e-02,4.160000e-04,
425,-4.928000e-02,2.080000e-04,
426,-5.192000e-02,1.040000e-03,
427,-5.104000e-02,1.248000e-03,
428,-5.456000e-02,-2.080000e-04,
429,-5.368000e-02,0.000000e+00,
430,-5.632000e-02,6.240000e-04,
431,-5.544000e-02,8.320000e-04,
432,-5.720000e-02,4.160000e-04,
433,-5.720000e-02,2.080000e-04,
434,-5.896000e-02,2.080000e-04,
435,-5.984000e-02,6.240000e-04,
436,-6.072000e-02,-4.160000e-04,
437,-6.160000e-02,-2.080000e-04,
438,-6.248000e-02,2.080000e-04,
439,-6.248000e-02,4.160000e-04,
440,-6.424000e-02,4.160000e-04,
441,-6.512000e-02,0.000000e+00,
442,-6.600000e-02,2.080000e-04,
443,-6.600000e-02,4.160000e-04,
444,-6.776000e-02,4.160000e-04,
445,-6.688000e-02,6.240000e-04,
446,-6.952000e-02,4.160000e-04,
447,-6.952000e-02,0.000000e+00,
448,-7.040000e-02,8.320000e-04,
449,-7.128000e-02,1.040000e-03,
450,-7.128000e-02,2.080000e-04,
451,-7.216000e-02,6.240000e-04,
452,-7.304000e-02,8.320000e-04,
453,-7.304000e-02,6.240000e-04,
454,-7.392000e-02,4.160000e-04,
455,-7.480000e-02,6.240000e-04,
456,-7.568000e-02,2.080000e-04,
457,-7.480000e-02,0.000000e+00,
458,-7.656000e-02,6.240000e-04,
459,-7.568000e-02,4.160000e-04,
460,-7.656000e-02,4.160000e-04,
461,-7.744000e-02,6.240000e-04,
462,-7.832000e-02,-2.080000e-04,
463,-7.744000e-02,0.000000e+00,
464,-7.832000e-02,4.160000e-04,
465,-7.832000e-02,6.240000e-04,
466,-7.920000e-02,8.320000e-04,
467,-7.920000e-02,4.160000e-04,
468,-8.008000e-02,2.080000e-04,
469,-8.008000e-02,4.160000e-04,
470,-8.008000e-02,2.080000e-04,
471,-8.096000e-02,-2.080000e-04,
472,-8.008000e-02,4.160000e-04,
473,-8.008000e-02,2.080000e-04,
474,-8.096000e-02,2.080000e-04,
475,-8.096000e-02,6.240000e-04,
476,-8.184000e-02,8.320000e-04,
477,-8.096000e-02,4.160000e-04,
478,-8.184000e-02,0.000000e+00,
479,-8.184000e-02,4.160000e-04,
480,-8.184000e-02,4.160000e-04,
481,-8.184000e-02,2.080000e-04,
482,-8.184000e-02,6.240000e-04,
483,-8.184000e-02,4.160000e-04,
484,-8.184000e-02,2.080000e-04,
485,-8.184000e-02,0.000000e+00,
486,-8.184000e-02,2.080000e-04,
487,-8.096000e-02,0.000000e+00,
488,-8.096000e-02,2.080000e-04,
489,-8.184000e-02,0.000000e+00,
490,-8.096000e-02,8.320000e-04,
491,-8.096000e-02,6.240000e-04,
492,-8.096000e-02,-2.080000e-04,
493,-8.096000e-02,-6.240000e-04,
494,-8.096000e-02,-2.080000e-04,
495,-8.008000e-02,0.000000e+00,
496,-8.008000e-02,0.000000e+00,
497,-8.008000e-02,2.080000e-04,
498,-7.920000e-02,8.320000e-04,
499,-7.920000e-02,6.240000e-04,
500,-7.832000e-02,8.320000e-04,
501,-7.832000e-02,6.240000e-04,
502,-7.832000e-02,1.040000e-03,
503,-7.744000e-02,8.320000e-04,
504,-7.744000e-02,6.240000e-04,
505,-7.656000e-02,8.320000e-04,
506,-7.656000e-02,6.240000e-04,
507,-7.568000e-02,4.160000e-04,
508,-7.480000e-02,6.240000e-04,
509,-7.480000e-02,2.080000e-04,
510,-7.392000e-02,2.080000e-04,
511,-7.392000e-02,4.160000e-04,
512,-7.392000e-02,6.240000e-04,
513,-7.304000e-02,4.160000e-04,
514,-7.216000e-02,6.240000e-04,
515,-7.216000e-02,4.160000e-04,
516,-7.128000e-02,6.240000e-04,
517,-7.128000e-02,8.320000e-04,
518,-6.952000e-02,2.080000e-04,
519,-6.952000e-02,2.080000e-04,
520,-6.776000e-02,2.080000e-04,
521,-6.864000e-02,0.000000e+00,
522,-6.600000e-02,8.320000e-04,
523,-6.688000e-02,6.240000e-04,
524,-6.424000e-02,8.320000e-04,
525,-6.424000e-02,4.160000e-04,
526,-6.336000e-02,2.080000e-04,
527,-6.336000e-02,6.240000e-04,
528,-6.248000e-02,4.160000e-04,
529,-6.160000e-02,2.080000e-04,
530,-5.984000e-02,6.240000e-04,
531,-5.984000e-02,2.080000e-04,
532,-5.808000e-02,6.240000e-04,
533,-5.808000e-02,8.320000e-04,
534,-5.632000e-02,0.000000e+00,
535,-5.632000e-02,2.080000e-04,
536,-5.456000e-02,1.040000e-03,
537,-5.368000e-02,6.240000e-04,
538,-5.280000e-02,4.160000e-04,
539,-5.192000e-02,8.320000e-04,
540,-5.016000e-02,2.080000e-04,
541,-5.016000e-02,6.240000e-04,
542,-4.752000e-02,-4.160000e-04,
543,-4.752000e-02,-2.080000e-04,
544,-4.576000e-02,2.080000e-04,
545,-4.664000e-02,4.160000e-04,
546,-4.312000e-02,8.320000e-04,
547,-4.312000e-02,1.040000e-03,
548,-4.136000e-02,0.000000e+00,
549,-4.136000e-02,2.080000e-04,
550,-3.960000e-02,2.080000e-04,
551,-3.872000e-02,0.000000e+00,
552,-3.696000e-02,4.160000e-04,
553,-3.696000e-02,6.240000e-04,
554,-3.520000e-02,1.040000e-03,
555,-3.432000e-02,8.320000e-04,
556,-3.256000e-02,2.080000e-04,
557,-3.256000e-02,0.000000e+00,
558,-2.992000e-02,8.320000e-04,
559,-2.992000e-02,6.240000e-04,
560,-2.728000e-02,1.040000e-03,
561,-2.728000e-02,8.320000e-04,
562,-2.464000e-02,2.080000e-04,
563,-2.552000e-02,0.000000e+00,
564,-2.200000e-02,-4.160000e-04,
565,-2.200000e-02,-2.080000e-04,
566,-2.024000e-02,0.000000e+00,
567,-2.024000e-02,-2.080000e-04,
568,-1.760000e-02,6.240000e-04,
569,-1.848000e-02,6.240000e-04,
570,-1.584000e-02,6.240000e-04,
571,-1.496000e-02,6.240000e-04,
572,-1.320000e-02,2.080000e-04,
573,-1.320000e-02,4.160000e-04,
574,-1.056000e-02,6.240000e-04,
575,-1.056000e-02,1.040000e-03,
576,-7.920000e-03,2.080000e-04,
577,-7.920000e-03,4.160000e-04,
578,-4.400000e-03,4.160000e-04,
579,-5.280000e-03,6.240000e-04,
580,-1.760000e-03,2.080000e-04,
581,-1.760000e-03,-2.080000e-04,
582,8.800000e-04,8.320000e-04,
583,0.000000e+00,1.040000e-03,
584,2.640000e-03,2.080000e-04,
585,2.640000e-03,0.000000e+00,
586,4.400000e-03,0.000000e+00,
587,4.400000e-03,-2.080000e-04,
588,7.920000e-03,1.040000e-03,
589,7.920000e-03,8.320000e-04,
590,1.056000e-02,1.040000e-03,
591,1.144000e-02,8.320000e-04,
592,1.320000e-02,0.000000e+00,
593,1.320000e-02,2.080000e-04,
594,1.584000e-02,4.160000e-04,
595,1.584000e-02,2.080000e-04,
596,1.848000e-02,1.248000e-03,
597,1.848000e-02,8.320000e-04,
598,2.112000e-02,-2.080000e-04,
599,2.112000e-02,-2.080000e-04,
600,2.288000e-02,2.080000e-04,
601,2.376000e-02,0.000000e+00,
602,2.552000e-02,2.080000e-04,
603,2.640000e-02,6.240000e-04,
604,2.816000e-02,6.240000e-04,
605,2.728000e-02,8.320000e-04,
606,3.080000e-02,2.080000e-04,
607,3.080000e-02,0.000000e+00,
608,3.256000e-02,0.000000e+00,
609,3.256000e-02,2.080000e-04,
610,3.520000e-02,6.240000e-04,
611,3.520000e-02,8.320000e-04,
612,3.784000e-02,1.040000e-03,
613,3.784000e-02,8.320000e-04,
614,3.960000e-02,2.080000e-04,
615,4.048000e-02,0.000000e+00,
616,4.224000e-02,-4.160000e-04,
617,4.312000e-02,-2.080000e-04,
618,4.400000e-02,0.000000e+00,
619,4.488000e-02,2.080000e-04,
620,4.664000e-02,-2.080000e-04,
621,4.576000e-02,0.000000e+00,
622,4.840000e-02,0.000000e+00,
623,4.840000e-02,-2.080000e-04,
624,5.104000e-02,8.320000e-04,
625,5.016000e-02,6.240000e-04,
626,5.280000e-02,1.040000e-03,
627,5.192000e-02,8.320000e-04,
628,5.456000e-02,0.000000e+00,
629,5.456000e-02,0.000000e+00,
630,5.632000e-02,0.000000e+00,
631,5.720000e-02,4.160000e-04,
