parte2/esp9/Con_resistenza/Data_common_mode/8.csv

X,CH1,CH2,Start,Increment,
Sequence,Volt,Volt,-1.736000e-05,2.280000e-08,
0,-8.976001e-02,1.509600e-01,
1,-8.448000e-02,1.489200e-01,
2,-8.976001e-02,1.509600e-01,
3,-8.448000e-02,1.489200e-01,
4,-7.920000e-02,1.468800e-01,
5,-7.392000e-02,1.468800e-01,
6,-6.336001e-02,1.428000e-01,
7,-6.336001e-02,1.428000e-01,
8,-5.280000e-02,1.387200e-01,
9,-4.752000e-02,1.387200e-01,
10,-3.696000e-02,1.366800e-01,
11,-3.696000e-02,1.366800e-01,
12,-2.640000e-02,1.326000e-01,
13,-2.112000e-02,1.326000e-01,
14,-1.584000e-02,1.285200e-01,
15,-1.056000e-02,1.305600e-01,
16,0.000000e+00,1.264800e-01,
17,5.280000e-03,1.264800e-01,
18,1.056000e-02,1.224000e-01,
19,1.584000e-02,1.224000e-01,
20,2.640000e-02,1.183200e-01,
21,3.168000e-02,1.183200e-01,
22,3.696000e-02,1.142400e-01,
23,3.696000e-02,1.142400e-01,
24,5.280000e-02,1.122000e-01,
25,5.280000e-02,1.101600e-01,
26,6.336001e-02,1.081200e-01,
27,6.864000e-02,1.060800e-01,
28,7.392000e-02,1.020000e-01,
29,7.920000e-02,1.040400e-01,
30,8.976001e-02,9.792000e-02,
31,8.976001e-02,9.996000e-02,
32,1.003200e-01,9.384000e-02,
33,1.056000e-01,9.384000e-02,
34,1.108800e-01,8.976000e-02,
35,1.161600e-01,8.976000e-02,
36,1.267200e-01,8.568000e-02,
37,1.267200e-01,8.568000e-02,
38,1.372800e-01,8.160000e-02,
39,1.425600e-01,8.160000e-02,
40,1.478400e-01,7.752000e-02,
41,1.531200e-01,7.752000e-02,
42,1.584000e-01,7.344000e-02,
43,1.636800e-01,7.139999e-02,
44,1.742400e-01,6.936000e-02,
45,1.742400e-01,6.732000e-02,
46,1.848000e-01,6.324000e-02,
47,1.900800e-01,6.324000e-02,
48,1.953600e-01,5.916000e-02,
49,2.006400e-01,5.916000e-02,
50,2.059200e-01,5.508000e-02,
51,2.112000e-01,5.508000e-02,
52,2.217600e-01,5.100000e-02,
53,2.217600e-01,4.896000e-02,
54,2.323200e-01,4.488000e-02,
55,2.323200e-01,4.488000e-02,
56,2.428800e-01,3.876000e-02,
57,2.481600e-01,3.876000e-02,
58,2.534400e-01,3.672000e-02,
59,2.587200e-01,3.672000e-02,
60,2.640000e-01,3.060000e-02,
61,2.692800e-01,3.264000e-02,
62,2.745600e-01,2.652000e-02,
63,2.745600e-01,2.652000e-02,
64,2.851200e-01,2.244000e-02,
65,2.904000e-01,2.040000e-02,
66,2.956800e-01,1.632000e-02,
67,3.009600e-01,1.632000e-02,
68,3.062400e-01,1.224000e-02,
69,3.062400e-01,1.224000e-02,
70,3.168000e-01,8.160000e-03,
71,3.168000e-01,8.160000e-03,
72,3.273600e-01,2.040000e-03,
73,3.273600e-01,2.040000e-03,
74,3.379200e-01,-4.080000e-03,
75,3.326400e-01,-2.040000e-03,
76,3.432000e-01,-6.120000e-03,
77,3.484800e-01,-8.160000e-03,
78,3.537600e-01,-1.224000e-02,
79,3.537600e-01,-1.224000e-02,
80,3.643200e-01,-1.632000e-02,
81,3.590400e-01,-1.632000e-02,
82,3.696000e-01,-2.244000e-02,
83,3.748800e-01,-2.244000e-02,
84,3.801600e-01,-2.652000e-02,
85,3.801600e-01,-2.652000e-02,
86,3.854400e-01,-3.060000e-02,
87,3.907200e-01,-3.264000e-02,
88,3.960000e-01,-3.468000e-02,
89,3.960000e-01,-3.672000e-02,
90,4.012800e-01,-4.080000e-02,
91,4.065600e-01,-4.080000e-02,
92,4.118400e-01,-4.488000e-02,
93,4.118400e-01,-4.488000e-02,
94,4.171200e-01,-5.100000e-02,
95,4.171200e-01,-5.100000e-02,
96,4.224000e-01,-5.508000e-02,
97,4.276800e-01,-5.508000e-02,
98,4.329600e-01,-5.916000e-02,
99,4.329600e-01,-5.916000e-02,
100,4.382400e-01,-6.324000e-02,
101,4.382400e-01,-6.324000e-02,
102,4.435200e-01,-6.936000e-02,
103,4.488000e-01,-6.936000e-02,
104,4.488000e-01,-7.344000e-02,
105,4.488000e-01,-7.344000e-02,
106,4.540800e-01,-7.548000e-02,
107,4.593600e-01,-7.752000e-02,
108,4.646400e-01,-8.160000e-02,
109,4.593600e-01,-8.160000e-02,
110,4.646400e-01,-8.568000e-02,
111,4.699200e-01,-8.568000e-02,
112,4.699200e-01,-8.976000e-02,
113,4.699200e-01,-8.976000e-02,
114,4.752000e-01,-9.384000e-02,
115,4.752000e-01,-9.384000e-02,
116,4.804800e-01,-9.792000e-02,
117,4.752000e-01,-9.792000e-02,
118,4.804800e-01,-1.040400e-01,
119,4.857600e-01,-1.020000e-01,
120,4.857600e-01,-1.060800e-01,
121,4.857600e-01,-1.060800e-01,
122,4.857600e-01,-1.101600e-01,
123,4.910400e-01,-1.101600e-01,
124,4.910400e-01,-1.142400e-01,
125,4.910400e-01,-1.122000e-01,
126,4.910400e-01,-1.183200e-01,
127,4.963200e-01,-1.183200e-01,
128,4.910400e-01,-1.203600e-01,
129,4.963200e-01,-1.203600e-01,
130,4.963200e-01,-1.244400e-01,
131,5.016000e-01,-1.244400e-01,
132,4.963200e-01,-1.264800e-01,
133,5.016000e-01,-1.285200e-01,
134,4.963200e-01,-1.326000e-01,
135,5.016000e-01,-1.305600e-01,
136,4.963200e-01,-1.346400e-01,
137,5.016000e-01,-1.346400e-01,
138,5.016000e-01,-1.366800e-01,
139,5.016000e-01,-1.387200e-01,
140,5.016000e-01,-1.407600e-01,
141,4.963200e-01,-1.407600e-01,
142,5.016000e-01,-1.448400e-01,
143,5.016000e-01,-1.448400e-01,
144,5.016000e-01,-1.468800e-01,
145,4.963200e-01,-1.468800e-01,
146,4.963200e-01,-1.489200e-01,
147,5.016000e-01,-1.509600e-01,
148,5.016000e-01,-1.509600e-01,
149,4.963200e-01,-1.530000e-01,
150,4.963200e-01,-1.550400e-01,
151,5.016000e-01,-1.570800e-01,
152,4.963200e-01,-1.570800e-01,
153,4.910400e-01,-1.591200e-01,
154,4.963200e-01,-1.611600e-01,
155,4.910400e-01,-1.591200e-01,
156,4.910400e-01,-1.632000e-01,
157,4.963200e-01,-1.611600e-01,
158,4.910400e-01,-1.652400e-01,
159,4.857600e-01,-1.652400e-01,
160,4.857600e-01,-1.672800e-01,
161,4.857600e-01,-1.652400e-01,
162,4.804800e-01,-1.693200e-01,
163,4.857600e-01,-1.693200e-01,
164,4.752000e-01,-1.713600e-01,
165,4.804800e-01,-1.713600e-01,
166,4.752000e-01,-1.734000e-01,
167,4.752000e-01,-1.734000e-01,
168,4.752000e-01,-1.734000e-01,
169,4.699200e-01,-1.734000e-01,
170,4.699200e-01,-1.754400e-01,
171,4.646400e-01,-1.754400e-01,
172,4.646400e-01,-1.774800e-01,
173,4.593600e-01,-1.774800e-01,
174,4.593600e-01,-1.795200e-01,
175,4.540800e-01,-1.774800e-01,
176,4.488000e-01,-1.774800e-01,
177,4.540800e-01,-1.795200e-01,
178,4.435200e-01,-1.815600e-01,
179,4.488000e-01,-1.815600e-01,
180,4.382400e-01,-1.815600e-01,
181,4.382400e-01,-1.815600e-01,
182,4.329600e-01,-1.836000e-01,
183,4.329600e-01,-1.815600e-01,
184,4.276800e-01,-1.815600e-01,
185,4.224000e-01,-1.836000e-01,
186,4.224000e-01,-1.836000e-01,
187,4.171200e-01,-1.836000e-01,
188,4.118400e-01,-1.836000e-01,
189,4.118400e-01,-1.856400e-01,
190,4.065600e-01,-1.856400e-01,
191,4.012800e-01,-1.836000e-01,
192,4.012800e-01,-1.856400e-01,
193,3.960000e-01,-1.836000e-01,
194,3.907200e-01,-1.836000e-01,
195,3.854400e-01,-1.836000e-01,
196,3.801600e-01,-1.856400e-01,
197,3.854400e-01,-1.836000e-01,
198,3.748800e-01,-1.836000e-01,
199,3.696000e-01,-1.836000e-01,
200,3.643200e-01,-1.836000e-01,
201,3.643200e-01,-1.856400e-01,
202,3.590400e-01,-1.836000e-01,
203,3.537600e-01,-1.836000e-01,
204,3.484800e-01,-1.836000e-01,
205,3.432000e-01,-1.836000e-01,
206,3.379200e-01,-1.836000e-01,
207,3.326400e-01,-1.815600e-01,
208,3.273600e-01,-1.815600e-01,
209,3.273600e-01,-1.836000e-01,
210,3.168000e-01,-1.815600e-01,
211,3.168000e-01,-1.815600e-01,
212,3.062400e-01,-1.815600e-01,
213,3.062400e-01,-1.795200e-01,
214,3.009600e-01,-1.795200e-01,
215,2.956800e-01,-1.795200e-01,
216,2.904000e-01,-1.774800e-01,
217,2.851200e-01,-1.795200e-01,
218,2.798400e-01,-1.774800e-01,
219,2.745600e-01,-1.754400e-01,
220,2.692800e-01,-1.754400e-01,
221,2.640000e-01,-1.754400e-01,
222,2.587200e-01,-1.734000e-01,
223,2.534400e-01,-1.734000e-01,
224,2.481600e-01,-1.713600e-01,
225,2.428800e-01,-1.713600e-01,
226,2.323200e-01,-1.713600e-01,
227,2.323200e-01,-1.693200e-01,
228,2.217600e-01,-1.693200e-01,
229,2.164800e-01,-1.672800e-01,
230,2.112000e-01,-1.652400e-01,
231,2.059200e-01,-1.652400e-01,
232,2.006400e-01,-1.652400e-01,
233,1.953600e-01,-1.652400e-01,
234,1.900800e-01,-1.632000e-01,
235,1.848000e-01,-1.632000e-01,
236,1.795200e-01,-1.611600e-01,
237,1.742400e-01,-1.591200e-01,
238,1.636800e-01,-1.570800e-01,
239,1.636800e-01,-1.591200e-01,
240,1.531200e-01,-1.550400e-01,
241,1.478400e-01,-1.530000e-01,
242,1.425600e-01,-1.530000e-01,
243,1.372800e-01,-1.530000e-01,
244,1.267200e-01,-1.489200e-01,
245,1.214400e-01,-1.489200e-01,
246,1.161600e-01,-1.448400e-01,
247,1.108800e-01,-1.448400e-01,
248,1.056000e-01,-1.428000e-01,
249,1.003200e-01,-1.448400e-01,
250,8.976001e-02,-1.407600e-01,
251,8.976001e-02,-1.407600e-01,
252,7.920000e-02,-1.366800e-01,
253,7.392000e-02,-1.366800e-01,
254,6.864000e-02,-1.346400e-01,
255,6.336001e-02,-1.346400e-01,
256,5.280000e-02,-1.305600e-01,
257,5.280000e-02,-1.305600e-01,
258,4.224000e-02,-1.285200e-01,
259,3.696000e-02,-1.264800e-01,
260,2.640000e-02,-1.244400e-01,
261,2.640000e-02,-1.224000e-01,
262,1.584000e-02,-1.203600e-01,
263,1.056000e-02,-1.203600e-01,
264,0.000000e+00,-1.162800e-01,
265,0.000000e+00,-1.162800e-01,
266,-1.056000e-02,-1.142400e-01,
267,-1.056000e-02,-1.122000e-01,
268,-2.112000e-02,-1.101600e-01,
269,-2.640000e-02,-1.081200e-01,
270,-3.696000e-02,-1.040400e-01,
271,-3.696000e-02,-1.040400e-01,
272,-4.752000e-02,-1.020000e-01,
273,-5.280000e-02,-9.996000e-02,
274,-6.336001e-02,-9.792000e-02,
275,-6.864000e-02,-9.792000e-02,
276,-7.392000e-02,-9.180000e-02,
277,-7.920000e-02,-9.384000e-02,
278,-8.448000e-02,-8.976000e-02,
279,-8.976001e-02,-8.772000e-02,
280,-1.003200e-01,-8.568000e-02,
281,-1.003200e-01,-8.363999e-02,
282,-1.108800e-01,-7.956000e-02,
283,-1.161600e-01,-8.160000e-02,
284,-1.214400e-01,-7.548000e-02,
285,-1.267200e-01,-7.752000e-02,
286,-1.372800e-01,-7.344000e-02,
287,-1.372800e-01,-7.139999e-02,
288,-1.478400e-01,-6.732000e-02,
289,-1.531200e-01,-6.732000e-02,
290,-1.584000e-01,-6.324000e-02,
291,-1.636800e-01,-6.324000e-02,
292,-1.742400e-01,-5.916000e-02,
293,-1.742400e-01,-5.712000e-02,
294,-1.848000e-01,-5.304000e-02,
295,-1.900800e-01,-5.508000e-02,
296,-1.953600e-01,-5.100000e-02,
297,-2.006400e-01,-4.896000e-02,
298,-2.059200e-01,-4.488000e-02,
299,-2.112000e-01,-4.488000e-02,
300,-2.164800e-01,-4.080000e-02,
301,-2.217600e-01,-3.876000e-02,
302,-2.270400e-01,-3.468000e-02,
303,-2.323200e-01,-3.468000e-02,
304,-2.428800e-01,-3.060000e-02,
305,-2.428800e-01,-3.060000e-02,
306,-2.534400e-01,-2.448000e-02,
307,-2.587200e-01,-2.652000e-02,
308,-2.640000e-01,-2.040000e-02,
309,-2.692800e-01,-2.040000e-02,
310,-2.745600e-01,-1.632000e-02,
311,-2.745600e-01,-1.632000e-02,
312,-2.851200e-01,-1.224000e-02,
313,-2.851200e-01,-1.224000e-02,
314,-2.956800e-01,-6.120000e-03,
315,-3.009600e-01,-6.120000e-03,
316,-3.062400e-01,0.000000e+00,
317,-3.062400e-01,0.000000e+00,
318,-3.168000e-01,2.040000e-03,
319,-3.220800e-01,4.080000e-03,
320,-3.273600e-01,8.160000e-03,
321,-3.326400e-01,8.160000e-03,
322,-3.379200e-01,1.224000e-02,
323,-3.379200e-01,1.428000e-02,
324,-3.432000e-01,1.836000e-02,
325,-3.484800e-01,1.632000e-02,
326,-3.537600e-01,2.040000e-02,
327,-3.537600e-01,2.244000e-02,
328,-3.643200e-01,2.652000e-02,
329,-3.643200e-01,2.856000e-02,
330,-3.696000e-01,3.264000e-02,
331,-3.748800e-01,3.060000e-02,
332,-3.801600e-01,3.672000e-02,
333,-3.801600e-01,3.672000e-02,
334,-3.854400e-01,4.080000e-02,
335,-3.907200e-01,4.080000e-02,
336,-3.960000e-01,4.488000e-02,
337,-4.012800e-01,4.488000e-02,
338,-4.065600e-01,4.896000e-02,
339,-4.065600e-01,5.100000e-02,
340,-4.118400e-01,5.508000e-02,
341,-4.171200e-01,5.508000e-02,
342,-4.171200e-01,5.916000e-02,
343,-4.224000e-01,6.120000e-02,
344,-4.224000e-01,6.324000e-02,
345,-4.276800e-01,6.528000e-02,
346,-4.329600e-01,6.732000e-02,
347,-4.329600e-01,6.936000e-02,
348,-4.382400e-01,7.344000e-02,
349,-4.382400e-01,7.344000e-02,
350,-4.435200e-01,7.752000e-02,
351,-4.488000e-01,7.752000e-02,
352,-4.488000e-01,8.160000e-02,
353,-4.540800e-01,8.363999e-02,
354,-4.540800e-01,8.772000e-02,
355,-4.593600e-01,8.568000e-02,
356,-4.593600e-01,8.976000e-02,
357,-4.593600e-01,9.180000e-02,
358,-4.646400e-01,9.384000e-02,
359,-4.699200e-01,9.587999e-02,
360,-4.699200e-01,9.996000e-02,
361,-4.752000e-01,9.996000e-02,
362,-4.699200e-01,1.040400e-01,
363,-4.752000e-01,1.040400e-01,
364,-4.804800e-01,1.081200e-01,
365,-4.752000e-01,1.060800e-01,
366,-4.804800e-01,1.101600e-01,
367,-4.857600e-01,1.122000e-01,
368,-4.857600e-01,1.162800e-01,
369,-4.804800e-01,1.162800e-01,
370,-4.910400e-01,1.203600e-01,
371,-4.857600e-01,1.203600e-01,
372,-4.910400e-01,1.224000e-01,
373,-4.910400e-01,1.244400e-01,
374,-4.910400e-01,1.264800e-01,
375,-4.963200e-01,1.285200e-01,
376,-4.963200e-01,1.305600e-01,
377,-4.910400e-01,1.305600e-01,
378,-4.963200e-01,1.346400e-01,
379,-4.963200e-01,1.346400e-01,
380,-4.963200e-01,1.366800e-01,
381,-4.963200e-01,1.366800e-01,
382,-4.963200e-01,1.407600e-01,
383,-5.016000e-01,1.407600e-01,
384,-5.016000e-01,1.428000e-01,
385,-4.963200e-01,1.428000e-01,
386,-5.016000e-01,1.468800e-01,
387,-4.963200e-01,1.468800e-01,
388,-4.963200e-01,1.489200e-01,
389,-5.016000e-01,1.509600e-01,
390,-4.963200e-01,1.530000e-01,
391,-5.016000e-01,1.550400e-01,
392,-5.016000e-01,1.550400e-01,
393,-4.963200e-01,1.570800e-01,
394,-5.016000e-01,1.591200e-01,
395,-4.963200e-01,1.611600e-01,
396,-4.963200e-01,1.611600e-01,
397,-5.016000e-01,1.611600e-01,
398,-4.963200e-01,1.652400e-01,
399,-4.910400e-01,1.632000e-01,
400,-4.910400e-01,1.672800e-01,
401,-4.963200e-01,1.672800e-01,
402,-4.963200e-01,1.693200e-01,
403,-4.910400e-01,1.693200e-01,
404,-4.910400e-01,1.713600e-01,
405,-4.857600e-01,1.734000e-01,
406,-4.857600e-01,1.734000e-01,
407,-4.910400e-01,1.734000e-01,
408,-4.857600e-01,1.754400e-01,
409,-4.804800e-01,1.754400e-01,
410,-4.804800e-01,1.774800e-01,
411,-4.804800e-01,1.774800e-01,
412,-4.752000e-01,1.795200e-01,
413,-4.804800e-01,1.795200e-01,
414,-4.752000e-01,1.815600e-01,
415,-4.699200e-01,1.815600e-01,
416,-4.699200e-01,1.836000e-01,
417,-4.646400e-01,1.815600e-01,
418,-4.646400e-01,1.856400e-01,
419,-4.593600e-01,1.856400e-01,
420,-4.593600e-01,1.856400e-01,
421,-4.540800e-01,1.856400e-01,
422,-4.540800e-01,1.876800e-01,
423,-4.540800e-01,1.876800e-01,
424,-4.488000e-01,1.897200e-01,
425,-4.435200e-01,1.876800e-01,
426,-4.435200e-01,1.897200e-01,
427,-4.382400e-01,1.897200e-01,
428,-4.382400e-01,1.897200e-01,
429,-4.329600e-01,1.897200e-01,
430,-4.329600e-01,1.917600e-01,
431,-4.276800e-01,1.917600e-01,
432,-4.224000e-01,1.917600e-01,
433,-4.224000e-01,1.917600e-01,
434,-4.171200e-01,1.917600e-01,
435,-4.171200e-01,1.917600e-01,
436,-4.118400e-01,1.917600e-01,
437,-4.065600e-01,1.917600e-01,
438,-4.065600e-01,1.938000e-01,
439,-4.012800e-01,1.938000e-01,
440,-3.960000e-01,1.938000e-01,
441,-3.907200e-01,1.938000e-01,
442,-3.854400e-01,1.938000e-01,
443,-3.854400e-01,1.938000e-01,
444,-3.801600e-01,1.938000e-01,
445,-3.748800e-01,1.938000e-01,
446,-3.696000e-01,1.938000e-01,
447,-3.643200e-01,1.938000e-01,
448,-3.590400e-01,1.917600e-01,
449,-3.643200e-01,1.938000e-01,
450,-3.484800e-01,1.938000e-01,
451,-3.537600e-01,1.938000e-01,
452,-3.432000e-01,1.917600e-01,
453,-3.379200e-01,1.917600e-01,
454,-3.326400e-01,1.917600e-01,
455,-3.326400e-01,1.917600e-01,
456,-3.273600e-01,1.897200e-01,
457,-3.220800e-01,1.897200e-01,
458,-3.168000e-01,1.897200e-01,
459,-3.115200e-01,1.897200e-01,
460,-3.009600e-01,1.876800e-01,
461,-3.062400e-01,1.897200e-01,
462,-2.904000e-01,1.876800e-01,
463,-2.904000e-01,1.897200e-01,
464,-2.798400e-01,1.856400e-01,
465,-2.798400e-01,1.876800e-01,
466,-2.745600e-01,1.856400e-01,
467,-2.692800e-01,1.836000e-01,
468,-2.640000e-01,1.836000e-01,
469,-2.587200e-01,1.836000e-01,
470,-2.481600e-01,1.836000e-01,
471,-2.481600e-01,1.815600e-01,
472,-2.376000e-01,1.815600e-01,
473,-2.376000e-01,1.795200e-01,
474,-2.270400e-01,1.795200e-01,
475,-2.217600e-01,1.795200e-01,
476,-2.164800e-01,1.774800e-01,
477,-2.112000e-01,1.754400e-01,
478,-2.059200e-01,1.754400e-01,
479,-2.006400e-01,1.734000e-01,
480,-1.953600e-01,1.734000e-01,
481,-1.900800e-01,1.713600e-01,
482,-1.795200e-01,1.713600e-01,
483,-1.795200e-01,1.693200e-01,
484,-1.689600e-01,1.672800e-01,
485,-1.689600e-01,1.672800e-01,
486,-1.584000e-01,1.652400e-01,
487,-1.531200e-01,1.652400e-01,
488,-1.478400e-01,1.611600e-01,
489,-1.425600e-01,1.632000e-01,
490,-1.320000e-01,1.591200e-01,
491,-1.320000e-01,1.611600e-01,
492,-1.214400e-01,1.570800e-01,
493,-1.161600e-01,1.591200e-01,
494,-1.108800e-01,1.550400e-01,
495,-1.056000e-01,1.530000e-01,
496,-9.504000e-02,1.530000e-01,
497,-9.504000e-02,1.509600e-01,
498,-8.448000e-02,1.489200e-01,
499,-7.920000e-02,1.468800e-01,
500,-7.392000e-02,1.448400e-01,
501,-6.864000e-02,1.448400e-01,
502,-5.808000e-02,1.428000e-01,
503,-5.808000e-02,1.407600e-01,
504,-4.752000e-02,1.387200e-01,
505,-4.224000e-02,1.387200e-01,
506,-3.168000e-02,1.346400e-01,
507,-3.168000e-02,1.346400e-01,
508,-2.112000e-02,1.326000e-01,
509,-1.584000e-02,1.326000e-01,
510,-5.280000e-03,1.285200e-01,
511,-1.056000e-02,1.264800e-01,
512,5.280000e-03,1.244400e-01,
513,1.056000e-02,1.244400e-01,
514,1.584000e-02,1.203600e-01,
515,2.112000e-02,1.203600e-01,
516,3.168000e-02,1.183200e-01,
517,3.696000e-02,1.162800e-01,
518,4.224000e-02,1.142400e-01,
519,4.752000e-02,1.122000e-01,
520,5.808000e-02,1.101600e-01,
521,5.808000e-02,1.081200e-01,
522,6.864000e-02,1.040400e-01,
523,7.392000e-02,1.060800e-01,
524,7.920000e-02,1.020000e-01,
525,8.448000e-02,9.996000e-02,
526,9.504000e-02,9.587999e-02,
527,1.003200e-01,9.587999e-02,
528,1.056000e-01,9.180000e-02,
529,1.108800e-01,9.180000e-02,
530,1.161600e-01,8.772000e-02,
531,1.214400e-01,8.772000e-02,
532,1.320000e-01,8.363999e-02,
533,1.372800e-01,8.363999e-02,
534,1.425600e-01,7.752000e-02,
535,1.478400e-01,7.956000e-02,
536,1.531200e-01,7.548000e-02,
537,1.584000e-01,7.548000e-02,
538,1.689600e-01,6.936000e-02,
539,1.689600e-01,7.139999e-02,
540,1.795200e-01,6.528000e-02,
541,1.795200e-01,6.732000e-02,
542,1.900800e-01,6.120000e-02,
543,1.953600e-01,6.120000e-02,
544,2.006400e-01,5.712000e-02,
545,2.059200e-01,5.712000e-02,
546,2.164800e-01,5.304000e-02,
547,2.164800e-01,5.100000e-02,
548,2.270400e-01,4.692000e-02,
549,2.270400e-01,4.692000e-02,
550,2.376000e-01,4.284000e-02,
551,2.376000e-01,4.080000e-02,
552,2.481600e-01,3.876000e-02,
553,2.534400e-01,3.672000e-02,
554,2.587200e-01,3.264000e-02,
555,2.587200e-01,3.264000e-02,
556,2.692800e-01,2.856000e-02,
557,2.745600e-01,2.856000e-02,
558,2.798400e-01,2.448000e-02,
559,2.851200e-01,2.244000e-02,
560,2.904000e-01,2.040000e-02,
561,2.904000e-01,1.836000e-02,
562,3.009600e-01,1.428000e-02,
563,3.009600e-01,1.428000e-02,
564,3.115200e-01,1.020000e-02,
565,3.115200e-01,8.160000e-03,
566,3.220800e-01,4.080000e-03,
567,3.220800e-01,4.080000e-03,
568,3.273600e-01,0.000000e+00,
569,3.326400e-01,0.000000e+00,
570,3.379200e-01,-4.080000e-03,
571,3.432000e-01,-4.080000e-03,
572,3.484800e-01,-8.160000e-03,
573,3.537600e-01,-8.160000e-03,
574,3.590400e-01,-1.428000e-02,
575,3.590400e-01,-1.428000e-02,
576,3.643200e-01,-1.836000e-02,
577,3.696000e-01,-2.040000e-02,
578,3.748800e-01,-2.448000e-02,
579,3.801600e-01,-2.448000e-02,
580,3.854400e-01,-2.856000e-02,
581,3.854400e-01,-3.060000e-02,
582,3.907200e-01,-3.264000e-02,
583,3.960000e-01,-3.468000e-02,
584,4.012800e-01,-3.876000e-02,
585,4.012800e-01,-3.672000e-02,
586,4.065600e-01,-4.284000e-02,
587,4.118400e-01,-4.284000e-02,
588,4.118400e-01,-4.896000e-02,
589,4.171200e-01,-4.692000e-02,
590,4.224000e-01,-5.304000e-02,
591,4.224000e-01,-5.100000e-02,
592,4.276800e-01,-5.712000e-02,
593,4.329600e-01,-5.916000e-02,
594,4.329600e-01,-6.120000e-02,
595,4.329600e-01,-6.120000e-02,
596,4.435200e-01,-6.528000e-02,
597,4.435200e-01,-6.732000e-02,
598,4.435200e-01,-6.936000e-02,
599,4.488000e-01,-7.139999e-02,
600,4.540800e-01,-7.548000e-02,
601,4.540800e-01,-7.548000e-02,
602,4.540800e-01,-7.956000e-02,
603,4.593600e-01,-7.752000e-02,
604,4.646400e-01,-8.363999e-02,
605,4.646400e-01,-8.568000e-02,
606,4.646400e-01,-8.772000e-02,
607,4.699200e-01,-8.568000e-02,
608,4.699200e-01,-9.180000e-02,
609,4.752000e-01,-9.180000e-02,
610,4.752000e-01,-9.587999e-02,
611,4.804800e-01,-9.587999e-02,
612,4.804800e-01,-9.996000e-02,
613,4.804800e-01,-9.996000e-02,
614,4.857600e-01,-1.020000e-01,
615,4.857600e-01,-1.040400e-01,
616,4.857600e-01,-1.081200e-01,
617,4.857600e-01,-1.081200e-01,
618,4.857600e-01,-1.101600e-01,
619,4.910400e-01,-1.122000e-01,
620,4.910400e-01,-1.162800e-01,
621,4.963200e-01,-1.162800e-01,
622,4.910400e-01,-1.183200e-01,
623,4.963200e-01,-1.183200e-01,
624,4.963200e-01,-1.224000e-01,
625,5.016000e-01,-1.224000e-01,
626,4.963200e-01,-1.264800e-01,
627,5.016000e-01,-1.264800e-01,
