parte2/esp9/Con_sorgente/Data_common_mode/11/5.csv

X,CH1,CH2,Start,Increment,
Sequence,Volt,Volt,2.290200e-04,1.000000e-08,
0,6.880000e-01,5.600000e-03,
1,6.880000e-01,5.600000e-03,
2,6.880000e-01,5.600000e-03,
3,6.880000e-01,5.600000e-03,
4,6.800000e-01,5.600000e-03,
5,6.800000e-01,4.800000e-03,
6,6.720001e-01,4.800000e-03,
7,6.640000e-01,4.800000e-03,
8,6.640000e-01,4.800000e-03,
9,6.560000e-01,4.800000e-03,
10,6.480000e-01,4.800000e-03,
11,6.480000e-01,4.800000e-03,
12,6.400000e-01,4.800000e-03,
13,6.320000e-01,4.800000e-03,
14,6.240000e-01,4.800000e-03,
15,6.240000e-01,4.000000e-03,
16,6.160001e-01,4.000000e-03,
17,6.160001e-01,4.000000e-03,
18,6.080000e-01,3.200000e-03,
19,6.000000e-01,4.000000e-03,
20,5.920000e-01,3.200000e-03,
21,5.840001e-01,4.000000e-03,
22,5.760000e-01,3.200000e-03,
23,5.760000e-01,4.000000e-03,
24,5.680000e-01,3.200000e-03,
25,5.600000e-01,4.000000e-03,
26,5.520000e-01,3.200000e-03,
27,5.440000e-01,3.200000e-03,
28,5.360000e-01,3.200000e-03,
29,5.280000e-01,3.200000e-03,
30,5.200000e-01,2.400000e-03,
31,5.200000e-01,3.200000e-03,
32,5.120000e-01,2.400000e-03,
33,5.040000e-01,2.400000e-03,
34,4.960000e-01,2.400000e-03,
35,4.880000e-01,2.400000e-03,
36,4.800000e-01,2.400000e-03,
37,4.720000e-01,2.400000e-03,
38,4.640000e-01,1.600000e-03,
39,4.560000e-01,2.400000e-03,
40,4.480000e-01,1.600000e-03,
41,4.400000e-01,1.600000e-03,
42,4.320000e-01,8.000000e-04,
43,4.240000e-01,8.000000e-04,
44,4.160000e-01,8.000000e-04,
45,4.080000e-01,8.000000e-04,
46,4.000000e-01,8.000000e-04,
47,3.920000e-01,8.000000e-04,
48,3.840000e-01,8.000000e-04,
49,3.760000e-01,1.600000e-03,
50,3.680000e-01,8.000000e-04,
51,3.600000e-01,8.000000e-04,
52,3.440000e-01,8.000000e-04,
53,3.440000e-01,8.000000e-04,
54,3.280000e-01,0.000000e+00,
55,3.200000e-01,0.000000e+00,
56,3.120000e-01,0.000000e+00,
57,3.040000e-01,-8.000000e-04,
58,2.960000e-01,-8.000000e-04,
59,2.880000e-01,-8.000000e-04,
60,2.720000e-01,-8.000000e-04,
61,2.720000e-01,-8.000000e-04,
62,2.560000e-01,-8.000000e-04,
63,2.560000e-01,-8.000000e-04,
64,2.400000e-01,-8.000000e-04,
65,2.320000e-01,-8.000000e-04,
66,2.240000e-01,-8.000000e-04,
67,2.160000e-01,-8.000000e-04,
68,2.000000e-01,-8.000000e-04,
69,2.000000e-01,-8.000000e-04,
70,1.840000e-01,-8.000000e-04,
71,1.760000e-01,-1.600000e-03,
72,1.680000e-01,-1.600000e-03,
73,1.600000e-01,-1.600000e-03,
74,1.440000e-01,-1.600000e-03,
75,1.440000e-01,-1.600000e-03,
76,1.280000e-01,-1.600000e-03,
77,1.200000e-01,-1.600000e-03,
78,1.040000e-01,-1.600000e-03,
79,1.040000e-01,-1.600000e-03,
80,8.800001e-02,-1.600000e-03,
81,8.800001e-02,-1.600000e-03,
82,6.400000e-02,-2.400000e-03,
83,6.400000e-02,-2.400000e-03,
84,4.800000e-02,-3.200000e-03,
85,4.800000e-02,-2.400000e-03,
86,3.200000e-02,-2.400000e-03,
87,2.400000e-02,-3.200000e-03,
88,8.000000e-03,-2.400000e-03,
89,8.000000e-03,-3.200000e-03,
90,-8.000000e-03,-3.200000e-03,
91,-8.000000e-03,-2.400000e-03,
92,-3.200000e-02,-3.200000e-03,
93,-3.200000e-02,-3.200000e-03,
94,-4.800000e-02,-3.200000e-03,
95,-5.600000e-02,-3.200000e-03,
96,-7.200000e-02,-3.200000e-03,
97,-7.200000e-02,-3.200000e-03,
98,-8.800001e-02,-4.000000e-03,
99,-9.600001e-02,-3.200000e-03,
100,-1.120000e-01,-3.200000e-03,
101,-1.120000e-01,-3.200000e-03,
102,-1.280000e-01,-4.000000e-03,
103,-1.280000e-01,-4.800000e-03,
104,-1.440000e-01,-4.000000e-03,
105,-1.520000e-01,-3.200000e-03,
106,-1.600000e-01,-4.800000e-03,
107,-1.680000e-01,-4.000000e-03,
108,-1.840000e-01,-4.800000e-03,
109,-1.920000e-01,-4.000000e-03,
110,-2.000000e-01,-4.800000e-03,
111,-2.080000e-01,-4.800000e-03,
112,-2.160000e-01,-4.800000e-03,
113,-2.240000e-01,-4.800000e-03,
114,-2.400000e-01,-4.800000e-03,
115,-2.400000e-01,-4.800000e-03,
116,-2.560000e-01,-4.800000e-03,
117,-2.640000e-01,-4.800000e-03,
118,-2.720000e-01,-4.800000e-03,
119,-2.800000e-01,-4.800000e-03,
120,-2.960000e-01,-4.800000e-03,
121,-3.040000e-01,-4.800000e-03,
122,-3.120000e-01,-4.800000e-03,
123,-3.120000e-01,-4.800000e-03,
124,-3.280000e-01,-5.600000e-03,
125,-3.360000e-01,-5.600000e-03,
126,-3.440000e-01,-5.600000e-03,
127,-3.520000e-01,-5.600000e-03,
128,-3.600000e-01,-5.600000e-03,
129,-3.680000e-01,-5.600000e-03,
130,-3.760000e-01,-5.600000e-03,
131,-3.840000e-01,-5.600000e-03,
132,-3.920000e-01,-6.400000e-03,
133,-4.000000e-01,-5.600000e-03,
134,-4.080000e-01,-5.600000e-03,
135,-4.160000e-01,-5.600000e-03,
136,-4.320000e-01,-5.600000e-03,
137,-4.320000e-01,-5.600000e-03,
138,-4.400000e-01,-5.600000e-03,
139,-4.480000e-01,-5.600000e-03,
140,-4.640000e-01,-5.600000e-03,
141,-4.640000e-01,-5.600000e-03,
142,-4.720000e-01,-5.600000e-03,
143,-4.800000e-01,-5.600000e-03,
144,-4.880000e-01,-6.400000e-03,
145,-4.960000e-01,-5.600000e-03,
146,-5.040000e-01,-5.600000e-03,
147,-5.120000e-01,-6.400000e-03,
148,-5.200000e-01,-6.400000e-03,
149,-5.280000e-01,-5.600000e-03,
150,-5.360000e-01,-6.400000e-03,
151,-5.440000e-01,-6.400000e-03,
152,-5.440000e-01,-6.400000e-03,
153,-5.520000e-01,-7.200000e-03,
154,-5.600000e-01,-6.400000e-03,
155,-5.680000e-01,-6.400000e-03,
156,-5.760000e-01,-6.400000e-03,
157,-5.760000e-01,-6.400000e-03,
158,-5.840001e-01,-6.400000e-03,
159,-5.920000e-01,-6.400000e-03,
160,-6.000000e-01,-6.400000e-03,
161,-6.080000e-01,-6.400000e-03,
162,-6.080000e-01,-6.400000e-03,
163,-6.160001e-01,-6.400000e-03,
164,-6.240000e-01,-6.400000e-03,
165,-6.320000e-01,-6.400000e-03,
166,-6.320000e-01,-6.400000e-03,
167,-6.400000e-01,-6.400000e-03,
168,-6.480000e-01,-6.400000e-03,
169,-6.480000e-01,-7.200000e-03,
170,-6.560000e-01,-7.200000e-03,
171,-6.560000e-01,-6.400000e-03,
172,-6.640000e-01,-7.200000e-03,
173,-6.720001e-01,-6.400000e-03,
174,-6.720001e-01,-6.400000e-03,
175,-6.800000e-01,-6.400000e-03,
176,-6.800000e-01,-6.400000e-03,
177,-6.880000e-01,-6.400000e-03,
178,-6.880000e-01,-6.400000e-03,
179,-6.960000e-01,-7.200000e-03,
180,-6.960000e-01,-7.200000e-03,
181,-7.040001e-01,-6.400000e-03,
182,-7.040001e-01,-6.400000e-03,
183,-7.120000e-01,-6.400000e-03,
184,-7.120000e-01,-6.400000e-03,
185,-7.200000e-01,-6.400000e-03,
186,-7.200000e-01,-6.400000e-03,
187,-7.280000e-01,-6.400000e-03,
188,-7.280000e-01,-6.400000e-03,
189,-7.280000e-01,-6.400000e-03,
190,-7.280000e-01,-5.600000e-03,
191,-7.360001e-01,-6.400000e-03,
192,-7.360001e-01,-6.400000e-03,
193,-7.440000e-01,-6.400000e-03,
194,-7.440000e-01,-6.400000e-03,
195,-7.440000e-01,-6.400000e-03,
196,-7.440000e-01,-6.400000e-03,
197,-7.440000e-01,-6.400000e-03,
198,-7.520000e-01,-6.400000e-03,
199,-7.440000e-01,-5.600000e-03,
200,-7.520000e-01,-5.600000e-03,
201,-7.600001e-01,-6.400000e-03,
202,-7.600001e-01,-6.400000e-03,
203,-7.520000e-01,-6.400000e-03,
204,-7.600001e-01,-6.400000e-03,
205,-7.600001e-01,-6.400000e-03,
206,-7.600001e-01,-6.400000e-03,
207,-7.680001e-01,-5.600000e-03,
208,-7.600001e-01,-5.600000e-03,
209,-7.680001e-01,-5.600000e-03,
210,-7.680001e-01,-5.600000e-03,
211,-7.600001e-01,-6.400000e-03,
212,-7.680001e-01,-6.400000e-03,
213,-7.600001e-01,-6.400000e-03,
214,-7.680001e-01,-6.400000e-03,
215,-7.600001e-01,-6.400000e-03,
216,-7.600001e-01,-5.600000e-03,
217,-7.680001e-01,-5.600000e-03,
218,-7.600001e-01,-5.600000e-03,
219,-7.600001e-01,-5.600000e-03,
220,-7.600001e-01,-5.600000e-03,
221,-7.520000e-01,-4.800000e-03,
222,-7.600001e-01,-5.600000e-03,
223,-7.520000e-01,-4.800000e-03,
224,-7.520000e-01,-4.800000e-03,
225,-7.600001e-01,-5.600000e-03,
226,-7.520000e-01,-5.600000e-03,
227,-7.520000e-01,-4.800000e-03,
228,-7.520000e-01,-4.800000e-03,
229,-7.440000e-01,-5.600000e-03,
230,-7.440000e-01,-5.600000e-03,
231,-7.440000e-01,-4.800000e-03,
232,-7.440000e-01,-5.600000e-03,
233,-7.360001e-01,-4.800000e-03,
234,-7.360001e-01,-4.800000e-03,
235,-7.360001e-01,-4.800000e-03,
236,-7.280000e-01,-4.000000e-03,
237,-7.360001e-01,-4.800000e-03,
238,-7.200000e-01,-4.800000e-03,
239,-7.280000e-01,-4.800000e-03,
240,-7.200000e-01,-4.000000e-03,
241,-7.120000e-01,-4.800000e-03,
242,-7.120000e-01,-4.800000e-03,
243,-7.040001e-01,-4.000000e-03,
244,-7.040001e-01,-4.000000e-03,
245,-7.040001e-01,-4.000000e-03,
246,-6.960000e-01,-4.800000e-03,
247,-6.960000e-01,-4.000000e-03,
248,-6.880000e-01,-4.000000e-03,
249,-6.880000e-01,-4.000000e-03,
250,-6.800000e-01,-3.200000e-03,
251,-6.800000e-01,-3.200000e-03,
252,-6.720001e-01,-4.000000e-03,
253,-6.720001e-01,-4.000000e-03,
254,-6.640000e-01,-4.000000e-03,
255,-6.560000e-01,-3.200000e-03,
256,-6.560000e-01,-3.200000e-03,
257,-6.480000e-01,-3.200000e-03,
258,-6.400000e-01,-3.200000e-03,
259,-6.400000e-01,-3.200000e-03,
260,-6.320000e-01,-2.400000e-03,
261,-6.240000e-01,-2.400000e-03,
262,-6.240000e-01,-2.400000e-03,
263,-6.160001e-01,-2.400000e-03,
264,-6.080000e-01,-2.400000e-03,
265,-6.080000e-01,-2.400000e-03,
266,-6.000000e-01,-2.400000e-03,
267,-5.920000e-01,-2.400000e-03,
268,-5.840001e-01,-2.400000e-03,
269,-5.840001e-01,-2.400000e-03,
270,-5.760000e-01,-2.400000e-03,
271,-5.680000e-01,-3.200000e-03,
272,-5.600000e-01,-2.400000e-03,
273,-5.520000e-01,-3.200000e-03,
274,-5.440000e-01,-2.400000e-03,
275,-5.360000e-01,-2.400000e-03,
276,-5.360000e-01,-2.400000e-03,
277,-5.280000e-01,-2.400000e-03,
278,-5.200000e-01,-1.600000e-03,
279,-5.120000e-01,-1.600000e-03,
280,-5.040000e-01,-1.600000e-03,
281,-4.960000e-01,-1.600000e-03,
282,-4.880000e-01,-8.000000e-04,
283,-4.880000e-01,-8.000000e-04,
284,-4.720000e-01,-8.000000e-04,
285,-4.720000e-01,-8.000000e-04,
286,-4.560000e-01,-8.000000e-04,
287,-4.560000e-01,-8.000000e-04,
288,-4.400000e-01,-8.000000e-04,
289,-4.320000e-01,-8.000000e-04,
290,-4.240000e-01,0.000000e+00,
291,-4.240000e-01,-8.000000e-04,
292,-4.080000e-01,-8.000000e-04,
293,-4.080000e-01,0.000000e+00,
294,-3.920000e-01,0.000000e+00,
295,-3.920000e-01,0.000000e+00,
296,-3.760000e-01,0.000000e+00,
297,-3.680000e-01,0.000000e+00,
298,-3.600000e-01,0.000000e+00,
299,-3.520000e-01,0.000000e+00,
300,-3.440000e-01,0.000000e+00,
301,-3.360000e-01,0.000000e+00,
302,-3.200000e-01,8.000000e-04,
303,-3.200000e-01,8.000000e-04,
304,-3.040000e-01,8.000000e-04,
305,-2.960000e-01,8.000000e-04,
306,-2.880000e-01,1.600000e-03,
307,-2.800000e-01,1.600000e-03,
308,-2.720000e-01,1.600000e-03,
309,-2.640000e-01,1.600000e-03,
310,-2.560000e-01,8.000000e-04,
311,-2.480000e-01,1.600000e-03,
312,-2.320000e-01,8.000000e-04,
313,-2.240000e-01,1.600000e-03,
314,-2.160000e-01,1.600000e-03,
315,-2.080000e-01,1.600000e-03,
316,-2.000000e-01,1.600000e-03,
317,-1.920000e-01,1.600000e-03,
318,-1.760000e-01,1.600000e-03,
319,-1.680000e-01,1.600000e-03,
320,-1.600000e-01,1.600000e-03,
321,-1.520000e-01,1.600000e-03,
322,-1.440000e-01,2.400000e-03,
323,-1.360000e-01,2.400000e-03,
324,-1.200000e-01,2.400000e-03,
325,-1.200000e-01,2.400000e-03,
326,-1.040000e-01,2.400000e-03,
327,-9.600001e-02,3.200000e-03,
328,-8.000001e-02,2.400000e-03,
329,-8.000001e-02,2.400000e-03,
330,-6.400000e-02,2.400000e-03,
331,-5.600000e-02,2.400000e-03,
332,-4.800000e-02,3.200000e-03,
333,-4.000000e-02,2.400000e-03,
334,-2.400000e-02,3.200000e-03,
335,-1.600000e-02,3.200000e-03,
336,-8.000000e-03,3.200000e-03,
337,0.000000e+00,3.200000e-03,
338,1.600000e-02,4.000000e-03,
339,1.600000e-02,3.200000e-03,
340,3.200000e-02,4.000000e-03,
341,4.000000e-02,3.200000e-03,
342,5.600000e-02,4.000000e-03,
343,5.600000e-02,3.200000e-03,
344,7.200000e-02,3.200000e-03,
345,8.000001e-02,3.200000e-03,
346,9.600001e-02,4.000000e-03,
347,9.600001e-02,4.000000e-03,
348,1.120000e-01,4.800000e-03,
349,1.200000e-01,4.800000e-03,
350,1.360000e-01,4.800000e-03,
351,1.360000e-01,4.800000e-03,
352,1.520000e-01,4.800000e-03,
353,1.520000e-01,4.800000e-03,
354,1.680000e-01,4.800000e-03,
355,1.760000e-01,4.800000e-03,
356,1.920000e-01,4.800000e-03,
357,1.840000e-01,4.800000e-03,
358,2.080000e-01,4.800000e-03,
359,2.080000e-01,4.800000e-03,
360,2.240000e-01,5.600000e-03,
361,2.320000e-01,5.600000e-03,
362,2.400000e-01,4.800000e-03,
363,2.480000e-01,5.600000e-03,
364,2.640000e-01,5.600000e-03,
365,2.640000e-01,5.600000e-03,
366,2.800000e-01,5.600000e-03,
367,2.800000e-01,6.400000e-03,
368,2.960000e-01,6.400000e-03,
369,3.040000e-01,6.400000e-03,
370,3.120000e-01,6.400000e-03,
371,3.200000e-01,5.600000e-03,
372,3.360000e-01,5.600000e-03,
373,3.360000e-01,5.600000e-03,
374,3.520000e-01,6.400000e-03,
375,3.600000e-01,6.400000e-03,
376,3.680000e-01,6.400000e-03,
377,3.760000e-01,6.400000e-03,
378,3.840000e-01,7.200000e-03,
379,3.840000e-01,6.400000e-03,
380,4.000000e-01,7.200000e-03,
381,4.080000e-01,6.400000e-03,
382,4.160000e-01,7.200000e-03,
383,4.240000e-01,7.200000e-03,
384,4.320000e-01,7.200000e-03,
385,4.320000e-01,7.200000e-03,
386,4.480000e-01,7.200000e-03,
387,4.560000e-01,6.400000e-03,
388,4.640000e-01,7.200000e-03,
389,4.720000e-01,6.400000e-03,
390,4.800000e-01,7.200000e-03,
391,4.880000e-01,7.200000e-03,
392,4.960000e-01,7.999999e-03,
393,5.040000e-01,7.200000e-03,
394,5.120000e-01,7.200000e-03,
395,5.120000e-01,7.200000e-03,
396,5.280000e-01,7.200000e-03,
397,5.280000e-01,7.200000e-03,
398,5.360000e-01,7.200000e-03,
399,5.440000e-01,7.200000e-03,
400,5.520000e-01,7.200000e-03,
401,5.600000e-01,7.200000e-03,
402,5.680000e-01,7.200000e-03,
403,5.760000e-01,7.200000e-03,
404,5.840001e-01,7.200000e-03,
405,5.840001e-01,7.200000e-03,
406,5.920000e-01,7.200000e-03,
407,6.000000e-01,7.200000e-03,
408,6.080000e-01,7.200000e-03,
409,6.080000e-01,7.200000e-03,
410,6.160001e-01,7.200000e-03,
411,6.240000e-01,7.200000e-03,
412,6.320000e-01,7.200000e-03,
413,6.320000e-01,7.200000e-03,
414,6.400000e-01,7.200000e-03,
415,6.480000e-01,7.999999e-03,
416,6.480000e-01,7.999999e-03,
417,6.560000e-01,7.999999e-03,
418,6.640000e-01,7.999999e-03,
419,6.640000e-01,7.999999e-03,
420,6.720001e-01,7.999999e-03,
421,6.800000e-01,7.999999e-03,
422,6.800000e-01,7.999999e-03,
423,6.880000e-01,7.999999e-03,
424,6.880000e-01,7.200000e-03,
425,6.880000e-01,7.999999e-03,
426,6.960000e-01,7.999999e-03,
427,7.040001e-01,7.999999e-03,
428,7.040001e-01,7.999999e-03,
429,7.120000e-01,7.200000e-03,
430,7.120000e-01,7.999999e-03,
431,7.200000e-01,7.200000e-03,
432,7.200000e-01,7.999999e-03,
433,7.280000e-01,7.999999e-03,
434,7.280000e-01,7.999999e-03,
435,7.360001e-01,7.999999e-03,
436,7.360001e-01,7.999999e-03,
437,7.360001e-01,7.999999e-03,
438,7.440000e-01,7.999999e-03,
439,7.440000e-01,7.999999e-03,
440,7.440000e-01,7.999999e-03,
441,7.520000e-01,7.200000e-03,
442,7.520000e-01,7.999999e-03,
443,7.600001e-01,7.999999e-03,
444,7.600001e-01,7.999999e-03,
445,7.600001e-01,8.800000e-03,
446,7.600001e-01,8.800000e-03,
447,7.680001e-01,8.800000e-03,
448,7.680001e-01,8.800000e-03,
449,7.600001e-01,7.999999e-03,
450,7.760000e-01,7.999999e-03,
451,7.680001e-01,7.200000e-03,
452,7.680001e-01,7.200000e-03,
453,7.760000e-01,7.999999e-03,
454,7.760000e-01,7.999999e-03,
455,7.840000e-01,7.999999e-03,
456,7.760000e-01,7.200000e-03,
457,7.840000e-01,7.200000e-03,
458,7.760000e-01,7.200000e-03,
459,7.840000e-01,7.200000e-03,
460,7.760000e-01,7.200000e-03,
461,7.840000e-01,7.200000e-03,
462,7.840000e-01,7.200000e-03,
463,7.760000e-01,7.200000e-03,
464,7.840000e-01,7.200000e-03,
465,7.760000e-01,7.200000e-03,
466,7.840000e-01,7.200000e-03,
467,7.760000e-01,7.200000e-03,
468,7.840000e-01,6.400000e-03,
469,7.760000e-01,6.400000e-03,
470,7.760000e-01,7.200000e-03,
471,7.840000e-01,6.400000e-03,
472,7.760000e-01,6.400000e-03,
473,7.760000e-01,6.400000e-03,
474,7.680001e-01,6.400000e-03,
475,7.760000e-01,6.400000e-03,
476,7.680001e-01,6.400000e-03,
477,7.680001e-01,7.200000e-03,
478,7.600001e-01,7.200000e-03,
479,7.680001e-01,7.200000e-03,
480,7.600001e-01,6.400000e-03,
481,7.600001e-01,6.400000e-03,
482,7.520000e-01,6.400000e-03,
483,7.600001e-01,6.400000e-03,
484,7.520000e-01,5.600000e-03,
485,7.520000e-01,6.400000e-03,
486,7.440000e-01,6.400000e-03,
487,7.520000e-01,6.400000e-03,
488,7.440000e-01,6.400000e-03,
489,7.360001e-01,6.400000e-03,
490,7.280000e-01,5.600000e-03,
491,7.360001e-01,6.400000e-03,
492,7.280000e-01,5.600000e-03,
493,7.280000e-01,5.600000e-03,
494,7.280000e-01,5.600000e-03,
495,7.200000e-01,5.600000e-03,
496,7.200000e-01,5.600000e-03,
497,7.120000e-01,5.600000e-03,
498,7.040001e-01,5.600000e-03,
499,7.120000e-01,5.600000e-03,
500,6.960000e-01,5.600000e-03,
501,7.040001e-01,5.600000e-03,
502,6.960000e-01,4.800000e-03,
503,6.880000e-01,4.800000e-03,
504,6.800000e-01,4.800000e-03,
505,6.720001e-01,4.800000e-03,
506,6.720001e-01,4.800000e-03,
507,6.640000e-01,4.800000e-03,
508,6.640000e-01,4.800000e-03,
509,6.560000e-01,4.800000e-03,
510,6.480000e-01,4.000000e-03,
511,6.400000e-01,4.000000e-03,
512,6.400000e-01,4.000000e-03,
513,6.320000e-01,4.000000e-03,
514,6.240000e-01,4.000000e-03,
515,6.320000e-01,4.000000e-03,
516,6.160001e-01,4.000000e-03,
517,6.080000e-01,4.000000e-03,
518,6.080000e-01,3.200000e-03,
519,6.000000e-01,4.000000e-03,
520,5.920000e-01,3.200000e-03,
521,5.840001e-01,4.000000e-03,
522,5.760000e-01,3.200000e-03,
523,5.680000e-01,3.200000e-03,
524,5.680000e-01,3.200000e-03,
525,5.600000e-01,3.200000e-03,
526,5.520000e-01,2.400000e-03,
527,5.520000e-01,2.400000e-03,
528,5.360000e-01,2.400000e-03,
529,5.360000e-01,3.200000e-03,
530,5.280000e-01,2.400000e-03,
531,5.200000e-01,2.400000e-03,
532,5.120000e-01,2.400000e-03,
533,5.040000e-01,2.400000e-03,
534,4.960000e-01,1.600000e-03,
535,4.880000e-01,1.600000e-03,
536,4.800000e-01,1.600000e-03,
537,4.720000e-01,1.600000e-03,
538,4.640000e-01,1.600000e-03,
539,4.560000e-01,1.600000e-03,
540,4.480000e-01,1.600000e-03,
541,4.400000e-01,1.600000e-03,
542,4.320000e-01,1.600000e-03,
543,4.240000e-01,1.600000e-03,
544,4.160000e-01,1.600000e-03,
545,4.080000e-01,8.000000e-04,
546,4.000000e-01,8.000000e-04,
547,3.920000e-01,8.000000e-04,
548,3.840000e-01,8.000000e-04,
549,3.760000e-01,8.000000e-04,
550,3.680000e-01,8.000000e-04,
551,3.600000e-01,8.000000e-04,
552,3.440000e-01,8.000000e-04,
553,3.440000e-01,0.000000e+00,
554,3.280000e-01,0.000000e+00,
555,3.280000e-01,0.000000e+00,
556,3.120000e-01,-8.000000e-04,
557,3.040000e-01,0.000000e+00,
558,2.960000e-01,0.000000e+00,
559,2.880000e-01,0.000000e+00,
560,2.800000e-01,0.000000e+00,
561,2.720000e-01,0.000000e+00,
562,2.560000e-01,0.000000e+00,
563,2.560000e-01,0.000000e+00,
564,2.400000e-01,-8.000000e-04,
565,2.320000e-01,-8.000000e-04,
566,2.240000e-01,-8.000000e-04,
567,2.160000e-01,-1.600000e-03,
568,2.000000e-01,-1.600000e-03,
569,1.920000e-01,-1.600000e-03,
570,1.840000e-01,-1.600000e-03,
571,1.760000e-01,-1.600000e-03,
572,1.680000e-01,-1.600000e-03,
573,1.600000e-01,-2.400000e-03,
574,1.440000e-01,-2.400000e-03,
575,1.440000e-01,-2.400000e-03,
576,1.280000e-01,-2.400000e-03,
577,1.200000e-01,-2.400000e-03,
578,1.040000e-01,-2.400000e-03,
579,1.040000e-01,-1.600000e-03,
580,8.800001e-02,-2.400000e-03,
581,8.800001e-02,-2.400000e-03,
582,6.400000e-02,-2.400000e-03,
583,6.400000e-02,-2.400000e-03,
584,4.800000e-02,-2.400000e-03,
585,4.000000e-02,-2.400000e-03,
586,3.200000e-02,-2.400000e-03,
587,2.400000e-02,-2.400000e-03,
588,8.000000e-03,-3.200000e-03,
589,0.000000e+00,-2.400000e-03,
590,-8.000000e-03,-3.200000e-03,
591,-1.600000e-02,-3.200000e-03,
592,-3.200000e-02,-3.200000e-03,
593,-3.200000e-02,-3.200000e-03,
594,-4.800000e-02,-3.200000e-03,
595,-5.600000e-02,-3.200000e-03,
596,-7.200000e-02,-3.200000e-03,
597,-7.200000e-02,-3.200000e-03,
598,-8.800001e-02,-4.000000e-03,
599,-9.600001e-02,-4.000000e-03,
600,-1.120000e-01,-4.000000e-03,
601,-1.120000e-01,-4.000000e-03,
602,-1.280000e-01,-4.800000e-03,
603,-1.360000e-01,-4.800000e-03,
604,-1.440000e-01,-4.000000e-03,
605,-1.520000e-01,-4.000000e-03,
606,-1.600000e-01,-4.800000e-03,
607,-1.680000e-01,-4.800000e-03,
608,-1.840000e-01,-4.000000e-03,
609,-1.920000e-01,-4.000000e-03,
610,-2.000000e-01,-4.800000e-03,
611,-2.080000e-01,-4.800000e-03,
612,-2.240000e-01,-4.800000e-03,
613,-2.240000e-01,-4.800000e-03,
614,-2.400000e-01,-4.800000e-03,
615,-2.480000e-01,-4.800000e-03,
616,-2.560000e-01,-5.600000e-03,
617,-2.640000e-01,-5.600000e-03,
618,-2.720000e-01,-4.800000e-03,
619,-2.800000e-01,-4.800000e-03,
620,-2.960000e-01,-5.600000e-03,
621,-2.960000e-01,-5.600000e-03,
622,-3.120000e-01,-5.600000e-03,
623,-3.200000e-01,-4.800000e-03,
624,-3.280000e-01,-4.800000e-03,
625,-3.360000e-01,-5.600000e-03,
626,-3.440000e-01,-5.600000e-03,
