parte2/esp10/Data/d3/f1/1.csv

X,CH1,CH2,Start,Increment,
Sequence,Volt,Volt,-1.163980e-03,2.000000e-06,
0,6.956000e-02,-6.000000e-04,
1,7.049999e-02,2.000000e-04,
2,6.956000e-02,-6.000000e-04,
3,7.049999e-02,2.000000e-04,
4,6.862000e-02,-8.000000e-04,
5,6.862000e-02,-4.000000e-04,
6,6.767999e-02,-8.000000e-04,
7,6.767999e-02,-1.200000e-03,
8,6.580000e-02,-4.000000e-04,
9,6.580000e-02,-9.999999e-04,
10,6.580000e-02,-1.400000e-03,
11,6.485999e-02,-8.000000e-04,
12,6.392000e-02,-1.400000e-03,
13,6.392000e-02,-1.800000e-03,
14,6.204000e-02,-4.000000e-04,
15,6.298000e-02,2.000000e-04,
16,6.109999e-02,8.000000e-04,
17,6.109999e-02,4.000000e-04,
18,5.922000e-02,-6.000000e-04,
19,5.922000e-02,-2.000000e-04,
20,5.734000e-02,-2.000000e-04,
21,5.734000e-02,-6.000000e-04,
22,5.640000e-02,-9.999999e-04,
23,5.640000e-02,-6.000000e-04,
24,5.452000e-02,2.000000e-04,
25,5.452000e-02,-2.000000e-04,
26,5.358000e-02,-2.000000e-04,
27,5.264000e-02,-8.000000e-04,
28,5.170000e-02,-2.000000e-04,
29,5.076000e-02,-8.000000e-04,
30,4.982000e-02,-8.000000e-04,
31,4.982000e-02,-2.000000e-04,
32,4.794000e-02,-9.999999e-04,
33,4.794000e-02,-1.400000e-03,
34,4.700000e-02,-8.000000e-04,
35,4.606000e-02,-1.200000e-03,
36,4.512000e-02,6.000000e-04,
37,4.606000e-02,0.000000e+00,
38,4.324000e-02,6.000000e-04,
39,4.230000e-02,0.000000e+00,
40,4.136000e-02,-6.000000e-04,
41,4.230000e-02,-1.200000e-03,
42,3.948000e-02,-2.000000e-04,
43,3.948000e-02,2.000000e-04,
44,3.760000e-02,-9.999999e-04,
45,3.666000e-02,-6.000000e-04,
46,3.666000e-02,-6.000000e-04,
47,3.572000e-02,-9.999999e-04,
48,3.384000e-02,4.000000e-04,
49,3.384000e-02,8.000000e-04,
50,3.196000e-02,-2.000000e-04,
51,3.290000e-02,4.000000e-04,
52,3.008000e-02,-2.000000e-04,
53,3.008000e-02,-6.000000e-04,
54,2.914000e-02,0.000000e+00,
55,2.914000e-02,-4.000000e-04,
56,2.538000e-02,-2.000000e-04,
57,2.632000e-02,2.000000e-04,
58,2.350000e-02,-2.000000e-04,
59,2.350000e-02,-8.000000e-04,
60,2.256000e-02,-4.000000e-04,
61,2.256000e-02,-8.000000e-04,
62,2.068000e-02,-2.000000e-04,
63,2.162000e-02,-6.000000e-04,
64,1.880000e-02,0.000000e+00,
65,1.880000e-02,4.000000e-04,
66,1.692000e-02,-9.999999e-04,
67,1.598000e-02,-4.000000e-04,
68,1.410000e-02,-4.000000e-04,
69,1.504000e-02,0.000000e+00,
70,1.410000e-02,4.000000e-04,
71,1.316000e-02,0.000000e+00,
72,1.128000e-02,-6.000000e-04,
73,1.128000e-02,0.000000e+00,
74,8.459999e-03,2.000000e-04,
75,8.459999e-03,-2.000000e-04,
76,6.580000e-03,-1.600000e-03,
77,6.580000e-03,-9.999999e-04,
78,3.760000e-03,-8.000000e-04,
79,4.700000e-03,-2.000000e-04,
80,1.880000e-03,-1.600000e-03,
81,1.880000e-03,-1.200000e-03,
82,0.000000e+00,-2.000000e-04,
83,-9.399999e-04,-6.000000e-04,
84,-1.880000e-03,0.000000e+00,
85,-1.880000e-03,6.000000e-04,
86,-3.760000e-03,0.000000e+00,
87,-3.760000e-03,6.000000e-04,
88,-6.580000e-03,-9.999999e-04,
89,-6.580000e-03,-4.000000e-04,
90,-8.459999e-03,0.000000e+00,
91,-7.520000e-03,6.000000e-04,
92,-9.400000e-03,-1.600000e-03,
93,-9.400000e-03,-9.999999e-04,
94,-1.222000e-02,6.000000e-04,
95,-1.316000e-02,1.200000e-03,
96,-1.410000e-02,-8.000000e-04,
97,-1.316000e-02,-4.000000e-04,
98,-1.692000e-02,0.000000e+00,
99,-1.692000e-02,4.000000e-04,
100,-1.880000e-02,0.000000e+00,
101,-1.880000e-02,-4.000000e-04,
102,-2.068000e-02,-9.999999e-04,
103,-2.068000e-02,-1.400000e-03,
104,-2.162000e-02,4.000000e-04,
105,-2.256000e-02,-2.000000e-04,
106,-2.444000e-02,4.000000e-04,
107,-2.444000e-02,8.000000e-04,
108,-2.538000e-02,-2.400000e-03,
109,-2.632000e-02,-2.000000e-03,
110,-2.820000e-02,4.000000e-04,
111,-2.820000e-02,9.999999e-04,
112,-3.008000e-02,-4.000000e-04,
113,-3.008000e-02,0.000000e+00,
114,-3.196000e-02,-4.000000e-04,
115,-3.196000e-02,-8.000000e-04,
116,-3.384000e-02,-6.000000e-04,
117,-3.384000e-02,-2.000000e-04,
118,-3.572000e-02,-9.999999e-04,
119,-3.572000e-02,-1.400000e-03,
120,-3.760000e-02,6.000000e-04,
121,-3.760000e-02,9.999999e-04,
122,-3.948000e-02,-1.200000e-03,
123,-4.042000e-02,-6.000000e-04,
124,-4.042000e-02,-9.999999e-04,
125,-4.136000e-02,-1.400000e-03,
126,-4.324000e-02,-2.000000e-04,
127,-4.230000e-02,4.000000e-04,
128,-4.418000e-02,-6.000000e-04,
129,-4.324000e-02,0.000000e+00,
130,-4.512000e-02,4.000000e-04,
131,-4.512000e-02,0.000000e+00,
132,-4.794000e-02,-6.000000e-04,
133,-4.794000e-02,-9.999999e-04,
134,-4.888000e-02,-9.999999e-04,
135,-4.982000e-02,-4.000000e-04,
136,-5.170000e-02,4.000000e-04,
137,-5.170000e-02,9.999999e-04,
138,-5.264000e-02,-9.999999e-04,
139,-5.358000e-02,-1.600000e-03,
140,-5.452000e-02,-1.600000e-03,
141,-5.358000e-02,-2.200000e-03,
142,-5.545999e-02,-1.400000e-03,
143,-5.640000e-02,-9.999999e-04,
144,-5.734000e-02,-2.000000e-04,
145,-5.734000e-02,2.000000e-04,
146,-5.922000e-02,-2.000000e-04,
147,-5.922000e-02,4.000000e-04,
148,-6.016000e-02,0.000000e+00,
149,-6.016000e-02,6.000000e-04,
150,-6.109999e-02,0.000000e+00,
151,-6.109999e-02,-4.000000e-04,
152,-6.298000e-02,4.000000e-04,
153,-6.298000e-02,8.000000e-04,
154,-6.392000e-02,0.000000e+00,
155,-6.485999e-02,6.000000e-04,
156,-6.580000e-02,-4.000000e-04,
157,-6.580000e-02,0.000000e+00,
158,-6.674000e-02,-2.000000e-04,
159,-6.674000e-02,-6.000000e-04,
160,-6.767999e-02,6.000000e-04,
161,-6.862000e-02,2.000000e-04,
162,-6.862000e-02,-6.000000e-04,
163,-6.862000e-02,-9.999999e-04,
164,-6.956000e-02,0.000000e+00,
165,-6.956000e-02,4.000000e-04,
166,-7.049999e-02,8.000000e-04,
167,-7.049999e-02,4.000000e-04,
168,-7.238000e-02,-4.000000e-04,
169,-7.144000e-02,-8.000000e-04,
170,-7.238000e-02,-4.000000e-04,
171,-7.238000e-02,0.000000e+00,
172,-7.426000e-02,-9.999999e-04,
173,-7.331999e-02,-4.000000e-04,
174,-7.426000e-02,0.000000e+00,
175,-7.520000e-02,-6.000000e-04,
176,-7.520000e-02,-4.000000e-04,
177,-7.520000e-02,0.000000e+00,
178,-7.613999e-02,6.000000e-04,
179,-7.613999e-02,2.000000e-04,
180,-7.708000e-02,4.000000e-04,
181,-7.801999e-02,0.000000e+00,
182,-7.708000e-02,4.000000e-04,
183,-7.708000e-02,0.000000e+00,
184,-7.895999e-02,-6.000000e-04,
185,-7.895999e-02,-2.000000e-04,
186,-7.801999e-02,-9.999999e-04,
187,-7.801999e-02,-2.000000e-04,
188,-7.895999e-02,0.000000e+00,
189,-7.895999e-02,4.000000e-04,
190,-7.990000e-02,2.000000e-04,
191,-7.990000e-02,-2.000000e-04,
192,-7.990000e-02,1.400000e-03,
193,-7.990000e-02,8.000000e-04,
194,-7.990000e-02,2.000000e-04,
195,-8.083999e-02,6.000000e-04,
196,-8.083999e-02,2.000000e-04,
197,-7.990000e-02,8.000000e-04,
198,-7.990000e-02,-6.000000e-04,
199,-8.083999e-02,0.000000e+00,
200,-8.083999e-02,8.000000e-04,
201,-8.083999e-02,4.000000e-04,
202,-8.177999e-02,8.000000e-04,
203,-8.177999e-02,2.000000e-04,
204,-8.083999e-02,2.000000e-04,
205,-8.083999e-02,8.000000e-04,
206,-8.177999e-02,4.000000e-04,
207,-8.083999e-02,9.999999e-04,
208,-7.990000e-02,-1.600000e-03,
209,-8.083999e-02,-1.200000e-03,
210,-8.083999e-02,-2.000000e-04,
211,-7.990000e-02,4.000000e-04,
212,-8.083999e-02,-2.000000e-04,
213,-8.083999e-02,6.000000e-04,
214,-8.083999e-02,9.999999e-04,
215,-8.177999e-02,6.000000e-04,
216,-8.083999e-02,0.000000e+00,
217,-8.083999e-02,-4.000000e-04,
218,-7.990000e-02,2.000000e-04,
219,-7.990000e-02,6.000000e-04,
220,-7.895999e-02,0.000000e+00,
221,-7.990000e-02,-6.000000e-04,
222,-7.990000e-02,2.000000e-04,
223,-7.990000e-02,-4.000000e-04,
224,-7.895999e-02,-2.000000e-04,
225,-7.895999e-02,4.000000e-04,
226,-7.801999e-02,6.000000e-04,
227,-7.895999e-02,2.000000e-04,
228,-7.801999e-02,0.000000e+00,
229,-7.801999e-02,4.000000e-04,
230,-7.708000e-02,-8.000000e-04,
231,-7.708000e-02,-1.200000e-03,
232,-7.613999e-02,2.000000e-04,
233,-7.708000e-02,-2.000000e-04,
234,-7.613999e-02,2.000000e-04,
235,-7.708000e-02,8.000000e-04,
236,-7.520000e-02,-2.000000e-04,
237,-7.520000e-02,-6.000000e-04,
238,-7.520000e-02,8.000000e-04,
239,-7.426000e-02,4.000000e-04,
240,-7.426000e-02,-2.000000e-04,
241,-7.426000e-02,2.000000e-04,
242,-7.238000e-02,-4.000000e-04,
243,-7.238000e-02,-8.000000e-04,
244,-7.144000e-02,-6.000000e-04,
245,-7.144000e-02,-2.000000e-04,
246,-7.049999e-02,-1.400000e-03,
247,-7.049999e-02,-9.999999e-04,
248,-6.956000e-02,0.000000e+00,
249,-7.049999e-02,-4.000000e-04,
250,-6.862000e-02,4.000000e-04,
251,-6.862000e-02,9.999999e-04,
252,-6.767999e-02,4.000000e-04,
253,-6.674000e-02,0.000000e+00,
254,-6.580000e-02,6.000000e-04,
255,-6.674000e-02,9.999999e-04,
256,-6.580000e-02,0.000000e+00,
257,-6.485999e-02,-4.000000e-04,
258,-6.392000e-02,-2.000000e-04,
259,-6.392000e-02,4.000000e-04,
260,-6.298000e-02,9.999999e-04,
261,-6.298000e-02,6.000000e-04,
262,-6.109999e-02,-2.000000e-04,
263,-6.109999e-02,2.000000e-04,
264,-6.016000e-02,0.000000e+00,
265,-6.109999e-02,6.000000e-04,
266,-5.827999e-02,-2.000000e-04,
267,-5.922000e-02,-6.000000e-04,
268,-5.734000e-02,-4.000000e-04,
269,-5.734000e-02,2.000000e-04,
270,-5.640000e-02,-4.000000e-04,
271,-5.545999e-02,0.000000e+00,
272,-5.452000e-02,2.000000e-04,
273,-5.358000e-02,-2.000000e-04,
274,-5.264000e-02,2.000000e-04,
275,-5.264000e-02,8.000000e-04,
276,-5.170000e-02,-6.000000e-04,
277,-5.264000e-02,0.000000e+00,
278,-4.888000e-02,-9.999999e-04,
279,-4.888000e-02,-4.000000e-04,
280,-4.794000e-02,-9.999999e-04,
281,-4.794000e-02,-6.000000e-04,
282,-4.606000e-02,1.200000e-03,
283,-4.606000e-02,6.000000e-04,
284,-4.418000e-02,-6.000000e-04,
285,-4.512000e-02,-2.000000e-04,
286,-4.324000e-02,6.000000e-04,
287,-4.230000e-02,9.999999e-04,
288,-4.042000e-02,9.999999e-04,
289,-4.042000e-02,4.000000e-04,
290,-3.854000e-02,0.000000e+00,
291,-3.948000e-02,4.000000e-04,
292,-3.760000e-02,4.000000e-04,
293,-3.760000e-02,0.000000e+00,
294,-3.572000e-02,2.000000e-04,
295,-3.572000e-02,-4.000000e-04,
296,-3.290000e-02,1.200000e-03,
297,-3.290000e-02,8.000000e-04,
298,-3.196000e-02,8.000000e-04,
299,-3.102000e-02,4.000000e-04,
300,-2.914000e-02,8.000000e-04,
301,-2.914000e-02,4.000000e-04,
302,-2.820000e-02,4.000000e-04,
303,-2.820000e-02,8.000000e-04,
304,-2.632000e-02,-4.000000e-04,
305,-2.632000e-02,2.000000e-04,
306,-2.444000e-02,1.200000e-03,
307,-2.444000e-02,8.000000e-04,
308,-2.162000e-02,0.000000e+00,
309,-2.162000e-02,6.000000e-04,
310,-1.974000e-02,4.000000e-04,
311,-1.974000e-02,8.000000e-04,
312,-1.880000e-02,8.000000e-04,
313,-1.786000e-02,4.000000e-04,
314,-1.598000e-02,9.999999e-04,
315,-1.598000e-02,1.600000e-03,
316,-1.316000e-02,0.000000e+00,
317,-1.316000e-02,-4.000000e-04,
318,-1.222000e-02,8.000000e-04,
319,-1.222000e-02,2.000000e-04,
320,-1.034000e-02,-2.000000e-04,
321,-9.400000e-03,4.000000e-04,
322,-8.459999e-03,-4.000000e-04,
323,-8.459999e-03,0.000000e+00,
324,-6.580000e-03,-6.000000e-04,
325,-5.640000e-03,-1.200000e-03,
326,-3.760000e-03,1.400000e-03,
327,-4.700000e-03,9.999999e-04,
328,-1.880000e-03,4.000000e-04,
329,-1.880000e-03,0.000000e+00,
330,0.000000e+00,4.000000e-04,
331,9.399999e-04,9.999999e-04,
332,2.820000e-03,4.000000e-04,
333,2.820000e-03,-4.000000e-04,
334,4.700000e-03,-2.000000e-04,
335,3.760000e-03,-6.000000e-04,
336,6.580000e-03,4.000000e-04,
337,6.580000e-03,8.000000e-04,
338,8.459999e-03,-2.000000e-04,
339,8.459999e-03,4.000000e-04,
340,1.034000e-02,6.000000e-04,
341,1.034000e-02,9.999999e-04,
342,1.316000e-02,0.000000e+00,
343,1.316000e-02,4.000000e-04,
344,1.410000e-02,1.400000e-03,
345,1.504000e-02,9.999999e-04,
346,1.692000e-02,-8.000000e-04,
347,1.692000e-02,-1.200000e-03,
348,1.880000e-02,0.000000e+00,
349,1.880000e-02,4.000000e-04,
350,2.068000e-02,4.000000e-04,
351,1.974000e-02,9.999999e-04,
352,2.256000e-02,1.200000e-03,
353,2.256000e-02,6.000000e-04,
354,2.444000e-02,-8.000000e-04,
355,2.444000e-02,-4.000000e-04,
356,2.632000e-02,-6.000000e-04,
357,2.538000e-02,-1.200000e-03,
358,2.914000e-02,-2.000000e-04,
359,2.914000e-02,-8.000000e-04,
360,3.102000e-02,4.000000e-04,
361,3.102000e-02,0.000000e+00,
362,3.290000e-02,-8.000000e-04,
363,3.290000e-02,-4.000000e-04,
364,3.384000e-02,-6.000000e-04,
365,3.478000e-02,2.000000e-04,
366,3.478000e-02,4.000000e-04,
367,3.478000e-02,0.000000e+00,
368,3.760000e-02,8.000000e-04,
369,3.760000e-02,1.200000e-03,
370,3.948000e-02,2.000000e-04,
371,3.948000e-02,-2.000000e-04,
372,4.042000e-02,4.000000e-04,
373,4.136000e-02,-2.000000e-04,
374,4.324000e-02,9.999999e-04,
375,4.418000e-02,6.000000e-04,
376,4.418000e-02,-6.000000e-04,
377,4.418000e-02,-2.000000e-04,
378,4.606000e-02,-6.000000e-04,
379,4.606000e-02,2.000000e-04,
380,4.794000e-02,-6.000000e-04,
381,4.794000e-02,0.000000e+00,
382,4.982000e-02,0.000000e+00,
383,4.982000e-02,-6.000000e-04,
384,5.170000e-02,8.000000e-04,
385,5.170000e-02,1.200000e-03,
386,5.264000e-02,0.000000e+00,
387,5.264000e-02,6.000000e-04,
388,5.452000e-02,-6.000000e-04,
389,5.452000e-02,-2.000000e-04,
390,5.640000e-02,-2.000000e-04,
391,5.640000e-02,2.000000e-04,
392,5.734000e-02,6.000000e-04,
393,5.827999e-02,9.999999e-04,
394,5.827999e-02,0.000000e+00,
395,5.922000e-02,4.000000e-04,
396,6.109999e-02,0.000000e+00,
397,6.109999e-02,4.000000e-04,
398,6.204000e-02,4.000000e-04,
399,6.204000e-02,0.000000e+00,
400,6.298000e-02,6.000000e-04,
401,6.298000e-02,2.000000e-04,
402,6.485999e-02,-1.200000e-03,
403,6.580000e-02,-8.000000e-04,
404,6.674000e-02,4.000000e-04,
405,6.674000e-02,-4.000000e-04,
406,6.767999e-02,-1.200000e-03,
407,6.767999e-02,-6.000000e-04,
408,6.862000e-02,0.000000e+00,
409,6.862000e-02,-6.000000e-04,
410,7.049999e-02,-6.000000e-04,
411,6.956000e-02,0.000000e+00,
412,7.049999e-02,4.000000e-04,
413,7.049999e-02,6.000000e-04,
414,7.144000e-02,2.000000e-04,
415,7.238000e-02,-4.000000e-04,
416,7.331999e-02,8.000000e-04,
417,7.331999e-02,2.000000e-04,
418,7.331999e-02,-6.000000e-04,
419,7.426000e-02,-9.999999e-04,
420,7.520000e-02,0.000000e+00,
421,7.520000e-02,-6.000000e-04,
422,7.613999e-02,0.000000e+00,
423,7.520000e-02,-6.000000e-04,
424,7.613999e-02,4.000000e-04,
425,7.708000e-02,0.000000e+00,
426,7.708000e-02,-8.000000e-04,
427,7.801999e-02,-1.400000e-03,
428,7.801999e-02,0.000000e+00,
429,7.801999e-02,-4.000000e-04,
430,7.895999e-02,-2.000000e-04,
431,7.990000e-02,-6.000000e-04,
432,7.895999e-02,-4.000000e-04,
433,7.990000e-02,0.000000e+00,
434,7.990000e-02,2.000000e-04,
435,7.990000e-02,-4.000000e-04,
436,7.990000e-02,-2.000000e-04,
437,7.990000e-02,-6.000000e-04,
438,8.083999e-02,-2.000000e-04,
439,7.990000e-02,-6.000000e-04,
440,8.177999e-02,2.000000e-04,
441,8.177999e-02,-2.000000e-04,
442,8.177999e-02,-8.000000e-04,
443,8.177999e-02,-2.000000e-04,
444,8.177999e-02,2.000000e-04,
445,8.177999e-02,6.000000e-04,
446,8.177999e-02,0.000000e+00,
447,8.177999e-02,-6.000000e-04,
448,8.272000e-02,-8.000000e-04,
449,8.272000e-02,-2.000000e-04,
450,8.272000e-02,4.000000e-04,
451,8.272000e-02,-2.000000e-04,
452,8.177999e-02,4.000000e-04,
453,8.177999e-02,0.000000e+00,
454,8.177999e-02,2.000000e-04,
455,8.272000e-02,6.000000e-04,
456,8.272000e-02,4.000000e-04,
457,8.272000e-02,0.000000e+00,
458,8.272000e-02,-6.000000e-04,
459,8.272000e-02,0.000000e+00,
460,8.272000e-02,6.000000e-04,
461,8.365999e-02,1.400000e-03,
462,8.272000e-02,-1.200000e-03,
463,8.365999e-02,-8.000000e-04,
464,8.272000e-02,8.000000e-04,
465,8.177999e-02,4.000000e-04,
466,8.177999e-02,4.000000e-04,
467,8.272000e-02,8.000000e-04,
468,8.177999e-02,2.000000e-04,
469,8.177999e-02,-4.000000e-04,
470,8.083999e-02,2.000000e-04,
471,8.083999e-02,6.000000e-04,
472,8.177999e-02,6.000000e-04,
473,8.177999e-02,0.000000e+00,
474,8.083999e-02,6.000000e-04,
475,8.083999e-02,9.999999e-04,
476,8.083999e-02,-2.000000e-04,
477,8.177999e-02,-6.000000e-04,
478,8.083999e-02,6.000000e-04,
479,8.083999e-02,9.999999e-04,
480,7.895999e-02,-2.000000e-04,
481,7.895999e-02,4.000000e-04,
482,7.990000e-02,8.000000e-04,
483,7.990000e-02,4.000000e-04,
484,7.801999e-02,1.400000e-03,
485,7.801999e-02,9.999999e-04,
486,7.708000e-02,-9.999999e-04,
487,7.801999e-02,-1.600000e-03,
488,7.708000e-02,-9.999999e-04,
489,7.613999e-02,-6.000000e-04,
490,7.613999e-02,0.000000e+00,
491,7.613999e-02,4.000000e-04,
492,7.520000e-02,-6.000000e-04,
493,7.520000e-02,2.000000e-04,
494,7.331999e-02,-9.999999e-04,
495,7.426000e-02,-6.000000e-04,
496,7.238000e-02,6.000000e-04,
497,7.238000e-02,2.000000e-04,
498,7.238000e-02,4.000000e-04,
499,7.238000e-02,-2.000000e-04,
500,7.144000e-02,0.000000e+00,
501,7.144000e-02,-6.000000e-04,
502,6.956000e-02,0.000000e+00,
503,7.049999e-02,-4.000000e-04,
504,6.862000e-02,4.000000e-04,
505,6.862000e-02,0.000000e+00,
506,6.767999e-02,4.000000e-04,
507,6.767999e-02,9.999999e-04,
508,6.674000e-02,0.000000e+00,
509,6.580000e-02,4.000000e-04,
510,6.485999e-02,8.000000e-04,
511,6.485999e-02,1.200000e-03,
512,6.392000e-02,2.000000e-04,
513,6.298000e-02,-4.000000e-04,
514,6.298000e-02,-2.000000e-04,
515,6.298000e-02,2.000000e-04,
516,6.016000e-02,8.000000e-04,
517,6.109999e-02,4.000000e-04,
518,5.827999e-02,-4.000000e-04,
519,5.827999e-02,-9.999999e-04,
520,5.827999e-02,0.000000e+00,
521,5.734000e-02,-4.000000e-04,
522,5.640000e-02,-4.000000e-04,
523,5.640000e-02,0.000000e+00,
524,5.452000e-02,4.000000e-04,
525,5.545999e-02,0.000000e+00,
526,5.264000e-02,-9.999999e-04,
527,5.358000e-02,-4.000000e-04,
528,5.264000e-02,-2.000000e-04,
529,5.170000e-02,-6.000000e-04,
530,4.982000e-02,-6.000000e-04,
531,5.076000e-02,0.000000e+00,
532,4.888000e-02,-6.000000e-04,
533,4.794000e-02,-2.000000e-04,
534,4.700000e-02,-8.000000e-04,
535,4.700000e-02,-2.000000e-04,
536,4.418000e-02,-9.999999e-04,
537,4.512000e-02,-1.400000e-03,
538,4.324000e-02,-9.999999e-04,
539,4.324000e-02,-4.000000e-04,
540,4.230000e-02,2.000000e-04,
541,4.136000e-02,-2.000000e-04,
542,3.854000e-02,-1.200000e-03,
543,3.854000e-02,-1.600000e-03,
544,3.760000e-02,0.000000e+00,
545,3.666000e-02,4.000000e-04,
546,3.572000e-02,2.000000e-04,
547,3.572000e-02,-2.000000e-04,
548,3.384000e-02,-8.000000e-04,
549,3.478000e-02,-1.200000e-03,
550,3.196000e-02,-6.000000e-04,
551,3.102000e-02,0.000000e+00,
552,3.008000e-02,-4.000000e-04,
553,3.008000e-02,-8.000000e-04,
554,2.820000e-02,-2.000000e-04,
555,2.820000e-02,-6.000000e-04,
556,2.726000e-02,-6.000000e-04,
557,2.632000e-02,0.000000e+00,
558,2.444000e-02,-6.000000e-04,
559,2.350000e-02,-2.000000e-04,
560,2.256000e-02,-6.000000e-04,
561,2.256000e-02,-2.000000e-04,
562,2.162000e-02,2.000000e-04,
563,2.068000e-02,-6.000000e-04,
564,1.880000e-02,0.000000e+00,
565,1.786000e-02,4.000000e-04,
566,1.692000e-02,0.000000e+00,
567,1.598000e-02,-4.000000e-04,
568,1.410000e-02,-4.000000e-04,
569,1.504000e-02,-8.000000e-04,
570,1.222000e-02,-4.000000e-04,
571,1.128000e-02,-9.999999e-04,
572,1.034000e-02,2.000000e-04,
573,1.034000e-02,-4.000000e-04,
574,8.459999e-03,-4.000000e-04,
575,9.400000e-03,-9.999999e-04,
576,6.580000e-03,-9.999999e-04,
577,7.520000e-03,-4.000000e-04,
578,3.760000e-03,2.000000e-04,
579,3.760000e-03,6.000000e-04,
580,1.880000e-03,-2.000000e-04,
581,1.880000e-03,4.000000e-04,
582,0.000000e+00,0.000000e+00,
583,-9.399999e-04,6.000000e-04,
584,-1.880000e-03,6.000000e-04,
585,-1.880000e-03,0.000000e+00,
586,-4.700000e-03,2.000000e-04,
587,-4.700000e-03,-4.000000e-04,
588,-6.580000e-03,-8.000000e-04,
589,-6.580000e-03,-2.000000e-04,
590,-9.400000e-03,-8.000000e-04,
591,-8.459999e-03,-4.000000e-04,
592,-1.034000e-02,2.000000e-04,
593,-1.034000e-02,6.000000e-04,
594,-1.222000e-02,8.000000e-04,
595,-1.222000e-02,2.000000e-04,
596,-1.410000e-02,2.000000e-04,
597,-1.410000e-02,-4.000000e-04,
598,-1.598000e-02,0.000000e+00,
599,-1.504000e-02,4.000000e-04,
600,-1.880000e-02,-2.000000e-04,
601,-1.880000e-02,2.000000e-04,
602,-2.068000e-02,6.000000e-04,
603,-2.068000e-02,-2.000000e-04,
604,-2.256000e-02,2.000000e-04,
605,-2.162000e-02,-2.000000e-04,
606,-2.444000e-02,-9.999999e-04,
607,-2.350000e-02,-4.000000e-04,
608,-2.538000e-02,-8.000000e-04,
609,-2.538000e-02,0.000000e+00,
610,-2.820000e-02,2.000000e-04,
611,-2.820000e-02,8.000000e-04,
612,-2.914000e-02,-9.999999e-04,
613,-3.008000e-02,-4.000000e-04,
614,-3.196000e-02,2.000000e-04,
615,-3.290000e-02,8.000000e-04,
616,-3.478000e-02,4.000000e-04,
617,-3.384000e-02,0.000000e+00,
618,-3.572000e-02,-9.999999e-04,
619,-3.572000e-02,-6.000000e-04,
620,-3.760000e-02,6.000000e-04,
621,-3.666000e-02,9.999999e-04,
622,-3.948000e-02,-9.999999e-04,
623,-3.948000e-02,-4.000000e-04,
624,-4.136000e-02,-1.600000e-03,
625,-4.136000e-02,-2.000000e-03,
626,-4.324000e-02,-8.000000e-04,
