parte2/esp10/Data/d3/f1/3.csv

X,CH1,CH2,Start,Increment,
Sequence,Volt,Volt,-1.163980e-03,2.000000e-06,
0,6.956000e-02,4.000000e-04,
1,6.956000e-02,8.000000e-04,
2,6.956000e-02,4.000000e-04,
3,6.956000e-02,8.000000e-04,
4,6.862000e-02,1.400000e-03,
5,6.862000e-02,8.000000e-04,
6,6.674000e-02,9.999999e-04,
7,6.674000e-02,4.000000e-04,
8,6.580000e-02,8.000000e-04,
9,6.674000e-02,1.200000e-03,
10,6.485999e-02,-2.000000e-04,
11,6.580000e-02,4.000000e-04,
12,6.392000e-02,0.000000e+00,
13,6.392000e-02,4.000000e-04,
14,6.204000e-02,9.999999e-04,
15,6.204000e-02,1.600000e-03,
16,6.016000e-02,4.000000e-04,
17,6.016000e-02,8.000000e-04,
18,5.922000e-02,-2.000000e-04,
19,6.016000e-02,4.000000e-04,
20,5.827999e-02,2.000000e-04,
21,5.827999e-02,8.000000e-04,
22,5.640000e-02,8.000000e-04,
23,5.640000e-02,4.000000e-04,
24,5.545999e-02,2.000000e-04,
25,5.545999e-02,6.000000e-04,
26,5.264000e-02,1.400000e-03,
27,5.264000e-02,9.999999e-04,
28,5.170000e-02,8.000000e-04,
29,5.170000e-02,1.200000e-03,
30,4.982000e-02,8.000000e-04,
31,4.982000e-02,1.400000e-03,
32,4.794000e-02,4.000000e-04,
33,4.888000e-02,9.999999e-04,
34,4.606000e-02,8.000000e-04,
35,4.700000e-02,1.400000e-03,
36,4.512000e-02,4.000000e-04,
37,4.512000e-02,9.999999e-04,
38,4.324000e-02,6.000000e-04,
39,4.324000e-02,1.200000e-03,
40,4.230000e-02,6.000000e-04,
41,4.136000e-02,2.000000e-04,
42,3.948000e-02,8.000000e-04,
43,3.948000e-02,4.000000e-04,
44,3.760000e-02,2.000000e-04,
45,3.760000e-02,8.000000e-04,
46,3.572000e-02,4.000000e-04,
47,3.478000e-02,8.000000e-04,
48,3.478000e-02,4.000000e-04,
49,3.478000e-02,8.000000e-04,
50,3.196000e-02,6.000000e-04,
51,3.196000e-02,1.200000e-03,
52,3.008000e-02,2.000000e-04,
53,3.008000e-02,6.000000e-04,
54,2.726000e-02,6.000000e-04,
55,2.820000e-02,0.000000e+00,
56,2.632000e-02,9.999999e-04,
57,2.538000e-02,6.000000e-04,
58,2.444000e-02,8.000000e-04,
59,2.538000e-02,1.200000e-03,
60,2.256000e-02,8.000000e-04,
61,2.256000e-02,1.200000e-03,
62,2.068000e-02,1.800000e-03,
63,2.068000e-02,1.400000e-03,
64,1.880000e-02,0.000000e+00,
65,1.786000e-02,-8.000000e-04,
66,1.692000e-02,2.000000e-04,
67,1.598000e-02,-2.000000e-04,
68,1.410000e-02,6.000000e-04,
69,1.504000e-02,9.999999e-04,
70,1.316000e-02,1.600000e-03,
71,1.316000e-02,8.000000e-04,
72,1.034000e-02,6.000000e-04,
73,1.034000e-02,9.999999e-04,
74,8.459999e-03,2.000000e-03,
75,8.459999e-03,1.600000e-03,
76,6.580000e-03,0.000000e+00,
77,5.640000e-03,6.000000e-04,
78,3.760000e-03,6.000000e-04,
79,3.760000e-03,9.999999e-04,
80,2.820000e-03,2.000000e-04,
81,2.820000e-03,6.000000e-04,
82,0.000000e+00,4.000000e-04,
83,0.000000e+00,-2.000000e-04,
84,-2.820000e-03,0.000000e+00,
85,-1.880000e-03,-6.000000e-04,
86,-3.760000e-03,2.200000e-03,
87,-2.820000e-03,1.800000e-03,
88,-5.640000e-03,1.200000e-03,
89,-5.640000e-03,8.000000e-04,
90,-7.520000e-03,0.000000e+00,
91,-7.520000e-03,-6.000000e-04,
92,-1.034000e-02,1.200000e-03,
93,-1.128000e-02,1.600000e-03,
94,-1.222000e-02,1.200000e-03,
95,-1.316000e-02,6.000000e-04,
96,-1.410000e-02,1.400000e-03,
97,-1.410000e-02,9.999999e-04,
98,-1.598000e-02,0.000000e+00,
99,-1.504000e-02,6.000000e-04,
100,-1.880000e-02,8.000000e-04,
101,-1.786000e-02,1.200000e-03,
102,-1.974000e-02,6.000000e-04,
103,-1.974000e-02,0.000000e+00,
104,-2.162000e-02,2.000000e-04,
105,-2.162000e-02,6.000000e-04,
106,-2.350000e-02,1.400000e-03,
107,-2.350000e-02,8.000000e-04,
108,-2.632000e-02,6.000000e-04,
109,-2.632000e-02,0.000000e+00,
110,-2.820000e-02,1.400000e-03,
111,-2.820000e-02,8.000000e-04,
112,-3.102000e-02,1.200000e-03,
113,-3.008000e-02,8.000000e-04,
114,-3.196000e-02,1.600000e-03,
115,-3.196000e-02,1.200000e-03,
116,-3.384000e-02,2.200000e-03,
117,-3.384000e-02,1.400000e-03,
118,-3.572000e-02,1.600000e-03,
119,-3.666000e-02,1.200000e-03,
120,-3.760000e-02,1.200000e-03,
121,-3.666000e-02,6.000000e-04,
122,-3.854000e-02,9.999999e-04,
123,-3.854000e-02,4.000000e-04,
124,-4.042000e-02,9.999999e-04,
125,-4.042000e-02,4.000000e-04,
126,-4.418000e-02,1.200000e-03,
127,-4.324000e-02,8.000000e-04,
128,-4.512000e-02,8.000000e-04,
129,-4.418000e-02,1.200000e-03,
130,-4.606000e-02,1.400000e-03,
131,-4.700000e-02,1.800000e-03,
132,-4.888000e-02,0.000000e+00,
133,-4.794000e-02,6.000000e-04,
134,-4.982000e-02,8.000000e-04,
135,-4.982000e-02,1.400000e-03,
136,-5.076000e-02,6.000000e-04,
137,-5.076000e-02,9.999999e-04,
138,-5.264000e-02,-4.000000e-04,
139,-5.264000e-02,0.000000e+00,
140,-5.358000e-02,8.000000e-04,
141,-5.452000e-02,4.000000e-04,
142,-5.640000e-02,-2.000000e-04,
143,-5.734000e-02,2.000000e-04,
144,-5.734000e-02,-2.000000e-04,
145,-5.827999e-02,-8.000000e-04,
146,-5.827999e-02,1.400000e-03,
147,-5.922000e-02,2.000000e-03,
148,-6.109999e-02,2.000000e-04,
149,-6.016000e-02,-6.000000e-04,
150,-6.109999e-02,2.400000e-03,
151,-6.204000e-02,1.800000e-03,
152,-6.392000e-02,9.999999e-04,
153,-6.298000e-02,4.000000e-04,
154,-6.298000e-02,9.999999e-04,
155,-6.392000e-02,4.000000e-04,
156,-6.580000e-02,-2.000000e-04,
157,-6.580000e-02,4.000000e-04,
158,-6.674000e-02,4.000000e-04,
159,-6.674000e-02,9.999999e-04,
160,-6.767999e-02,2.000000e-04,
161,-6.862000e-02,-4.000000e-04,
162,-6.862000e-02,4.000000e-04,
163,-6.862000e-02,9.999999e-04,
164,-7.049999e-02,1.200000e-03,
165,-7.144000e-02,6.000000e-04,
166,-7.049999e-02,1.800000e-03,
167,-7.144000e-02,1.400000e-03,
168,-7.238000e-02,1.600000e-03,
169,-7.238000e-02,1.200000e-03,
170,-7.238000e-02,8.000000e-04,
171,-7.331999e-02,1.400000e-03,
172,-7.426000e-02,1.400000e-03,
173,-7.331999e-02,8.000000e-04,
174,-7.426000e-02,2.000000e-04,
175,-7.426000e-02,8.000000e-04,
176,-7.520000e-02,8.000000e-04,
177,-7.520000e-02,1.400000e-03,
178,-7.520000e-02,-6.000000e-04,
179,-7.613999e-02,0.000000e+00,
180,-7.708000e-02,4.000000e-04,
181,-7.801999e-02,9.999999e-04,
182,-7.801999e-02,1.800000e-03,
183,-7.801999e-02,1.400000e-03,
184,-7.708000e-02,1.600000e-03,
185,-7.801999e-02,1.200000e-03,
186,-7.801999e-02,4.000000e-04,
187,-7.708000e-02,9.999999e-04,
188,-7.990000e-02,1.600000e-03,
189,-7.990000e-02,1.200000e-03,
190,-7.990000e-02,1.600000e-03,
191,-8.083999e-02,9.999999e-04,
192,-7.990000e-02,1.400000e-03,
193,-7.990000e-02,9.999999e-04,
194,-7.990000e-02,9.999999e-04,
195,-7.990000e-02,1.600000e-03,
196,-8.083999e-02,8.000000e-04,
197,-7.990000e-02,1.200000e-03,
198,-7.990000e-02,4.000000e-04,
199,-7.990000e-02,0.000000e+00,
200,-7.990000e-02,1.400000e-03,
201,-7.990000e-02,1.800000e-03,
202,-8.083999e-02,0.000000e+00,
203,-8.083999e-02,4.000000e-04,
204,-8.083999e-02,6.000000e-04,
205,-8.177999e-02,0.000000e+00,
206,-7.990000e-02,6.000000e-04,
207,-8.083999e-02,1.200000e-03,
208,-8.083999e-02,1.400000e-03,
209,-8.083999e-02,2.000000e-03,
210,-7.990000e-02,1.200000e-03,
211,-7.990000e-02,1.600000e-03,
212,-8.083999e-02,0.000000e+00,
213,-7.990000e-02,6.000000e-04,
214,-8.083999e-02,1.800000e-03,
215,-7.990000e-02,2.200000e-03,
216,-7.990000e-02,8.000000e-04,
217,-7.990000e-02,2.000000e-04,
218,-7.990000e-02,1.800000e-03,
219,-7.990000e-02,9.999999e-04,
220,-7.895999e-02,8.000000e-04,
221,-7.895999e-02,4.000000e-04,
222,-7.990000e-02,0.000000e+00,
223,-7.990000e-02,-6.000000e-04,
224,-7.895999e-02,1.800000e-03,
225,-7.895999e-02,2.400000e-03,
226,-7.801999e-02,4.000000e-04,
227,-7.801999e-02,8.000000e-04,
228,-7.801999e-02,1.800000e-03,
229,-7.801999e-02,1.200000e-03,
230,-7.708000e-02,1.600000e-03,
231,-7.801999e-02,9.999999e-04,
232,-7.708000e-02,4.000000e-04,
233,-7.613999e-02,-2.000000e-04,
234,-7.613999e-02,8.000000e-04,
235,-7.613999e-02,2.000000e-04,
236,-7.520000e-02,6.000000e-04,
237,-7.613999e-02,2.000000e-04,
238,-7.426000e-02,0.000000e+00,
239,-7.426000e-02,-6.000000e-04,
240,-7.331999e-02,6.000000e-04,
241,-7.426000e-02,2.000000e-04,
242,-7.238000e-02,1.400000e-03,
243,-7.238000e-02,9.999999e-04,
244,-7.238000e-02,2.400000e-03,
245,-7.144000e-02,1.800000e-03,
246,-7.049999e-02,-6.000000e-04,
247,-7.049999e-02,-1.200000e-03,
248,-7.049999e-02,1.400000e-03,
249,-7.144000e-02,2.000000e-03,
250,-6.862000e-02,-6.000000e-04,
251,-6.862000e-02,-9.999999e-04,
252,-6.767999e-02,1.400000e-03,
253,-6.767999e-02,2.000000e-03,
254,-6.580000e-02,6.000000e-04,
255,-6.580000e-02,9.999999e-04,
256,-6.580000e-02,2.000000e-04,
257,-6.580000e-02,8.000000e-04,
258,-6.392000e-02,6.000000e-04,
259,-6.485999e-02,1.200000e-03,
260,-6.298000e-02,-2.000000e-04,
261,-6.298000e-02,2.000000e-04,
262,-6.204000e-02,2.000000e-04,
263,-6.109999e-02,6.000000e-04,
264,-6.016000e-02,1.200000e-03,
265,-6.109999e-02,4.000000e-04,
266,-5.922000e-02,2.000000e-03,
267,-5.922000e-02,2.400000e-03,
268,-5.640000e-02,1.400000e-03,
269,-5.734000e-02,8.000000e-04,
270,-5.452000e-02,4.000000e-04,
271,-5.452000e-02,1.200000e-03,
272,-5.452000e-02,1.800000e-03,
273,-5.358000e-02,1.400000e-03,
274,-5.358000e-02,1.800000e-03,
275,-5.264000e-02,1.200000e-03,
276,-5.076000e-02,8.000000e-04,
277,-5.076000e-02,1.400000e-03,
278,-4.888000e-02,8.000000e-04,
279,-4.888000e-02,1.200000e-03,
280,-4.794000e-02,6.000000e-04,
281,-4.794000e-02,2.000000e-04,
282,-4.700000e-02,1.400000e-03,
283,-4.700000e-02,8.000000e-04,
284,-4.324000e-02,-2.000000e-04,
285,-4.418000e-02,4.000000e-04,
286,-4.324000e-02,2.000000e-04,
287,-4.230000e-02,8.000000e-04,
288,-4.136000e-02,1.200000e-03,
289,-4.136000e-02,8.000000e-04,
290,-3.854000e-02,8.000000e-04,
291,-3.948000e-02,1.400000e-03,
292,-3.760000e-02,2.000000e-03,
293,-3.760000e-02,1.600000e-03,
294,-3.572000e-02,1.600000e-03,
295,-3.478000e-02,9.999999e-04,
296,-3.384000e-02,6.000000e-04,
297,-3.384000e-02,2.000000e-04,
298,-3.196000e-02,0.000000e+00,
299,-3.102000e-02,6.000000e-04,
300,-3.008000e-02,4.000000e-04,
301,-3.008000e-02,8.000000e-04,
302,-2.820000e-02,9.999999e-04,
303,-2.820000e-02,6.000000e-04,
304,-2.632000e-02,1.600000e-03,
305,-2.538000e-02,9.999999e-04,
306,-2.444000e-02,9.999999e-04,
307,-2.350000e-02,6.000000e-04,
308,-2.162000e-02,8.000000e-04,
309,-2.162000e-02,1.200000e-03,
310,-1.974000e-02,1.200000e-03,
311,-1.880000e-02,6.000000e-04,
312,-1.786000e-02,2.400000e-03,
313,-1.786000e-02,1.800000e-03,
314,-1.598000e-02,4.000000e-04,
315,-1.692000e-02,8.000000e-04,
316,-1.410000e-02,2.000000e-04,
317,-1.410000e-02,8.000000e-04,
318,-1.222000e-02,1.200000e-03,
319,-1.316000e-02,8.000000e-04,
320,-1.034000e-02,6.000000e-04,
321,-9.400000e-03,1.200000e-03,
322,-7.520000e-03,1.600000e-03,
323,-8.459999e-03,9.999999e-04,
324,-5.640000e-03,1.600000e-03,
325,-6.580000e-03,1.200000e-03,
326,-3.760000e-03,6.000000e-04,
327,-3.760000e-03,9.999999e-04,
328,-9.399999e-04,8.000000e-04,
329,-1.880000e-03,2.000000e-04,
330,9.399999e-04,1.400000e-03,
331,9.399999e-04,2.000000e-03,
332,1.880000e-03,2.000000e-03,
333,2.820000e-03,1.400000e-03,
334,3.760000e-03,-6.000000e-04,
335,3.760000e-03,-2.000000e-04,
336,6.580000e-03,1.400000e-03,
337,5.640000e-03,9.999999e-04,
338,9.400000e-03,1.800000e-03,
339,8.459999e-03,1.400000e-03,
340,1.128000e-02,2.000000e-04,
341,1.034000e-02,-2.000000e-04,
342,1.222000e-02,1.200000e-03,
343,1.222000e-02,6.000000e-04,
344,1.410000e-02,8.000000e-04,
345,1.410000e-02,1.200000e-03,
346,1.692000e-02,8.000000e-04,
347,1.598000e-02,1.400000e-03,
348,1.880000e-02,0.000000e+00,
349,1.880000e-02,6.000000e-04,
350,2.068000e-02,1.400000e-03,
351,1.974000e-02,9.999999e-04,
352,2.162000e-02,-2.000000e-04,
353,2.162000e-02,2.000000e-04,
354,2.444000e-02,6.000000e-04,
355,2.444000e-02,1.200000e-03,
356,2.726000e-02,1.600000e-03,
357,2.632000e-02,9.999999e-04,
358,2.820000e-02,0.000000e+00,
359,2.914000e-02,4.000000e-04,
360,3.008000e-02,1.600000e-03,
361,2.914000e-02,9.999999e-04,
362,3.196000e-02,1.800000e-03,
363,3.290000e-02,2.200000e-03,
364,3.384000e-02,2.000000e-04,
365,3.384000e-02,8.000000e-04,
366,3.572000e-02,4.000000e-04,
367,3.572000e-02,8.000000e-04,
368,3.854000e-02,-8.000000e-04,
369,3.760000e-02,-4.000000e-04,
370,3.948000e-02,1.400000e-03,
371,3.948000e-02,9.999999e-04,
372,4.136000e-02,1.200000e-03,
373,4.136000e-02,1.600000e-03,
374,4.324000e-02,8.000000e-04,
375,4.324000e-02,0.000000e+00,
376,4.606000e-02,-2.000000e-04,
377,4.606000e-02,4.000000e-04,
378,4.606000e-02,2.000000e-04,
379,4.606000e-02,-4.000000e-04,
380,4.794000e-02,8.000000e-04,
381,4.888000e-02,4.000000e-04,
382,4.982000e-02,6.000000e-04,
383,4.982000e-02,9.999999e-04,
384,5.170000e-02,2.000000e-04,
385,5.264000e-02,8.000000e-04,
386,5.358000e-02,1.600000e-03,
387,5.358000e-02,9.999999e-04,
388,5.545999e-02,6.000000e-04,
389,5.545999e-02,9.999999e-04,
390,5.640000e-02,9.999999e-04,
391,5.640000e-02,4.000000e-04,
392,5.827999e-02,1.200000e-03,
393,5.827999e-02,6.000000e-04,
394,5.827999e-02,0.000000e+00,
395,5.922000e-02,-4.000000e-04,
396,6.016000e-02,1.200000e-03,
397,6.109999e-02,8.000000e-04,
398,6.204000e-02,6.000000e-04,
399,6.204000e-02,2.000000e-04,
400,6.392000e-02,2.000000e-03,
401,6.392000e-02,2.600000e-03,
402,6.485999e-02,6.000000e-04,
403,6.485999e-02,9.999999e-04,
404,6.674000e-02,4.000000e-04,
405,6.580000e-02,0.000000e+00,
406,6.767999e-02,2.000000e-04,
407,6.767999e-02,-4.000000e-04,
408,6.862000e-02,0.000000e+00,
409,6.862000e-02,-4.000000e-04,
410,6.956000e-02,1.600000e-03,
411,6.862000e-02,2.200000e-03,
412,7.049999e-02,8.000000e-04,
413,7.144000e-02,1.200000e-03,
414,7.144000e-02,1.200000e-03,
415,7.144000e-02,8.000000e-04,
416,7.238000e-02,1.400000e-03,
417,7.331999e-02,9.999999e-04,
418,7.426000e-02,1.200000e-03,
419,7.426000e-02,8.000000e-04,
420,7.520000e-02,2.400000e-03,
421,7.426000e-02,1.600000e-03,
422,7.613999e-02,8.000000e-04,
423,7.613999e-02,4.000000e-04,
424,7.613999e-02,1.800000e-03,
425,7.613999e-02,2.400000e-03,
426,7.801999e-02,0.000000e+00,
427,7.801999e-02,6.000000e-04,
428,7.801999e-02,1.200000e-03,
429,7.801999e-02,1.800000e-03,
430,7.801999e-02,1.200000e-03,
431,7.801999e-02,6.000000e-04,
432,7.990000e-02,6.000000e-04,
433,7.895999e-02,0.000000e+00,
434,7.990000e-02,1.600000e-03,
435,7.990000e-02,2.200000e-03,
436,8.083999e-02,1.200000e-03,
437,8.083999e-02,8.000000e-04,
438,8.083999e-02,2.000000e-04,
439,8.083999e-02,8.000000e-04,
440,8.083999e-02,8.000000e-04,
441,8.177999e-02,2.000000e-04,
442,8.177999e-02,6.000000e-04,
443,8.177999e-02,0.000000e+00,
444,8.272000e-02,6.000000e-04,
445,8.177999e-02,9.999999e-04,
446,8.272000e-02,1.600000e-03,
447,8.177999e-02,2.200000e-03,
448,8.272000e-02,9.999999e-04,
449,8.272000e-02,1.400000e-03,
450,8.272000e-02,4.000000e-04,
451,8.272000e-02,9.999999e-04,
452,8.272000e-02,4.000000e-04,
453,8.177999e-02,9.999999e-04,
454,8.272000e-02,1.400000e-03,
455,8.365999e-02,1.800000e-03,
456,8.177999e-02,-2.000000e-04,
457,8.177999e-02,4.000000e-04,
458,8.365999e-02,4.000000e-04,
459,8.272000e-02,-2.000000e-04,
460,8.272000e-02,2.200000e-03,
461,8.177999e-02,1.800000e-03,
462,8.272000e-02,2.000000e-04,
463,8.177999e-02,-4.000000e-04,
464,8.177999e-02,4.000000e-04,
465,8.272000e-02,9.999999e-04,
466,8.177999e-02,1.400000e-03,
467,8.272000e-02,9.999999e-04,
468,8.177999e-02,1.600000e-03,
469,8.177999e-02,2.200000e-03,
470,8.177999e-02,1.800000e-03,
471,8.083999e-02,1.400000e-03,
472,8.177999e-02,-2.000000e-04,
473,8.083999e-02,4.000000e-04,
474,8.083999e-02,4.000000e-04,
475,7.990000e-02,8.000000e-04,
476,7.990000e-02,4.000000e-04,
477,7.990000e-02,-2.000000e-04,
478,7.990000e-02,6.000000e-04,
479,7.990000e-02,1.200000e-03,
480,7.895999e-02,0.000000e+00,
481,7.990000e-02,6.000000e-04,
482,7.895999e-02,4.000000e-04,
483,7.895999e-02,8.000000e-04,
484,7.801999e-02,-4.000000e-04,
485,7.708000e-02,0.000000e+00,
486,7.801999e-02,6.000000e-04,
487,7.801999e-02,0.000000e+00,
488,7.708000e-02,8.000000e-04,
489,7.613999e-02,1.200000e-03,
490,7.613999e-02,8.000000e-04,
491,7.613999e-02,2.000000e-04,
492,7.520000e-02,-2.000000e-04,
493,7.520000e-02,4.000000e-04,
494,7.331999e-02,9.999999e-04,
495,7.426000e-02,1.600000e-03,
496,7.238000e-02,6.000000e-04,
497,7.331999e-02,0.000000e+00,
498,7.144000e-02,6.000000e-04,
499,7.238000e-02,2.000000e-04,
500,7.049999e-02,2.400000e-03,
501,7.049999e-02,1.800000e-03,
502,7.049999e-02,8.000000e-04,
503,6.956000e-02,1.200000e-03,
504,6.862000e-02,8.000000e-04,
505,6.862000e-02,1.400000e-03,
506,6.862000e-02,-6.000000e-04,
507,6.767999e-02,-2.000000e-04,
508,6.580000e-02,8.000000e-04,
509,6.580000e-02,2.000000e-04,
510,6.392000e-02,1.600000e-03,
511,6.485999e-02,2.200000e-03,
512,6.392000e-02,9.999999e-04,
513,6.485999e-02,4.000000e-04,
514,6.204000e-02,8.000000e-04,
515,6.204000e-02,4.000000e-04,
516,6.109999e-02,1.400000e-03,
517,6.016000e-02,8.000000e-04,
518,5.922000e-02,6.000000e-04,
519,6.016000e-02,0.000000e+00,
520,5.827999e-02,1.200000e-03,
521,5.734000e-02,6.000000e-04,
522,5.640000e-02,9.999999e-04,
523,5.640000e-02,1.600000e-03,
524,5.545999e-02,9.999999e-04,
525,5.452000e-02,6.000000e-04,
526,5.452000e-02,6.000000e-04,
527,5.452000e-02,2.000000e-04,
528,5.170000e-02,9.999999e-04,
529,5.170000e-02,4.000000e-04,
530,4.982000e-02,4.000000e-04,
531,4.982000e-02,9.999999e-04,
532,4.888000e-02,-2.000000e-04,
533,4.794000e-02,-8.000000e-04,
534,4.606000e-02,6.000000e-04,
535,4.606000e-02,1.200000e-03,
536,4.512000e-02,1.200000e-03,
537,4.606000e-02,6.000000e-04,
538,4.418000e-02,0.000000e+00,
539,4.418000e-02,4.000000e-04,
540,4.042000e-02,6.000000e-04,
541,4.042000e-02,2.000000e-04,
542,3.948000e-02,1.200000e-03,
543,3.854000e-02,2.000000e-03,
544,3.760000e-02,9.999999e-04,
545,3.666000e-02,1.600000e-03,
546,3.572000e-02,-4.000000e-04,
547,3.666000e-02,0.000000e+00,
548,3.384000e-02,0.000000e+00,
549,3.384000e-02,4.000000e-04,
550,3.196000e-02,6.000000e-04,
551,3.196000e-02,9.999999e-04,
552,3.008000e-02,0.000000e+00,
553,3.008000e-02,6.000000e-04,
554,2.820000e-02,1.200000e-03,
555,2.820000e-02,8.000000e-04,
556,2.632000e-02,9.999999e-04,
557,2.726000e-02,1.400000e-03,
558,2.444000e-02,4.000000e-04,
559,2.444000e-02,9.999999e-04,
560,2.256000e-02,4.000000e-04,
561,2.350000e-02,8.000000e-04,
562,2.162000e-02,-2.000000e-04,
563,2.068000e-02,4.000000e-04,
564,1.880000e-02,6.000000e-04,
565,1.786000e-02,2.000000e-04,
566,1.692000e-02,4.000000e-04,
567,1.692000e-02,0.000000e+00,
568,1.410000e-02,8.000000e-04,
569,1.504000e-02,1.400000e-03,
570,1.222000e-02,-6.000000e-04,
571,1.316000e-02,0.000000e+00,
572,1.034000e-02,0.000000e+00,
573,9.400000e-03,4.000000e-04,
574,9.400000e-03,9.999999e-04,
575,8.459999e-03,6.000000e-04,
576,7.520000e-03,-9.999999e-04,
577,6.580000e-03,-6.000000e-04,
578,4.700000e-03,0.000000e+00,
579,4.700000e-03,6.000000e-04,
580,1.880000e-03,-8.000000e-04,
581,1.880000e-03,-2.000000e-04,
582,0.000000e+00,9.999999e-04,
583,0.000000e+00,6.000000e-04,
584,-9.399999e-04,2.000000e-04,
585,-1.880000e-03,-2.000000e-04,
586,-3.760000e-03,1.200000e-03,
587,-3.760000e-03,8.000000e-04,
588,-6.580000e-03,8.000000e-04,
589,-5.640000e-03,2.000000e-04,
590,-7.520000e-03,2.400000e-03,
591,-8.459999e-03,2.000000e-03,
592,-1.034000e-02,4.000000e-04,
593,-1.034000e-02,-2.000000e-04,
594,-1.128000e-02,0.000000e+00,
595,-1.222000e-02,-6.000000e-04,
596,-1.504000e-02,9.999999e-04,
597,-1.504000e-02,1.400000e-03,
598,-1.692000e-02,1.200000e-03,
599,-1.598000e-02,6.000000e-04,
600,-1.786000e-02,1.600000e-03,
601,-1.786000e-02,2.200000e-03,
602,-1.974000e-02,2.000000e-04,
603,-1.974000e-02,8.000000e-04,
604,-2.162000e-02,8.000000e-04,
605,-2.162000e-02,4.000000e-04,
606,-2.444000e-02,0.000000e+00,
607,-2.444000e-02,6.000000e-04,
608,-2.538000e-02,4.000000e-04,
609,-2.632000e-02,-2.000000e-04,
610,-2.820000e-02,1.600000e-03,
611,-2.726000e-02,1.200000e-03,
612,-3.102000e-02,6.000000e-04,
613,-3.008000e-02,9.999999e-04,
614,-3.102000e-02,-2.000000e-04,
615,-3.102000e-02,2.000000e-04,
616,-3.384000e-02,4.000000e-04,
617,-3.478000e-02,8.000000e-04,
618,-3.572000e-02,8.000000e-04,
619,-3.572000e-02,2.000000e-04,
620,-3.760000e-02,1.200000e-03,
621,-3.760000e-02,1.800000e-03,
622,-3.948000e-02,1.200000e-03,
623,-3.948000e-02,1.600000e-03,
624,-4.136000e-02,2.000000e-04,
625,-4.136000e-02,-2.000000e-04,
626,-4.324000e-02,6.000000e-04,
627,-4.230000e-02,1.200000e-03,
628,-4.512000e-02,8.000000e-04,
629,-4.512000e-02,1.200000e-03,
630,-4.700000e-02,1.800000e-03,
631,-4.700000e-02,1.400000e-03,
632,-4.700000e-02,1.800000e-03,
633,-4.794000e-02,9.999999e-04,
