parte2/esp9/Con_sorgente/Data_diff/10.csv

X,CH1,CH2,Start,Increment,
Sequence,Volt,Volt,-7.000000e-03,1.000000e-05,
0,-5.051200e-02,1.536000e+00,
1,-5.112800e-02,1.552000e+00,
2,-5.051200e-02,1.536000e+00,
3,-5.112800e-02,1.552000e+00,
4,-5.051200e-02,1.536000e+00,
5,-4.989600e-02,1.536000e+00,
6,-5.112800e-02,1.536000e+00,
7,-5.051200e-02,1.536000e+00,
8,-5.051200e-02,1.536000e+00,
9,-5.112800e-02,1.520000e+00,
10,-5.051200e-02,1.520000e+00,
11,-4.989600e-02,1.504000e+00,
12,-4.928000e-02,1.504000e+00,
13,-4.928000e-02,1.504000e+00,
14,-4.866400e-02,1.504000e+00,
15,-4.866400e-02,1.488000e+00,
16,-4.866400e-02,1.488000e+00,
17,-4.866400e-02,1.488000e+00,
18,-4.804800e-02,1.472000e+00,
19,-4.866400e-02,1.472000e+00,
20,-4.681600e-02,1.456000e+00,
21,-4.743200e-02,1.456000e+00,
22,-4.743200e-02,1.440000e+00,
23,-4.804800e-02,1.440000e+00,
24,-4.681600e-02,1.424000e+00,
25,-4.681600e-02,1.408000e+00,
26,-4.558400e-02,1.408000e+00,
27,-4.620000e-02,1.408000e+00,
28,-4.558400e-02,1.392000e+00,
29,-4.496800e-02,1.376000e+00,
30,-4.435200e-02,1.360000e+00,
31,-4.373600e-02,1.344000e+00,
32,-4.373600e-02,1.344000e+00,
33,-4.373600e-02,1.328000e+00,
34,-4.250400e-02,1.312000e+00,
35,-4.188800e-02,1.296000e+00,
36,-4.188800e-02,1.280000e+00,
37,-4.188800e-02,1.280000e+00,
38,-4.004000e-02,1.264000e+00,
39,-4.065600e-02,1.248000e+00,
40,-3.942400e-02,1.232000e+00,
41,-4.004000e-02,1.232000e+00,
42,-4.004000e-02,1.200000e+00,
43,-4.004000e-02,1.200000e+00,
44,-3.819200e-02,1.168000e+00,
45,-3.880800e-02,1.152000e+00,
46,-3.757600e-02,1.136000e+00,
47,-3.696000e-02,1.136000e+00,
48,-3.634400e-02,1.104000e+00,
49,-3.634400e-02,1.104000e+00,
50,-3.572800e-02,1.072000e+00,
51,-3.572800e-02,1.072000e+00,
52,-3.326400e-02,1.040000e+00,
53,-3.326400e-02,1.024000e+00,
54,-3.264800e-02,1.008000e+00,
55,-3.203200e-02,9.920000e-01,
56,-3.080000e-02,9.600000e-01,
57,-3.141600e-02,9.600000e-01,
58,-3.018400e-02,9.280000e-01,
59,-2.956800e-02,9.280000e-01,
60,-2.895200e-02,8.960000e-01,
61,-2.833600e-02,8.800001e-01,
62,-2.772000e-02,8.480000e-01,
63,-2.772000e-02,8.480000e-01,
64,-2.648800e-02,8.000000e-01,
65,-2.648800e-02,8.000000e-01,
66,-2.340800e-02,7.680001e-01,
67,-2.402400e-02,7.680001e-01,
68,-2.402400e-02,7.200000e-01,
69,-2.340800e-02,7.200000e-01,
70,-2.156000e-02,6.720001e-01,
71,-2.217600e-02,6.720001e-01,
72,-2.032800e-02,6.240000e-01,
73,-2.094400e-02,6.400000e-01,
74,-1.848000e-02,5.920000e-01,
75,-1.909600e-02,5.760000e-01,
76,-1.786400e-02,5.440000e-01,
77,-1.724800e-02,5.280000e-01,
78,-1.540000e-02,4.960000e-01,
79,-1.601600e-02,4.960000e-01,
80,-1.478400e-02,4.480000e-01,
81,-1.416800e-02,4.480000e-01,
82,-1.232000e-02,4.000000e-01,
83,-1.232000e-02,4.000000e-01,
84,-1.170400e-02,3.680000e-01,
85,-1.108800e-02,3.520000e-01,
86,-9.856000e-03,3.200000e-01,
87,-1.047200e-02,3.040000e-01,
88,-7.392000e-03,2.720000e-01,
89,-8.008000e-03,2.720000e-01,
90,-6.776000e-03,2.240000e-01,
91,-6.160000e-03,2.080000e-01,
92,-5.544000e-03,1.760000e-01,
93,-4.928000e-03,1.760000e-01,
94,-2.464000e-03,1.280000e-01,
95,-3.080000e-03,1.120000e-01,
96,-1.848000e-03,8.000001e-02,
97,-2.464000e-03,8.000001e-02,
98,-6.160000e-04,3.200000e-02,
99,-6.160000e-04,1.600000e-02,
100,1.232000e-03,-1.600000e-02,
101,1.232000e-03,-3.200000e-02,
102,2.464000e-03,-6.400000e-02,
103,3.080000e-03,-8.000001e-02,
104,4.928000e-03,-1.120000e-01,
105,4.312000e-03,-1.280000e-01,
106,6.160000e-03,-1.760000e-01,
107,6.776000e-03,-1.760000e-01,
108,8.008000e-03,-2.240000e-01,
109,8.624000e-03,-2.240000e-01,
110,9.240000e-03,-2.560000e-01,
111,8.624000e-03,-2.720000e-01,
112,1.108800e-02,-3.200000e-01,
113,1.108800e-02,-3.200000e-01,
114,1.293600e-02,-3.680000e-01,
115,1.293600e-02,-3.840000e-01,
116,1.293600e-02,-4.160000e-01,
117,1.355200e-02,-4.160000e-01,
118,1.601600e-02,-4.480000e-01,
119,1.601600e-02,-4.640000e-01,
120,1.663200e-02,-4.960000e-01,
121,1.601600e-02,-4.960000e-01,
122,1.909600e-02,-5.440000e-01,
123,1.909600e-02,-5.440000e-01,
124,2.032800e-02,-5.920000e-01,
125,1.971200e-02,-5.920000e-01,
126,2.156000e-02,-6.400000e-01,
127,2.156000e-02,-6.400000e-01,
128,2.217600e-02,-6.720001e-01,
129,2.217600e-02,-6.880000e-01,
130,2.464000e-02,-7.200000e-01,
131,2.464000e-02,-7.200000e-01,
132,2.525600e-02,-7.680001e-01,
133,2.525600e-02,-7.680001e-01,
134,2.710400e-02,-8.000000e-01,
135,2.648800e-02,-8.000000e-01,
136,2.833600e-02,-8.480000e-01,
137,2.833600e-02,-8.480000e-01,
138,2.956800e-02,-8.800001e-01,
139,2.956800e-02,-8.800001e-01,
140,3.080000e-02,-9.280000e-01,
141,3.018400e-02,-9.280000e-01,
142,3.203200e-02,-9.600000e-01,
143,3.264800e-02,-9.600000e-01,
144,3.326400e-02,-9.920000e-01,
145,3.326400e-02,-1.008000e+00,
146,3.449600e-02,-1.024000e+00,
147,3.511200e-02,-1.040000e+00,
148,3.572800e-02,-1.072000e+00,
149,3.511200e-02,-1.072000e+00,
150,3.819200e-02,-1.104000e+00,
151,3.757600e-02,-1.104000e+00,
152,3.819200e-02,-1.136000e+00,
153,3.757600e-02,-1.136000e+00,
154,3.942400e-02,-1.168000e+00,
155,3.880800e-02,-1.168000e+00,
156,4.004000e-02,-1.200000e+00,
157,3.942400e-02,-1.200000e+00,
158,4.188800e-02,-1.232000e+00,
159,4.188800e-02,-1.216000e+00,
160,4.250400e-02,-1.248000e+00,
161,4.188800e-02,-1.248000e+00,
162,4.250400e-02,-1.280000e+00,
163,4.312000e-02,-1.280000e+00,
164,4.312000e-02,-1.312000e+00,
165,4.373600e-02,-1.312000e+00,
166,4.435200e-02,-1.328000e+00,
167,4.373600e-02,-1.328000e+00,
168,4.496800e-02,-1.360000e+00,
169,4.558400e-02,-1.360000e+00,
170,4.558400e-02,-1.376000e+00,
171,4.620000e-02,-1.392000e+00,
172,4.681600e-02,-1.392000e+00,
173,4.620000e-02,-1.408000e+00,
174,4.681600e-02,-1.408000e+00,
175,4.681600e-02,-1.408000e+00,
176,4.743200e-02,-1.424000e+00,
177,4.804800e-02,-1.424000e+00,
178,4.866400e-02,-1.440000e+00,
179,4.804800e-02,-1.440000e+00,
180,4.928000e-02,-1.456000e+00,
181,4.989600e-02,-1.456000e+00,
182,4.928000e-02,-1.472000e+00,
183,4.928000e-02,-1.472000e+00,
184,4.989600e-02,-1.488000e+00,
185,4.928000e-02,-1.488000e+00,
186,5.051200e-02,-1.488000e+00,
187,5.051200e-02,-1.488000e+00,
188,5.051200e-02,-1.504000e+00,
189,4.989600e-02,-1.504000e+00,
190,5.112800e-02,-1.504000e+00,
191,5.174400e-02,-1.520000e+00,
192,5.112800e-02,-1.520000e+00,
193,5.051200e-02,-1.520000e+00,
194,5.051200e-02,-1.520000e+00,
195,4.989600e-02,-1.536000e+00,
196,5.174400e-02,-1.520000e+00,
197,5.236000e-02,-1.520000e+00,
198,5.051200e-02,-1.520000e+00,
199,4.989600e-02,-1.536000e+00,
200,5.112800e-02,-1.520000e+00,
201,5.174400e-02,-1.520000e+00,
202,5.174400e-02,-1.536000e+00,
203,5.112800e-02,-1.520000e+00,
204,5.174400e-02,-1.520000e+00,
205,5.112800e-02,-1.536000e+00,
206,5.051200e-02,-1.504000e+00,
207,4.989600e-02,-1.504000e+00,
208,4.989600e-02,-1.504000e+00,
209,5.051200e-02,-1.520000e+00,
210,5.051200e-02,-1.488000e+00,
211,4.989600e-02,-1.504000e+00,
212,5.051200e-02,-1.488000e+00,
213,5.051200e-02,-1.488000e+00,
214,4.989600e-02,-1.472000e+00,
215,4.989600e-02,-1.472000e+00,
216,4.866400e-02,-1.472000e+00,
217,4.866400e-02,-1.472000e+00,
218,4.989600e-02,-1.456000e+00,
219,4.928000e-02,-1.456000e+00,
220,4.804800e-02,-1.440000e+00,
221,4.866400e-02,-1.456000e+00,
222,4.743200e-02,-1.424000e+00,
223,4.804800e-02,-1.424000e+00,
224,4.743200e-02,-1.408000e+00,
225,4.743200e-02,-1.408000e+00,
226,4.681600e-02,-1.392000e+00,
227,4.743200e-02,-1.376000e+00,
228,4.620000e-02,-1.360000e+00,
229,4.558400e-02,-1.376000e+00,
230,4.558400e-02,-1.344000e+00,
231,4.620000e-02,-1.344000e+00,
232,4.496800e-02,-1.328000e+00,
233,4.558400e-02,-1.312000e+00,
234,4.435200e-02,-1.312000e+00,
235,4.435200e-02,-1.296000e+00,
236,4.250400e-02,-1.264000e+00,
237,4.188800e-02,-1.264000e+00,
238,4.250400e-02,-1.248000e+00,
239,4.250400e-02,-1.232000e+00,
240,4.127200e-02,-1.216000e+00,
241,4.188800e-02,-1.232000e+00,
242,4.004000e-02,-1.184000e+00,
243,3.942400e-02,-1.200000e+00,
244,3.819200e-02,-1.152000e+00,
245,3.880800e-02,-1.152000e+00,
246,3.819200e-02,-1.120000e+00,
247,3.819200e-02,-1.120000e+00,
248,3.696000e-02,-1.104000e+00,
249,3.634400e-02,-1.088000e+00,
250,3.511200e-02,-1.056000e+00,
251,3.511200e-02,-1.056000e+00,
252,3.388000e-02,-1.024000e+00,
253,3.388000e-02,-1.008000e+00,
254,3.264800e-02,-9.760001e-01,
255,3.203200e-02,-9.920000e-01,
256,3.203200e-02,-9.440001e-01,
257,3.264800e-02,-9.440001e-01,
258,3.141600e-02,-9.120001e-01,
259,3.203200e-02,-8.960000e-01,
260,3.018400e-02,-8.640000e-01,
261,3.080000e-02,-8.640000e-01,
262,2.833600e-02,-8.480000e-01,
263,2.833600e-02,-8.320000e-01,
264,2.648800e-02,-7.840000e-01,
265,2.587200e-02,-7.840000e-01,
266,2.464000e-02,-7.520000e-01,
267,2.402400e-02,-7.520000e-01,
268,2.402400e-02,-7.200000e-01,
269,2.340800e-02,-7.040001e-01,
270,2.217600e-02,-6.560000e-01,
271,2.279200e-02,-6.560000e-01,
272,2.094400e-02,-6.240000e-01,
273,2.094400e-02,-6.080000e-01,
274,2.032800e-02,-5.760000e-01,
275,1.971200e-02,-5.760000e-01,
276,1.786400e-02,-5.280000e-01,
277,1.724800e-02,-5.280000e-01,
278,1.786400e-02,-4.800000e-01,
279,1.786400e-02,-4.960000e-01,
280,1.540000e-02,-4.320000e-01,
281,1.478400e-02,-4.320000e-01,
282,1.478400e-02,-4.000000e-01,
283,1.416800e-02,-3.840000e-01,
284,1.170400e-02,-3.520000e-01,
285,1.232000e-02,-3.360000e-01,
286,1.170400e-02,-2.880000e-01,
287,1.108800e-02,-2.880000e-01,
288,8.008000e-03,-2.400000e-01,
289,8.624000e-03,-2.400000e-01,
290,8.008000e-03,-1.920000e-01,
291,7.392000e-03,-1.920000e-01,
292,5.544000e-03,-1.440000e-01,
293,4.928000e-03,-1.440000e-01,
294,4.312000e-03,-9.600001e-02,
295,4.928000e-03,-9.600001e-02,
296,3.696000e-03,-4.800000e-02,
297,3.080000e-03,-4.800000e-02,
298,3.080000e-03,0.000000e+00,
299,2.464000e-03,0.000000e+00,
300,0.000000e+00,4.800000e-02,
301,0.000000e+00,3.200000e-02,
302,-1.232000e-03,9.600001e-02,
303,-1.848000e-03,9.600001e-02,
304,-4.312000e-03,1.440000e-01,
305,-4.928000e-03,1.280000e-01,
306,-5.544000e-03,1.920000e-01,
307,-5.544000e-03,1.920000e-01,
308,-6.776000e-03,2.400000e-01,
309,-6.160000e-03,2.400000e-01,
310,-9.240000e-03,2.880000e-01,
311,-8.624000e-03,2.880000e-01,
312,-1.047200e-02,3.360000e-01,
313,-9.856000e-03,3.360000e-01,
314,-1.170400e-02,3.840000e-01,
315,-1.170400e-02,3.680000e-01,
316,-1.232000e-02,4.160000e-01,
317,-1.293600e-02,4.320000e-01,
318,-1.478400e-02,4.640000e-01,
319,-1.478400e-02,4.640000e-01,
320,-1.601600e-02,5.120000e-01,
321,-1.601600e-02,4.960000e-01,
322,-1.786400e-02,5.440000e-01,
323,-1.724800e-02,5.600000e-01,
324,-1.848000e-02,5.920000e-01,
325,-1.848000e-02,6.080000e-01,
326,-2.032800e-02,6.560000e-01,
327,-1.971200e-02,6.560000e-01,
328,-2.156000e-02,6.880000e-01,
329,-2.156000e-02,7.040001e-01,
330,-2.340800e-02,7.200000e-01,
331,-2.279200e-02,7.360001e-01,
332,-2.525600e-02,7.680001e-01,
333,-2.525600e-02,7.840000e-01,
334,-2.648800e-02,8.160000e-01,
335,-2.648800e-02,8.320000e-01,
336,-2.710400e-02,8.480000e-01,
337,-2.648800e-02,8.640000e-01,
338,-2.895200e-02,8.960000e-01,
339,-2.833600e-02,9.120001e-01,
340,-2.956800e-02,9.440001e-01,
341,-2.895200e-02,9.440001e-01,
342,-3.080000e-02,9.600000e-01,
343,-3.141600e-02,9.760001e-01,
344,-3.264800e-02,1.008000e+00,
345,-3.264800e-02,1.008000e+00,
346,-3.326400e-02,1.040000e+00,
347,-3.326400e-02,1.056000e+00,
348,-3.449600e-02,1.088000e+00,
349,-3.511200e-02,1.088000e+00,
350,-3.696000e-02,1.120000e+00,
351,-3.696000e-02,1.104000e+00,
352,-3.696000e-02,1.152000e+00,
353,-3.634400e-02,1.152000e+00,
354,-3.696000e-02,1.184000e+00,
355,-3.696000e-02,1.184000e+00,
356,-3.942400e-02,1.216000e+00,
357,-3.880800e-02,1.216000e+00,
358,-4.065600e-02,1.232000e+00,
359,-4.004000e-02,1.248000e+00,
360,-4.188800e-02,1.264000e+00,
361,-4.127200e-02,1.264000e+00,
362,-4.250400e-02,1.280000e+00,
363,-4.250400e-02,1.296000e+00,
364,-4.127200e-02,1.328000e+00,
365,-4.188800e-02,1.312000e+00,
366,-4.250400e-02,1.328000e+00,
367,-4.250400e-02,1.344000e+00,
368,-4.496800e-02,1.360000e+00,
369,-4.496800e-02,1.376000e+00,
370,-4.496800e-02,1.392000e+00,
371,-4.496800e-02,1.392000e+00,
372,-4.620000e-02,1.408000e+00,
373,-4.558400e-02,1.408000e+00,
374,-4.681600e-02,1.424000e+00,
375,-4.743200e-02,1.440000e+00,
376,-4.743200e-02,1.440000e+00,
377,-4.681600e-02,1.456000e+00,
378,-4.743200e-02,1.456000e+00,
379,-4.743200e-02,1.472000e+00,
380,-4.681600e-02,1.472000e+00,
381,-4.743200e-02,1.488000e+00,
382,-4.866400e-02,1.488000e+00,
383,-4.928000e-02,1.488000e+00,
384,-4.989600e-02,1.504000e+00,
385,-4.989600e-02,1.504000e+00,
386,-4.989600e-02,1.520000e+00,
387,-4.989600e-02,1.504000e+00,
388,-4.928000e-02,1.520000e+00,
389,-4.989600e-02,1.504000e+00,
390,-4.928000e-02,1.536000e+00,
391,-4.989600e-02,1.520000e+00,
392,-5.051200e-02,1.520000e+00,
393,-5.051200e-02,1.536000e+00,
394,-4.928000e-02,1.536000e+00,
395,-4.928000e-02,1.536000e+00,
396,-4.928000e-02,1.536000e+00,
397,-4.989600e-02,1.536000e+00,
398,-5.112800e-02,1.552000e+00,
399,-5.112800e-02,1.536000e+00,
400,-5.051200e-02,1.536000e+00,
401,-4.989600e-02,1.552000e+00,
402,-5.051200e-02,1.536000e+00,
403,-5.051200e-02,1.536000e+00,
404,-4.928000e-02,1.536000e+00,
405,-4.989600e-02,1.520000e+00,
406,-5.051200e-02,1.536000e+00,
407,-5.112800e-02,1.536000e+00,
408,-4.989600e-02,1.536000e+00,
409,-4.928000e-02,1.536000e+00,
410,-4.928000e-02,1.520000e+00,
411,-4.866400e-02,1.520000e+00,
412,-5.051200e-02,1.504000e+00,
413,-5.051200e-02,1.504000e+00,
414,-4.928000e-02,1.488000e+00,
415,-4.928000e-02,1.504000e+00,
416,-4.804800e-02,1.488000e+00,
417,-4.804800e-02,1.488000e+00,
418,-4.804800e-02,1.472000e+00,
419,-4.804800e-02,1.472000e+00,
420,-4.681600e-02,1.456000e+00,
421,-4.681600e-02,1.456000e+00,
422,-4.681600e-02,1.440000e+00,
423,-4.620000e-02,1.440000e+00,
424,-4.681600e-02,1.424000e+00,
425,-4.743200e-02,1.424000e+00,
426,-4.620000e-02,1.408000e+00,
427,-4.558400e-02,1.392000e+00,
428,-4.558400e-02,1.376000e+00,
429,-4.620000e-02,1.392000e+00,
430,-4.373600e-02,1.360000e+00,
431,-4.435200e-02,1.344000e+00,
432,-4.435200e-02,1.344000e+00,
433,-4.373600e-02,1.328000e+00,
434,-4.312000e-02,1.312000e+00,
435,-4.312000e-02,1.312000e+00,
436,-4.127200e-02,1.280000e+00,
437,-4.188800e-02,1.280000e+00,
438,-4.127200e-02,1.264000e+00,
439,-4.127200e-02,1.248000e+00,
440,-3.942400e-02,1.232000e+00,
441,-3.942400e-02,1.232000e+00,
442,-3.880800e-02,1.200000e+00,
443,-3.942400e-02,1.200000e+00,
444,-3.819200e-02,1.168000e+00,
445,-3.757600e-02,1.152000e+00,
446,-3.696000e-02,1.136000e+00,
447,-3.634400e-02,1.136000e+00,
448,-3.572800e-02,1.104000e+00,
449,-3.572800e-02,1.104000e+00,
450,-3.511200e-02,1.072000e+00,
451,-3.511200e-02,1.072000e+00,
452,-3.388000e-02,1.040000e+00,
453,-3.388000e-02,1.040000e+00,
454,-3.264800e-02,1.008000e+00,
455,-3.264800e-02,9.920000e-01,
456,-3.141600e-02,9.600000e-01,
457,-3.141600e-02,9.600000e-01,
458,-3.018400e-02,9.280000e-01,
459,-3.018400e-02,9.280000e-01,
460,-2.956800e-02,8.800001e-01,
461,-2.895200e-02,8.800001e-01,
462,-2.833600e-02,8.480000e-01,
463,-2.772000e-02,8.480000e-01,
464,-2.587200e-02,8.000000e-01,
465,-2.648800e-02,8.000000e-01,
466,-2.402400e-02,7.680001e-01,
467,-2.464000e-02,7.520000e-01,
468,-2.340800e-02,7.200000e-01,
469,-2.279200e-02,7.200000e-01,
470,-2.217600e-02,6.720001e-01,
471,-2.156000e-02,6.720001e-01,
472,-2.094400e-02,6.400000e-01,
473,-2.094400e-02,6.240000e-01,
474,-1.909600e-02,5.920000e-01,
475,-1.848000e-02,5.760000e-01,
476,-1.724800e-02,5.440000e-01,
477,-1.663200e-02,5.440000e-01,
478,-1.540000e-02,4.960000e-01,
479,-1.478400e-02,4.960000e-01,
480,-1.416800e-02,4.480000e-01,
481,-1.355200e-02,4.480000e-01,
482,-1.232000e-02,4.000000e-01,
483,-1.293600e-02,4.000000e-01,
484,-1.232000e-02,3.520000e-01,
485,-1.232000e-02,3.520000e-01,
486,-9.856000e-03,3.200000e-01,
487,-9.240000e-03,3.040000e-01,
488,-8.008000e-03,2.720000e-01,
489,-8.624000e-03,2.560000e-01,
490,-6.160000e-03,2.240000e-01,
491,-5.544000e-03,2.080000e-01,
492,-4.928000e-03,1.760000e-01,
493,-4.928000e-03,1.600000e-01,
494,-4.312000e-03,1.280000e-01,
495,-4.928000e-03,1.120000e-01,
496,-1.232000e-03,8.000001e-02,
497,-1.232000e-03,8.000001e-02,
498,-6.160000e-04,3.200000e-02,
499,0.000000e+00,3.200000e-02,
500,1.232000e-03,-1.600000e-02,
501,1.232000e-03,-3.200000e-02,
502,3.696000e-03,-6.400000e-02,
503,3.080000e-03,-8.000001e-02,
504,4.312000e-03,-1.120000e-01,
505,4.928000e-03,-1.280000e-01,
506,6.776000e-03,-1.600000e-01,
507,7.392000e-03,-1.760000e-01,
508,7.392000e-03,-2.240000e-01,
509,7.392000e-03,-2.240000e-01,
510,9.240000e-03,-2.560000e-01,
511,9.856000e-03,-2.720000e-01,
512,9.856000e-03,-3.200000e-01,
513,1.047200e-02,-3.200000e-01,
514,1.293600e-02,-3.680000e-01,
515,1.293600e-02,-3.840000e-01,
516,1.416800e-02,-4.160000e-01,
517,1.416800e-02,-4.160000e-01,
518,1.601600e-02,-4.480000e-01,
519,1.540000e-02,-4.640000e-01,
520,1.724800e-02,-4.960000e-01,
521,1.663200e-02,-4.960000e-01,
522,1.848000e-02,-5.440000e-01,
523,1.786400e-02,-5.440000e-01,
524,1.971200e-02,-5.920000e-01,
525,1.909600e-02,-6.080000e-01,
526,2.032800e-02,-6.400000e-01,
527,2.094400e-02,-6.400000e-01,
528,2.402400e-02,-6.720001e-01,
529,2.340800e-02,-6.880000e-01,
530,2.464000e-02,-7.200000e-01,
531,2.525600e-02,-7.200000e-01,
532,2.648800e-02,-7.680001e-01,
533,2.587200e-02,-7.680001e-01,
534,2.710400e-02,-8.000000e-01,
535,2.648800e-02,-8.000000e-01,
536,2.772000e-02,-8.480000e-01,
537,2.833600e-02,-8.480000e-01,
538,3.018400e-02,-8.800001e-01,
539,3.018400e-02,-8.800001e-01,
540,3.018400e-02,-9.280000e-01,
541,3.080000e-02,-9.280000e-01,
542,3.264800e-02,-9.600000e-01,
543,3.264800e-02,-9.600000e-01,
544,3.388000e-02,-9.920000e-01,
545,3.449600e-02,-9.920000e-01,
546,3.511200e-02,-1.024000e+00,
547,3.449600e-02,-1.040000e+00,
548,3.572800e-02,-1.072000e+00,
549,3.634400e-02,-1.072000e+00,
550,3.634400e-02,-1.104000e+00,
551,3.572800e-02,-1.104000e+00,
552,3.757600e-02,-1.136000e+00,
553,3.696000e-02,-1.136000e+00,
554,3.942400e-02,-1.168000e+00,
555,3.880800e-02,-1.184000e+00,
556,4.065600e-02,-1.200000e+00,
557,4.004000e-02,-1.200000e+00,
558,4.127200e-02,-1.216000e+00,
559,4.188800e-02,-1.232000e+00,
560,4.188800e-02,-1.248000e+00,
561,4.188800e-02,-1.264000e+00,
562,4.250400e-02,-1.280000e+00,
563,4.312000e-02,-1.280000e+00,
564,4.373600e-02,-1.296000e+00,
565,4.312000e-02,-1.312000e+00,
566,4.496800e-02,-1.328000e+00,
567,4.496800e-02,-1.328000e+00,
568,4.496800e-02,-1.360000e+00,
569,4.558400e-02,-1.344000e+00,
570,4.620000e-02,-1.376000e+00,
571,4.558400e-02,-1.392000e+00,
572,4.558400e-02,-1.392000e+00,
573,4.620000e-02,-1.392000e+00,
574,4.681600e-02,-1.408000e+00,
575,4.743200e-02,-1.408000e+00,
576,4.743200e-02,-1.424000e+00,
577,4.804800e-02,-1.424000e+00,
578,4.866400e-02,-1.440000e+00,
579,4.804800e-02,-1.440000e+00,
580,4.928000e-02,-1.456000e+00,
581,4.928000e-02,-1.456000e+00,
582,4.928000e-02,-1.472000e+00,
583,4.928000e-02,-1.488000e+00,
584,4.989600e-02,-1.488000e+00,
585,4.928000e-02,-1.488000e+00,
586,4.928000e-02,-1.488000e+00,
587,4.928000e-02,-1.504000e+00,
588,5.051200e-02,-1.504000e+00,
589,4.989600e-02,-1.504000e+00,
590,5.112800e-02,-1.504000e+00,
591,5.051200e-02,-1.520000e+00,
592,5.112800e-02,-1.520000e+00,
593,5.112800e-02,-1.520000e+00,
594,5.112800e-02,-1.520000e+00,
595,5.174400e-02,-1.536000e+00,
596,5.051200e-02,-1.520000e+00,
597,5.112800e-02,-1.536000e+00,
598,5.112800e-02,-1.520000e+00,
599,5.051200e-02,-1.520000e+00,
600,5.051200e-02,-1.520000e+00,
601,5.112800e-02,-1.520000e+00,
602,5.051200e-02,-1.520000e+00,
603,4.989600e-02,-1.536000e+00,
604,5.174400e-02,-1.520000e+00,
605,5.236000e-02,-1.536000e+00,
606,5.051200e-02,-1.520000e+00,
607,5.112800e-02,-1.504000e+00,
608,5.051200e-02,-1.504000e+00,
609,4.989600e-02,-1.504000e+00,
610,5.112800e-02,-1.488000e+00,
611,5.051200e-02,-1.504000e+00,
612,4.989600e-02,-1.488000e+00,
613,4.928000e-02,-1.488000e+00,
614,5.051200e-02,-1.488000e+00,
615,4.989600e-02,-1.472000e+00,
616,4.928000e-02,-1.472000e+00,
617,4.928000e-02,-1.456000e+00,
618,4.928000e-02,-1.456000e+00,
619,4.928000e-02,-1.456000e+00,
620,4.804800e-02,-1.440000e+00,
621,4.866400e-02,-1.440000e+00,
622,4.804800e-02,-1.424000e+00,
623,4.866400e-02,-1.424000e+00,
624,4.804800e-02,-1.408000e+00,
625,4.743200e-02,-1.408000e+00,
