parte2/esp9/Con_sorgente/Data_diff/11.csv

X,CH1,CH2,Start,Increment,
Sequence,Volt,Volt,-3.500000e-03,5.000000e-06,
0,-4.681600e-02,1.424000e+00,
1,-4.743200e-02,1.424000e+00,
2,-4.681600e-02,1.424000e+00,
3,-4.743200e-02,1.424000e+00,
4,-4.743200e-02,1.440000e+00,
5,-4.743200e-02,1.440000e+00,
6,-4.804800e-02,1.456000e+00,
7,-4.743200e-02,1.456000e+00,
8,-4.804800e-02,1.472000e+00,
9,-4.804800e-02,1.472000e+00,
10,-4.804800e-02,1.488000e+00,
11,-4.804800e-02,1.488000e+00,
12,-4.928000e-02,1.504000e+00,
13,-4.989600e-02,1.504000e+00,
14,-4.804800e-02,1.520000e+00,
15,-4.866400e-02,1.504000e+00,
16,-4.928000e-02,1.520000e+00,
17,-4.989600e-02,1.520000e+00,
18,-4.928000e-02,1.536000e+00,
19,-4.866400e-02,1.520000e+00,
20,-5.051200e-02,1.536000e+00,
21,-5.112800e-02,1.536000e+00,
22,-4.989600e-02,1.536000e+00,
23,-5.051200e-02,1.536000e+00,
24,-4.989600e-02,1.536000e+00,
25,-5.051200e-02,1.536000e+00,
26,-4.989600e-02,1.552000e+00,
27,-5.051200e-02,1.536000e+00,
28,-4.989600e-02,1.536000e+00,
29,-4.928000e-02,1.536000e+00,
30,-5.051200e-02,1.536000e+00,
31,-4.989600e-02,1.520000e+00,
32,-5.051200e-02,1.536000e+00,
33,-4.989600e-02,1.536000e+00,
34,-5.051200e-02,1.536000e+00,
35,-5.051200e-02,1.536000e+00,
36,-4.928000e-02,1.520000e+00,
37,-4.866400e-02,1.504000e+00,
38,-4.804800e-02,1.504000e+00,
39,-4.804800e-02,1.520000e+00,
40,-4.804800e-02,1.504000e+00,
41,-4.743200e-02,1.504000e+00,
42,-4.866400e-02,1.488000e+00,
43,-4.804800e-02,1.488000e+00,
44,-4.866400e-02,1.472000e+00,
45,-4.928000e-02,1.472000e+00,
46,-4.743200e-02,1.456000e+00,
47,-4.681600e-02,1.456000e+00,
48,-4.681600e-02,1.440000e+00,
49,-4.681600e-02,1.440000e+00,
50,-4.620000e-02,1.424000e+00,
51,-4.558400e-02,1.408000e+00,
52,-4.558400e-02,1.408000e+00,
53,-4.496800e-02,1.408000e+00,
54,-4.496800e-02,1.376000e+00,
55,-4.496800e-02,1.392000e+00,
56,-4.373600e-02,1.360000e+00,
57,-4.373600e-02,1.360000e+00,
58,-4.250400e-02,1.344000e+00,
59,-4.312000e-02,1.344000e+00,
60,-4.188800e-02,1.312000e+00,
61,-4.188800e-02,1.312000e+00,
62,-4.250400e-02,1.280000e+00,
63,-4.188800e-02,1.280000e+00,
64,-4.004000e-02,1.264000e+00,
65,-4.065600e-02,1.248000e+00,
66,-4.004000e-02,1.232000e+00,
67,-3.942400e-02,1.232000e+00,
68,-3.880800e-02,1.200000e+00,
69,-3.880800e-02,1.200000e+00,
70,-3.757600e-02,1.168000e+00,
71,-3.757600e-02,1.152000e+00,
72,-3.634400e-02,1.120000e+00,
73,-3.696000e-02,1.120000e+00,
74,-3.511200e-02,1.088000e+00,
75,-3.511200e-02,1.088000e+00,
76,-3.511200e-02,1.056000e+00,
77,-3.449600e-02,1.056000e+00,
78,-3.326400e-02,1.024000e+00,
79,-3.326400e-02,1.024000e+00,
80,-3.203200e-02,9.760001e-01,
81,-3.141600e-02,9.760001e-01,
82,-3.018400e-02,9.440001e-01,
83,-3.080000e-02,9.440001e-01,
84,-2.895200e-02,9.120001e-01,
85,-2.833600e-02,8.960000e-01,
86,-2.772000e-02,8.640000e-01,
87,-2.772000e-02,8.640000e-01,
88,-2.648800e-02,8.160000e-01,
89,-2.710400e-02,8.160000e-01,
90,-2.464000e-02,7.680001e-01,
91,-2.402400e-02,7.680001e-01,
92,-2.279200e-02,7.360001e-01,
93,-2.340800e-02,7.200000e-01,
94,-2.217600e-02,6.880000e-01,
95,-2.217600e-02,6.880000e-01,
96,-2.032800e-02,6.400000e-01,
97,-2.094400e-02,6.400000e-01,
98,-1.848000e-02,5.920000e-01,
99,-1.848000e-02,5.760000e-01,
100,-1.724800e-02,5.440000e-01,
101,-1.786400e-02,5.440000e-01,
102,-1.663200e-02,4.960000e-01,
103,-1.601600e-02,4.960000e-01,
104,-1.478400e-02,4.640000e-01,
105,-1.416800e-02,4.480000e-01,
106,-1.293600e-02,4.160000e-01,
107,-1.355200e-02,4.000000e-01,
108,-1.108800e-02,3.520000e-01,
109,-1.170400e-02,3.520000e-01,
110,-9.856000e-03,3.040000e-01,
111,-9.856000e-03,3.040000e-01,
112,-7.392000e-03,2.560000e-01,
113,-6.776000e-03,2.560000e-01,
114,-5.544000e-03,2.080000e-01,
115,-5.544000e-03,2.080000e-01,
116,-4.312000e-03,1.600000e-01,
117,-4.928000e-03,1.600000e-01,
118,-2.464000e-03,1.120000e-01,
119,-3.080000e-03,1.120000e-01,
120,-6.160000e-04,6.400000e-02,
121,-1.232000e-03,6.400000e-02,
122,-6.160000e-04,1.600000e-02,
123,0.000000e+00,0.000000e+00,
124,1.848000e-03,-3.200000e-02,
125,1.848000e-03,-4.800000e-02,
126,3.696000e-03,-9.600001e-02,
127,3.080000e-03,-9.600001e-02,
128,4.928000e-03,-1.440000e-01,
129,5.544000e-03,-1.440000e-01,
130,6.776000e-03,-1.920000e-01,
131,6.160000e-03,-1.920000e-01,
132,9.240000e-03,-2.400000e-01,
133,9.240000e-03,-2.560000e-01,
134,9.856000e-03,-2.880000e-01,
135,1.047200e-02,-2.880000e-01,
136,1.232000e-02,-3.360000e-01,
137,1.170400e-02,-3.360000e-01,
138,1.293600e-02,-3.840000e-01,
139,1.293600e-02,-4.000000e-01,
140,1.416800e-02,-4.320000e-01,
141,1.355200e-02,-4.480000e-01,
142,1.724800e-02,-4.800000e-01,
143,1.663200e-02,-4.960000e-01,
144,2.032800e-02,-5.280000e-01,
145,1.971200e-02,-5.280000e-01,
146,1.971200e-02,-5.760000e-01,
147,2.032800e-02,-5.760000e-01,
148,2.217600e-02,-6.240000e-01,
149,2.217600e-02,-6.240000e-01,
150,2.217600e-02,-6.720001e-01,
151,2.279200e-02,-6.880000e-01,
152,2.525600e-02,-7.200000e-01,
153,2.464000e-02,-7.200000e-01,
154,2.587200e-02,-7.520000e-01,
155,2.587200e-02,-7.680001e-01,
156,2.587200e-02,-8.000000e-01,
157,2.525600e-02,-8.000000e-01,
158,2.833600e-02,-8.480000e-01,
159,2.772000e-02,-8.480000e-01,
160,3.018400e-02,-8.800001e-01,
161,2.956800e-02,-8.800001e-01,
162,3.080000e-02,-9.280000e-01,
163,3.141600e-02,-9.280000e-01,
164,3.264800e-02,-9.600000e-01,
165,3.326400e-02,-9.760001e-01,
166,3.449600e-02,-1.008000e+00,
167,3.388000e-02,-1.008000e+00,
168,3.511200e-02,-1.040000e+00,
169,3.449600e-02,-1.040000e+00,
170,3.634400e-02,-1.072000e+00,
171,3.634400e-02,-1.072000e+00,
172,3.634400e-02,-1.104000e+00,
173,3.696000e-02,-1.120000e+00,
174,3.880800e-02,-1.136000e+00,
175,3.819200e-02,-1.136000e+00,
176,3.942400e-02,-1.168000e+00,
177,3.880800e-02,-1.184000e+00,
178,4.065600e-02,-1.200000e+00,
179,4.127200e-02,-1.216000e+00,
180,4.127200e-02,-1.232000e+00,
181,4.065600e-02,-1.248000e+00,
182,4.188800e-02,-1.264000e+00,
183,4.250400e-02,-1.264000e+00,
184,4.312000e-02,-1.296000e+00,
185,4.312000e-02,-1.296000e+00,
186,4.373600e-02,-1.312000e+00,
187,4.435200e-02,-1.328000e+00,
188,4.435200e-02,-1.344000e+00,
189,4.496800e-02,-1.344000e+00,
190,4.558400e-02,-1.360000e+00,
191,4.558400e-02,-1.360000e+00,
192,4.681600e-02,-1.376000e+00,
193,4.620000e-02,-1.392000e+00,
194,4.804800e-02,-1.408000e+00,
195,4.743200e-02,-1.408000e+00,
196,4.681600e-02,-1.424000e+00,
197,4.681600e-02,-1.440000e+00,
198,4.804800e-02,-1.440000e+00,
199,4.866400e-02,-1.440000e+00,
200,4.804800e-02,-1.456000e+00,
201,4.866400e-02,-1.472000e+00,
202,4.804800e-02,-1.472000e+00,
203,4.866400e-02,-1.472000e+00,
204,4.989600e-02,-1.488000e+00,
205,4.928000e-02,-1.472000e+00,
206,5.051200e-02,-1.488000e+00,
207,4.989600e-02,-1.488000e+00,
208,5.051200e-02,-1.504000e+00,
209,4.989600e-02,-1.504000e+00,
210,5.112800e-02,-1.504000e+00,
211,5.112800e-02,-1.520000e+00,
212,5.051200e-02,-1.520000e+00,
213,4.989600e-02,-1.504000e+00,
214,5.174400e-02,-1.520000e+00,
215,5.112800e-02,-1.520000e+00,
216,5.051200e-02,-1.520000e+00,
217,5.112800e-02,-1.520000e+00,
218,5.174400e-02,-1.520000e+00,
219,5.236000e-02,-1.536000e+00,
220,5.174400e-02,-1.520000e+00,
221,5.236000e-02,-1.520000e+00,
222,5.174400e-02,-1.520000e+00,
223,5.112800e-02,-1.520000e+00,
224,5.112800e-02,-1.504000e+00,
225,5.051200e-02,-1.520000e+00,
226,5.174400e-02,-1.504000e+00,
227,5.174400e-02,-1.504000e+00,
228,4.989600e-02,-1.520000e+00,
229,5.051200e-02,-1.504000e+00,
230,5.051200e-02,-1.488000e+00,
231,4.989600e-02,-1.488000e+00,
232,4.928000e-02,-1.488000e+00,
233,4.989600e-02,-1.488000e+00,
234,4.928000e-02,-1.472000e+00,
235,4.928000e-02,-1.472000e+00,
236,4.804800e-02,-1.456000e+00,
237,4.866400e-02,-1.456000e+00,
238,4.866400e-02,-1.440000e+00,
239,4.804800e-02,-1.440000e+00,
240,4.866400e-02,-1.424000e+00,
241,4.804800e-02,-1.424000e+00,
242,4.681600e-02,-1.408000e+00,
243,4.681600e-02,-1.424000e+00,
244,4.681600e-02,-1.392000e+00,
245,4.743200e-02,-1.392000e+00,
246,4.620000e-02,-1.376000e+00,
247,4.620000e-02,-1.360000e+00,
248,4.496800e-02,-1.344000e+00,
249,4.435200e-02,-1.344000e+00,
250,4.435200e-02,-1.328000e+00,
251,4.496800e-02,-1.328000e+00,
252,4.312000e-02,-1.296000e+00,
253,4.250400e-02,-1.296000e+00,
254,4.250400e-02,-1.280000e+00,
255,4.188800e-02,-1.264000e+00,
256,4.188800e-02,-1.248000e+00,
257,4.188800e-02,-1.264000e+00,
258,4.065600e-02,-1.216000e+00,
259,4.127200e-02,-1.216000e+00,
260,4.004000e-02,-1.184000e+00,
261,3.942400e-02,-1.184000e+00,
262,3.880800e-02,-1.168000e+00,
263,3.819200e-02,-1.152000e+00,
264,3.757600e-02,-1.120000e+00,
265,3.819200e-02,-1.120000e+00,
266,3.634400e-02,-1.088000e+00,
267,3.634400e-02,-1.088000e+00,
268,3.449600e-02,-1.056000e+00,
269,3.511200e-02,-1.040000e+00,
270,3.449600e-02,-1.008000e+00,
271,3.388000e-02,-1.008000e+00,
272,3.264800e-02,-9.760001e-01,
273,3.326400e-02,-9.760001e-01,
274,3.080000e-02,-9.280000e-01,
275,3.141600e-02,-9.440001e-01,
276,3.018400e-02,-8.960000e-01,
277,2.956800e-02,-8.960000e-01,
278,2.833600e-02,-8.480000e-01,
279,2.772000e-02,-8.640000e-01,
280,2.710400e-02,-8.160000e-01,
281,2.648800e-02,-8.160000e-01,
282,2.648800e-02,-7.840000e-01,
283,2.710400e-02,-7.680001e-01,
284,2.402400e-02,-7.200000e-01,
285,2.464000e-02,-7.200000e-01,
286,2.217600e-02,-6.880000e-01,
287,2.279200e-02,-6.720001e-01,
288,2.094400e-02,-6.400000e-01,
289,2.156000e-02,-6.400000e-01,
290,1.971200e-02,-5.920000e-01,
291,2.032800e-02,-6.080000e-01,
292,1.848000e-02,-5.440000e-01,
293,1.909600e-02,-5.440000e-01,
294,1.663200e-02,-4.960000e-01,
295,1.724800e-02,-5.120000e-01,
296,1.478400e-02,-4.480000e-01,
297,1.478400e-02,-4.640000e-01,
298,1.355200e-02,-4.000000e-01,
299,1.355200e-02,-4.000000e-01,
300,1.293600e-02,-3.680000e-01,
301,1.232000e-02,-3.520000e-01,
302,1.108800e-02,-3.200000e-01,
303,1.108800e-02,-3.040000e-01,
304,9.240000e-03,-2.560000e-01,
305,8.624000e-03,-2.400000e-01,
306,8.008000e-03,-2.080000e-01,
307,7.392000e-03,-1.920000e-01,
308,6.160000e-03,-1.600000e-01,
309,5.544000e-03,-1.440000e-01,
310,4.312000e-03,-9.600001e-02,
311,4.928000e-03,-9.600001e-02,
312,2.464000e-03,-4.800000e-02,
313,1.848000e-03,-4.800000e-02,
314,0.000000e+00,0.000000e+00,
315,6.160000e-04,-1.600000e-02,
316,-1.232000e-03,3.200000e-02,
317,-1.848000e-03,4.800000e-02,
318,-1.848000e-03,9.600001e-02,
319,-1.848000e-03,1.120000e-01,
320,-3.696000e-03,1.440000e-01,
321,-4.312000e-03,1.440000e-01,
322,-6.776000e-03,1.920000e-01,
323,-6.160000e-03,2.080000e-01,
324,-8.624000e-03,2.560000e-01,
325,-8.624000e-03,2.560000e-01,
326,-9.856000e-03,2.880000e-01,
327,-9.240000e-03,2.880000e-01,
328,-1.047200e-02,3.520000e-01,
329,-1.047200e-02,3.520000e-01,
330,-1.232000e-02,4.000000e-01,
331,-1.170400e-02,3.840000e-01,
332,-1.416800e-02,4.480000e-01,
333,-1.355200e-02,4.480000e-01,
334,-1.540000e-02,4.960000e-01,
335,-1.601600e-02,4.960000e-01,
336,-1.601600e-02,5.440000e-01,
337,-1.663200e-02,5.280000e-01,
338,-1.848000e-02,5.760000e-01,
339,-1.786400e-02,5.920000e-01,
340,-2.032800e-02,6.400000e-01,
341,-2.094400e-02,6.400000e-01,
342,-2.279200e-02,6.720001e-01,
343,-2.217600e-02,6.880000e-01,
344,-2.279200e-02,7.040001e-01,
345,-2.217600e-02,7.200000e-01,
346,-2.464000e-02,7.520000e-01,
347,-2.402400e-02,7.680001e-01,
348,-2.525600e-02,8.160000e-01,
349,-2.587200e-02,8.000000e-01,
350,-2.648800e-02,8.640000e-01,
351,-2.710400e-02,8.480000e-01,
352,-2.895200e-02,8.960000e-01,
353,-2.833600e-02,8.960000e-01,
354,-2.895200e-02,9.280000e-01,
355,-2.895200e-02,9.440001e-01,
356,-3.141600e-02,9.760001e-01,
357,-3.080000e-02,9.760001e-01,
358,-3.326400e-02,1.008000e+00,
359,-3.264800e-02,9.920000e-01,
360,-3.388000e-02,1.040000e+00,
361,-3.449600e-02,1.056000e+00,
362,-3.449600e-02,1.088000e+00,
363,-3.449600e-02,1.088000e+00,
364,-3.572800e-02,1.120000e+00,
365,-3.634400e-02,1.104000e+00,
366,-3.696000e-02,1.152000e+00,
367,-3.634400e-02,1.152000e+00,
368,-3.942400e-02,1.184000e+00,
369,-4.004000e-02,1.168000e+00,
370,-3.942400e-02,1.216000e+00,
371,-4.004000e-02,1.216000e+00,
372,-4.065600e-02,1.248000e+00,
373,-4.127200e-02,1.248000e+00,
374,-4.127200e-02,1.280000e+00,
375,-4.065600e-02,1.280000e+00,
376,-4.250400e-02,1.296000e+00,
377,-4.188800e-02,1.312000e+00,
378,-4.250400e-02,1.328000e+00,
379,-4.312000e-02,1.328000e+00,
380,-4.496800e-02,1.360000e+00,
381,-4.558400e-02,1.360000e+00,
382,-4.496800e-02,1.376000e+00,
383,-4.558400e-02,1.376000e+00,
384,-4.435200e-02,1.408000e+00,
385,-4.435200e-02,1.392000e+00,
386,-4.558400e-02,1.424000e+00,
387,-4.496800e-02,1.424000e+00,
388,-4.681600e-02,1.440000e+00,
389,-4.681600e-02,1.424000e+00,
390,-4.743200e-02,1.456000e+00,
391,-4.804800e-02,1.456000e+00,
392,-4.804800e-02,1.472000e+00,
393,-4.804800e-02,1.472000e+00,
394,-4.804800e-02,1.488000e+00,
395,-4.866400e-02,1.488000e+00,
396,-4.928000e-02,1.504000e+00,
397,-4.928000e-02,1.504000e+00,
398,-4.866400e-02,1.504000e+00,
399,-4.804800e-02,1.504000e+00,
400,-4.989600e-02,1.520000e+00,
401,-4.989600e-02,1.520000e+00,
402,-5.174400e-02,1.520000e+00,
403,-5.112800e-02,1.536000e+00,
404,-4.989600e-02,1.536000e+00,
405,-5.051200e-02,1.536000e+00,
406,-4.989600e-02,1.520000e+00,
407,-5.051200e-02,1.536000e+00,
408,-5.112800e-02,1.536000e+00,
409,-5.051200e-02,1.536000e+00,
410,-5.051200e-02,1.536000e+00,
411,-5.112800e-02,1.536000e+00,
412,-5.051200e-02,1.536000e+00,
413,-5.112800e-02,1.536000e+00,
414,-4.989600e-02,1.536000e+00,
415,-4.989600e-02,1.536000e+00,
416,-4.928000e-02,1.536000e+00,
417,-4.989600e-02,1.520000e+00,
418,-4.989600e-02,1.536000e+00,
419,-4.928000e-02,1.536000e+00,
420,-4.928000e-02,1.520000e+00,
421,-4.989600e-02,1.520000e+00,
422,-5.051200e-02,1.520000e+00,
423,-5.112800e-02,1.504000e+00,
424,-4.866400e-02,1.504000e+00,
425,-4.804800e-02,1.504000e+00,
426,-4.928000e-02,1.488000e+00,
427,-4.928000e-02,1.488000e+00,
428,-4.866400e-02,1.472000e+00,
429,-4.866400e-02,1.472000e+00,
430,-4.804800e-02,1.456000e+00,
431,-4.743200e-02,1.456000e+00,
432,-4.866400e-02,1.456000e+00,
433,-4.804800e-02,1.440000e+00,
434,-4.681600e-02,1.440000e+00,
435,-4.620000e-02,1.424000e+00,
436,-4.558400e-02,1.408000e+00,
437,-4.496800e-02,1.408000e+00,
438,-4.496800e-02,1.392000e+00,
439,-4.558400e-02,1.392000e+00,
440,-4.496800e-02,1.376000e+00,
441,-4.496800e-02,1.376000e+00,
442,-4.373600e-02,1.344000e+00,
443,-4.312000e-02,1.344000e+00,
444,-4.250400e-02,1.328000e+00,
445,-4.250400e-02,1.312000e+00,
446,-4.188800e-02,1.296000e+00,
447,-4.250400e-02,1.296000e+00,
448,-4.127200e-02,1.264000e+00,
449,-4.127200e-02,1.264000e+00,
450,-4.065600e-02,1.232000e+00,
451,-4.004000e-02,1.232000e+00,
452,-3.819200e-02,1.200000e+00,
453,-3.880800e-02,1.200000e+00,
454,-3.819200e-02,1.168000e+00,
455,-3.880800e-02,1.168000e+00,
456,-3.757600e-02,1.136000e+00,
457,-3.757600e-02,1.136000e+00,
458,-3.572800e-02,1.104000e+00,
459,-3.572800e-02,1.104000e+00,
460,-3.449600e-02,1.072000e+00,
461,-3.449600e-02,1.056000e+00,
462,-3.326400e-02,1.024000e+00,
463,-3.326400e-02,1.024000e+00,
464,-3.264800e-02,9.920000e-01,
465,-3.326400e-02,9.920000e-01,
466,-3.141600e-02,9.600000e-01,
467,-3.141600e-02,9.440001e-01,
468,-2.956800e-02,9.120001e-01,
469,-2.895200e-02,8.960000e-01,
470,-2.895200e-02,8.800001e-01,
471,-2.833600e-02,8.800001e-01,
472,-2.772000e-02,8.320000e-01,
473,-2.710400e-02,8.320000e-01,
474,-2.525600e-02,7.840000e-01,
475,-2.464000e-02,7.840000e-01,
476,-2.402400e-02,7.520000e-01,
477,-2.340800e-02,7.360001e-01,
478,-2.279200e-02,7.040001e-01,
479,-2.217600e-02,7.040001e-01,
480,-2.094400e-02,6.560000e-01,
481,-2.032800e-02,6.560000e-01,
482,-1.971200e-02,6.080000e-01,
483,-2.032800e-02,5.920000e-01,
484,-1.848000e-02,5.600000e-01,
485,-1.786400e-02,5.440000e-01,
486,-1.663200e-02,5.120000e-01,
487,-1.601600e-02,5.120000e-01,
488,-1.478400e-02,4.640000e-01,
489,-1.478400e-02,4.640000e-01,
490,-1.293600e-02,4.160000e-01,
491,-1.355200e-02,4.160000e-01,
492,-1.293600e-02,3.680000e-01,
493,-1.232000e-02,3.680000e-01,
494,-9.856000e-03,3.200000e-01,
495,-1.047200e-02,3.200000e-01,
496,-8.624000e-03,2.720000e-01,
497,-8.624000e-03,2.720000e-01,
498,-6.776000e-03,2.240000e-01,
499,-7.392000e-03,2.080000e-01,
500,-5.544000e-03,1.760000e-01,
501,-6.160000e-03,1.760000e-01,
502,-4.312000e-03,1.280000e-01,
503,-3.696000e-03,1.280000e-01,
504,-1.232000e-03,8.000001e-02,
505,-1.848000e-03,8.000001e-02,
506,0.000000e+00,3.200000e-02,
507,0.000000e+00,1.600000e-02,
508,6.160000e-04,-3.200000e-02,
509,0.000000e+00,-3.200000e-02,
510,3.696000e-03,-8.000001e-02,
511,3.080000e-03,-9.600001e-02,
512,4.928000e-03,-1.280000e-01,
513,4.928000e-03,-1.440000e-01,
514,6.776000e-03,-1.760000e-01,
515,6.776000e-03,-1.760000e-01,
516,8.008000e-03,-2.240000e-01,
517,7.392000e-03,-2.240000e-01,
518,9.240000e-03,-2.720000e-01,
519,9.240000e-03,-2.720000e-01,
520,1.108800e-02,-3.200000e-01,
521,1.047200e-02,-3.360000e-01,
522,1.293600e-02,-3.680000e-01,
523,1.355200e-02,-3.840000e-01,
524,1.478400e-02,-4.160000e-01,
525,1.540000e-02,-4.320000e-01,
526,1.663200e-02,-4.640000e-01,
527,1.601600e-02,-4.800000e-01,
528,1.786400e-02,-5.120000e-01,
529,1.848000e-02,-5.280000e-01,
530,1.909600e-02,-5.600000e-01,
531,1.909600e-02,-5.600000e-01,
532,2.032800e-02,-6.080000e-01,
533,2.094400e-02,-6.240000e-01,
534,2.217600e-02,-6.560000e-01,
535,2.156000e-02,-6.560000e-01,
536,2.402400e-02,-7.040001e-01,
537,2.464000e-02,-7.040001e-01,
538,2.587200e-02,-7.520000e-01,
539,2.525600e-02,-7.520000e-01,
540,2.648800e-02,-7.840000e-01,
541,2.648800e-02,-8.000000e-01,
542,2.710400e-02,-8.320000e-01,
543,2.772000e-02,-8.320000e-01,
544,2.833600e-02,-8.640000e-01,
545,2.772000e-02,-8.800001e-01,
546,3.141600e-02,-9.120001e-01,
547,3.203200e-02,-9.120001e-01,
548,3.264800e-02,-9.440001e-01,
549,3.203200e-02,-9.600000e-01,
550,3.264800e-02,-9.920000e-01,
551,3.326400e-02,-9.920000e-01,
552,3.449600e-02,-1.024000e+00,
553,3.449600e-02,-1.024000e+00,
554,3.572800e-02,-1.056000e+00,
555,3.572800e-02,-1.072000e+00,
556,3.757600e-02,-1.104000e+00,
557,3.696000e-02,-1.104000e+00,
558,3.819200e-02,-1.136000e+00,
559,3.819200e-02,-1.136000e+00,
560,3.880800e-02,-1.168000e+00,
561,3.880800e-02,-1.168000e+00,
562,4.004000e-02,-1.200000e+00,
563,3.942400e-02,-1.216000e+00,
564,4.188800e-02,-1.232000e+00,
565,4.188800e-02,-1.232000e+00,
566,4.312000e-02,-1.264000e+00,
567,4.312000e-02,-1.264000e+00,
568,4.373600e-02,-1.280000e+00,
569,4.373600e-02,-1.280000e+00,
570,4.435200e-02,-1.312000e+00,
571,4.435200e-02,-1.312000e+00,
572,4.496800e-02,-1.328000e+00,
573,4.558400e-02,-1.328000e+00,
574,4.496800e-02,-1.360000e+00,
575,4.496800e-02,-1.360000e+00,
576,4.558400e-02,-1.376000e+00,
577,4.620000e-02,-1.376000e+00,
578,4.620000e-02,-1.392000e+00,
579,4.620000e-02,-1.408000e+00,
580,4.743200e-02,-1.424000e+00,
581,4.681600e-02,-1.408000e+00,
582,4.804800e-02,-1.424000e+00,
583,4.866400e-02,-1.440000e+00,
584,4.928000e-02,-1.440000e+00,
585,4.928000e-02,-1.456000e+00,
586,4.866400e-02,-1.456000e+00,
587,4.928000e-02,-1.472000e+00,
588,4.989600e-02,-1.472000e+00,
589,5.051200e-02,-1.472000e+00,
590,4.928000e-02,-1.488000e+00,
591,4.989600e-02,-1.488000e+00,
592,5.051200e-02,-1.488000e+00,
593,5.051200e-02,-1.504000e+00,
594,5.112800e-02,-1.504000e+00,
595,5.174400e-02,-1.504000e+00,
596,5.174400e-02,-1.504000e+00,
597,5.174400e-02,-1.520000e+00,
598,5.112800e-02,-1.520000e+00,
599,5.174400e-02,-1.536000e+00,
600,5.112800e-02,-1.520000e+00,
601,5.174400e-02,-1.520000e+00,
602,5.051200e-02,-1.520000e+00,
603,4.989600e-02,-1.520000e+00,
604,5.112800e-02,-1.520000e+00,
605,5.112800e-02,-1.520000e+00,
606,5.051200e-02,-1.520000e+00,
607,5.112800e-02,-1.536000e+00,
608,5.051200e-02,-1.520000e+00,
609,4.989600e-02,-1.520000e+00,
610,5.174400e-02,-1.504000e+00,
611,5.112800e-02,-1.504000e+00,
612,5.112800e-02,-1.504000e+00,
613,5.051200e-02,-1.504000e+00,
614,4.928000e-02,-1.488000e+00,
615,4.989600e-02,-1.504000e+00,
616,5.051200e-02,-1.488000e+00,
617,5.051200e-02,-1.488000e+00,
618,5.051200e-02,-1.472000e+00,
619,4.989600e-02,-1.472000e+00,
620,4.866400e-02,-1.456000e+00,
621,4.928000e-02,-1.456000e+00,
622,4.928000e-02,-1.456000e+00,
623,4.989600e-02,-1.440000e+00,
624,4.804800e-02,-1.440000e+00,
625,4.866400e-02,-1.424000e+00,
