parte2/esp9/Con_sorgente/Data_diff/2.csv

X,CH1,CH2,Start,Increment,
Sequence,Volt,Volt,-3.500000e-04,5.000000e-07,
0,5.091200e-02,-1.527200e+00,
1,5.032000e-02,-1.510600e+00,
2,5.091200e-02,-1.527200e+00,
3,5.032000e-02,-1.510600e+00,
4,5.032000e-02,-1.527200e+00,
5,5.032000e-02,-1.510600e+00,
6,5.032000e-02,-1.510600e+00,
7,5.091200e-02,-1.527200e+00,
8,5.091200e-02,-1.510600e+00,
9,5.091200e-02,-1.527200e+00,
10,5.091200e-02,-1.527200e+00,
11,5.032000e-02,-1.527200e+00,
12,5.091200e-02,-1.510600e+00,
13,5.032000e-02,-1.527200e+00,
14,5.032000e-02,-1.510600e+00,
15,5.032000e-02,-1.527200e+00,
16,5.091200e-02,-1.510600e+00,
17,5.091200e-02,-1.510600e+00,
18,5.091200e-02,-1.510600e+00,
19,5.091200e-02,-1.527200e+00,
20,4.972800e-02,-1.510600e+00,
21,4.913600e-02,-1.494000e+00,
22,5.032000e-02,-1.494000e+00,
23,4.972800e-02,-1.510600e+00,
24,4.972800e-02,-1.494000e+00,
25,4.913600e-02,-1.494000e+00,
26,4.913600e-02,-1.494000e+00,
27,4.913600e-02,-1.477400e+00,
28,4.913600e-02,-1.477400e+00,
29,4.972800e-02,-1.494000e+00,
30,4.854400e-02,-1.477400e+00,
31,4.795200e-02,-1.477400e+00,
32,4.913600e-02,-1.460800e+00,
33,4.854400e-02,-1.460800e+00,
34,4.795200e-02,-1.460800e+00,
35,4.795200e-02,-1.444200e+00,
36,4.795200e-02,-1.460800e+00,
37,4.795200e-02,-1.444200e+00,
38,4.736000e-02,-1.444200e+00,
39,4.795200e-02,-1.427600e+00,
40,4.676800e-02,-1.427600e+00,
41,4.617600e-02,-1.427600e+00,
42,4.676800e-02,-1.411000e+00,
43,4.617600e-02,-1.411000e+00,
44,4.558400e-02,-1.411000e+00,
45,4.558400e-02,-1.394400e+00,
46,4.558400e-02,-1.394400e+00,
47,4.499200e-02,-1.377800e+00,
48,4.499200e-02,-1.377800e+00,
49,4.440000e-02,-1.361200e+00,
50,4.440000e-02,-1.361200e+00,
51,4.440000e-02,-1.361200e+00,
52,4.440000e-02,-1.344600e+00,
53,4.380800e-02,-1.328000e+00,
54,4.262400e-02,-1.328000e+00,
55,4.321600e-02,-1.311400e+00,
56,4.203200e-02,-1.294800e+00,
57,4.203200e-02,-1.311400e+00,
58,4.262400e-02,-1.294800e+00,
59,4.321600e-02,-1.294800e+00,
60,4.144000e-02,-1.278200e+00,
61,4.144000e-02,-1.261600e+00,
62,4.025600e-02,-1.245000e+00,
63,4.084800e-02,-1.245000e+00,
64,4.025600e-02,-1.228400e+00,
65,4.025600e-02,-1.228400e+00,
66,3.907200e-02,-1.211800e+00,
67,3.907200e-02,-1.211800e+00,
68,3.848000e-02,-1.195200e+00,
69,3.848000e-02,-1.178600e+00,
70,3.729600e-02,-1.162000e+00,
71,3.788800e-02,-1.145400e+00,
72,3.670400e-02,-1.128800e+00,
73,3.670400e-02,-1.145400e+00,
74,3.552000e-02,-1.112200e+00,
75,3.611200e-02,-1.112200e+00,
76,3.492800e-02,-1.095600e+00,
77,3.492800e-02,-1.079000e+00,
78,3.492800e-02,-1.062400e+00,
79,3.433600e-02,-1.062400e+00,
80,3.315200e-02,-1.045800e+00,
81,3.315200e-02,-1.029200e+00,
82,3.256000e-02,-1.012600e+00,
83,3.256000e-02,-1.012600e+00,
84,3.196800e-02,-9.794000e-01,
85,3.137600e-02,-9.960000e-01,
86,3.078400e-02,-9.628000e-01,
87,3.019200e-02,-9.462000e-01,
88,2.960000e-02,-9.462000e-01,
89,2.960000e-02,-9.296000e-01,
90,2.900800e-02,-9.130000e-01,
91,2.900800e-02,-8.964000e-01,
92,2.723200e-02,-8.798000e-01,
93,2.723200e-02,-8.798000e-01,
94,2.723200e-02,-8.632000e-01,
95,2.782400e-02,-8.466000e-01,
96,2.545600e-02,-8.300000e-01,
97,2.545600e-02,-8.134000e-01,
98,2.545600e-02,-7.968000e-01,
99,2.486400e-02,-7.968000e-01,
100,2.368000e-02,-7.636000e-01,
101,2.368000e-02,-7.636000e-01,
102,2.308800e-02,-7.304000e-01,
103,2.308800e-02,-7.304000e-01,
104,2.190400e-02,-7.138000e-01,
105,2.131200e-02,-6.972000e-01,
106,2.131200e-02,-6.806000e-01,
107,2.072000e-02,-6.640000e-01,
108,1.953600e-02,-6.474000e-01,
109,1.953600e-02,-6.308000e-01,
110,1.894400e-02,-6.142000e-01,
111,1.953600e-02,-5.976000e-01,
112,1.776000e-02,-5.810000e-01,
113,1.776000e-02,-5.644000e-01,
114,1.657600e-02,-5.478000e-01,
115,1.657600e-02,-5.478000e-01,
116,1.598400e-02,-5.146000e-01,
117,1.598400e-02,-5.146000e-01,
118,1.480000e-02,-4.814000e-01,
119,1.420800e-02,-4.814000e-01,
120,1.302400e-02,-4.482000e-01,
121,1.361600e-02,-4.482000e-01,
122,1.243200e-02,-4.150000e-01,
123,1.243200e-02,-4.150000e-01,
124,1.124800e-02,-3.818000e-01,
125,1.065600e-02,-3.652000e-01,
126,1.065600e-02,-3.486000e-01,
127,1.006400e-02,-3.320000e-01,
128,8.288001e-03,-3.154000e-01,
129,8.880001e-03,-2.988000e-01,
130,7.696000e-03,-2.822000e-01,
131,8.288001e-03,-2.656000e-01,
132,6.512000e-03,-2.490000e-01,
133,7.104001e-03,-2.324000e-01,
134,5.328000e-03,-2.158000e-01,
135,4.736000e-03,-1.992000e-01,
136,5.328000e-03,-1.826000e-01,
137,4.736000e-03,-1.660000e-01,
138,4.144000e-03,-1.494000e-01,
139,3.552000e-03,-1.328000e-01,
140,1.776000e-03,-1.162000e-01,
141,1.776000e-03,-9.960000e-02,
142,1.184000e-03,-8.300000e-02,
143,1.184000e-03,-6.640000e-02,
144,0.000000e+00,-3.320000e-02,
145,5.920000e-04,-3.320000e-02,
146,-1.184000e-03,0.000000e+00,
147,-1.184000e-03,1.660000e-02,
148,-2.960000e-03,3.320000e-02,
149,-2.368000e-03,3.320000e-02,
150,-3.552000e-03,6.640000e-02,
151,-3.552000e-03,8.300000e-02,
152,-4.736000e-03,9.960000e-02,
153,-4.736000e-03,1.162000e-01,
154,-6.512000e-03,1.328000e-01,
155,-5.920000e-03,1.494000e-01,
156,-6.512000e-03,1.660000e-01,
157,-7.104001e-03,1.826000e-01,
158,-8.880001e-03,1.992000e-01,
159,-8.288001e-03,2.158000e-01,
160,-9.472000e-03,2.490000e-01,
161,-8.880001e-03,2.490000e-01,
162,-1.006400e-02,2.822000e-01,
163,-1.006400e-02,2.656000e-01,
164,-1.124800e-02,2.988000e-01,
165,-1.124800e-02,3.154000e-01,
166,-1.243200e-02,3.486000e-01,
167,-1.243200e-02,3.486000e-01,
168,-1.361600e-02,3.818000e-01,
169,-1.420800e-02,3.818000e-01,
170,-1.420800e-02,4.150000e-01,
171,-1.480000e-02,4.150000e-01,
172,-1.598400e-02,4.482000e-01,
173,-1.539200e-02,4.482000e-01,
174,-1.716800e-02,4.814000e-01,
175,-1.716800e-02,4.814000e-01,
176,-1.776000e-02,5.146000e-01,
177,-1.835200e-02,5.146000e-01,
178,-1.953600e-02,5.312000e-01,
179,-1.953600e-02,5.478000e-01,
180,-2.012800e-02,5.810000e-01,
181,-2.012800e-02,5.644000e-01,
182,-2.190400e-02,5.976000e-01,
183,-2.131200e-02,6.142000e-01,
184,-2.190400e-02,6.308000e-01,
185,-2.190400e-02,6.474000e-01,
186,-2.308800e-02,6.640000e-01,
187,-2.368000e-02,6.806000e-01,
188,-2.486400e-02,6.972000e-01,
189,-2.427200e-02,7.138000e-01,
190,-2.486400e-02,7.304000e-01,
191,-2.427200e-02,7.470000e-01,
192,-2.664000e-02,7.636000e-01,
193,-2.604800e-02,7.802000e-01,
194,-2.723200e-02,7.968000e-01,
195,-2.723200e-02,7.968000e-01,
196,-2.782400e-02,8.300000e-01,
197,-2.841600e-02,8.300000e-01,
198,-2.900800e-02,8.466000e-01,
199,-2.900800e-02,8.632000e-01,
200,-2.960000e-02,8.798000e-01,
201,-2.960000e-02,8.964000e-01,
202,-3.137600e-02,9.130000e-01,
203,-3.078400e-02,9.296000e-01,
204,-3.137600e-02,9.462000e-01,
205,-3.196800e-02,9.462000e-01,
206,-3.315200e-02,9.628000e-01,
207,-3.256000e-02,9.794000e-01,
208,-3.433600e-02,9.960000e-01,
209,-3.433600e-02,9.960000e-01,
210,-3.433600e-02,1.012600e+00,
211,-3.374400e-02,1.029200e+00,
212,-3.492800e-02,1.045800e+00,
213,-3.552000e-02,1.045800e+00,
214,-3.670400e-02,1.062400e+00,
215,-3.670400e-02,1.079000e+00,
216,-3.670400e-02,1.095600e+00,
217,-3.729600e-02,1.112200e+00,
218,-3.788800e-02,1.112200e+00,
219,-3.788800e-02,1.128800e+00,
220,-3.848000e-02,1.128800e+00,
221,-3.848000e-02,1.145400e+00,
222,-3.966400e-02,1.162000e+00,
223,-4.025600e-02,1.162000e+00,
224,-3.966400e-02,1.195200e+00,
225,-3.966400e-02,1.178600e+00,
226,-4.025600e-02,1.211800e+00,
227,-4.025600e-02,1.211800e+00,
228,-4.203200e-02,1.228400e+00,
229,-4.203200e-02,1.245000e+00,
230,-4.203200e-02,1.245000e+00,
231,-4.144000e-02,1.261600e+00,
232,-4.203200e-02,1.261600e+00,
233,-4.203200e-02,1.278200e+00,
234,-4.321600e-02,1.294800e+00,
235,-4.380800e-02,1.294800e+00,
236,-4.380800e-02,1.311400e+00,
237,-4.380800e-02,1.311400e+00,
238,-4.440000e-02,1.328000e+00,
239,-4.440000e-02,1.328000e+00,
240,-4.380800e-02,1.344600e+00,
241,-4.380800e-02,1.361200e+00,
242,-4.558400e-02,1.361200e+00,
243,-4.499200e-02,1.377800e+00,
244,-4.558400e-02,1.377800e+00,
245,-4.558400e-02,1.394400e+00,
246,-4.617600e-02,1.394400e+00,
247,-4.617600e-02,1.394400e+00,
248,-4.676800e-02,1.411000e+00,
249,-4.676800e-02,1.411000e+00,
250,-4.736000e-02,1.411000e+00,
251,-4.676800e-02,1.427600e+00,
252,-4.736000e-02,1.427600e+00,
253,-4.736000e-02,1.444200e+00,
254,-4.854400e-02,1.444200e+00,
255,-4.795200e-02,1.460800e+00,
256,-4.795200e-02,1.460800e+00,
257,-4.795200e-02,1.460800e+00,
258,-4.913600e-02,1.460800e+00,
259,-4.913600e-02,1.477400e+00,
260,-4.795200e-02,1.477400e+00,
261,-4.854400e-02,1.494000e+00,
262,-4.972800e-02,1.494000e+00,
263,-4.913600e-02,1.477400e+00,
264,-4.913600e-02,1.494000e+00,
265,-4.913600e-02,1.510600e+00,
266,-5.032000e-02,1.494000e+00,
267,-5.091200e-02,1.510600e+00,
268,-4.972800e-02,1.510600e+00,
269,-4.972800e-02,1.510600e+00,
270,-5.032000e-02,1.527200e+00,
271,-4.972800e-02,1.510600e+00,
272,-5.032000e-02,1.510600e+00,
273,-5.032000e-02,1.527200e+00,
274,-5.091200e-02,1.527200e+00,
275,-5.091200e-02,1.527200e+00,
276,-5.032000e-02,1.527200e+00,
277,-4.972800e-02,1.527200e+00,
278,-5.091200e-02,1.527200e+00,
279,-5.032000e-02,1.543800e+00,
280,-5.091200e-02,1.543800e+00,
281,-5.150400e-02,1.527200e+00,
282,-5.091200e-02,1.543800e+00,
283,-5.032000e-02,1.527200e+00,
284,-4.972800e-02,1.527200e+00,
285,-5.032000e-02,1.543800e+00,
286,-5.091200e-02,1.543800e+00,
287,-5.032000e-02,1.527200e+00,
288,-5.032000e-02,1.543800e+00,
289,-5.091200e-02,1.527200e+00,
290,-5.032000e-02,1.543800e+00,
291,-5.091200e-02,1.527200e+00,
292,-4.972800e-02,1.527200e+00,
293,-4.972800e-02,1.543800e+00,
294,-5.032000e-02,1.527200e+00,
295,-4.972800e-02,1.527200e+00,
296,-4.972800e-02,1.527200e+00,
297,-4.913600e-02,1.527200e+00,
298,-5.032000e-02,1.527200e+00,
299,-5.032000e-02,1.510600e+00,
300,-4.972800e-02,1.510600e+00,
301,-4.972800e-02,1.527200e+00,
302,-4.913600e-02,1.510600e+00,
303,-4.854400e-02,1.510600e+00,
304,-4.972800e-02,1.510600e+00,
305,-4.913600e-02,1.494000e+00,
306,-4.913600e-02,1.510600e+00,
307,-4.854400e-02,1.494000e+00,
308,-4.913600e-02,1.494000e+00,
309,-4.972800e-02,1.477400e+00,
310,-4.736000e-02,1.494000e+00,
311,-4.736000e-02,1.477400e+00,
312,-4.854400e-02,1.477400e+00,
313,-4.795200e-02,1.460800e+00,
314,-4.736000e-02,1.460800e+00,
315,-4.736000e-02,1.460800e+00,
316,-4.676800e-02,1.460800e+00,
317,-4.617600e-02,1.444200e+00,
318,-4.676800e-02,1.444200e+00,
319,-4.617600e-02,1.427600e+00,
320,-4.558400e-02,1.427600e+00,
321,-4.558400e-02,1.411000e+00,
322,-4.617600e-02,1.411000e+00,
323,-4.558400e-02,1.411000e+00,
324,-4.558400e-02,1.394400e+00,
325,-4.558400e-02,1.377800e+00,
326,-4.380800e-02,1.377800e+00,
327,-4.380800e-02,1.377800e+00,
328,-4.380800e-02,1.361200e+00,
329,-4.440000e-02,1.361200e+00,
330,-4.440000e-02,1.344600e+00,
331,-4.380800e-02,1.344600e+00,
332,-4.203200e-02,1.328000e+00,
333,-4.203200e-02,1.328000e+00,
334,-4.203200e-02,1.311400e+00,
335,-4.203200e-02,1.311400e+00,
336,-4.203200e-02,1.294800e+00,
337,-4.203200e-02,1.294800e+00,
338,-4.025600e-02,1.278200e+00,
339,-4.025600e-02,1.261600e+00,
340,-4.025600e-02,1.261600e+00,
341,-3.966400e-02,1.245000e+00,
342,-3.966400e-02,1.245000e+00,
343,-3.966400e-02,1.228400e+00,
344,-3.907200e-02,1.211800e+00,
345,-3.966400e-02,1.211800e+00,
346,-3.788800e-02,1.195200e+00,
347,-3.729600e-02,1.195200e+00,
348,-3.729600e-02,1.162000e+00,
349,-3.729600e-02,1.162000e+00,
350,-3.670400e-02,1.145400e+00,
351,-3.670400e-02,1.145400e+00,
352,-3.433600e-02,1.128800e+00,
353,-3.433600e-02,1.112200e+00,
354,-3.552000e-02,1.095600e+00,
355,-3.492800e-02,1.095600e+00,
356,-3.433600e-02,1.079000e+00,
357,-3.374400e-02,1.062400e+00,
358,-3.256000e-02,1.045800e+00,
359,-3.315200e-02,1.045800e+00,
360,-3.196800e-02,1.029200e+00,
361,-3.256000e-02,1.012600e+00,
362,-3.078400e-02,9.960000e-01,
363,-3.137600e-02,9.794000e-01,
364,-3.019200e-02,9.794000e-01,
365,-2.960000e-02,9.628000e-01,
366,-2.900800e-02,9.462000e-01,
367,-2.960000e-02,9.296000e-01,
368,-2.841600e-02,9.130000e-01,
369,-2.782400e-02,9.130000e-01,
370,-2.782400e-02,8.964000e-01,
371,-2.782400e-02,8.798000e-01,
372,-2.604800e-02,8.632000e-01,
373,-2.664000e-02,8.466000e-01,
374,-2.545600e-02,8.300000e-01,
375,-2.604800e-02,8.134000e-01,
376,-2.486400e-02,7.968000e-01,
377,-2.427200e-02,7.802000e-01,
378,-2.368000e-02,7.636000e-01,
379,-2.308800e-02,7.636000e-01,
380,-2.190400e-02,7.470000e-01,
381,-2.249600e-02,7.304000e-01,
382,-2.131200e-02,7.138000e-01,
383,-2.131200e-02,6.972000e-01,
384,-2.072000e-02,6.806000e-01,
385,-2.012800e-02,6.640000e-01,
386,-1.953600e-02,6.474000e-01,
387,-1.953600e-02,6.308000e-01,
388,-1.835200e-02,6.142000e-01,
389,-1.776000e-02,5.976000e-01,
390,-1.776000e-02,5.810000e-01,
391,-1.776000e-02,5.644000e-01,
392,-1.539200e-02,5.478000e-01,
393,-1.598400e-02,5.312000e-01,
394,-1.480000e-02,5.146000e-01,
395,-1.480000e-02,5.146000e-01,
396,-1.420800e-02,4.814000e-01,
397,-1.420800e-02,4.814000e-01,
398,-1.243200e-02,4.482000e-01,
399,-1.243200e-02,4.482000e-01,
400,-1.124800e-02,4.150000e-01,
401,-1.184000e-02,4.150000e-01,
402,-1.006400e-02,3.818000e-01,
403,-1.006400e-02,3.818000e-01,
404,-1.006400e-02,3.486000e-01,
405,-1.006400e-02,3.320000e-01,
406,-8.288001e-03,3.154000e-01,
407,-8.880001e-03,2.988000e-01,
408,-7.104001e-03,2.822000e-01,
409,-6.512000e-03,2.656000e-01,
410,-6.512000e-03,2.490000e-01,
411,-6.512000e-03,2.324000e-01,
412,-4.736000e-03,2.158000e-01,
413,-5.328000e-03,1.992000e-01,
414,-4.144000e-03,1.826000e-01,
415,-3.552000e-03,1.660000e-01,
416,-2.368000e-03,1.328000e-01,
417,-2.368000e-03,1.494000e-01,
418,-1.776000e-03,1.162000e-01,
419,-2.368000e-03,9.960000e-02,
420,-5.920000e-04,8.300000e-02,
421,-5.920000e-04,6.640000e-02,
422,1.184000e-03,4.980000e-02,
423,1.184000e-03,3.320000e-02,
424,1.776000e-03,0.000000e+00,
425,2.368000e-03,0.000000e+00,
426,3.552000e-03,-3.320000e-02,
427,2.960000e-03,-3.320000e-02,
428,4.144000e-03,-6.640000e-02,
429,4.144000e-03,-8.300000e-02,
430,5.920000e-03,-9.960000e-02,
431,6.512000e-03,-1.162000e-01,
432,6.512000e-03,-1.328000e-01,
433,6.512000e-03,-1.494000e-01,
434,7.696000e-03,-1.660000e-01,
435,8.288001e-03,-1.660000e-01,
436,8.288001e-03,-1.992000e-01,
437,8.880001e-03,-2.158000e-01,
438,9.472000e-03,-2.324000e-01,
439,8.880001e-03,-2.490000e-01,
440,1.124800e-02,-2.656000e-01,
441,1.124800e-02,-2.822000e-01,
442,1.065600e-02,-2.988000e-01,
443,1.124800e-02,-3.154000e-01,
444,1.302400e-02,-3.320000e-01,
445,1.302400e-02,-3.486000e-01,
446,1.420800e-02,-3.818000e-01,
447,1.480000e-02,-3.652000e-01,
448,1.420800e-02,-4.150000e-01,
449,1.480000e-02,-4.150000e-01,
450,1.716800e-02,-4.482000e-01,
451,1.657600e-02,-4.482000e-01,
452,1.716800e-02,-4.814000e-01,
453,1.716800e-02,-4.814000e-01,
454,1.776000e-02,-5.146000e-01,
455,1.835200e-02,-5.146000e-01,
456,2.012800e-02,-5.478000e-01,
457,2.012800e-02,-5.478000e-01,
458,2.072000e-02,-5.810000e-01,
459,2.012800e-02,-5.810000e-01,
460,2.190400e-02,-6.142000e-01,
461,2.190400e-02,-6.142000e-01,
462,2.249600e-02,-6.308000e-01,
463,2.249600e-02,-6.474000e-01,
464,2.368000e-02,-6.640000e-01,
465,2.368000e-02,-6.806000e-01,
466,2.545600e-02,-6.972000e-01,
467,2.486400e-02,-7.138000e-01,
468,2.486400e-02,-7.304000e-01,
469,2.545600e-02,-7.470000e-01,
470,2.664000e-02,-7.636000e-01,
471,2.723200e-02,-7.802000e-01,
472,2.782400e-02,-7.968000e-01,
473,2.782400e-02,-7.968000e-01,
474,2.841600e-02,-8.134000e-01,
475,2.841600e-02,-8.300000e-01,
476,3.019200e-02,-8.466000e-01,
477,3.019200e-02,-8.632000e-01,
478,3.019200e-02,-8.798000e-01,
479,3.019200e-02,-8.798000e-01,
480,3.196800e-02,-8.964000e-01,
481,3.256000e-02,-9.130000e-01,
482,3.196800e-02,-9.296000e-01,
483,3.256000e-02,-9.462000e-01,
484,3.374400e-02,-9.628000e-01,
485,3.374400e-02,-9.628000e-01,
486,3.433600e-02,-9.794000e-01,
487,3.433600e-02,-9.960000e-01,
488,3.492800e-02,-1.012600e+00,
489,3.552000e-02,-1.029200e+00,
490,3.611200e-02,-1.029200e+00,
491,3.611200e-02,-1.045800e+00,
492,3.729600e-02,-1.062400e+00,
493,3.670400e-02,-1.079000e+00,
494,3.670400e-02,-1.079000e+00,
495,3.729600e-02,-1.095600e+00,
496,3.788800e-02,-1.112200e+00,
497,3.729600e-02,-1.112200e+00,
498,3.966400e-02,-1.128800e+00,
499,3.907200e-02,-1.145400e+00,
500,4.025600e-02,-1.162000e+00,
501,4.025600e-02,-1.162000e+00,
502,3.966400e-02,-1.178600e+00,
503,3.966400e-02,-1.195200e+00,
504,4.084800e-02,-1.195200e+00,
505,4.144000e-02,-1.211800e+00,
506,4.203200e-02,-1.228400e+00,
507,4.203200e-02,-1.211800e+00,
508,4.262400e-02,-1.245000e+00,
509,4.203200e-02,-1.245000e+00,
510,4.262400e-02,-1.261600e+00,
511,4.321600e-02,-1.278200e+00,
512,4.380800e-02,-1.278200e+00,
513,4.440000e-02,-1.294800e+00,
514,4.499200e-02,-1.294800e+00,
515,4.440000e-02,-1.311400e+00,
516,4.440000e-02,-1.328000e+00,
517,4.440000e-02,-1.311400e+00,
518,4.617600e-02,-1.344600e+00,
519,4.558400e-02,-1.328000e+00,
520,4.558400e-02,-1.344600e+00,
521,4.617600e-02,-1.361200e+00,
522,4.558400e-02,-1.377800e+00,
523,4.558400e-02,-1.361200e+00,
524,4.736000e-02,-1.377800e+00,
525,4.676800e-02,-1.394400e+00,
526,4.676800e-02,-1.394400e+00,
527,4.676800e-02,-1.394400e+00,
528,4.736000e-02,-1.411000e+00,
529,4.736000e-02,-1.411000e+00,
530,4.795200e-02,-1.427600e+00,
531,4.795200e-02,-1.411000e+00,
532,4.795200e-02,-1.427600e+00,
533,4.795200e-02,-1.444200e+00,
534,4.913600e-02,-1.444200e+00,
535,4.913600e-02,-1.444200e+00,
536,4.795200e-02,-1.444200e+00,
537,4.854400e-02,-1.460800e+00,
538,5.032000e-02,-1.460800e+00,
539,5.032000e-02,-1.477400e+00,
540,4.854400e-02,-1.477400e+00,
541,4.854400e-02,-1.460800e+00,
542,4.913600e-02,-1.494000e+00,
543,4.972800e-02,-1.477400e+00,
544,5.032000e-02,-1.477400e+00,
545,5.091200e-02,-1.494000e+00,
546,4.913600e-02,-1.494000e+00,
547,4.854400e-02,-1.494000e+00,
548,5.032000e-02,-1.494000e+00,
549,5.032000e-02,-1.510600e+00,
550,5.032000e-02,-1.510600e+00,
551,5.091200e-02,-1.510600e+00,
552,5.032000e-02,-1.510600e+00,
553,5.032000e-02,-1.527200e+00,
554,5.091200e-02,-1.527200e+00,
555,5.091200e-02,-1.510600e+00,
556,4.972800e-02,-1.510600e+00,
557,4.972800e-02,-1.527200e+00,
558,5.150400e-02,-1.510600e+00,
559,5.091200e-02,-1.527200e+00,
560,5.091200e-02,-1.527200e+00,
561,5.150400e-02,-1.510600e+00,
562,5.032000e-02,-1.510600e+00,
563,5.032000e-02,-1.527200e+00,
564,5.091200e-02,-1.527200e+00,
565,5.091200e-02,-1.510600e+00,
566,5.091200e-02,-1.527200e+00,
567,5.032000e-02,-1.510600e+00,
568,5.032000e-02,-1.527200e+00,
569,5.091200e-02,-1.510600e+00,
570,5.032000e-02,-1.510600e+00,
571,5.032000e-02,-1.527200e+00,
572,5.032000e-02,-1.527200e+00,
573,4.972800e-02,-1.510600e+00,
574,5.032000e-02,-1.510600e+00,
575,4.972800e-02,-1.510600e+00,
576,4.972800e-02,-1.510600e+00,
577,5.032000e-02,-1.494000e+00,
578,4.972800e-02,-1.510600e+00,
579,4.913600e-02,-1.494000e+00,
580,4.972800e-02,-1.494000e+00,
581,4.972800e-02,-1.510600e+00,
582,4.913600e-02,-1.494000e+00,
583,4.913600e-02,-1.494000e+00,
584,4.854400e-02,-1.477400e+00,
585,4.854400e-02,-1.494000e+00,
586,4.913600e-02,-1.477400e+00,
587,4.913600e-02,-1.460800e+00,
588,4.854400e-02,-1.460800e+00,
589,4.854400e-02,-1.477400e+00,
590,4.736000e-02,-1.460800e+00,
591,4.736000e-02,-1.444200e+00,
592,4.736000e-02,-1.444200e+00,
593,4.795200e-02,-1.427600e+00,
594,4.795200e-02,-1.444200e+00,
595,4.795200e-02,-1.427600e+00,
596,4.676800e-02,-1.427600e+00,
597,4.676800e-02,-1.411000e+00,
598,4.676800e-02,-1.411000e+00,
599,4.617600e-02,-1.411000e+00,
600,4.617600e-02,-1.394400e+00,
601,4.617600e-02,-1.394400e+00,
602,4.499200e-02,-1.377800e+00,
603,4.499200e-02,-1.377800e+00,
604,4.499200e-02,-1.361200e+00,
605,4.558400e-02,-1.361200e+00,
606,4.380800e-02,-1.361200e+00,
607,4.380800e-02,-1.344600e+00,
608,4.321600e-02,-1.344600e+00,
609,4.380800e-02,-1.328000e+00,
610,4.321600e-02,-1.328000e+00,
611,4.321600e-02,-1.311400e+00,
612,4.262400e-02,-1.311400e+00,
613,4.321600e-02,-1.294800e+00,
614,4.144000e-02,-1.278200e+00,
615,4.203200e-02,-1.294800e+00,
616,4.084800e-02,-1.261600e+00,
617,4.084800e-02,-1.261600e+00,
618,4.084800e-02,-1.245000e+00,
619,4.025600e-02,-1.245000e+00,
620,3.966400e-02,-1.228400e+00,
621,3.907200e-02,-1.211800e+00,
622,3.788800e-02,-1.211800e+00,
623,3.788800e-02,-1.195200e+00,
624,3.907200e-02,-1.178600e+00,
625,3.907200e-02,-1.178600e+00,
