parte2/esp9/Con_sorgente/Data_diff/9.csv

X,CH1,CH2,Start,Increment,
Sequence,Volt,Volt,-1.512000e-02,2.160000e-05,
0,-1.848000e-03,3.200000e-02,
1,-2.464000e-03,1.600000e-02,
2,-1.848000e-03,3.200000e-02,
3,-2.464000e-03,1.600000e-02,
4,6.160000e-04,-1.600000e-02,
5,0.000000e+00,-1.600000e-02,
6,1.848000e-03,-6.400000e-02,
7,2.464000e-03,-6.400000e-02,
8,3.080000e-03,-9.600001e-02,
9,2.464000e-03,-1.120000e-01,
10,4.928000e-03,-1.440000e-01,
11,4.312000e-03,-1.440000e-01,
12,4.928000e-03,-1.760000e-01,
13,5.544000e-03,-1.920000e-01,
14,7.392000e-03,-2.240000e-01,
15,8.008000e-03,-2.240000e-01,
16,8.008000e-03,-2.720000e-01,
17,8.008000e-03,-2.720000e-01,
18,1.047200e-02,-3.040000e-01,
19,9.856000e-03,-3.040000e-01,
20,1.108800e-02,-3.520000e-01,
21,1.170400e-02,-3.520000e-01,
22,1.170400e-02,-3.840000e-01,
23,1.170400e-02,-4.000000e-01,
24,1.416800e-02,-4.320000e-01,
25,1.478400e-02,-4.480000e-01,
26,1.540000e-02,-4.640000e-01,
27,1.478400e-02,-4.800000e-01,
28,1.663200e-02,-5.120000e-01,
29,1.663200e-02,-5.120000e-01,
30,1.724800e-02,-5.440000e-01,
31,1.786400e-02,-5.600000e-01,
32,1.971200e-02,-5.920000e-01,
33,1.971200e-02,-5.920000e-01,
34,2.094400e-02,-6.240000e-01,
35,2.032800e-02,-6.240000e-01,
36,2.156000e-02,-6.560000e-01,
37,2.094400e-02,-6.720001e-01,
38,2.279200e-02,-7.040001e-01,
39,2.340800e-02,-7.040001e-01,
40,2.279200e-02,-7.360001e-01,
41,2.279200e-02,-7.360001e-01,
42,2.587200e-02,-7.680001e-01,
43,2.587200e-02,-7.840000e-01,
44,2.648800e-02,-8.160000e-01,
45,2.587200e-02,-8.160000e-01,
46,2.648800e-02,-8.480000e-01,
47,2.648800e-02,-8.480000e-01,
48,2.833600e-02,-8.800001e-01,
49,2.895200e-02,-8.800001e-01,
50,3.018400e-02,-9.120001e-01,
51,3.018400e-02,-9.280000e-01,
52,3.080000e-02,-9.440001e-01,
53,3.080000e-02,-9.440001e-01,
54,3.141600e-02,-9.760001e-01,
55,3.203200e-02,-9.760001e-01,
56,3.264800e-02,-1.008000e+00,
57,3.326400e-02,-1.008000e+00,
58,3.388000e-02,-1.040000e+00,
59,3.326400e-02,-1.040000e+00,
60,3.572800e-02,-1.072000e+00,
61,3.634400e-02,-1.088000e+00,
62,3.634400e-02,-1.104000e+00,
63,3.696000e-02,-1.104000e+00,
64,3.696000e-02,-1.136000e+00,
65,3.757600e-02,-1.136000e+00,
66,3.696000e-02,-1.152000e+00,
67,3.757600e-02,-1.152000e+00,
68,4.004000e-02,-1.184000e+00,
69,3.942400e-02,-1.184000e+00,
70,3.942400e-02,-1.200000e+00,
71,4.004000e-02,-1.200000e+00,
72,4.065600e-02,-1.232000e+00,
73,4.127200e-02,-1.232000e+00,
74,4.065600e-02,-1.264000e+00,
75,4.065600e-02,-1.248000e+00,
76,4.250400e-02,-1.280000e+00,
77,4.250400e-02,-1.280000e+00,
78,4.373600e-02,-1.296000e+00,
79,4.312000e-02,-1.312000e+00,
80,4.373600e-02,-1.328000e+00,
81,4.435200e-02,-1.328000e+00,
82,4.435200e-02,-1.344000e+00,
83,4.496800e-02,-1.344000e+00,
84,4.496800e-02,-1.360000e+00,
85,4.558400e-02,-1.376000e+00,
86,4.496800e-02,-1.376000e+00,
87,4.435200e-02,-1.392000e+00,
88,4.620000e-02,-1.392000e+00,
89,4.681600e-02,-1.392000e+00,
90,4.620000e-02,-1.408000e+00,
91,4.681600e-02,-1.408000e+00,
92,4.804800e-02,-1.424000e+00,
93,4.866400e-02,-1.440000e+00,
94,4.804800e-02,-1.440000e+00,
95,4.804800e-02,-1.440000e+00,
96,4.804800e-02,-1.456000e+00,
97,4.804800e-02,-1.456000e+00,
98,4.866400e-02,-1.472000e+00,
99,4.866400e-02,-1.456000e+00,
100,4.928000e-02,-1.472000e+00,
101,4.989600e-02,-1.472000e+00,
102,4.928000e-02,-1.488000e+00,
103,4.928000e-02,-1.488000e+00,
104,4.928000e-02,-1.488000e+00,
105,4.928000e-02,-1.504000e+00,
106,4.989600e-02,-1.504000e+00,
107,5.051200e-02,-1.504000e+00,
108,4.928000e-02,-1.504000e+00,
109,4.989600e-02,-1.520000e+00,
110,5.112800e-02,-1.520000e+00,
111,5.112800e-02,-1.520000e+00,
112,5.112800e-02,-1.520000e+00,
113,5.174400e-02,-1.520000e+00,
114,5.051200e-02,-1.520000e+00,
115,5.112800e-02,-1.520000e+00,
116,5.051200e-02,-1.520000e+00,
117,5.112800e-02,-1.520000e+00,
118,5.236000e-02,-1.520000e+00,
119,5.174400e-02,-1.520000e+00,
120,5.112800e-02,-1.520000e+00,
121,5.174400e-02,-1.520000e+00,
122,5.174400e-02,-1.520000e+00,
123,5.112800e-02,-1.520000e+00,
124,5.174400e-02,-1.520000e+00,
125,5.174400e-02,-1.520000e+00,
126,5.112800e-02,-1.520000e+00,
127,5.174400e-02,-1.520000e+00,
128,5.112800e-02,-1.504000e+00,
129,5.112800e-02,-1.520000e+00,
130,5.112800e-02,-1.504000e+00,
131,5.174400e-02,-1.504000e+00,
132,5.112800e-02,-1.504000e+00,
133,5.051200e-02,-1.488000e+00,
134,5.051200e-02,-1.488000e+00,
135,5.112800e-02,-1.488000e+00,
136,4.928000e-02,-1.488000e+00,
137,4.989600e-02,-1.472000e+00,
138,4.928000e-02,-1.472000e+00,
139,4.989600e-02,-1.472000e+00,
140,4.989600e-02,-1.456000e+00,
141,4.928000e-02,-1.456000e+00,
142,4.928000e-02,-1.456000e+00,
143,4.928000e-02,-1.440000e+00,
144,4.804800e-02,-1.440000e+00,
145,4.866400e-02,-1.440000e+00,
146,4.743200e-02,-1.424000e+00,
147,4.681600e-02,-1.424000e+00,
148,4.866400e-02,-1.408000e+00,
149,4.804800e-02,-1.408000e+00,
150,4.743200e-02,-1.392000e+00,
151,4.743200e-02,-1.392000e+00,
152,4.743200e-02,-1.376000e+00,
153,4.743200e-02,-1.360000e+00,
154,4.558400e-02,-1.344000e+00,
155,4.558400e-02,-1.360000e+00,
156,4.558400e-02,-1.328000e+00,
157,4.620000e-02,-1.328000e+00,
158,4.435200e-02,-1.312000e+00,
159,4.435200e-02,-1.312000e+00,
160,4.435200e-02,-1.296000e+00,
161,4.373600e-02,-1.296000e+00,
162,4.373600e-02,-1.264000e+00,
163,4.312000e-02,-1.264000e+00,
164,4.127200e-02,-1.248000e+00,
165,4.127200e-02,-1.248000e+00,
166,4.188800e-02,-1.216000e+00,
167,4.250400e-02,-1.216000e+00,
168,4.065600e-02,-1.200000e+00,
169,4.004000e-02,-1.184000e+00,
170,3.942400e-02,-1.168000e+00,
171,3.942400e-02,-1.168000e+00,
172,3.880800e-02,-1.136000e+00,
173,3.880800e-02,-1.136000e+00,
174,3.819200e-02,-1.104000e+00,
175,3.757600e-02,-1.120000e+00,
176,3.696000e-02,-1.088000e+00,
177,3.757600e-02,-1.072000e+00,
178,3.634400e-02,-1.056000e+00,
179,3.572800e-02,-1.040000e+00,
180,3.511200e-02,-1.024000e+00,
181,3.511200e-02,-1.024000e+00,
182,3.388000e-02,-9.920000e-01,
183,3.326400e-02,-9.920000e-01,
184,3.326400e-02,-9.600000e-01,
185,3.326400e-02,-9.600000e-01,
186,3.264800e-02,-9.280000e-01,
187,3.203200e-02,-9.280000e-01,
188,3.141600e-02,-8.960000e-01,
189,3.141600e-02,-8.960000e-01,
190,2.956800e-02,-8.640000e-01,
191,2.956800e-02,-8.640000e-01,
192,2.895200e-02,-8.320000e-01,
193,2.956800e-02,-8.320000e-01,
194,2.772000e-02,-8.000000e-01,
195,2.772000e-02,-7.840000e-01,
196,2.710400e-02,-7.520000e-01,
197,2.710400e-02,-7.520000e-01,
198,2.525600e-02,-7.200000e-01,
199,2.587200e-02,-7.200000e-01,
200,2.464000e-02,-6.880000e-01,
201,2.402400e-02,-6.720001e-01,
202,2.279200e-02,-6.400000e-01,
203,2.217600e-02,-6.400000e-01,
204,2.156000e-02,-6.080000e-01,
205,2.094400e-02,-6.080000e-01,
206,1.971200e-02,-5.600000e-01,
207,1.971200e-02,-5.600000e-01,
208,1.909600e-02,-5.280000e-01,
209,1.848000e-02,-5.280000e-01,
210,1.848000e-02,-4.960000e-01,
211,1.786400e-02,-4.800000e-01,
212,1.663200e-02,-4.480000e-01,
213,1.724800e-02,-4.480000e-01,
214,1.540000e-02,-4.160000e-01,
215,1.540000e-02,-4.160000e-01,
216,1.355200e-02,-3.680000e-01,
217,1.416800e-02,-3.680000e-01,
218,1.293600e-02,-3.360000e-01,
219,1.293600e-02,-3.360000e-01,
220,1.170400e-02,-2.880000e-01,
221,1.170400e-02,-2.880000e-01,
222,9.856000e-03,-2.400000e-01,
223,9.240000e-03,-2.400000e-01,
224,9.240000e-03,-2.080000e-01,
225,9.240000e-03,-2.080000e-01,
226,8.008000e-03,-1.600000e-01,
227,8.008000e-03,-1.600000e-01,
228,6.776000e-03,-1.280000e-01,
229,6.160000e-03,-1.120000e-01,
230,4.928000e-03,-8.000001e-02,
231,4.312000e-03,-8.000001e-02,
232,1.848000e-03,-3.200000e-02,
233,2.464000e-03,-3.200000e-02,
234,1.232000e-03,0.000000e+00,
235,6.160000e-04,1.600000e-02,
236,6.160000e-04,4.800000e-02,
237,1.232000e-03,6.400000e-02,
238,-1.232000e-03,9.600001e-02,
239,-6.160000e-04,9.600001e-02,
240,-2.464000e-03,1.280000e-01,
241,-1.848000e-03,1.440000e-01,
242,-4.312000e-03,1.760000e-01,
243,-3.696000e-03,1.760000e-01,
244,-5.544000e-03,2.240000e-01,
245,-5.544000e-03,2.080000e-01,
246,-8.008000e-03,2.560000e-01,
247,-8.008000e-03,2.560000e-01,
248,-8.624000e-03,2.880000e-01,
249,-8.624000e-03,3.040000e-01,
250,-9.856000e-03,3.360000e-01,
251,-1.047200e-02,3.360000e-01,
252,-1.108800e-02,3.680000e-01,
253,-1.108800e-02,3.840000e-01,
254,-1.232000e-02,4.160000e-01,
255,-1.232000e-02,4.320000e-01,
256,-1.355200e-02,4.640000e-01,
257,-1.293600e-02,4.640000e-01,
258,-1.478400e-02,4.960000e-01,
259,-1.416800e-02,4.960000e-01,
260,-1.601600e-02,5.280000e-01,
261,-1.663200e-02,5.440000e-01,
262,-1.663200e-02,5.760000e-01,
263,-1.601600e-02,5.760000e-01,
264,-1.909600e-02,6.080000e-01,
265,-1.848000e-02,6.240000e-01,
266,-1.971200e-02,6.560000e-01,
267,-1.909600e-02,6.560000e-01,
268,-2.094400e-02,6.880000e-01,
269,-2.094400e-02,6.880000e-01,
270,-2.156000e-02,7.200000e-01,
271,-2.094400e-02,7.360001e-01,
272,-2.340800e-02,7.680001e-01,
273,-2.340800e-02,7.680001e-01,
274,-2.525600e-02,8.000000e-01,
275,-2.464000e-02,8.000000e-01,
276,-2.648800e-02,8.320000e-01,
277,-2.648800e-02,8.480000e-01,
278,-2.772000e-02,8.800001e-01,
279,-2.772000e-02,8.800001e-01,
280,-2.895200e-02,9.120001e-01,
281,-2.833600e-02,9.120001e-01,
282,-2.956800e-02,9.440001e-01,
283,-2.956800e-02,9.440001e-01,
284,-3.080000e-02,9.760001e-01,
285,-3.080000e-02,9.760001e-01,
286,-3.141600e-02,1.008000e+00,
287,-3.141600e-02,9.920000e-01,
288,-3.388000e-02,1.040000e+00,
289,-3.326400e-02,1.024000e+00,
290,-3.388000e-02,1.056000e+00,
291,-3.388000e-02,1.072000e+00,
292,-3.511200e-02,1.088000e+00,
293,-3.572800e-02,1.104000e+00,
294,-3.449600e-02,1.120000e+00,
295,-3.511200e-02,1.120000e+00,
296,-3.634400e-02,1.152000e+00,
297,-3.572800e-02,1.136000e+00,
298,-3.819200e-02,1.184000e+00,
299,-3.757600e-02,1.184000e+00,
300,-3.942400e-02,1.200000e+00,
301,-3.880800e-02,1.216000e+00,
302,-4.004000e-02,1.232000e+00,
303,-4.065600e-02,1.232000e+00,
304,-3.942400e-02,1.248000e+00,
305,-4.004000e-02,1.264000e+00,
306,-4.065600e-02,1.264000e+00,
307,-4.065600e-02,1.280000e+00,
308,-4.065600e-02,1.296000e+00,
309,-4.127200e-02,1.296000e+00,
310,-4.312000e-02,1.328000e+00,
311,-4.312000e-02,1.328000e+00,
312,-4.312000e-02,1.344000e+00,
313,-4.312000e-02,1.344000e+00,
314,-4.435200e-02,1.360000e+00,
315,-4.435200e-02,1.376000e+00,
316,-4.496800e-02,1.392000e+00,
317,-4.435200e-02,1.392000e+00,
318,-4.496800e-02,1.408000e+00,
319,-4.558400e-02,1.408000e+00,
320,-4.743200e-02,1.408000e+00,
321,-4.681600e-02,1.424000e+00,
322,-4.620000e-02,1.440000e+00,
323,-4.681600e-02,1.424000e+00,
324,-4.620000e-02,1.456000e+00,
325,-4.620000e-02,1.456000e+00,
326,-4.743200e-02,1.472000e+00,
327,-4.804800e-02,1.472000e+00,
328,-4.866400e-02,1.472000e+00,
329,-4.804800e-02,1.472000e+00,
330,-4.866400e-02,1.488000e+00,
331,-4.866400e-02,1.488000e+00,
332,-4.866400e-02,1.504000e+00,
333,-4.866400e-02,1.488000e+00,
334,-4.928000e-02,1.520000e+00,
335,-4.866400e-02,1.504000e+00,
336,-4.928000e-02,1.520000e+00,
337,-4.866400e-02,1.520000e+00,
338,-5.112800e-02,1.520000e+00,
339,-5.051200e-02,1.520000e+00,
340,-4.989600e-02,1.536000e+00,
341,-5.051200e-02,1.536000e+00,
342,-4.989600e-02,1.536000e+00,
343,-5.051200e-02,1.536000e+00,
344,-4.928000e-02,1.536000e+00,
345,-4.866400e-02,1.536000e+00,
346,-5.051200e-02,1.552000e+00,
347,-5.051200e-02,1.536000e+00,
348,-5.051200e-02,1.552000e+00,
349,-5.051200e-02,1.536000e+00,
350,-5.051200e-02,1.552000e+00,
351,-5.051200e-02,1.552000e+00,
352,-4.928000e-02,1.536000e+00,
353,-4.928000e-02,1.552000e+00,
354,-4.989600e-02,1.552000e+00,
355,-4.989600e-02,1.536000e+00,
356,-5.051200e-02,1.536000e+00,
357,-4.989600e-02,1.536000e+00,
358,-5.051200e-02,1.536000e+00,
359,-5.051200e-02,1.536000e+00,
360,-4.989600e-02,1.536000e+00,
361,-4.989600e-02,1.536000e+00,
362,-5.112800e-02,1.520000e+00,
363,-5.051200e-02,1.520000e+00,
364,-4.928000e-02,1.520000e+00,
365,-4.928000e-02,1.504000e+00,
366,-5.051200e-02,1.504000e+00,
367,-4.989600e-02,1.504000e+00,
368,-4.989600e-02,1.504000e+00,
369,-4.989600e-02,1.488000e+00,
370,-4.866400e-02,1.488000e+00,
371,-4.804800e-02,1.472000e+00,
372,-4.866400e-02,1.472000e+00,
373,-4.804800e-02,1.472000e+00,
374,-4.866400e-02,1.472000e+00,
375,-4.928000e-02,1.456000e+00,
376,-4.804800e-02,1.456000e+00,
377,-4.743200e-02,1.440000e+00,
378,-4.743200e-02,1.440000e+00,
379,-4.804800e-02,1.424000e+00,
380,-4.620000e-02,1.424000e+00,
381,-4.620000e-02,1.408000e+00,
382,-4.558400e-02,1.408000e+00,
383,-4.496800e-02,1.392000e+00,
384,-4.558400e-02,1.392000e+00,
385,-4.558400e-02,1.392000e+00,
386,-4.435200e-02,1.360000e+00,
387,-4.496800e-02,1.360000e+00,
388,-4.373600e-02,1.344000e+00,
389,-4.312000e-02,1.344000e+00,
390,-4.312000e-02,1.328000e+00,
391,-4.250400e-02,1.328000e+00,
392,-4.312000e-02,1.296000e+00,
393,-4.312000e-02,1.296000e+00,
394,-4.250400e-02,1.280000e+00,
395,-4.312000e-02,1.280000e+00,
396,-4.065600e-02,1.264000e+00,
397,-4.065600e-02,1.248000e+00,
398,-4.065600e-02,1.232000e+00,
399,-4.065600e-02,1.232000e+00,
400,-4.004000e-02,1.200000e+00,
401,-4.065600e-02,1.200000e+00,
402,-3.880800e-02,1.184000e+00,
403,-3.880800e-02,1.168000e+00,
404,-3.880800e-02,1.152000e+00,
405,-3.819200e-02,1.152000e+00,
406,-3.696000e-02,1.120000e+00,
407,-3.757600e-02,1.120000e+00,
408,-3.634400e-02,1.088000e+00,
409,-3.572800e-02,1.088000e+00,
410,-3.511200e-02,1.072000e+00,
411,-3.511200e-02,1.056000e+00,
412,-3.449600e-02,1.040000e+00,
413,-3.388000e-02,1.024000e+00,
414,-3.264800e-02,1.008000e+00,
415,-3.326400e-02,1.008000e+00,
416,-3.203200e-02,9.760001e-01,
417,-3.264800e-02,9.760001e-01,
418,-3.141600e-02,9.440001e-01,
419,-3.203200e-02,9.440001e-01,
420,-3.018400e-02,9.120001e-01,
421,-2.956800e-02,8.960000e-01,
422,-2.833600e-02,8.800001e-01,
423,-2.895200e-02,8.640000e-01,
424,-2.772000e-02,8.320000e-01,
425,-2.710400e-02,8.320000e-01,
426,-2.587200e-02,8.000000e-01,
427,-2.525600e-02,8.000000e-01,
428,-2.525600e-02,7.680001e-01,
429,-2.587200e-02,7.680001e-01,
430,-2.464000e-02,7.200000e-01,
431,-2.464000e-02,7.200000e-01,
432,-2.279200e-02,6.880000e-01,
433,-2.217600e-02,6.880000e-01,
434,-2.279200e-02,6.560000e-01,
435,-2.217600e-02,6.560000e-01,
436,-1.971200e-02,6.080000e-01,
437,-2.032800e-02,6.080000e-01,
438,-1.971200e-02,5.760000e-01,
439,-1.909600e-02,5.600000e-01,
440,-1.786400e-02,5.280000e-01,
441,-1.724800e-02,5.280000e-01,
442,-1.663200e-02,4.800000e-01,
443,-1.663200e-02,4.960000e-01,
444,-1.416800e-02,4.480000e-01,
445,-1.416800e-02,4.480000e-01,
446,-1.416800e-02,4.160000e-01,
447,-1.416800e-02,4.160000e-01,
448,-1.355200e-02,3.840000e-01,
449,-1.416800e-02,3.680000e-01,
450,-1.047200e-02,3.360000e-01,
451,-1.108800e-02,3.360000e-01,
452,-9.856000e-03,3.040000e-01,
453,-1.047200e-02,2.880000e-01,
454,-9.240000e-03,2.560000e-01,
455,-8.624000e-03,2.560000e-01,
456,-7.392000e-03,2.080000e-01,
457,-7.392000e-03,2.080000e-01,
458,-6.160000e-03,1.760000e-01,
459,-6.160000e-03,1.600000e-01,
460,-4.312000e-03,1.280000e-01,
461,-4.312000e-03,1.280000e-01,
462,-3.696000e-03,9.600001e-02,
463,-3.080000e-03,8.000001e-02,
464,-1.848000e-03,4.800000e-02,
465,-1.232000e-03,4.800000e-02,
466,-1.232000e-03,0.000000e+00,
467,-6.160000e-04,0.000000e+00,
468,6.160000e-04,-3.200000e-02,
469,1.232000e-03,-4.800000e-02,
470,3.696000e-03,-8.000001e-02,
471,3.080000e-03,-8.000001e-02,
472,3.696000e-03,-1.280000e-01,
473,4.312000e-03,-1.280000e-01,
474,4.312000e-03,-1.600000e-01,
475,3.696000e-03,-1.600000e-01,
476,6.776000e-03,-2.080000e-01,
477,6.160000e-03,-2.080000e-01,
478,8.008000e-03,-2.400000e-01,
479,8.624000e-03,-2.560000e-01,
480,9.856000e-03,-2.880000e-01,
481,9.240000e-03,-2.880000e-01,
482,1.047200e-02,-3.360000e-01,
483,1.108800e-02,-3.360000e-01,
484,1.170400e-02,-3.680000e-01,
485,1.232000e-02,-3.680000e-01,
486,1.355200e-02,-4.160000e-01,
487,1.293600e-02,-4.160000e-01,
488,1.355200e-02,-4.480000e-01,
489,1.416800e-02,-4.480000e-01,
490,1.601600e-02,-4.960000e-01,
491,1.601600e-02,-4.960000e-01,
492,1.663200e-02,-5.280000e-01,
493,1.724800e-02,-5.440000e-01,
494,1.786400e-02,-5.600000e-01,
495,1.848000e-02,-5.760000e-01,
496,1.971200e-02,-6.080000e-01,
497,2.032800e-02,-6.080000e-01,
498,2.156000e-02,-6.400000e-01,
499,2.094400e-02,-6.560000e-01,
500,2.279200e-02,-6.880000e-01,
501,2.217600e-02,-6.880000e-01,
502,2.340800e-02,-7.200000e-01,
503,2.340800e-02,-7.200000e-01,
504,2.525600e-02,-7.520000e-01,
505,2.525600e-02,-7.520000e-01,
506,2.525600e-02,-8.000000e-01,
507,2.464000e-02,-8.000000e-01,
508,2.648800e-02,-8.320000e-01,
509,2.587200e-02,-8.480000e-01,
510,2.772000e-02,-8.640000e-01,
511,2.772000e-02,-8.640000e-01,
512,2.956800e-02,-8.960000e-01,
513,2.895200e-02,-8.960000e-01,
514,3.080000e-02,-9.280000e-01,
515,3.080000e-02,-9.280000e-01,
516,3.203200e-02,-9.600000e-01,
517,3.141600e-02,-9.760001e-01,
518,3.264800e-02,-9.920000e-01,
519,3.326400e-02,-9.920000e-01,
520,3.388000e-02,-1.024000e+00,
521,3.388000e-02,-1.040000e+00,
522,3.449600e-02,-1.056000e+00,
523,3.449600e-02,-1.072000e+00,
524,3.634400e-02,-1.088000e+00,
525,3.572800e-02,-1.088000e+00,
526,3.757600e-02,-1.120000e+00,
527,3.819200e-02,-1.104000e+00,
528,3.819200e-02,-1.136000e+00,
529,3.819200e-02,-1.136000e+00,
530,3.942400e-02,-1.168000e+00,
531,4.004000e-02,-1.168000e+00,
532,4.004000e-02,-1.200000e+00,
533,4.065600e-02,-1.200000e+00,
534,4.065600e-02,-1.216000e+00,
535,4.004000e-02,-1.216000e+00,
536,4.188800e-02,-1.248000e+00,
537,4.188800e-02,-1.248000e+00,
538,4.065600e-02,-1.264000e+00,
539,4.127200e-02,-1.264000e+00,
540,4.250400e-02,-1.296000e+00,
541,4.188800e-02,-1.296000e+00,
542,4.373600e-02,-1.312000e+00,
543,4.373600e-02,-1.328000e+00,
544,4.312000e-02,-1.328000e+00,
545,4.373600e-02,-1.328000e+00,
546,4.435200e-02,-1.360000e+00,
547,4.496800e-02,-1.360000e+00,
548,4.496800e-02,-1.376000e+00,
549,4.435200e-02,-1.376000e+00,
550,4.681600e-02,-1.392000e+00,
551,4.743200e-02,-1.392000e+00,
552,4.743200e-02,-1.408000e+00,
553,4.681600e-02,-1.408000e+00,
554,4.866400e-02,-1.424000e+00,
555,4.804800e-02,-1.424000e+00,
556,4.743200e-02,-1.424000e+00,
557,4.681600e-02,-1.440000e+00,
558,4.989600e-02,-1.440000e+00,
559,4.928000e-02,-1.440000e+00,
560,4.866400e-02,-1.456000e+00,
561,4.804800e-02,-1.456000e+00,
562,4.928000e-02,-1.472000e+00,
563,4.866400e-02,-1.472000e+00,
564,4.989600e-02,-1.472000e+00,
565,4.928000e-02,-1.488000e+00,
566,4.989600e-02,-1.488000e+00,
567,4.989600e-02,-1.488000e+00,
568,5.112800e-02,-1.504000e+00,
569,5.051200e-02,-1.488000e+00,
570,4.989600e-02,-1.504000e+00,
571,4.989600e-02,-1.504000e+00,
572,5.112800e-02,-1.504000e+00,
573,5.051200e-02,-1.520000e+00,
574,4.928000e-02,-1.504000e+00,
575,4.928000e-02,-1.520000e+00,
576,5.051200e-02,-1.520000e+00,
577,5.112800e-02,-1.520000e+00,
578,5.112800e-02,-1.520000e+00,
579,5.051200e-02,-1.520000e+00,
580,5.051200e-02,-1.520000e+00,
581,4.989600e-02,-1.520000e+00,
582,5.051200e-02,-1.520000e+00,
583,5.112800e-02,-1.520000e+00,
584,5.112800e-02,-1.520000e+00,
585,5.112800e-02,-1.520000e+00,
586,5.174400e-02,-1.520000e+00,
587,5.236000e-02,-1.520000e+00,
588,5.051200e-02,-1.520000e+00,
589,4.989600e-02,-1.520000e+00,
590,5.051200e-02,-1.504000e+00,
591,5.051200e-02,-1.520000e+00,
592,5.051200e-02,-1.504000e+00,
593,5.051200e-02,-1.504000e+00,
594,4.989600e-02,-1.504000e+00,
595,4.928000e-02,-1.488000e+00,
596,5.112800e-02,-1.488000e+00,
597,5.051200e-02,-1.504000e+00,
598,5.112800e-02,-1.488000e+00,
599,5.051200e-02,-1.472000e+00,
600,5.051200e-02,-1.472000e+00,
601,5.051200e-02,-1.472000e+00,
602,4.989600e-02,-1.456000e+00,
603,4.928000e-02,-1.456000e+00,
604,4.928000e-02,-1.456000e+00,
605,4.989600e-02,-1.456000e+00,
606,4.866400e-02,-1.440000e+00,
607,4.866400e-02,-1.440000e+00,
608,4.866400e-02,-1.424000e+00,
609,4.866400e-02,-1.424000e+00,
610,4.804800e-02,-1.408000e+00,
611,4.804800e-02,-1.408000e+00,
612,4.743200e-02,-1.392000e+00,
613,4.804800e-02,-1.392000e+00,
614,4.620000e-02,-1.376000e+00,
615,4.558400e-02,-1.376000e+00,
616,4.558400e-02,-1.360000e+00,
617,4.558400e-02,-1.360000e+00,
618,4.558400e-02,-1.344000e+00,
619,4.620000e-02,-1.344000e+00,
620,4.373600e-02,-1.328000e+00,
621,4.435200e-02,-1.328000e+00,
622,4.373600e-02,-1.296000e+00,
623,4.312000e-02,-1.296000e+00,
624,4.312000e-02,-1.280000e+00,
625,4.250400e-02,-1.280000e+00,
