parte2/esp9/Con_sorgente/Data_common_mode/9/6.csv

X,CH1,CH2,Start,Increment,
Sequence,Volt,Volt,2.189200e-04,2.440000e-08,
0,-4.160000e-01,2.400000e-03,
1,-4.080000e-01,2.400000e-03,
2,-4.160000e-01,2.400000e-03,
3,-4.080000e-01,2.400000e-03,
4,-3.920000e-01,2.400000e-03,
5,-3.920000e-01,3.200000e-03,
6,-3.760000e-01,2.400000e-03,
7,-3.680000e-01,2.400000e-03,
8,-3.600000e-01,2.400000e-03,
9,-3.520000e-01,2.400000e-03,
10,-3.440000e-01,2.400000e-03,
11,-3.360000e-01,2.400000e-03,
12,-3.200000e-01,3.200000e-03,
13,-3.200000e-01,3.200000e-03,
14,-3.040000e-01,3.200000e-03,
15,-3.040000e-01,3.200000e-03,
16,-2.880000e-01,3.200000e-03,
17,-2.800000e-01,3.200000e-03,
18,-2.640000e-01,3.200000e-03,
19,-2.640000e-01,3.200000e-03,
20,-2.480000e-01,3.200000e-03,
21,-2.400000e-01,3.200000e-03,
22,-2.320000e-01,4.000000e-03,
23,-2.240000e-01,4.000000e-03,
24,-2.080000e-01,3.200000e-03,
25,-2.000000e-01,3.200000e-03,
26,-1.840000e-01,4.000000e-03,
27,-1.840000e-01,3.200000e-03,
28,-1.680000e-01,4.000000e-03,
29,-1.600000e-01,3.200000e-03,
30,-1.520000e-01,4.000000e-03,
31,-1.440000e-01,4.800000e-03,
32,-1.280000e-01,4.800000e-03,
33,-1.280000e-01,4.800000e-03,
34,-1.120000e-01,4.800000e-03,
35,-1.040000e-01,4.800000e-03,
36,-8.800001e-02,4.000000e-03,
37,-8.000001e-02,4.000000e-03,
38,-6.400000e-02,4.800000e-03,
39,-6.400000e-02,4.800000e-03,
40,-4.800000e-02,4.800000e-03,
41,-4.000000e-02,4.800000e-03,
42,-2.400000e-02,4.800000e-03,
43,-2.400000e-02,5.600000e-03,
44,-8.000000e-03,4.800000e-03,
45,0.000000e+00,4.800000e-03,
46,1.600000e-02,4.800000e-03,
47,1.600000e-02,5.600000e-03,
48,3.200000e-02,5.600000e-03,
49,4.000000e-02,5.600000e-03,
50,5.600000e-02,4.800000e-03,
51,5.600000e-02,4.800000e-03,
52,7.200000e-02,5.600000e-03,
53,8.000001e-02,5.600000e-03,
54,9.600001e-02,5.600000e-03,
55,9.600001e-02,5.600000e-03,
56,1.200000e-01,4.800000e-03,
57,1.200000e-01,5.600000e-03,
58,1.360000e-01,4.800000e-03,
59,1.440000e-01,4.800000e-03,
60,1.520000e-01,5.600000e-03,
61,1.600000e-01,5.600000e-03,
62,1.760000e-01,6.400000e-03,
63,1.760000e-01,5.600000e-03,
64,1.920000e-01,6.400000e-03,
65,2.000000e-01,6.400000e-03,
66,2.160000e-01,6.400000e-03,
67,2.240000e-01,6.400000e-03,
68,2.320000e-01,6.400000e-03,
69,2.400000e-01,5.600000e-03,
70,2.560000e-01,5.600000e-03,
71,2.560000e-01,5.600000e-03,
72,2.720000e-01,5.600000e-03,
73,2.800000e-01,5.600000e-03,
74,2.880000e-01,6.400000e-03,
75,2.960000e-01,6.400000e-03,
76,3.120000e-01,6.400000e-03,
77,3.200000e-01,6.400000e-03,
78,3.280000e-01,6.400000e-03,
79,3.360000e-01,6.400000e-03,
80,3.440000e-01,6.400000e-03,
81,3.520000e-01,6.400000e-03,
82,3.600000e-01,6.400000e-03,
83,3.680000e-01,6.400000e-03,
84,3.840000e-01,7.200000e-03,
85,3.920000e-01,7.200000e-03,
86,4.000000e-01,7.200000e-03,
87,4.000000e-01,7.200000e-03,
88,4.160000e-01,6.400000e-03,
89,4.240000e-01,7.200000e-03,
90,4.320000e-01,6.400000e-03,
91,4.400000e-01,6.400000e-03,
92,4.560000e-01,7.200000e-03,
93,4.480000e-01,6.400000e-03,
94,4.640000e-01,7.200000e-03,
95,4.720000e-01,6.400000e-03,
96,4.800000e-01,7.200000e-03,
97,4.880000e-01,7.200000e-03,
98,4.960000e-01,7.200000e-03,
99,5.040000e-01,7.200000e-03,
100,5.120000e-01,7.200000e-03,
101,5.200000e-01,6.400000e-03,
102,5.280000e-01,7.200000e-03,
103,5.360000e-01,7.200000e-03,
104,5.440000e-01,6.400000e-03,
105,5.440000e-01,6.400000e-03,
106,5.520000e-01,7.200000e-03,
107,5.600000e-01,7.200000e-03,
108,5.680000e-01,7.200000e-03,
109,5.760000e-01,7.200000e-03,
110,5.840001e-01,7.200000e-03,
111,5.840001e-01,7.200000e-03,
112,6.000000e-01,6.400000e-03,
113,5.920000e-01,6.400000e-03,
114,6.080000e-01,6.400000e-03,
115,6.160001e-01,7.200000e-03,
116,6.160001e-01,6.400000e-03,
117,6.240000e-01,7.200000e-03,
118,6.320000e-01,6.400000e-03,
119,6.320000e-01,6.400000e-03,
120,6.400000e-01,6.400000e-03,
121,6.480000e-01,6.400000e-03,
122,6.480000e-01,6.400000e-03,
123,6.560000e-01,7.200000e-03,
124,6.640000e-01,6.400000e-03,
125,6.640000e-01,6.400000e-03,
126,6.720001e-01,7.200000e-03,
127,6.800000e-01,6.400000e-03,
128,6.800000e-01,7.200000e-03,
129,6.880000e-01,6.400000e-03,
130,6.880000e-01,6.400000e-03,
131,6.960000e-01,7.200000e-03,
132,6.960000e-01,6.400000e-03,
133,7.040001e-01,6.400000e-03,
134,7.040001e-01,6.400000e-03,
135,7.120000e-01,5.600000e-03,
136,7.120000e-01,6.400000e-03,
137,7.200000e-01,6.400000e-03,
138,7.200000e-01,6.400000e-03,
139,7.200000e-01,6.400000e-03,
140,7.200000e-01,6.400000e-03,
141,7.280000e-01,6.400000e-03,
142,7.280000e-01,5.600000e-03,
143,7.360001e-01,5.600000e-03,
144,7.360001e-01,6.400000e-03,
145,7.360001e-01,6.400000e-03,
146,7.360001e-01,6.400000e-03,
147,7.440000e-01,6.400000e-03,
148,7.440000e-01,6.400000e-03,
149,7.440000e-01,6.400000e-03,
150,7.440000e-01,6.400000e-03,
151,7.520000e-01,5.600000e-03,
152,7.520000e-01,5.600000e-03,
153,7.440000e-01,6.400000e-03,
154,7.520000e-01,5.600000e-03,
155,7.520000e-01,5.600000e-03,
156,7.520000e-01,5.600000e-03,
157,7.600001e-01,5.600000e-03,
158,7.600001e-01,5.600000e-03,
159,7.520000e-01,5.600000e-03,
160,7.600001e-01,5.600000e-03,
161,7.520000e-01,6.400000e-03,
162,7.600001e-01,4.800000e-03,
163,7.520000e-01,5.600000e-03,
164,7.520000e-01,5.600000e-03,
165,7.600001e-01,4.800000e-03,
166,7.520000e-01,4.800000e-03,
167,7.520000e-01,5.600000e-03,
168,7.520000e-01,4.800000e-03,
169,7.520000e-01,4.800000e-03,
170,7.520000e-01,4.800000e-03,
171,7.520000e-01,4.800000e-03,
172,7.520000e-01,4.800000e-03,
173,7.440000e-01,5.600000e-03,
174,7.440000e-01,4.800000e-03,
175,7.440000e-01,4.000000e-03,
176,7.440000e-01,4.000000e-03,
177,7.360001e-01,4.800000e-03,
178,7.360001e-01,4.800000e-03,
179,7.360001e-01,4.800000e-03,
180,7.360001e-01,4.800000e-03,
181,7.280000e-01,4.800000e-03,
182,7.280000e-01,4.000000e-03,
183,7.200000e-01,4.000000e-03,
184,7.200000e-01,3.200000e-03,
185,7.200000e-01,3.200000e-03,
186,7.200000e-01,4.000000e-03,
187,7.120000e-01,4.000000e-03,
188,7.040001e-01,3.200000e-03,
189,7.120000e-01,3.200000e-03,
190,7.040001e-01,4.000000e-03,
191,6.960000e-01,4.000000e-03,
192,6.960000e-01,4.000000e-03,
193,6.880000e-01,4.000000e-03,
194,6.880000e-01,4.000000e-03,
195,6.800000e-01,3.200000e-03,
196,6.800000e-01,3.200000e-03,
197,6.720001e-01,3.200000e-03,
198,6.640000e-01,2.400000e-03,
199,6.560000e-01,2.400000e-03,
200,6.560000e-01,3.200000e-03,
201,6.480000e-01,2.400000e-03,
202,6.480000e-01,3.200000e-03,
203,6.400000e-01,3.200000e-03,
204,6.320000e-01,2.400000e-03,
205,6.240000e-01,2.400000e-03,
206,6.240000e-01,2.400000e-03,
207,6.160001e-01,3.200000e-03,
208,6.160001e-01,2.400000e-03,
209,6.080000e-01,2.400000e-03,
210,6.000000e-01,2.400000e-03,
211,5.920000e-01,1.600000e-03,
212,5.840001e-01,2.400000e-03,
213,5.840001e-01,1.600000e-03,
214,5.760000e-01,2.400000e-03,
215,5.680000e-01,2.400000e-03,
216,5.600000e-01,1.600000e-03,
217,5.520000e-01,1.600000e-03,
218,5.440000e-01,1.600000e-03,
219,5.440000e-01,1.600000e-03,
220,5.280000e-01,1.600000e-03,
221,5.360000e-01,1.600000e-03,
222,5.200000e-01,1.600000e-03,
223,5.120000e-01,8.000000e-04,
224,5.040000e-01,1.600000e-03,
225,4.960000e-01,1.600000e-03,
226,4.880000e-01,8.000000e-04,
227,4.800000e-01,1.600000e-03,
228,4.640000e-01,8.000000e-04,
229,4.720000e-01,0.000000e+00,
230,4.560000e-01,0.000000e+00,
231,4.480000e-01,8.000000e-04,
232,4.400000e-01,8.000000e-04,
233,4.320000e-01,0.000000e+00,
234,4.160000e-01,0.000000e+00,
235,4.160000e-01,0.000000e+00,
236,4.080000e-01,8.000000e-04,
237,4.000000e-01,0.000000e+00,
238,3.840000e-01,0.000000e+00,
239,3.760000e-01,0.000000e+00,
240,3.680000e-01,0.000000e+00,
241,3.600000e-01,0.000000e+00,
242,3.520000e-01,-8.000000e-04,
243,3.440000e-01,0.000000e+00,
244,3.360000e-01,-8.000000e-04,
245,3.280000e-01,-8.000000e-04,
246,3.120000e-01,-1.600000e-03,
247,3.040000e-01,-8.000000e-04,
248,2.960000e-01,-8.000000e-04,
249,2.880000e-01,-8.000000e-04,
250,2.720000e-01,-8.000000e-04,
251,2.800000e-01,-8.000000e-04,
252,2.560000e-01,-1.600000e-03,
253,2.560000e-01,-8.000000e-04,
254,2.400000e-01,-1.600000e-03,
255,2.320000e-01,-8.000000e-04,
256,2.160000e-01,-1.600000e-03,
257,2.160000e-01,-8.000000e-04,
258,2.000000e-01,-8.000000e-04,
259,1.920000e-01,-8.000000e-04,
260,1.760000e-01,-1.600000e-03,
261,1.760000e-01,-8.000000e-04,
262,1.600000e-01,-1.600000e-03,
263,1.520000e-01,-1.600000e-03,
264,1.440000e-01,-1.600000e-03,
265,1.360000e-01,-1.600000e-03,
266,1.200000e-01,-1.600000e-03,
267,1.120000e-01,-1.600000e-03,
268,1.040000e-01,-2.400000e-03,
269,9.600001e-02,-1.600000e-03,
270,8.000001e-02,-1.600000e-03,
271,7.200000e-02,-1.600000e-03,
272,5.600000e-02,-2.400000e-03,
273,5.600000e-02,-1.600000e-03,
274,4.000000e-02,-2.400000e-03,
275,3.200000e-02,-2.400000e-03,
276,1.600000e-02,-2.400000e-03,
277,1.600000e-02,-2.400000e-03,
278,0.000000e+00,-2.400000e-03,
279,-8.000000e-03,-2.400000e-03,
280,-2.400000e-02,-3.200000e-03,
281,-3.200000e-02,-3.200000e-03,
282,-4.000000e-02,-3.200000e-03,
283,-4.800000e-02,-3.200000e-03,
284,-6.400000e-02,-3.200000e-03,
285,-7.200000e-02,-2.400000e-03,
286,-8.800001e-02,-3.200000e-03,
287,-8.800001e-02,-2.400000e-03,
288,-1.040000e-01,-3.200000e-03,
289,-1.120000e-01,-3.200000e-03,
290,-1.280000e-01,-3.200000e-03,
291,-1.280000e-01,-2.400000e-03,
292,-1.440000e-01,-3.200000e-03,
293,-1.520000e-01,-3.200000e-03,
294,-1.680000e-01,-4.000000e-03,
295,-1.680000e-01,-3.200000e-03,
296,-1.840000e-01,-3.200000e-03,
297,-1.920000e-01,-4.000000e-03,
298,-2.080000e-01,-3.200000e-03,
299,-2.000000e-01,-3.200000e-03,
300,-2.240000e-01,-4.000000e-03,
301,-2.320000e-01,-3.200000e-03,
302,-2.400000e-01,-4.000000e-03,
303,-2.480000e-01,-4.000000e-03,
304,-2.640000e-01,-3.200000e-03,
305,-2.640000e-01,-4.000000e-03,
306,-2.800000e-01,-3.200000e-03,
307,-2.880000e-01,-3.200000e-03,
308,-3.040000e-01,-3.200000e-03,
309,-3.040000e-01,-3.200000e-03,
310,-3.200000e-01,-4.000000e-03,
311,-3.280000e-01,-4.000000e-03,
312,-3.360000e-01,-4.000000e-03,
313,-3.360000e-01,-4.000000e-03,
314,-3.520000e-01,-4.000000e-03,
315,-3.600000e-01,-4.000000e-03,
316,-3.680000e-01,-4.000000e-03,
317,-3.760000e-01,-3.200000e-03,
318,-3.920000e-01,-3.200000e-03,
319,-3.920000e-01,-3.200000e-03,
320,-4.080000e-01,-3.200000e-03,
321,-4.080000e-01,-3.200000e-03,
322,-4.240000e-01,-4.000000e-03,
323,-4.320000e-01,-4.000000e-03,
324,-4.400000e-01,-4.000000e-03,
325,-4.480000e-01,-4.000000e-03,
326,-4.560000e-01,-4.000000e-03,
327,-4.640000e-01,-4.000000e-03,
328,-4.720000e-01,-3.200000e-03,
329,-4.800000e-01,-3.200000e-03,
330,-4.880000e-01,-4.000000e-03,
331,-4.960000e-01,-3.200000e-03,
332,-5.040000e-01,-4.000000e-03,
333,-5.120000e-01,-4.000000e-03,
334,-5.200000e-01,-4.000000e-03,
335,-5.280000e-01,-4.000000e-03,
336,-5.360000e-01,-4.000000e-03,
337,-5.360000e-01,-4.000000e-03,
338,-5.440000e-01,-4.000000e-03,
339,-5.520000e-01,-3.200000e-03,
340,-5.600000e-01,-4.000000e-03,
341,-5.680000e-01,-4.000000e-03,
342,-5.760000e-01,-4.000000e-03,
343,-5.840001e-01,-3.200000e-03,
344,-5.840001e-01,-4.000000e-03,
345,-5.920000e-01,-4.000000e-03,
346,-6.000000e-01,-4.800000e-03,
347,-6.080000e-01,-4.000000e-03,
348,-6.080000e-01,-4.000000e-03,
349,-6.160001e-01,-4.000000e-03,
350,-6.240000e-01,-3.200000e-03,
351,-6.320000e-01,-4.000000e-03,
352,-6.320000e-01,-4.000000e-03,
353,-6.400000e-01,-3.200000e-03,
354,-6.480000e-01,-4.000000e-03,
355,-6.480000e-01,-4.000000e-03,
356,-6.560000e-01,-4.000000e-03,
357,-6.560000e-01,-4.000000e-03,
358,-6.640000e-01,-4.000000e-03,
359,-6.640000e-01,-4.000000e-03,
360,-6.720001e-01,-3.200000e-03,
361,-6.800000e-01,-4.000000e-03,
362,-6.800000e-01,-3.200000e-03,
363,-6.880000e-01,-3.200000e-03,
364,-6.880000e-01,-3.200000e-03,
365,-6.960000e-01,-3.200000e-03,
366,-6.960000e-01,-3.200000e-03,
367,-7.040001e-01,-3.200000e-03,
368,-7.040001e-01,-3.200000e-03,
369,-7.120000e-01,-3.200000e-03,
370,-7.120000e-01,-2.400000e-03,
371,-7.120000e-01,-2.400000e-03,
372,-7.120000e-01,-2.400000e-03,
373,-7.200000e-01,-3.200000e-03,
374,-7.200000e-01,-3.200000e-03,
375,-7.200000e-01,-2.400000e-03,
376,-7.280000e-01,-3.200000e-03,
377,-7.280000e-01,-3.200000e-03,
378,-7.280000e-01,-2.400000e-03,
379,-7.360001e-01,-3.200000e-03,
380,-7.360001e-01,-3.200000e-03,
381,-7.360001e-01,-2.400000e-03,
382,-7.360001e-01,-2.400000e-03,
383,-7.440000e-01,-1.600000e-03,
384,-7.440000e-01,-2.400000e-03,
385,-7.440000e-01,-2.400000e-03,
386,-7.440000e-01,-3.200000e-03,
387,-7.440000e-01,-2.400000e-03,
388,-7.440000e-01,-2.400000e-03,
389,-7.440000e-01,-3.200000e-03,
390,-7.440000e-01,-2.400000e-03,
391,-7.440000e-01,-2.400000e-03,
392,-7.440000e-01,-2.400000e-03,
393,-7.520000e-01,-2.400000e-03,
394,-7.440000e-01,-2.400000e-03,
395,-7.440000e-01,-2.400000e-03,
396,-7.440000e-01,-1.600000e-03,
397,-7.440000e-01,-1.600000e-03,
398,-7.440000e-01,-2.400000e-03,
399,-7.360001e-01,-1.600000e-03,
400,-7.440000e-01,-2.400000e-03,
401,-7.360001e-01,-1.600000e-03,
402,-7.360001e-01,-2.400000e-03,
403,-7.360001e-01,-2.400000e-03,
404,-7.360001e-01,-1.600000e-03,
405,-7.360001e-01,-1.600000e-03,
406,-7.360001e-01,-1.600000e-03,
407,-7.360001e-01,-2.400000e-03,
408,-7.280000e-01,-1.600000e-03,
409,-7.280000e-01,-1.600000e-03,
410,-7.280000e-01,-1.600000e-03,
411,-7.200000e-01,-1.600000e-03,
412,-7.200000e-01,-1.600000e-03,
413,-7.200000e-01,-8.000000e-04,
414,-7.200000e-01,-8.000000e-04,
415,-7.120000e-01,-1.600000e-03,
416,-7.040001e-01,-8.000000e-04,
417,-7.120000e-01,0.000000e+00,
418,-7.040001e-01,0.000000e+00,
419,-7.040001e-01,0.000000e+00,
420,-6.960000e-01,0.000000e+00,
421,-6.880000e-01,-8.000000e-04,
422,-6.880000e-01,-8.000000e-04,
423,-6.800000e-01,-8.000000e-04,
424,-6.800000e-01,-8.000000e-04,
425,-6.720001e-01,0.000000e+00,
426,-6.720001e-01,0.000000e+00,
427,-6.640000e-01,0.000000e+00,
428,-6.640000e-01,0.000000e+00,
429,-6.560000e-01,0.000000e+00,
430,-6.480000e-01,0.000000e+00,
431,-6.480000e-01,0.000000e+00,
432,-6.400000e-01,0.000000e+00,
433,-6.320000e-01,8.000000e-04,
434,-6.320000e-01,0.000000e+00,
435,-6.240000e-01,0.000000e+00,
436,-6.240000e-01,8.000000e-04,
437,-6.160001e-01,8.000000e-04,
438,-6.080000e-01,0.000000e+00,
439,-6.080000e-01,0.000000e+00,
440,-5.920000e-01,8.000000e-04,
441,-6.000000e-01,0.000000e+00,
442,-5.840001e-01,8.000000e-04,
443,-5.760000e-01,8.000000e-04,
444,-5.680000e-01,8.000000e-04,
445,-5.600000e-01,8.000000e-04,
446,-5.520000e-01,1.600000e-03,
447,-5.520000e-01,1.600000e-03,
448,-5.360000e-01,8.000000e-04,
449,-5.440000e-01,8.000000e-04,
450,-5.280000e-01,8.000000e-04,
451,-5.200000e-01,8.000000e-04,
452,-5.120000e-01,1.600000e-03,
453,-5.040000e-01,8.000000e-04,
454,-4.960000e-01,1.600000e-03,
455,-4.880000e-01,1.600000e-03,
456,-4.800000e-01,1.600000e-03,
457,-4.800000e-01,1.600000e-03,
458,-4.640000e-01,1.600000e-03,
459,-4.560000e-01,1.600000e-03,
460,-4.480000e-01,1.600000e-03,
461,-4.480000e-01,1.600000e-03,
462,-4.320000e-01,2.400000e-03,
463,-4.240000e-01,1.600000e-03,
464,-4.160000e-01,2.400000e-03,
465,-4.160000e-01,1.600000e-03,
466,-4.000000e-01,2.400000e-03,
467,-3.920000e-01,2.400000e-03,
468,-3.840000e-01,2.400000e-03,
469,-3.760000e-01,3.200000e-03,
470,-3.600000e-01,3.200000e-03,
471,-3.600000e-01,3.200000e-03,
472,-3.440000e-01,2.400000e-03,
473,-3.440000e-01,2.400000e-03,
474,-3.280000e-01,3.200000e-03,
475,-3.200000e-01,3.200000e-03,
476,-3.120000e-01,3.200000e-03,
477,-3.040000e-01,3.200000e-03,
478,-2.880000e-01,4.000000e-03,
479,-2.880000e-01,3.200000e-03,
480,-2.720000e-01,4.000000e-03,
481,-2.640000e-01,4.000000e-03,
482,-2.560000e-01,3.200000e-03,
483,-2.480000e-01,4.000000e-03,
484,-2.320000e-01,4.000000e-03,
485,-2.320000e-01,4.000000e-03,
486,-2.160000e-01,3.200000e-03,
487,-2.080000e-01,4.000000e-03,
488,-1.920000e-01,4.000000e-03,
489,-1.920000e-01,3.200000e-03,
490,-1.760000e-01,4.000000e-03,
491,-1.680000e-01,4.800000e-03,
492,-1.520000e-01,4.000000e-03,
493,-1.520000e-01,4.000000e-03,
494,-1.360000e-01,4.000000e-03,
495,-1.280000e-01,4.000000e-03,
496,-1.120000e-01,4.000000e-03,
497,-1.120000e-01,4.800000e-03,
498,-9.600001e-02,4.000000e-03,
499,-8.800001e-02,4.000000e-03,
500,-7.200000e-02,4.800000e-03,
501,-6.400000e-02,4.800000e-03,
502,-5.600000e-02,4.800000e-03,
503,-4.800000e-02,4.800000e-03,
504,-3.200000e-02,4.800000e-03,
505,-2.400000e-02,4.000000e-03,
506,-1.600000e-02,4.800000e-03,
507,-8.000000e-03,4.000000e-03,
508,8.000000e-03,4.800000e-03,
509,1.600000e-02,4.800000e-03,
510,2.400000e-02,4.800000e-03,
511,3.200000e-02,5.600000e-03,
512,4.800000e-02,5.600000e-03,
513,5.600000e-02,4.800000e-03,
514,7.200000e-02,4.800000e-03,
515,7.200000e-02,4.800000e-03,
516,8.800001e-02,5.600000e-03,
517,9.600001e-02,5.600000e-03,
518,1.120000e-01,5.600000e-03,
519,1.200000e-01,5.600000e-03,
520,1.280000e-01,5.600000e-03,
521,1.360000e-01,5.600000e-03,
522,1.520000e-01,5.600000e-03,
523,1.600000e-01,5.600000e-03,
524,1.680000e-01,6.400000e-03,
525,1.760000e-01,5.600000e-03,
526,1.920000e-01,6.400000e-03,
527,1.920000e-01,5.600000e-03,
528,2.080000e-01,6.400000e-03,
529,2.160000e-01,5.600000e-03,
530,2.320000e-01,6.400000e-03,
531,2.320000e-01,7.200000e-03,
532,2.480000e-01,6.400000e-03,
533,2.560000e-01,6.400000e-03,
534,2.640000e-01,6.400000e-03,
535,2.720000e-01,6.400000e-03,
536,2.880000e-01,6.400000e-03,
537,2.960000e-01,6.400000e-03,
538,3.040000e-01,6.400000e-03,
539,3.120000e-01,6.400000e-03,
540,3.200000e-01,6.400000e-03,
541,3.280000e-01,6.400000e-03,
542,3.440000e-01,6.400000e-03,
543,3.440000e-01,7.200000e-03,
544,3.600000e-01,7.200000e-03,
545,3.680000e-01,6.400000e-03,
546,3.760000e-01,6.400000e-03,
547,3.840000e-01,6.400000e-03,
548,3.920000e-01,6.400000e-03,
549,4.000000e-01,5.600000e-03,
550,4.160000e-01,6.400000e-03,
551,4.080000e-01,6.400000e-03,
552,4.320000e-01,6.400000e-03,
553,4.320000e-01,6.400000e-03,
554,4.400000e-01,6.400000e-03,
555,4.480000e-01,6.400000e-03,
556,4.640000e-01,6.400000e-03,
557,4.560000e-01,6.400000e-03,
558,4.800000e-01,7.200000e-03,
559,4.800000e-01,6.400000e-03,
560,4.960000e-01,7.200000e-03,
561,4.960000e-01,6.400000e-03,
562,5.040000e-01,6.400000e-03,
563,5.120000e-01,6.400000e-03,
564,5.200000e-01,7.200000e-03,
565,5.280000e-01,7.200000e-03,
566,5.360000e-01,7.200000e-03,
567,5.440000e-01,7.200000e-03,
568,5.520000e-01,7.200000e-03,
569,5.600000e-01,6.400000e-03,
570,5.600000e-01,7.200000e-03,
571,5.680000e-01,6.400000e-03,
572,5.760000e-01,7.200000e-03,
573,5.840001e-01,7.200000e-03,
574,5.920000e-01,7.200000e-03,
575,6.000000e-01,7.200000e-03,
576,6.000000e-01,7.200000e-03,
577,6.080000e-01,7.200000e-03,
578,6.160001e-01,7.200000e-03,
579,6.240000e-01,7.200000e-03,
580,6.320000e-01,6.400000e-03,
581,6.320000e-01,7.200000e-03,
582,6.400000e-01,7.200000e-03,
583,6.480000e-01,7.200000e-03,
584,6.480000e-01,7.200000e-03,
585,6.560000e-01,6.400000e-03,
586,6.560000e-01,6.400000e-03,
587,6.640000e-01,7.200000e-03,
588,6.720001e-01,7.200000e-03,
589,6.640000e-01,7.200000e-03,
590,6.800000e-01,6.400000e-03,
591,6.800000e-01,6.400000e-03,
592,6.880000e-01,6.400000e-03,
593,6.880000e-01,6.400000e-03,
594,6.960000e-01,6.400000e-03,
595,7.040001e-01,7.200000e-03,
596,7.040001e-01,6.400000e-03,
597,7.120000e-01,7.200000e-03,
598,7.120000e-01,6.400000e-03,
599,7.200000e-01,5.600000e-03,
600,7.200000e-01,6.400000e-03,
601,7.200000e-01,6.400000e-03,
602,7.200000e-01,6.400000e-03,
603,7.280000e-01,6.400000e-03,
604,7.280000e-01,6.400000e-03,
605,7.360001e-01,6.400000e-03,
606,7.280000e-01,5.600000e-03,
607,7.360001e-01,5.600000e-03,
608,7.360001e-01,5.600000e-03,
609,7.440000e-01,6.400000e-03,
610,7.360001e-01,6.400000e-03,
611,7.440000e-01,6.400000e-03,
612,7.440000e-01,5.600000e-03,
613,7.440000e-01,5.600000e-03,
614,7.520000e-01,5.600000e-03,
615,7.440000e-01,5.600000e-03,
616,7.520000e-01,5.600000e-03,
617,7.520000e-01,5.600000e-03,
618,7.520000e-01,5.600000e-03,
619,7.520000e-01,5.600000e-03,
620,7.520000e-01,5.600000e-03,
621,7.600001e-01,5.600000e-03,
622,7.520000e-01,5.600000e-03,
623,7.600001e-01,5.600000e-03,
624,7.520000e-01,4.800000e-03,
625,7.520000e-01,5.600000e-03,
626,7.520000e-01,5.600000e-03,
627,7.600001e-01,5.600000e-03,
628,7.520000e-01,5.600000e-03,
629,7.520000e-01,5.600000e-03,
630,7.520000e-01,5.600000e-03,
