parte2/esp10/Data/d4/f1/2.csv

X,CH1,CH2,Start,Increment,
Sequence,Volt,Volt,-1.163980e-03,2.000000e-06,
0,7.049999e-02,-3.560000e-04,
1,6.956000e-02,3.560000e-04,
2,7.049999e-02,-3.560000e-04,
3,6.956000e-02,3.560000e-04,
4,6.862000e-02,1.068000e-03,
5,6.862000e-02,3.560000e-04,
6,6.674000e-02,-7.120000e-04,
7,6.767999e-02,0.000000e+00,
8,6.674000e-02,3.560000e-04,
9,6.580000e-02,1.068000e-03,
10,6.485999e-02,-1.068000e-03,
11,6.485999e-02,-3.560000e-04,
12,6.392000e-02,1.424000e-03,
13,6.392000e-02,1.068000e-03,
14,6.204000e-02,2.136000e-03,
15,6.204000e-02,1.424000e-03,
16,6.109999e-02,1.068000e-03,
17,6.016000e-02,3.560000e-04,
18,6.016000e-02,-1.424000e-03,
19,5.922000e-02,-7.120000e-04,
20,5.827999e-02,1.780000e-03,
21,5.734000e-02,1.068000e-03,
22,5.640000e-02,-1.068000e-03,
23,5.545999e-02,-3.560000e-04,
24,5.545999e-02,7.120000e-04,
25,5.452000e-02,0.000000e+00,
26,5.452000e-02,0.000000e+00,
27,5.545999e-02,-7.120000e-04,
28,5.264000e-02,2.136000e-03,
29,5.264000e-02,1.424000e-03,
30,5.076000e-02,-1.424000e-03,
31,4.982000e-02,-7.120000e-04,
32,4.794000e-02,-7.120000e-04,
33,4.888000e-02,0.000000e+00,
34,4.700000e-02,0.000000e+00,
35,4.794000e-02,7.120000e-04,
36,4.512000e-02,0.000000e+00,
37,4.512000e-02,3.560000e-04,
38,4.230000e-02,3.560000e-04,
39,4.230000e-02,-3.560000e-04,
40,4.136000e-02,-1.424000e-03,
41,4.136000e-02,-7.120000e-04,
42,3.948000e-02,7.120000e-04,
43,3.948000e-02,0.000000e+00,
44,3.854000e-02,0.000000e+00,
45,3.760000e-02,-3.560000e-04,
46,3.666000e-02,7.120000e-04,
47,3.572000e-02,1.424000e-03,
48,3.384000e-02,-7.120000e-04,
49,3.384000e-02,0.000000e+00,
50,3.196000e-02,1.424000e-03,
51,3.196000e-02,7.120000e-04,
52,3.102000e-02,-7.120000e-04,
53,3.102000e-02,-1.424000e-03,
54,2.820000e-02,0.000000e+00,
55,2.914000e-02,7.120000e-04,
56,2.538000e-02,3.560000e-04,
57,2.632000e-02,1.068000e-03,
58,2.444000e-02,0.000000e+00,
59,2.444000e-02,-7.120000e-04,
60,2.350000e-02,-3.560000e-04,
61,2.256000e-02,0.000000e+00,
62,2.068000e-02,7.120000e-04,
63,2.068000e-02,1.068000e-03,
64,1.880000e-02,0.000000e+00,
65,1.786000e-02,-7.120000e-04,
66,1.692000e-02,7.120000e-04,
67,1.692000e-02,0.000000e+00,
68,1.504000e-02,1.424000e-03,
69,1.504000e-02,7.120000e-04,
70,1.316000e-02,1.424000e-03,
71,1.316000e-02,1.780000e-03,
72,1.034000e-02,7.120000e-04,
73,1.034000e-02,0.000000e+00,
74,8.459999e-03,1.424000e-03,
75,7.520000e-03,7.120000e-04,
76,6.580000e-03,-3.560000e-04,
77,6.580000e-03,-1.068000e-03,
78,3.760000e-03,3.560000e-04,
79,3.760000e-03,1.424000e-03,
80,2.820000e-03,3.560000e-04,
81,2.820000e-03,0.000000e+00,
82,0.000000e+00,-3.560000e-04,
83,9.399999e-04,-1.068000e-03,
84,-1.880000e-03,0.000000e+00,
85,-1.880000e-03,7.120000e-04,
86,-3.760000e-03,3.560000e-04,
87,-3.760000e-03,1.068000e-03,
88,-5.640000e-03,1.068000e-03,
89,-5.640000e-03,3.560000e-04,
90,-8.459999e-03,1.424000e-03,
91,-8.459999e-03,7.120000e-04,
92,-1.034000e-02,0.000000e+00,
93,-9.400000e-03,3.560000e-04,
94,-1.222000e-02,0.000000e+00,
95,-1.222000e-02,7.120000e-04,
96,-1.410000e-02,-1.780000e-03,
97,-1.410000e-02,-1.068000e-03,
98,-1.598000e-02,1.068000e-03,
99,-1.692000e-02,7.120000e-04,
100,-1.786000e-02,1.068000e-03,
101,-1.880000e-02,7.120000e-04,
102,-2.068000e-02,1.424000e-03,
103,-2.162000e-02,7.120000e-04,
104,-2.162000e-02,-7.120000e-04,
105,-2.256000e-02,0.000000e+00,
106,-2.350000e-02,1.424000e-03,
107,-2.350000e-02,7.120000e-04,
108,-2.538000e-02,0.000000e+00,
109,-2.538000e-02,3.560000e-04,
110,-2.820000e-02,0.000000e+00,
111,-2.820000e-02,3.560000e-04,
112,-3.008000e-02,7.120000e-04,
113,-3.008000e-02,1.424000e-03,
114,-3.196000e-02,0.000000e+00,
115,-3.196000e-02,-7.120000e-04,
116,-3.384000e-02,-3.560000e-04,
117,-3.384000e-02,3.560000e-04,
118,-3.572000e-02,1.068000e-03,
119,-3.666000e-02,2.136000e-03,
120,-3.666000e-02,-2.136000e-03,
121,-3.760000e-02,-1.424000e-03,
122,-3.948000e-02,-7.120000e-04,
123,-4.042000e-02,0.000000e+00,
124,-4.136000e-02,1.424000e-03,
125,-4.042000e-02,7.120000e-04,
126,-4.324000e-02,7.120000e-04,
127,-4.418000e-02,1.068000e-03,
128,-4.418000e-02,1.068000e-03,
129,-4.418000e-02,3.560000e-04,
130,-4.606000e-02,1.068000e-03,
131,-4.606000e-02,1.780000e-03,
132,-4.700000e-02,-7.120000e-04,
133,-4.794000e-02,-1.424000e-03,
134,-4.888000e-02,3.560000e-04,
135,-4.888000e-02,-3.560000e-04,
136,-5.170000e-02,3.560000e-04,
137,-5.170000e-02,1.068000e-03,
138,-5.264000e-02,3.560000e-04,
139,-5.264000e-02,-3.560000e-04,
140,-5.452000e-02,-7.120000e-04,
141,-5.452000e-02,-1.424000e-03,
142,-5.545999e-02,3.560000e-04,
143,-5.640000e-02,-3.560000e-04,
144,-5.734000e-02,0.000000e+00,
145,-5.640000e-02,-7.120000e-04,
146,-5.922000e-02,7.120000e-04,
147,-5.922000e-02,1.068000e-03,
148,-6.016000e-02,-1.068000e-03,
149,-6.016000e-02,-3.560000e-04,
150,-6.109999e-02,1.780000e-03,
151,-6.109999e-02,2.492000e-03,
152,-6.392000e-02,1.068000e-03,
153,-6.392000e-02,3.560000e-04,
154,-6.485999e-02,0.000000e+00,
155,-6.392000e-02,-7.120000e-04,
156,-6.580000e-02,1.068000e-03,
157,-6.580000e-02,3.560000e-04,
158,-6.580000e-02,1.424000e-03,
159,-6.580000e-02,2.136000e-03,
160,-6.767999e-02,1.780000e-03,
161,-6.767999e-02,1.068000e-03,
162,-6.862000e-02,7.120000e-04,
163,-6.862000e-02,0.000000e+00,
164,-7.049999e-02,3.560000e-04,
165,-6.956000e-02,1.068000e-03,
166,-7.049999e-02,-7.120000e-04,
167,-7.049999e-02,0.000000e+00,
168,-7.238000e-02,1.068000e-03,
169,-7.144000e-02,1.424000e-03,
170,-7.331999e-02,7.120000e-04,
171,-7.331999e-02,3.560000e-04,
172,-7.331999e-02,3.560000e-04,
173,-7.331999e-02,7.120000e-04,
174,-7.520000e-02,0.000000e+00,
175,-7.520000e-02,7.120000e-04,
176,-7.426000e-02,7.120000e-04,
177,-7.426000e-02,3.560000e-04,
178,-7.708000e-02,3.560000e-04,
179,-7.613999e-02,-3.560000e-04,
180,-7.708000e-02,1.424000e-03,
181,-7.708000e-02,7.120000e-04,
182,-7.801999e-02,3.560000e-04,
183,-7.801999e-02,1.068000e-03,
184,-7.708000e-02,1.424000e-03,
185,-7.801999e-02,2.136000e-03,
186,-7.895999e-02,-2.136000e-03,
187,-7.990000e-02,-2.848000e-03,
188,-7.990000e-02,3.560000e-04,
189,-8.083999e-02,1.068000e-03,
190,-7.990000e-02,7.120000e-04,
191,-7.990000e-02,1.424000e-03,
192,-7.990000e-02,3.560000e-04,
193,-8.083999e-02,7.120000e-04,
194,-7.990000e-02,1.780000e-03,
195,-7.990000e-02,1.068000e-03,
196,-7.990000e-02,-1.068000e-03,
197,-7.990000e-02,-3.560000e-04,
198,-8.083999e-02,-3.560000e-04,
199,-8.083999e-02,-1.068000e-03,
200,-8.083999e-02,-7.120000e-04,
201,-8.083999e-02,0.000000e+00,
202,-8.083999e-02,-3.560000e-04,
203,-8.083999e-02,3.560000e-04,
204,-8.177999e-02,1.068000e-03,
205,-8.083999e-02,3.560000e-04,
206,-8.083999e-02,2.136000e-03,
207,-8.083999e-02,1.068000e-03,
208,-7.990000e-02,-1.068000e-03,
209,-8.083999e-02,0.000000e+00,
210,-8.083999e-02,1.068000e-03,
211,-8.177999e-02,1.424000e-03,
212,-8.177999e-02,-7.120000e-04,
213,-8.083999e-02,-1.424000e-03,
214,-7.990000e-02,2.848000e-03,
215,-7.990000e-02,2.136000e-03,
216,-8.083999e-02,7.120000e-04,
217,-7.990000e-02,0.000000e+00,
218,-7.990000e-02,-1.068000e-03,
219,-7.990000e-02,-3.560000e-04,
220,-7.990000e-02,0.000000e+00,
221,-7.895999e-02,-3.560000e-04,
222,-7.990000e-02,-3.560000e-04,
223,-7.990000e-02,-7.120000e-04,
224,-7.801999e-02,0.000000e+00,
225,-7.895999e-02,7.120000e-04,
226,-7.801999e-02,3.560000e-03,
227,-7.895999e-02,2.492000e-03,
228,-7.801999e-02,3.560000e-04,
229,-7.801999e-02,-3.560000e-04,
230,-7.708000e-02,1.780000e-03,
231,-7.708000e-02,2.136000e-03,
232,-7.708000e-02,7.120000e-04,
233,-7.613999e-02,0.000000e+00,
234,-7.613999e-02,-3.560000e-04,
235,-7.520000e-02,3.560000e-04,
236,-7.520000e-02,0.000000e+00,
237,-7.520000e-02,7.120000e-04,
238,-7.520000e-02,1.424000e-03,
239,-7.426000e-02,2.136000e-03,
240,-7.426000e-02,1.068000e-03,
241,-7.426000e-02,3.560000e-04,
242,-7.238000e-02,7.120000e-04,
243,-7.331999e-02,1.424000e-03,
244,-7.238000e-02,7.120000e-04,
245,-7.144000e-02,0.000000e+00,
246,-7.049999e-02,2.848000e-03,
247,-7.144000e-02,2.136000e-03,
248,-6.956000e-02,-7.120000e-04,
249,-6.956000e-02,-3.560000e-04,
250,-6.862000e-02,0.000000e+00,
251,-6.862000e-02,7.120000e-04,
252,-6.767999e-02,0.000000e+00,
253,-6.767999e-02,-7.120000e-04,
254,-6.674000e-02,0.000000e+00,
255,-6.674000e-02,-7.120000e-04,
256,-6.580000e-02,-1.068000e-03,
257,-6.580000e-02,-3.560000e-04,
258,-6.485999e-02,-7.120000e-04,
259,-6.392000e-02,3.560000e-04,
260,-6.298000e-02,1.424000e-03,
261,-6.298000e-02,2.136000e-03,
262,-6.204000e-02,-1.424000e-03,
263,-6.204000e-02,-7.120000e-04,
264,-6.016000e-02,1.424000e-03,
265,-6.109999e-02,7.120000e-04,
266,-5.922000e-02,-1.068000e-03,
267,-5.827999e-02,-3.560000e-04,
268,-5.734000e-02,3.560000e-04,
269,-5.734000e-02,-3.560000e-04,
270,-5.640000e-02,-3.560000e-04,
271,-5.640000e-02,3.560000e-04,
272,-5.452000e-02,3.560000e-04,
273,-5.452000e-02,-3.560000e-04,
274,-5.264000e-02,7.120000e-04,
275,-5.170000e-02,1.424000e-03,
276,-5.170000e-02,-3.560000e-04,
277,-5.170000e-02,3.560000e-04,
278,-4.888000e-02,3.560000e-04,
279,-4.888000e-02,-3.560000e-04,
280,-4.794000e-02,-3.560000e-04,
281,-4.794000e-02,0.000000e+00,
282,-4.700000e-02,1.424000e-03,
283,-4.700000e-02,7.120000e-04,
284,-4.418000e-02,0.000000e+00,
285,-4.418000e-02,7.120000e-04,
286,-4.324000e-02,-3.560000e-04,
287,-4.324000e-02,-1.068000e-03,
288,-4.042000e-02,-7.120000e-04,
289,-4.042000e-02,0.000000e+00,
290,-3.854000e-02,3.560000e-04,
291,-3.948000e-02,1.068000e-03,
292,-3.666000e-02,1.424000e-03,
293,-3.666000e-02,1.068000e-03,
294,-3.478000e-02,7.120000e-04,
295,-3.572000e-02,0.000000e+00,
296,-3.384000e-02,7.120000e-04,
297,-3.290000e-02,0.000000e+00,
298,-3.196000e-02,-3.560000e-04,
299,-3.102000e-02,-1.068000e-03,
300,-2.914000e-02,7.120000e-04,
301,-2.914000e-02,3.560000e-04,
302,-2.820000e-02,7.120000e-04,
303,-2.820000e-02,1.424000e-03,
304,-2.538000e-02,-1.424000e-03,
305,-2.538000e-02,-7.120000e-04,
306,-2.444000e-02,3.560000e-04,
307,-2.350000e-02,1.068000e-03,
308,-2.162000e-02,-7.120000e-04,
309,-2.162000e-02,0.000000e+00,
310,-1.974000e-02,1.068000e-03,
311,-2.068000e-02,1.424000e-03,
312,-1.786000e-02,-3.560000e-04,
313,-1.786000e-02,-7.120000e-04,
314,-1.598000e-02,-3.560000e-04,
315,-1.598000e-02,-1.068000e-03,
316,-1.410000e-02,0.000000e+00,
317,-1.316000e-02,7.120000e-04,
318,-1.316000e-02,1.068000e-03,
319,-1.222000e-02,3.560000e-04,
320,-9.400000e-03,7.120000e-04,
321,-9.400000e-03,0.000000e+00,
322,-8.459999e-03,7.120000e-04,
323,-8.459999e-03,0.000000e+00,
324,-6.580000e-03,0.000000e+00,
325,-5.640000e-03,7.120000e-04,
326,-4.700000e-03,3.560000e-04,
327,-3.760000e-03,1.068000e-03,
328,-9.399999e-04,0.000000e+00,
329,0.000000e+00,-7.120000e-04,
330,0.000000e+00,1.068000e-03,
331,0.000000e+00,3.560000e-04,
332,2.820000e-03,-1.068000e-03,
333,1.880000e-03,-3.560000e-04,
334,4.700000e-03,-7.120000e-04,
335,3.760000e-03,-1.424000e-03,
336,5.640000e-03,7.120000e-04,
337,5.640000e-03,0.000000e+00,
338,8.459999e-03,0.000000e+00,
339,8.459999e-03,7.120000e-04,
340,9.400000e-03,7.120000e-04,
341,1.034000e-02,0.000000e+00,
342,1.222000e-02,-1.068000e-03,
343,1.222000e-02,-3.560000e-04,
344,1.410000e-02,-1.068000e-03,
345,1.504000e-02,-3.560000e-04,
346,1.598000e-02,-7.120000e-04,
347,1.692000e-02,0.000000e+00,
348,1.786000e-02,-7.120000e-04,
349,1.880000e-02,0.000000e+00,
350,2.068000e-02,3.560000e-04,
351,1.974000e-02,-3.560000e-04,
352,2.256000e-02,0.000000e+00,
353,2.256000e-02,3.560000e-04,
354,2.538000e-02,-7.120000e-04,
355,2.538000e-02,0.000000e+00,
356,2.538000e-02,3.560000e-04,
357,2.632000e-02,-3.560000e-04,
358,2.914000e-02,1.424000e-03,
359,2.914000e-02,7.120000e-04,
360,3.008000e-02,-7.120000e-04,
361,3.008000e-02,-1.068000e-03,
362,3.196000e-02,-3.560000e-04,
363,3.290000e-02,3.560000e-04,
364,3.384000e-02,1.424000e-03,
365,3.384000e-02,7.120000e-04,
366,3.572000e-02,2.136000e-03,
367,3.666000e-02,1.424000e-03,
368,3.760000e-02,2.848000e-03,
369,3.760000e-02,2.136000e-03,
370,4.042000e-02,-3.560000e-04,
371,4.042000e-02,3.560000e-04,
372,4.136000e-02,2.492000e-03,
373,4.136000e-02,3.204000e-03,
374,4.324000e-02,1.424000e-03,
375,4.324000e-02,2.136000e-03,
376,4.418000e-02,0.000000e+00,
377,4.418000e-02,7.120000e-04,
378,4.606000e-02,1.068000e-03,
379,4.606000e-02,3.560000e-04,
380,4.888000e-02,-7.120000e-04,
381,4.794000e-02,0.000000e+00,
382,4.982000e-02,1.068000e-03,
383,4.982000e-02,3.560000e-04,
384,5.170000e-02,1.068000e-03,
385,5.076000e-02,1.780000e-03,
386,5.358000e-02,7.120000e-04,
387,5.452000e-02,0.000000e+00,
388,5.452000e-02,0.000000e+00,
389,5.452000e-02,-7.120000e-04,
390,5.640000e-02,3.560000e-04,
391,5.640000e-02,7.120000e-04,
392,5.734000e-02,2.136000e-03,
393,5.734000e-02,1.780000e-03,
394,5.922000e-02,1.068000e-03,
395,5.922000e-02,3.560000e-04,
396,6.109999e-02,2.848000e-03,
397,6.016000e-02,2.136000e-03,
398,6.204000e-02,-7.120000e-04,
399,6.204000e-02,0.000000e+00,
400,6.298000e-02,2.136000e-03,
401,6.298000e-02,1.424000e-03,
402,6.485999e-02,1.780000e-03,
403,6.485999e-02,2.492000e-03,
404,6.674000e-02,7.120000e-04,
405,6.580000e-02,0.000000e+00,
406,6.674000e-02,2.136000e-03,
407,6.674000e-02,1.424000e-03,
408,6.956000e-02,-3.560000e-04,
409,6.956000e-02,3.560000e-04,
410,7.049999e-02,7.120000e-04,
411,7.049999e-02,0.000000e+00,
412,7.144000e-02,-3.560000e-04,
413,7.144000e-02,0.000000e+00,
414,7.049999e-02,3.560000e-04,
415,7.144000e-02,7.120000e-04,
416,7.331999e-02,3.560000e-04,
417,7.331999e-02,1.068000e-03,
418,7.426000e-02,-1.068000e-03,
419,7.426000e-02,-3.560000e-04,
420,7.520000e-02,7.120000e-04,
421,7.426000e-02,0.000000e+00,
422,7.613999e-02,0.000000e+00,
423,7.613999e-02,-7.120000e-04,
424,7.613999e-02,7.120000e-04,
425,7.613999e-02,0.000000e+00,
426,7.708000e-02,3.560000e-04,
427,7.708000e-02,-3.560000e-04,
428,7.801999e-02,7.120000e-04,
429,7.895999e-02,1.424000e-03,
430,7.895999e-02,-3.560000e-04,
431,7.895999e-02,0.000000e+00,
432,7.801999e-02,7.120000e-04,
433,7.895999e-02,0.000000e+00,
434,7.990000e-02,0.000000e+00,
435,7.895999e-02,7.120000e-04,
436,7.895999e-02,7.120000e-04,
437,7.990000e-02,3.560000e-04,
438,8.177999e-02,-7.120000e-04,
439,8.083999e-02,-3.560000e-04,
440,8.083999e-02,7.120000e-04,
441,8.083999e-02,1.424000e-03,
442,8.177999e-02,1.424000e-03,
443,8.177999e-02,7.120000e-04,
444,8.272000e-02,0.000000e+00,
445,8.272000e-02,7.120000e-04,
446,8.177999e-02,-3.560000e-04,
447,8.177999e-02,-1.424000e-03,
448,8.177999e-02,0.000000e+00,
449,8.083999e-02,3.560000e-04,
450,8.365999e-02,-7.120000e-04,
451,8.272000e-02,0.000000e+00,
452,8.365999e-02,-3.560000e-04,
453,8.365999e-02,0.000000e+00,
454,8.272000e-02,-7.120000e-04,
455,8.177999e-02,-1.424000e-03,
456,8.272000e-02,1.424000e-03,
457,8.272000e-02,7.120000e-04,
458,8.272000e-02,7.120000e-04,
459,8.177999e-02,1.424000e-03,
460,8.272000e-02,-7.120000e-04,
461,8.365999e-02,0.000000e+00,
462,8.177999e-02,3.560000e-04,
463,8.177999e-02,-3.560000e-04,
464,8.272000e-02,7.120000e-04,
465,8.272000e-02,1.424000e-03,
466,8.177999e-02,1.424000e-03,
467,8.083999e-02,7.120000e-04,
468,8.272000e-02,7.120000e-04,
469,8.177999e-02,0.000000e+00,
470,8.177999e-02,1.068000e-03,
471,8.083999e-02,3.560000e-04,
472,8.083999e-02,7.120000e-04,
473,8.177999e-02,3.560000e-04,
474,8.083999e-02,1.068000e-03,
475,8.083999e-02,3.560000e-04,
476,8.083999e-02,-1.780000e-03,
477,7.990000e-02,-7.120000e-04,
478,7.990000e-02,-1.068000e-03,
479,7.990000e-02,-3.560000e-04,
480,7.990000e-02,7.120000e-04,
481,7.895999e-02,1.424000e-03,
482,7.895999e-02,3.560000e-04,
483,7.895999e-02,1.068000e-03,
484,7.801999e-02,0.000000e+00,
485,7.895999e-02,-7.120000e-04,
486,7.708000e-02,1.068000e-03,
487,7.801999e-02,3.560000e-04,
488,7.708000e-02,7.120000e-04,
489,7.708000e-02,0.000000e+00,
490,7.613999e-02,1.780000e-03,
491,7.520000e-02,2.492000e-03,
492,7.520000e-02,7.120000e-04,
493,7.426000e-02,3.560000e-04,
494,7.331999e-02,-3.560000e-04,
495,7.426000e-02,-1.068000e-03,
496,7.238000e-02,0.000000e+00,
497,7.238000e-02,7.120000e-04,
498,7.144000e-02,-1.068000e-03,
499,7.238000e-02,-3.560000e-04,
500,7.049999e-02,7.120000e-04,
501,7.049999e-02,0.000000e+00,
502,6.956000e-02,0.000000e+00,
503,7.049999e-02,7.120000e-04,
504,6.862000e-02,0.000000e+00,
505,6.862000e-02,-3.560000e-04,
506,6.674000e-02,7.120000e-04,
507,6.767999e-02,1.424000e-03,
508,6.580000e-02,1.780000e-03,
509,6.674000e-02,1.068000e-03,
510,6.485999e-02,1.068000e-03,
511,6.392000e-02,1.780000e-03,
512,6.298000e-02,-1.424000e-03,
513,6.392000e-02,-7.120000e-04,
514,6.204000e-02,0.000000e+00,
515,6.298000e-02,7.120000e-04,
516,6.016000e-02,7.120000e-04,
517,6.016000e-02,0.000000e+00,
518,5.922000e-02,7.120000e-04,
519,5.922000e-02,1.424000e-03,
520,5.734000e-02,0.000000e+00,
521,5.827999e-02,7.120000e-04,
522,5.640000e-02,-2.492000e-03,
523,5.640000e-02,-3.204000e-03,
524,5.358000e-02,0.000000e+00,
525,5.452000e-02,7.120000e-04,
526,5.358000e-02,0.000000e+00,
527,5.264000e-02,-3.560000e-04,
528,5.076000e-02,-3.560000e-04,
529,5.076000e-02,0.000000e+00,
530,4.982000e-02,1.068000e-03,
531,4.982000e-02,3.560000e-04,
532,4.794000e-02,-3.560000e-04,
533,4.794000e-02,-7.120000e-04,
534,4.700000e-02,1.068000e-03,
535,4.700000e-02,3.560000e-04,
536,4.418000e-02,-1.424000e-03,
537,4.512000e-02,-7.120000e-04,
538,4.324000e-02,1.780000e-03,
539,4.418000e-02,2.136000e-03,
540,4.136000e-02,-1.068000e-03,
541,4.230000e-02,-3.560000e-04,
542,3.854000e-02,3.560000e-04,
543,3.854000e-02,-3.560000e-04,
544,3.760000e-02,0.000000e+00,
545,3.760000e-02,7.120000e-04,
546,3.572000e-02,3.560000e-04,
547,3.666000e-02,-3.560000e-04,
548,3.384000e-02,0.000000e+00,
549,3.384000e-02,-7.120000e-04,
550,3.290000e-02,-3.560000e-04,
551,3.196000e-02,-1.068000e-03,
552,3.008000e-02,1.780000e-03,
553,3.008000e-02,1.068000e-03,
554,2.820000e-02,-7.120000e-04,
555,2.820000e-02,-1.424000e-03,
556,2.726000e-02,1.068000e-03,
557,2.632000e-02,3.560000e-04,
558,2.444000e-02,-1.068000e-03,
559,2.538000e-02,-3.560000e-04,
560,2.256000e-02,1.068000e-03,
561,2.256000e-02,1.780000e-03,
562,1.974000e-02,0.000000e+00,
563,2.068000e-02,7.120000e-04,
564,1.880000e-02,0.000000e+00,
565,1.880000e-02,7.120000e-04,
566,1.692000e-02,3.560000e-04,
567,1.598000e-02,0.000000e+00,
568,1.504000e-02,0.000000e+00,
569,1.504000e-02,7.120000e-04,
570,1.316000e-02,-3.560000e-04,
571,1.316000e-02,3.560000e-04,
572,1.034000e-02,2.136000e-03,
573,9.400000e-03,1.424000e-03,
574,8.459999e-03,3.560000e-04,
575,8.459999e-03,1.068000e-03,
576,6.580000e-03,0.000000e+00,
577,6.580000e-03,7.120000e-04,
578,2.820000e-03,1.068000e-03,
579,2.820000e-03,3.560000e-04,
580,1.880000e-03,0.000000e+00,
581,9.399999e-04,7.120000e-04,
582,9.399999e-04,0.000000e+00,
583,0.000000e+00,-7.120000e-04,
584,-2.820000e-03,0.000000e+00,
585,-2.820000e-03,1.068000e-03,
586,-3.760000e-03,-7.120000e-04,
587,-3.760000e-03,0.000000e+00,
588,-6.580000e-03,0.000000e+00,
589,-7.520000e-03,-3.560000e-04,
590,-8.459999e-03,1.068000e-03,
591,-8.459999e-03,1.780000e-03,
592,-1.034000e-02,0.000000e+00,
593,-1.034000e-02,3.560000e-04,
594,-1.316000e-02,1.424000e-03,
595,-1.222000e-02,2.136000e-03,
596,-1.316000e-02,0.000000e+00,
597,-1.410000e-02,-3.560000e-04,
598,-1.598000e-02,-7.120000e-04,
599,-1.598000e-02,0.000000e+00,
600,-1.880000e-02,0.000000e+00,
601,-1.880000e-02,7.120000e-04,
602,-1.974000e-02,0.000000e+00,
603,-2.068000e-02,-3.560000e-04,
604,-2.256000e-02,-3.560000e-04,
605,-2.256000e-02,3.560000e-04,
606,-2.350000e-02,-1.780000e-03,
607,-2.444000e-02,-2.492000e-03,
608,-2.632000e-02,3.560000e-04,
609,-2.632000e-02,-3.560000e-04,
610,-2.726000e-02,-1.780000e-03,
611,-2.726000e-02,-1.068000e-03,
612,-3.008000e-02,0.000000e+00,
613,-3.008000e-02,-7.120000e-04,
614,-3.196000e-02,7.120000e-04,
615,-3.102000e-02,0.000000e+00,
616,-3.384000e-02,-1.424000e-03,
617,-3.384000e-02,-1.780000e-03,
618,-3.572000e-02,1.780000e-03,
619,-3.572000e-02,1.068000e-03,
620,-3.760000e-02,3.560000e-04,
621,-3.666000e-02,1.068000e-03,
622,-3.854000e-02,-1.068000e-03,
623,-3.948000e-02,-1.780000e-03,
624,-4.136000e-02,0.000000e+00,
625,-4.136000e-02,7.120000e-04,
626,-4.324000e-02,1.068000e-03,
627,-4.230000e-02,3.560000e-04,
628,-4.418000e-02,1.424000e-03,
629,-4.512000e-02,1.068000e-03,
630,-4.606000e-02,1.424000e-03,
