parte2/esp10/Data/d4/f1/3.csv

X,CH1,CH2,Start,Increment,
Sequence,Volt,Volt,-1.163980e-03,2.000000e-06,
0,6.862000e-02,1.068000e-03,
1,6.956000e-02,3.560000e-04,
2,6.862000e-02,1.068000e-03,
3,6.956000e-02,3.560000e-04,
4,6.862000e-02,7.120000e-04,
5,6.862000e-02,0.000000e+00,
6,6.674000e-02,3.560000e-04,
7,6.674000e-02,1.068000e-03,
8,6.674000e-02,3.560000e-04,
9,6.580000e-02,-3.560000e-04,
10,6.485999e-02,-3.560000e-04,
11,6.580000e-02,3.560000e-04,
12,6.298000e-02,1.424000e-03,
13,6.298000e-02,3.560000e-04,
14,6.204000e-02,1.068000e-03,
15,6.204000e-02,3.560000e-04,
16,6.109999e-02,1.424000e-03,
17,6.109999e-02,1.068000e-03,
18,5.922000e-02,7.120000e-04,
19,5.922000e-02,1.068000e-03,
20,5.734000e-02,0.000000e+00,
21,5.734000e-02,7.120000e-04,
22,5.545999e-02,3.560000e-04,
23,5.640000e-02,-3.560000e-04,
24,5.545999e-02,3.560000e-04,
25,5.452000e-02,1.068000e-03,
26,5.358000e-02,-3.560000e-04,
27,5.264000e-02,0.000000e+00,
28,5.170000e-02,1.780000e-03,
29,5.170000e-02,2.492000e-03,
30,4.982000e-02,-2.136000e-03,
31,4.982000e-02,-1.424000e-03,
32,4.794000e-02,-3.560000e-04,
33,4.888000e-02,3.560000e-04,
34,4.700000e-02,7.120000e-04,
35,4.700000e-02,1.424000e-03,
36,4.512000e-02,-1.068000e-03,
37,4.512000e-02,-7.120000e-04,
38,4.230000e-02,7.120000e-04,
39,4.230000e-02,1.424000e-03,
40,4.042000e-02,-1.068000e-03,
41,4.136000e-02,-3.560000e-04,
42,3.948000e-02,7.120000e-04,
43,3.948000e-02,1.068000e-03,
44,3.854000e-02,3.560000e-04,
45,3.854000e-02,0.000000e+00,
46,3.666000e-02,3.560000e-04,
47,3.572000e-02,1.068000e-03,
48,3.384000e-02,-3.560000e-04,
49,3.290000e-02,0.000000e+00,
50,3.290000e-02,3.560000e-04,
51,3.290000e-02,-3.560000e-04,
52,3.008000e-02,7.120000e-04,
53,3.102000e-02,0.000000e+00,
54,2.914000e-02,1.424000e-03,
55,2.820000e-02,7.120000e-04,
56,2.632000e-02,3.560000e-04,
57,2.632000e-02,7.120000e-04,
58,2.444000e-02,7.120000e-04,
59,2.444000e-02,0.000000e+00,
60,2.256000e-02,-1.424000e-03,
61,2.256000e-02,-7.120000e-04,
62,2.068000e-02,-3.560000e-04,
63,1.974000e-02,3.560000e-04,
64,1.880000e-02,0.000000e+00,
65,1.880000e-02,-7.120000e-04,
66,1.692000e-02,1.068000e-03,
67,1.598000e-02,3.560000e-04,
68,1.410000e-02,1.424000e-03,
69,1.410000e-02,7.120000e-04,
70,1.222000e-02,-7.120000e-04,
71,1.222000e-02,-3.560000e-04,
72,1.034000e-02,3.560000e-04,
73,1.034000e-02,1.068000e-03,
74,8.459999e-03,0.000000e+00,
75,8.459999e-03,3.560000e-04,
76,7.520000e-03,0.000000e+00,
77,7.520000e-03,3.560000e-04,
78,3.760000e-03,7.120000e-04,
79,4.700000e-03,0.000000e+00,
80,1.880000e-03,-3.560000e-04,
81,1.880000e-03,-1.068000e-03,
82,0.000000e+00,-3.560000e-04,
83,0.000000e+00,3.560000e-04,
84,-1.880000e-03,2.492000e-03,
85,-1.880000e-03,1.780000e-03,
86,-3.760000e-03,-1.068000e-03,
87,-3.760000e-03,-1.780000e-03,
88,-5.640000e-03,0.000000e+00,
89,-5.640000e-03,3.560000e-04,
90,-8.459999e-03,-7.120000e-04,
91,-8.459999e-03,0.000000e+00,
92,-1.034000e-02,-3.560000e-04,
93,-1.034000e-02,3.560000e-04,
94,-1.128000e-02,1.780000e-03,
95,-1.128000e-02,1.424000e-03,
96,-1.410000e-02,-7.120000e-04,
97,-1.410000e-02,-1.068000e-03,
98,-1.504000e-02,0.000000e+00,
99,-1.598000e-02,7.120000e-04,
100,-1.880000e-02,-3.560000e-04,
101,-1.880000e-02,-7.120000e-04,
102,-1.974000e-02,-7.120000e-04,
103,-2.068000e-02,0.000000e+00,
104,-2.162000e-02,-7.120000e-04,
105,-2.162000e-02,0.000000e+00,
106,-2.444000e-02,1.780000e-03,
107,-2.444000e-02,1.068000e-03,
108,-2.632000e-02,-3.560000e-04,
109,-2.538000e-02,3.560000e-04,
110,-2.726000e-02,7.120000e-04,
111,-2.820000e-02,1.068000e-03,
112,-3.008000e-02,3.560000e-04,
113,-3.008000e-02,-3.560000e-04,
114,-3.196000e-02,-7.120000e-04,
115,-3.102000e-02,0.000000e+00,
116,-3.384000e-02,0.000000e+00,
117,-3.478000e-02,7.120000e-04,
118,-3.572000e-02,1.068000e-03,
119,-3.478000e-02,7.120000e-04,
120,-3.666000e-02,-1.068000e-03,
121,-3.760000e-02,-3.560000e-04,
122,-3.948000e-02,0.000000e+00,
123,-3.948000e-02,3.560000e-04,
124,-4.136000e-02,-3.560000e-04,
125,-4.136000e-02,0.000000e+00,
126,-4.230000e-02,3.560000e-04,
127,-4.324000e-02,1.068000e-03,
128,-4.418000e-02,-7.120000e-04,
129,-4.324000e-02,0.000000e+00,
130,-4.606000e-02,1.780000e-03,
131,-4.606000e-02,1.068000e-03,
132,-4.700000e-02,-7.120000e-04,
133,-4.794000e-02,-3.560000e-04,
134,-4.982000e-02,3.560000e-04,
135,-4.982000e-02,1.068000e-03,
136,-5.170000e-02,7.120000e-04,
137,-5.076000e-02,1.068000e-03,
138,-5.264000e-02,-3.560000e-04,
139,-5.264000e-02,3.560000e-04,
140,-5.452000e-02,7.120000e-04,
141,-5.452000e-02,1.068000e-03,
142,-5.640000e-02,-3.560000e-04,
143,-5.640000e-02,3.560000e-04,
144,-5.734000e-02,3.560000e-04,
145,-5.734000e-02,0.000000e+00,
146,-5.922000e-02,1.068000e-03,
147,-5.922000e-02,3.560000e-04,
148,-6.016000e-02,7.120000e-04,
149,-5.922000e-02,0.000000e+00,
150,-6.204000e-02,7.120000e-04,
151,-6.204000e-02,3.560000e-04,
152,-6.298000e-02,-7.120000e-04,
153,-6.298000e-02,-1.424000e-03,
154,-6.485999e-02,-3.560000e-04,
155,-6.485999e-02,-1.068000e-03,
156,-6.485999e-02,3.560000e-04,
157,-6.580000e-02,0.000000e+00,
158,-6.674000e-02,1.068000e-03,
159,-6.580000e-02,7.120000e-04,
160,-6.767999e-02,0.000000e+00,
161,-6.674000e-02,-3.560000e-04,
162,-6.956000e-02,-7.120000e-04,
163,-6.862000e-02,0.000000e+00,
164,-6.862000e-02,0.000000e+00,
165,-6.956000e-02,7.120000e-04,
166,-7.049999e-02,1.068000e-03,
167,-7.144000e-02,3.560000e-04,
168,-7.238000e-02,-1.068000e-03,
169,-7.238000e-02,-3.560000e-04,
170,-7.426000e-02,-7.120000e-04,
171,-7.331999e-02,-1.424000e-03,
172,-7.331999e-02,-7.120000e-04,
173,-7.331999e-02,0.000000e+00,
174,-7.520000e-02,7.120000e-04,
175,-7.426000e-02,3.560000e-04,
176,-7.613999e-02,0.000000e+00,
177,-7.520000e-02,7.120000e-04,
178,-7.520000e-02,-3.560000e-04,
179,-7.613999e-02,0.000000e+00,
180,-7.708000e-02,1.424000e-03,
181,-7.613999e-02,1.780000e-03,
182,-7.708000e-02,0.000000e+00,
183,-7.708000e-02,-7.120000e-04,
184,-7.801999e-02,-3.560000e-04,
185,-7.895999e-02,0.000000e+00,
186,-7.895999e-02,1.424000e-03,
187,-7.895999e-02,1.780000e-03,
188,-7.895999e-02,3.560000e-04,
189,-7.990000e-02,-3.560000e-04,
190,-7.990000e-02,0.000000e+00,
191,-7.895999e-02,-3.560000e-04,
192,-7.990000e-02,3.560000e-04,
193,-7.990000e-02,-3.560000e-04,
194,-7.990000e-02,-3.560000e-04,
195,-8.083999e-02,0.000000e+00,
196,-7.990000e-02,1.068000e-03,
197,-8.083999e-02,3.560000e-04,
198,-8.083999e-02,-3.560000e-04,
199,-8.083999e-02,3.560000e-04,
200,-8.083999e-02,-3.560000e-04,
201,-8.177999e-02,-7.120000e-04,
202,-8.177999e-02,1.068000e-03,
203,-8.083999e-02,7.120000e-04,
204,-8.083999e-02,1.424000e-03,
205,-8.083999e-02,1.068000e-03,
206,-8.083999e-02,-3.560000e-04,
207,-8.083999e-02,-7.120000e-04,
208,-8.177999e-02,-7.120000e-04,
209,-8.177999e-02,0.000000e+00,
210,-8.083999e-02,0.000000e+00,
211,-7.990000e-02,7.120000e-04,
212,-8.083999e-02,3.560000e-04,
213,-8.177999e-02,1.068000e-03,
214,-8.083999e-02,-3.560000e-04,
215,-8.083999e-02,7.120000e-04,
216,-7.990000e-02,3.560000e-04,
217,-8.083999e-02,1.068000e-03,
218,-7.990000e-02,3.560000e-04,
219,-7.990000e-02,-3.560000e-04,
220,-7.990000e-02,3.560000e-04,
221,-7.990000e-02,1.068000e-03,
222,-7.895999e-02,1.068000e-03,
223,-7.801999e-02,3.560000e-04,
224,-7.895999e-02,7.120000e-04,
225,-7.895999e-02,1.068000e-03,
226,-7.895999e-02,2.136000e-03,
227,-7.895999e-02,1.424000e-03,
228,-7.708000e-02,-3.560000e-04,
229,-7.801999e-02,-1.068000e-03,
230,-7.708000e-02,7.120000e-04,
231,-7.708000e-02,1.068000e-03,
232,-7.708000e-02,0.000000e+00,
233,-7.613999e-02,-7.120000e-04,
234,-7.613999e-02,7.120000e-04,
235,-7.520000e-02,1.424000e-03,
236,-7.520000e-02,0.000000e+00,
237,-7.520000e-02,-1.068000e-03,
238,-7.331999e-02,7.120000e-04,
239,-7.331999e-02,3.560000e-04,
240,-7.331999e-02,-1.424000e-03,
241,-7.331999e-02,-7.120000e-04,
242,-7.238000e-02,-7.120000e-04,
243,-7.238000e-02,0.000000e+00,
244,-7.144000e-02,1.068000e-03,
245,-7.238000e-02,1.424000e-03,
246,-7.049999e-02,3.560000e-04,
247,-7.049999e-02,0.000000e+00,
248,-7.049999e-02,1.424000e-03,
249,-7.049999e-02,1.068000e-03,
250,-6.862000e-02,-1.424000e-03,
251,-6.767999e-02,-7.120000e-04,
252,-6.862000e-02,-7.120000e-04,
253,-6.767999e-02,-1.068000e-03,
254,-6.674000e-02,7.120000e-04,
255,-6.674000e-02,1.424000e-03,
256,-6.485999e-02,7.120000e-04,
257,-6.580000e-02,0.000000e+00,
258,-6.392000e-02,1.424000e-03,
259,-6.392000e-02,7.120000e-04,
260,-6.298000e-02,0.000000e+00,
261,-6.204000e-02,3.560000e-04,
262,-6.109999e-02,3.560000e-04,
263,-6.109999e-02,1.068000e-03,
264,-6.016000e-02,7.120000e-04,
265,-5.922000e-02,0.000000e+00,
266,-5.827999e-02,1.068000e-03,
267,-5.827999e-02,1.780000e-03,
268,-5.640000e-02,-7.120000e-04,
269,-5.734000e-02,0.000000e+00,
270,-5.545999e-02,-1.068000e-03,
271,-5.545999e-02,-3.560000e-04,
272,-5.452000e-02,7.120000e-04,
273,-5.358000e-02,0.000000e+00,
274,-5.264000e-02,-3.560000e-04,
275,-5.170000e-02,0.000000e+00,
276,-5.170000e-02,0.000000e+00,
277,-5.076000e-02,7.120000e-04,
278,-4.888000e-02,0.000000e+00,
279,-4.888000e-02,-3.560000e-04,
280,-4.794000e-02,0.000000e+00,
281,-4.700000e-02,7.120000e-04,
282,-4.700000e-02,3.560000e-04,
283,-4.606000e-02,0.000000e+00,
284,-4.512000e-02,-7.120000e-04,
285,-4.418000e-02,0.000000e+00,
286,-4.230000e-02,0.000000e+00,
287,-4.136000e-02,-7.120000e-04,
288,-4.042000e-02,3.560000e-04,
289,-4.042000e-02,7.120000e-04,
290,-3.854000e-02,1.780000e-03,
291,-3.854000e-02,2.136000e-03,
292,-3.666000e-02,-7.120000e-04,
293,-3.760000e-02,-1.068000e-03,
294,-3.572000e-02,7.120000e-04,
295,-3.572000e-02,3.560000e-04,
296,-3.384000e-02,3.560000e-04,
297,-3.290000e-02,0.000000e+00,
298,-3.196000e-02,-7.120000e-04,
299,-3.102000e-02,0.000000e+00,
300,-3.008000e-02,1.068000e-03,
301,-3.008000e-02,3.560000e-04,
302,-2.820000e-02,3.560000e-04,
303,-2.820000e-02,1.068000e-03,
304,-2.632000e-02,0.000000e+00,
305,-2.632000e-02,7.120000e-04,
306,-2.350000e-02,0.000000e+00,
307,-2.444000e-02,-7.120000e-04,
308,-2.350000e-02,0.000000e+00,
309,-2.256000e-02,7.120000e-04,
310,-1.974000e-02,1.424000e-03,
311,-1.974000e-02,1.068000e-03,
312,-1.880000e-02,-1.424000e-03,
313,-1.786000e-02,-7.120000e-04,
314,-1.598000e-02,0.000000e+00,
315,-1.504000e-02,-3.560000e-04,
316,-1.410000e-02,7.120000e-04,
317,-1.410000e-02,1.424000e-03,
318,-1.222000e-02,0.000000e+00,
319,-1.128000e-02,3.560000e-04,
320,-1.034000e-02,1.068000e-03,
321,-9.400000e-03,3.560000e-04,
322,-8.459999e-03,1.068000e-03,
323,-7.520000e-03,3.560000e-04,
324,-6.580000e-03,0.000000e+00,
325,-5.640000e-03,7.120000e-04,
326,-4.700000e-03,-7.120000e-04,
327,-4.700000e-03,0.000000e+00,
328,-9.399999e-04,-3.560000e-04,
329,-1.880000e-03,3.560000e-04,
330,0.000000e+00,7.120000e-04,
331,0.000000e+00,1.424000e-03,
332,2.820000e-03,1.068000e-03,
333,1.880000e-03,1.780000e-03,
334,4.700000e-03,3.560000e-04,
335,4.700000e-03,-3.560000e-04,
336,5.640000e-03,7.120000e-04,
337,6.580000e-03,1.424000e-03,
338,9.400000e-03,0.000000e+00,
339,9.400000e-03,3.560000e-04,
340,1.034000e-02,1.780000e-03,
341,1.034000e-02,2.492000e-03,
342,1.222000e-02,-1.424000e-03,
343,1.316000e-02,-7.120000e-04,
344,1.504000e-02,0.000000e+00,
345,1.410000e-02,-3.560000e-04,
346,1.598000e-02,7.120000e-04,
347,1.598000e-02,1.068000e-03,
348,1.880000e-02,0.000000e+00,
349,1.880000e-02,7.120000e-04,
350,2.162000e-02,7.120000e-04,
351,2.162000e-02,1.068000e-03,
352,2.162000e-02,-1.068000e-03,
353,2.256000e-02,-1.780000e-03,
354,2.444000e-02,3.560000e-04,
355,2.444000e-02,1.068000e-03,
356,2.632000e-02,-1.068000e-03,
357,2.726000e-02,-3.560000e-04,
358,2.820000e-02,3.560000e-04,
359,2.820000e-02,1.068000e-03,
360,3.008000e-02,1.780000e-03,
361,3.102000e-02,1.424000e-03,
362,3.196000e-02,0.000000e+00,
363,3.196000e-02,7.120000e-04,
364,3.384000e-02,3.560000e-04,
365,3.478000e-02,1.068000e-03,
366,3.572000e-02,7.120000e-04,
367,3.572000e-02,1.424000e-03,
368,3.760000e-02,3.560000e-04,
369,3.854000e-02,-3.560000e-04,
370,3.948000e-02,7.120000e-04,
371,3.948000e-02,1.424000e-03,
372,4.230000e-02,0.000000e+00,
373,4.230000e-02,7.120000e-04,
374,4.418000e-02,0.000000e+00,
375,4.324000e-02,7.120000e-04,
376,4.512000e-02,-1.424000e-03,
377,4.606000e-02,-7.120000e-04,
378,4.606000e-02,-1.068000e-03,
379,4.606000e-02,-1.424000e-03,
380,4.888000e-02,1.068000e-03,
381,4.888000e-02,1.780000e-03,
382,4.982000e-02,-3.560000e-04,
383,4.982000e-02,3.560000e-04,
384,5.170000e-02,3.560000e-04,
385,5.170000e-02,-3.560000e-04,
386,5.264000e-02,3.560000e-04,
387,5.264000e-02,7.120000e-04,
388,5.452000e-02,1.068000e-03,
389,5.545999e-02,3.560000e-04,
390,5.640000e-02,-7.120000e-04,
391,5.640000e-02,-1.424000e-03,
392,5.734000e-02,1.424000e-03,
393,5.734000e-02,7.120000e-04,
394,5.827999e-02,1.068000e-03,
395,5.922000e-02,3.560000e-04,
396,6.109999e-02,-7.120000e-04,
397,6.016000e-02,-1.424000e-03,
398,6.204000e-02,3.560000e-04,
399,6.298000e-02,1.068000e-03,
400,6.298000e-02,-7.120000e-04,
401,6.298000e-02,0.000000e+00,
402,6.485999e-02,1.068000e-03,
403,6.485999e-02,3.560000e-04,
404,6.674000e-02,2.492000e-03,
405,6.580000e-02,1.424000e-03,
406,6.767999e-02,-1.780000e-03,
407,6.767999e-02,-1.068000e-03,
408,6.767999e-02,1.068000e-03,
409,6.767999e-02,1.424000e-03,
410,6.956000e-02,-1.424000e-03,
411,6.956000e-02,-3.560000e-04,
412,7.049999e-02,7.120000e-04,
413,7.049999e-02,1.068000e-03,
414,7.238000e-02,1.068000e-03,
415,7.238000e-02,1.424000e-03,
416,7.331999e-02,3.560000e-04,
417,7.331999e-02,0.000000e+00,
418,7.331999e-02,2.492000e-03,
419,7.331999e-02,2.136000e-03,
420,7.520000e-02,-7.120000e-04,
421,7.520000e-02,-1.424000e-03,
422,7.613999e-02,3.560000e-04,
423,7.613999e-02,1.424000e-03,
424,7.613999e-02,0.000000e+00,
425,7.708000e-02,-7.120000e-04,
426,7.708000e-02,-1.068000e-03,
427,7.801999e-02,-1.780000e-03,
428,7.801999e-02,-1.068000e-03,
429,7.801999e-02,-3.560000e-04,
430,7.801999e-02,3.560000e-04,
431,7.895999e-02,-3.560000e-04,
432,7.990000e-02,7.120000e-04,
433,7.895999e-02,0.000000e+00,
434,7.990000e-02,3.560000e-04,
435,7.990000e-02,0.000000e+00,
436,7.990000e-02,-3.560000e-04,
437,7.990000e-02,-7.120000e-04,
438,8.083999e-02,1.068000e-03,
439,7.990000e-02,1.780000e-03,
440,8.083999e-02,0.000000e+00,
441,8.177999e-02,3.560000e-04,
442,8.177999e-02,3.560000e-04,
443,8.083999e-02,1.068000e-03,
444,8.177999e-02,1.424000e-03,
445,8.083999e-02,7.120000e-04,
446,8.177999e-02,-1.068000e-03,
447,8.272000e-02,-1.780000e-03,
448,8.272000e-02,-7.120000e-04,
449,8.177999e-02,0.000000e+00,
450,8.272000e-02,7.120000e-04,
451,8.272000e-02,1.424000e-03,
452,8.272000e-02,1.424000e-03,
453,8.365999e-02,1.068000e-03,
454,8.272000e-02,2.136000e-03,
455,8.272000e-02,1.780000e-03,
456,8.272000e-02,1.068000e-03,
457,8.272000e-02,7.120000e-04,
458,8.177999e-02,1.068000e-03,
459,8.272000e-02,7.120000e-04,
460,8.365999e-02,3.560000e-04,
461,8.365999e-02,1.068000e-03,
462,8.272000e-02,1.068000e-03,
463,8.272000e-02,0.000000e+00,
464,8.272000e-02,0.000000e+00,
465,8.177999e-02,-3.560000e-04,
466,8.177999e-02,3.560000e-04,
467,8.272000e-02,-3.560000e-04,
468,8.177999e-02,0.000000e+00,
469,8.177999e-02,-3.560000e-04,
470,8.177999e-02,-1.424000e-03,
471,8.177999e-02,-1.780000e-03,
472,8.177999e-02,-3.560000e-04,
473,8.083999e-02,0.000000e+00,
474,8.177999e-02,-1.424000e-03,
475,8.177999e-02,-1.068000e-03,
476,8.083999e-02,7.120000e-04,
477,7.990000e-02,1.424000e-03,
478,7.895999e-02,7.120000e-04,
479,7.990000e-02,3.560000e-04,
480,7.895999e-02,-3.560000e-04,
481,7.895999e-02,3.560000e-04,
482,7.895999e-02,-3.560000e-04,
483,7.801999e-02,3.560000e-04,
484,7.801999e-02,0.000000e+00,
485,7.801999e-02,-7.120000e-04,
486,7.708000e-02,7.120000e-04,
487,7.708000e-02,0.000000e+00,
488,7.520000e-02,0.000000e+00,
489,7.613999e-02,-7.120000e-04,
490,7.520000e-02,0.000000e+00,
491,7.520000e-02,-3.560000e-04,
492,7.426000e-02,1.068000e-03,
493,7.520000e-02,3.560000e-04,
494,7.331999e-02,-3.560000e-04,
495,7.426000e-02,-7.120000e-04,
496,7.238000e-02,0.000000e+00,
497,7.331999e-02,-7.120000e-04,
498,7.144000e-02,0.000000e+00,
499,7.238000e-02,7.120000e-04,
500,7.049999e-02,-3.560000e-04,
501,7.049999e-02,3.560000e-04,
502,6.956000e-02,3.560000e-04,
503,6.956000e-02,0.000000e+00,
504,6.862000e-02,7.120000e-04,
505,6.862000e-02,-3.560000e-04,
506,6.674000e-02,7.120000e-04,
507,6.767999e-02,3.560000e-04,
508,6.674000e-02,-1.068000e-03,
509,6.580000e-02,-3.560000e-04,
510,6.485999e-02,7.120000e-04,
511,6.485999e-02,3.560000e-04,
512,6.392000e-02,1.780000e-03,
513,6.298000e-02,1.068000e-03,
514,6.204000e-02,-1.068000e-03,
515,6.204000e-02,-7.120000e-04,
516,6.109999e-02,3.560000e-04,
517,6.016000e-02,1.068000e-03,
518,5.922000e-02,3.560000e-04,
519,5.922000e-02,0.000000e+00,
520,5.734000e-02,0.000000e+00,
521,5.734000e-02,-7.120000e-04,
522,5.640000e-02,1.068000e-03,
523,5.640000e-02,1.424000e-03,
524,5.452000e-02,-7.120000e-04,
525,5.545999e-02,-1.424000e-03,
526,5.264000e-02,0.000000e+00,
527,5.264000e-02,-3.560000e-04,
528,5.170000e-02,-1.424000e-03,
529,5.170000e-02,-7.120000e-04,
530,4.982000e-02,-7.120000e-04,
531,4.982000e-02,0.000000e+00,
532,4.794000e-02,2.848000e-03,
533,4.794000e-02,2.136000e-03,
534,4.700000e-02,-7.120000e-04,
535,4.606000e-02,0.000000e+00,
536,4.418000e-02,-3.560000e-04,
537,4.418000e-02,3.560000e-04,
538,4.230000e-02,3.560000e-04,
539,4.230000e-02,0.000000e+00,
540,4.136000e-02,3.560000e-04,
541,4.136000e-02,1.068000e-03,
542,3.854000e-02,1.068000e-03,
543,3.854000e-02,3.560000e-04,
544,3.760000e-02,7.120000e-04,
545,3.854000e-02,1.424000e-03,
546,3.572000e-02,3.560000e-04,
547,3.666000e-02,-3.560000e-04,
548,3.290000e-02,-3.560000e-04,
549,3.384000e-02,0.000000e+00,
550,3.290000e-02,-1.068000e-03,
551,3.384000e-02,-3.560000e-04,
552,3.008000e-02,-3.560000e-04,
553,3.008000e-02,3.560000e-04,
554,2.914000e-02,1.424000e-03,
555,2.914000e-02,1.068000e-03,
556,2.632000e-02,7.120000e-04,
557,2.726000e-02,1.424000e-03,
558,2.350000e-02,3.560000e-04,
559,2.350000e-02,-3.560000e-04,
560,2.256000e-02,0.000000e+00,
561,2.256000e-02,-7.120000e-04,
562,2.068000e-02,1.068000e-03,
563,2.068000e-02,7.120000e-04,
564,1.880000e-02,0.000000e+00,
565,1.880000e-02,7.120000e-04,
566,1.692000e-02,3.560000e-04,
567,1.598000e-02,1.068000e-03,
568,1.410000e-02,-3.560000e-04,
569,1.504000e-02,3.560000e-04,
570,1.316000e-02,0.000000e+00,
571,1.316000e-02,7.120000e-04,
572,1.034000e-02,7.120000e-04,
573,1.128000e-02,1.424000e-03,
574,8.459999e-03,1.424000e-03,
575,8.459999e-03,1.780000e-03,
576,6.580000e-03,7.120000e-04,
577,6.580000e-03,0.000000e+00,
578,4.700000e-03,-1.068000e-03,
579,3.760000e-03,-3.560000e-04,
580,2.820000e-03,-7.120000e-04,
581,2.820000e-03,-3.560000e-04,
582,0.000000e+00,3.560000e-04,
583,0.000000e+00,1.068000e-03,
584,-1.880000e-03,-1.068000e-03,
585,-1.880000e-03,-7.120000e-04,
586,-3.760000e-03,1.424000e-03,
587,-3.760000e-03,7.120000e-04,
588,-5.640000e-03,3.560000e-04,
589,-5.640000e-03,0.000000e+00,
590,-8.459999e-03,-7.120000e-04,
591,-8.459999e-03,-3.560000e-04,
592,-1.034000e-02,0.000000e+00,
593,-1.128000e-02,3.560000e-04,
594,-1.128000e-02,-3.560000e-04,
595,-1.222000e-02,0.000000e+00,
596,-1.410000e-02,0.000000e+00,
597,-1.410000e-02,-7.120000e-04,
598,-1.598000e-02,-1.068000e-03,
599,-1.598000e-02,-3.560000e-04,
600,-1.786000e-02,7.120000e-04,
601,-1.880000e-02,1.424000e-03,
602,-1.974000e-02,1.068000e-03,
603,-1.974000e-02,7.120000e-04,
604,-2.256000e-02,3.560000e-04,
605,-2.256000e-02,0.000000e+00,
606,-2.444000e-02,7.120000e-04,
607,-2.444000e-02,0.000000e+00,
608,-2.538000e-02,-1.068000e-03,
609,-2.538000e-02,-7.120000e-04,
610,-2.820000e-02,-7.120000e-04,
611,-2.914000e-02,-3.560000e-04,
612,-2.914000e-02,1.068000e-03,
613,-2.914000e-02,3.560000e-04,
614,-3.196000e-02,1.068000e-03,
615,-3.196000e-02,3.560000e-04,
616,-3.384000e-02,1.068000e-03,
617,-3.478000e-02,3.560000e-04,
618,-3.572000e-02,-7.120000e-04,
619,-3.572000e-02,0.000000e+00,
620,-3.854000e-02,7.120000e-04,
621,-3.760000e-02,1.424000e-03,
622,-3.948000e-02,3.560000e-04,
623,-3.948000e-02,-3.560000e-04,
624,-4.136000e-02,-1.068000e-03,
625,-4.136000e-02,-3.560000e-04,
626,-4.230000e-02,3.560000e-04,
627,-4.230000e-02,-3.560000e-04,
628,-4.418000e-02,-7.120000e-04,
629,-4.512000e-02,-1.424000e-03,
