parte2/esp10/Data/d4/f1/4.csv

X,CH1,CH2,Start,Increment,
Sequence,Volt,Volt,-1.163980e-03,2.000000e-06,
0,6.956000e-02,1.068000e-03,
1,6.956000e-02,1.424000e-03,
2,6.956000e-02,1.068000e-03,
3,6.956000e-02,1.424000e-03,
4,6.956000e-02,7.120000e-04,
5,6.862000e-02,1.424000e-03,
6,6.767999e-02,2.136000e-03,
7,6.767999e-02,1.424000e-03,
8,6.580000e-02,2.492000e-03,
9,6.580000e-02,2.136000e-03,
10,6.485999e-02,3.204000e-03,
11,6.485999e-02,2.492000e-03,
12,6.298000e-02,1.780000e-03,
13,6.392000e-02,2.492000e-03,
14,6.298000e-02,2.136000e-03,
15,6.204000e-02,2.848000e-03,
16,5.922000e-02,2.136000e-03,
17,6.016000e-02,1.424000e-03,
18,5.922000e-02,1.424000e-03,
19,5.827999e-02,2.136000e-03,
20,5.734000e-02,1.780000e-03,
21,5.734000e-02,2.136000e-03,
22,5.545999e-02,1.780000e-03,
23,5.640000e-02,2.492000e-03,
24,5.452000e-02,1.068000e-03,
25,5.545999e-02,0.000000e+00,
26,5.170000e-02,3.560000e-04,
27,5.170000e-02,1.068000e-03,
28,5.170000e-02,2.492000e-03,
29,5.170000e-02,1.780000e-03,
30,4.982000e-02,2.136000e-03,
31,5.076000e-02,1.780000e-03,
32,4.794000e-02,3.560000e-04,
33,4.794000e-02,-3.560000e-04,
34,4.606000e-02,7.120000e-04,
35,4.606000e-02,0.000000e+00,
36,4.512000e-02,2.136000e-03,
37,4.512000e-02,1.068000e-03,
38,4.324000e-02,3.560000e-04,
39,4.324000e-02,1.068000e-03,
40,4.042000e-02,1.780000e-03,
41,4.042000e-02,2.492000e-03,
42,3.948000e-02,7.120000e-04,
43,3.948000e-02,1.424000e-03,
44,3.760000e-02,1.780000e-03,
45,3.760000e-02,1.068000e-03,
46,3.572000e-02,1.068000e-03,
47,3.572000e-02,3.560000e-04,
48,3.384000e-02,3.560000e-03,
49,3.384000e-02,2.848000e-03,
50,3.290000e-02,2.492000e-03,
51,3.196000e-02,1.780000e-03,
52,3.008000e-02,7.120000e-04,
53,3.008000e-02,0.000000e+00,
54,2.820000e-02,3.560000e-04,
55,2.820000e-02,1.068000e-03,
56,2.726000e-02,2.492000e-03,
57,2.632000e-02,1.780000e-03,
58,2.350000e-02,2.492000e-03,
59,2.444000e-02,1.780000e-03,
60,2.256000e-02,1.068000e-03,
61,2.256000e-02,7.120000e-04,
62,2.068000e-02,1.068000e-03,
63,2.162000e-02,1.780000e-03,
64,1.880000e-02,7.120000e-04,
65,1.786000e-02,1.424000e-03,
66,1.692000e-02,7.120000e-04,
67,1.598000e-02,1.068000e-03,
68,1.504000e-02,7.120000e-04,
69,1.410000e-02,1.424000e-03,
70,1.222000e-02,1.424000e-03,
71,1.222000e-02,2.136000e-03,
72,1.034000e-02,7.120000e-04,
73,1.034000e-02,1.424000e-03,
74,9.400000e-03,1.424000e-03,
75,9.400000e-03,2.136000e-03,
76,6.580000e-03,1.068000e-03,
77,5.640000e-03,3.560000e-04,
78,3.760000e-03,1.780000e-03,
79,3.760000e-03,1.424000e-03,
80,1.880000e-03,2.136000e-03,
81,2.820000e-03,1.424000e-03,
82,9.399999e-04,7.120000e-04,
83,9.399999e-04,1.424000e-03,
84,-1.880000e-03,2.492000e-03,
85,-2.820000e-03,3.204000e-03,
86,-3.760000e-03,2.136000e-03,
87,-3.760000e-03,1.424000e-03,
88,-5.640000e-03,3.560000e-04,
89,-5.640000e-03,-3.560000e-04,
90,-8.459999e-03,1.780000e-03,
91,-7.520000e-03,1.068000e-03,
92,-9.400000e-03,1.424000e-03,
93,-9.400000e-03,2.136000e-03,
94,-1.222000e-02,1.424000e-03,
95,-1.222000e-02,1.780000e-03,
96,-1.410000e-02,1.780000e-03,
97,-1.504000e-02,2.136000e-03,
98,-1.692000e-02,2.492000e-03,
99,-1.598000e-02,3.204000e-03,
100,-1.880000e-02,2.848000e-03,
101,-1.880000e-02,2.136000e-03,
102,-1.974000e-02,1.068000e-03,
103,-1.880000e-02,1.424000e-03,
104,-2.256000e-02,1.424000e-03,
105,-2.256000e-02,1.780000e-03,
106,-2.444000e-02,3.560000e-04,
107,-2.350000e-02,1.068000e-03,
108,-2.726000e-02,1.424000e-03,
109,-2.632000e-02,1.068000e-03,
110,-2.820000e-02,1.068000e-03,
111,-2.726000e-02,1.780000e-03,
112,-2.914000e-02,3.560000e-04,
113,-3.008000e-02,1.068000e-03,
114,-3.196000e-02,1.780000e-03,
115,-3.196000e-02,1.068000e-03,
116,-3.384000e-02,-7.120000e-04,
117,-3.290000e-02,0.000000e+00,
118,-3.666000e-02,1.068000e-03,
119,-3.572000e-02,7.120000e-04,
120,-3.760000e-02,2.136000e-03,
121,-3.760000e-02,1.424000e-03,
122,-3.948000e-02,2.492000e-03,
123,-3.948000e-02,1.780000e-03,
124,-4.136000e-02,1.068000e-03,
125,-4.136000e-02,1.780000e-03,
126,-4.324000e-02,1.424000e-03,
127,-4.324000e-02,2.136000e-03,
128,-4.512000e-02,0.000000e+00,
129,-4.512000e-02,-7.120000e-04,
130,-4.606000e-02,1.424000e-03,
131,-4.606000e-02,1.068000e-03,
132,-4.794000e-02,1.068000e-03,
133,-4.794000e-02,7.120000e-04,
134,-4.982000e-02,3.560000e-04,
135,-4.982000e-02,7.120000e-04,
136,-5.076000e-02,2.136000e-03,
137,-5.076000e-02,1.780000e-03,
138,-5.264000e-02,1.780000e-03,
139,-5.264000e-02,1.068000e-03,
140,-5.452000e-02,7.120000e-04,
141,-5.358000e-02,1.424000e-03,
142,-5.640000e-02,-3.560000e-04,
143,-5.640000e-02,0.000000e+00,
144,-5.734000e-02,2.136000e-03,
145,-5.827999e-02,1.780000e-03,
146,-5.827999e-02,1.068000e-03,
147,-5.827999e-02,3.560000e-04,
148,-5.922000e-02,2.848000e-03,
149,-5.922000e-02,3.560000e-03,
150,-6.109999e-02,3.560000e-04,
151,-6.109999e-02,1.068000e-03,
152,-6.392000e-02,2.136000e-03,
153,-6.392000e-02,2.848000e-03,
154,-6.392000e-02,7.120000e-04,
155,-6.392000e-02,0.000000e+00,
156,-6.485999e-02,1.424000e-03,
157,-6.580000e-02,1.780000e-03,
158,-6.674000e-02,2.136000e-03,
159,-6.767999e-02,1.780000e-03,
160,-6.767999e-02,1.068000e-03,
161,-6.767999e-02,3.560000e-04,
162,-6.862000e-02,2.136000e-03,
163,-6.956000e-02,2.848000e-03,
164,-6.956000e-02,1.424000e-03,
165,-6.956000e-02,7.120000e-04,
166,-7.049999e-02,1.780000e-03,
167,-7.049999e-02,2.492000e-03,
168,-7.238000e-02,2.136000e-03,
169,-7.144000e-02,2.848000e-03,
170,-7.331999e-02,2.492000e-03,
171,-7.331999e-02,2.136000e-03,
172,-7.331999e-02,1.068000e-03,
173,-7.331999e-02,1.780000e-03,
174,-7.426000e-02,1.780000e-03,
175,-7.520000e-02,1.068000e-03,
176,-7.520000e-02,1.424000e-03,
177,-7.520000e-02,7.120000e-04,
178,-7.520000e-02,1.424000e-03,
179,-7.520000e-02,7.120000e-04,
180,-7.613999e-02,1.780000e-03,
181,-7.708000e-02,1.068000e-03,
182,-7.708000e-02,7.120000e-04,
183,-7.708000e-02,1.424000e-03,
184,-7.708000e-02,0.000000e+00,
185,-7.708000e-02,7.120000e-04,
186,-7.801999e-02,2.492000e-03,
187,-7.801999e-02,2.136000e-03,
188,-7.801999e-02,1.424000e-03,
189,-7.895999e-02,2.136000e-03,
190,-7.895999e-02,1.068000e-03,
191,-7.990000e-02,1.424000e-03,
192,-7.895999e-02,2.136000e-03,
193,-7.990000e-02,1.068000e-03,
194,-8.083999e-02,1.424000e-03,
195,-8.083999e-02,2.136000e-03,
196,-8.083999e-02,2.136000e-03,
197,-7.990000e-02,2.848000e-03,
198,-7.990000e-02,1.424000e-03,
199,-8.083999e-02,7.120000e-04,
200,-8.083999e-02,-3.560000e-04,
201,-8.083999e-02,-1.068000e-03,
202,-8.083999e-02,1.068000e-03,
203,-8.083999e-02,3.560000e-04,
204,-8.177999e-02,1.780000e-03,
205,-8.177999e-02,2.492000e-03,
206,-8.083999e-02,2.848000e-03,
207,-8.177999e-02,3.560000e-03,
208,-8.083999e-02,1.424000e-03,
209,-8.083999e-02,2.136000e-03,
210,-8.177999e-02,1.424000e-03,
211,-8.177999e-02,7.120000e-04,
212,-8.083999e-02,1.068000e-03,
213,-7.990000e-02,3.560000e-04,
214,-8.083999e-02,1.424000e-03,
215,-8.083999e-02,2.136000e-03,
216,-7.990000e-02,2.492000e-03,
217,-7.990000e-02,1.780000e-03,
218,-7.990000e-02,7.120000e-04,
219,-8.083999e-02,1.424000e-03,
220,-8.083999e-02,0.000000e+00,
221,-7.990000e-02,7.120000e-04,
222,-7.990000e-02,2.492000e-03,
223,-7.895999e-02,1.780000e-03,
224,-7.990000e-02,2.492000e-03,
225,-7.895999e-02,1.780000e-03,
226,-7.895999e-02,2.492000e-03,
227,-7.895999e-02,1.780000e-03,
228,-7.801999e-02,1.780000e-03,
229,-7.895999e-02,2.492000e-03,
230,-7.708000e-02,1.068000e-03,
231,-7.708000e-02,7.120000e-04,
232,-7.708000e-02,1.424000e-03,
233,-7.708000e-02,7.120000e-04,
234,-7.708000e-02,1.424000e-03,
235,-7.708000e-02,2.136000e-03,
236,-7.613999e-02,1.424000e-03,
237,-7.613999e-02,7.120000e-04,
238,-7.426000e-02,1.780000e-03,
239,-7.426000e-02,1.068000e-03,
240,-7.331999e-02,7.120000e-04,
241,-7.426000e-02,1.068000e-03,
242,-7.331999e-02,2.848000e-03,
243,-7.331999e-02,2.136000e-03,
244,-7.238000e-02,2.492000e-03,
245,-7.238000e-02,3.204000e-03,
246,-7.144000e-02,1.068000e-03,
247,-7.144000e-02,3.560000e-04,
248,-6.956000e-02,1.424000e-03,
249,-6.956000e-02,7.120000e-04,
250,-6.956000e-02,1.780000e-03,
251,-6.956000e-02,2.492000e-03,
252,-6.767999e-02,1.780000e-03,
253,-6.862000e-02,2.492000e-03,
254,-6.674000e-02,2.848000e-03,
255,-6.674000e-02,2.136000e-03,
256,-6.485999e-02,1.424000e-03,
257,-6.485999e-02,7.120000e-04,
258,-6.392000e-02,1.424000e-03,
259,-6.298000e-02,7.120000e-04,
260,-6.298000e-02,2.492000e-03,
261,-6.298000e-02,3.204000e-03,
262,-6.109999e-02,1.068000e-03,
263,-6.109999e-02,2.136000e-03,
264,-6.016000e-02,0.000000e+00,
265,-5.922000e-02,3.560000e-04,
266,-5.827999e-02,1.780000e-03,
267,-5.734000e-02,1.068000e-03,
268,-5.734000e-02,1.068000e-03,
269,-5.734000e-02,1.780000e-03,
270,-5.545999e-02,7.120000e-04,
271,-5.640000e-02,1.424000e-03,
272,-5.452000e-02,1.780000e-03,
273,-5.358000e-02,2.136000e-03,
274,-5.264000e-02,1.780000e-03,
275,-5.264000e-02,1.068000e-03,
276,-5.076000e-02,1.068000e-03,
277,-5.076000e-02,3.560000e-04,
278,-4.982000e-02,1.780000e-03,
279,-4.982000e-02,2.492000e-03,
280,-4.794000e-02,2.136000e-03,
281,-4.888000e-02,2.848000e-03,
282,-4.700000e-02,0.000000e+00,
283,-4.606000e-02,7.120000e-04,
284,-4.512000e-02,3.560000e-04,
285,-4.512000e-02,0.000000e+00,
286,-4.136000e-02,3.560000e-04,
287,-4.230000e-02,-3.560000e-04,
288,-4.042000e-02,2.492000e-03,
289,-4.136000e-02,1.780000e-03,
290,-3.948000e-02,2.492000e-03,
291,-3.948000e-02,2.848000e-03,
292,-3.760000e-02,7.120000e-04,
293,-3.760000e-02,3.560000e-04,
294,-3.572000e-02,7.120000e-04,
295,-3.572000e-02,-3.560000e-04,
296,-3.290000e-02,0.000000e+00,
297,-3.384000e-02,7.120000e-04,
298,-3.196000e-02,7.120000e-04,
299,-3.196000e-02,0.000000e+00,
300,-3.102000e-02,7.120000e-04,
301,-3.008000e-02,1.424000e-03,
302,-2.820000e-02,1.780000e-03,
303,-2.914000e-02,1.068000e-03,
304,-2.538000e-02,7.120000e-04,
305,-2.632000e-02,0.000000e+00,
306,-2.350000e-02,7.120000e-04,
307,-2.350000e-02,0.000000e+00,
308,-2.256000e-02,7.120000e-04,
309,-2.256000e-02,1.424000e-03,
310,-1.974000e-02,2.492000e-03,
311,-1.974000e-02,3.204000e-03,
312,-1.786000e-02,2.492000e-03,
313,-1.692000e-02,1.780000e-03,
314,-1.692000e-02,0.000000e+00,
315,-1.598000e-02,7.120000e-04,
316,-1.504000e-02,3.560000e-04,
317,-1.504000e-02,-3.560000e-04,
318,-1.222000e-02,1.424000e-03,
319,-1.222000e-02,2.136000e-03,
320,-1.034000e-02,2.136000e-03,
321,-9.400000e-03,2.848000e-03,
322,-7.520000e-03,7.120000e-04,
323,-7.520000e-03,0.000000e+00,
324,-4.700000e-03,1.424000e-03,
325,-4.700000e-03,7.120000e-04,
326,-3.760000e-03,7.120000e-04,
327,-3.760000e-03,3.560000e-04,
328,-1.880000e-03,3.560000e-03,
329,-9.399999e-04,2.848000e-03,
330,9.399999e-04,3.560000e-04,
331,9.399999e-04,1.068000e-03,
332,1.880000e-03,3.560000e-04,
333,2.820000e-03,1.068000e-03,
334,4.700000e-03,2.136000e-03,
335,4.700000e-03,1.424000e-03,
336,5.640000e-03,7.120000e-04,
337,6.580000e-03,1.424000e-03,
338,9.400000e-03,3.204000e-03,
339,8.459999e-03,2.492000e-03,
340,1.128000e-02,1.780000e-03,
341,1.128000e-02,1.068000e-03,
342,1.316000e-02,1.780000e-03,
343,1.222000e-02,1.068000e-03,
344,1.504000e-02,2.492000e-03,
345,1.504000e-02,1.780000e-03,
346,1.692000e-02,2.136000e-03,
347,1.692000e-02,1.424000e-03,
348,1.786000e-02,1.424000e-03,
349,1.880000e-02,1.780000e-03,
350,2.068000e-02,1.068000e-03,
351,2.068000e-02,3.560000e-04,
352,2.256000e-02,2.136000e-03,
353,2.162000e-02,1.424000e-03,
354,2.444000e-02,1.424000e-03,
355,2.444000e-02,7.120000e-04,
356,2.632000e-02,2.136000e-03,
357,2.632000e-02,2.492000e-03,
358,2.820000e-02,1.780000e-03,
359,2.820000e-02,2.136000e-03,
360,3.008000e-02,7.120000e-04,
361,3.102000e-02,0.000000e+00,
362,3.196000e-02,7.120000e-04,
363,3.290000e-02,0.000000e+00,
364,3.384000e-02,1.424000e-03,
365,3.384000e-02,2.136000e-03,
366,3.572000e-02,1.068000e-03,
367,3.666000e-02,1.780000e-03,
368,3.760000e-02,2.136000e-03,
369,3.760000e-02,1.424000e-03,
370,3.948000e-02,2.848000e-03,
371,3.948000e-02,2.492000e-03,
372,4.042000e-02,7.120000e-04,
373,4.136000e-02,1.068000e-03,
374,4.324000e-02,2.136000e-03,
375,4.418000e-02,1.424000e-03,
376,4.512000e-02,3.560000e-04,
377,4.512000e-02,7.120000e-04,
378,4.606000e-02,1.068000e-03,
379,4.606000e-02,1.424000e-03,
380,4.794000e-02,3.560000e-04,
381,4.794000e-02,7.120000e-04,
382,4.982000e-02,1.424000e-03,
383,4.982000e-02,7.120000e-04,
384,5.264000e-02,7.120000e-04,
385,5.264000e-02,1.068000e-03,
386,5.358000e-02,1.780000e-03,
387,5.358000e-02,1.068000e-03,
388,5.452000e-02,-3.560000e-04,
389,5.452000e-02,3.560000e-04,
390,5.640000e-02,1.780000e-03,
391,5.734000e-02,1.068000e-03,
392,5.734000e-02,1.424000e-03,
393,5.734000e-02,7.120000e-04,
394,5.922000e-02,2.136000e-03,
395,5.922000e-02,2.848000e-03,
396,6.109999e-02,1.068000e-03,
397,6.016000e-02,7.120000e-04,
398,6.204000e-02,2.136000e-03,
399,6.204000e-02,1.424000e-03,
400,6.392000e-02,1.068000e-03,
401,6.392000e-02,1.780000e-03,
402,6.485999e-02,1.424000e-03,
403,6.485999e-02,2.136000e-03,
404,6.580000e-02,1.068000e-03,
405,6.580000e-02,3.560000e-04,
406,6.767999e-02,1.780000e-03,
407,6.767999e-02,1.068000e-03,
408,6.862000e-02,7.120000e-04,
409,6.862000e-02,0.000000e+00,
410,6.956000e-02,2.136000e-03,
411,6.956000e-02,1.424000e-03,
412,7.144000e-02,7.120000e-04,
413,7.049999e-02,1.068000e-03,
414,7.144000e-02,1.068000e-03,
415,7.144000e-02,7.120000e-04,
416,7.331999e-02,1.068000e-03,
417,7.331999e-02,1.780000e-03,
418,7.426000e-02,2.136000e-03,
419,7.520000e-02,1.780000e-03,
420,7.520000e-02,3.204000e-03,
421,7.520000e-02,3.916000e-03,
422,7.520000e-02,1.068000e-03,
423,7.520000e-02,1.780000e-03,
424,7.613999e-02,3.560000e-04,
425,7.613999e-02,7.120000e-04,
426,7.708000e-02,7.120000e-04,
427,7.708000e-02,0.000000e+00,
428,7.708000e-02,1.780000e-03,
429,7.708000e-02,1.424000e-03,
430,7.801999e-02,3.560000e-04,
431,7.895999e-02,1.068000e-03,
432,7.801999e-02,2.136000e-03,
433,7.801999e-02,2.492000e-03,
434,7.990000e-02,2.136000e-03,
435,8.083999e-02,1.068000e-03,
436,8.083999e-02,1.068000e-03,
437,7.990000e-02,3.560000e-04,
438,8.083999e-02,2.136000e-03,
439,8.083999e-02,1.424000e-03,
440,8.083999e-02,1.068000e-03,
441,8.083999e-02,1.424000e-03,
442,8.177999e-02,1.068000e-03,
443,8.272000e-02,1.780000e-03,
444,8.177999e-02,3.560000e-04,
445,8.177999e-02,7.120000e-04,
446,8.177999e-02,-7.120000e-04,
447,8.177999e-02,0.000000e+00,
448,8.177999e-02,1.424000e-03,
449,8.272000e-02,2.136000e-03,
450,8.272000e-02,1.424000e-03,
451,8.365999e-02,2.136000e-03,
452,8.272000e-02,1.780000e-03,
453,8.365999e-02,1.068000e-03,
454,8.365999e-02,0.000000e+00,
455,8.272000e-02,7.120000e-04,
456,8.177999e-02,0.000000e+00,
457,8.272000e-02,7.120000e-04,
458,8.272000e-02,1.780000e-03,
459,8.272000e-02,1.068000e-03,
460,8.177999e-02,1.780000e-03,
461,8.177999e-02,1.424000e-03,
462,8.177999e-02,7.120000e-04,
463,8.177999e-02,1.424000e-03,
464,8.272000e-02,1.068000e-03,
465,8.272000e-02,7.120000e-04,
466,8.177999e-02,2.492000e-03,
467,8.177999e-02,1.780000e-03,
468,8.083999e-02,1.424000e-03,
469,8.083999e-02,2.136000e-03,
470,8.083999e-02,1.424000e-03,
471,8.083999e-02,1.780000e-03,
472,8.083999e-02,1.780000e-03,
473,8.177999e-02,1.424000e-03,
474,8.083999e-02,-3.560000e-04,
475,8.083999e-02,3.560000e-04,
476,7.990000e-02,1.780000e-03,
477,8.083999e-02,2.492000e-03,
478,7.990000e-02,2.492000e-03,
479,7.990000e-02,1.780000e-03,
480,7.990000e-02,2.136000e-03,
481,7.895999e-02,1.780000e-03,
482,7.801999e-02,7.120000e-04,
483,7.801999e-02,1.424000e-03,
484,7.801999e-02,1.424000e-03,
485,7.708000e-02,7.120000e-04,
486,7.708000e-02,2.492000e-03,
487,7.708000e-02,1.780000e-03,
488,7.613999e-02,1.068000e-03,
489,7.613999e-02,1.424000e-03,
490,7.613999e-02,1.068000e-03,
491,7.520000e-02,3.560000e-04,
492,7.426000e-02,7.120000e-04,
493,7.331999e-02,0.000000e+00,
494,7.331999e-02,2.848000e-03,
495,7.331999e-02,2.136000e-03,
496,7.238000e-02,3.560000e-03,
497,7.238000e-02,4.272000e-03,
498,7.144000e-02,3.560000e-04,
499,7.144000e-02,-3.560000e-04,
500,7.049999e-02,-3.560000e-04,
501,7.049999e-02,-1.068000e-03,
502,6.956000e-02,2.848000e-03,
503,6.956000e-02,2.136000e-03,
504,6.862000e-02,2.136000e-03,
505,6.862000e-02,2.492000e-03,
506,6.674000e-02,1.780000e-03,
507,6.674000e-02,2.136000e-03,
508,6.674000e-02,7.120000e-04,
509,6.580000e-02,1.424000e-03,
510,6.485999e-02,2.492000e-03,
511,6.485999e-02,1.780000e-03,
512,6.392000e-02,1.424000e-03,
513,6.298000e-02,1.780000e-03,
514,6.298000e-02,2.492000e-03,
515,6.298000e-02,1.780000e-03,
516,6.016000e-02,7.120000e-04,
517,6.016000e-02,1.424000e-03,
518,5.922000e-02,3.560000e-04,
519,5.922000e-02,-3.560000e-04,
520,5.734000e-02,1.780000e-03,
521,5.827999e-02,1.424000e-03,
522,5.545999e-02,7.120000e-04,
523,5.545999e-02,0.000000e+00,
524,5.452000e-02,3.560000e-04,
525,5.452000e-02,0.000000e+00,
526,5.358000e-02,1.068000e-03,
527,5.264000e-02,1.780000e-03,
528,5.170000e-02,1.068000e-03,
529,5.170000e-02,3.560000e-04,
530,4.982000e-02,1.780000e-03,
531,4.982000e-02,1.068000e-03,
532,4.794000e-02,1.424000e-03,
533,4.794000e-02,1.780000e-03,
534,4.606000e-02,1.780000e-03,
535,4.606000e-02,1.068000e-03,
536,4.512000e-02,0.000000e+00,
537,4.512000e-02,7.120000e-04,
538,4.324000e-02,1.424000e-03,
539,4.230000e-02,2.136000e-03,
540,4.042000e-02,2.848000e-03,
541,4.136000e-02,2.136000e-03,
542,3.948000e-02,1.068000e-03,
543,3.854000e-02,1.780000e-03,
544,3.854000e-02,1.424000e-03,
545,3.854000e-02,1.068000e-03,
546,3.666000e-02,1.068000e-03,
547,3.572000e-02,1.780000e-03,
548,3.384000e-02,2.136000e-03,
549,3.384000e-02,1.424000e-03,
550,3.196000e-02,2.848000e-03,
551,3.290000e-02,3.560000e-03,
552,3.008000e-02,1.424000e-03,
553,3.008000e-02,1.780000e-03,
554,2.820000e-02,1.424000e-03,
555,2.820000e-02,2.136000e-03,
556,2.632000e-02,1.424000e-03,
557,2.632000e-02,1.780000e-03,
558,2.444000e-02,1.780000e-03,
559,2.444000e-02,1.068000e-03,
560,2.256000e-02,1.780000e-03,
561,2.256000e-02,1.068000e-03,
562,2.068000e-02,2.136000e-03,
563,2.068000e-02,1.424000e-03,
564,1.880000e-02,3.560000e-04,
565,1.880000e-02,0.000000e+00,
566,1.692000e-02,7.120000e-04,
567,1.692000e-02,1.424000e-03,
568,1.504000e-02,3.916000e-03,
569,1.504000e-02,3.204000e-03,
570,1.222000e-02,1.068000e-03,
571,1.222000e-02,1.424000e-03,
572,1.034000e-02,1.068000e-03,
573,1.034000e-02,1.780000e-03,
574,9.400000e-03,3.560000e-04,
575,8.459999e-03,-3.560000e-04,
576,6.580000e-03,1.424000e-03,
577,5.640000e-03,2.136000e-03,
578,3.760000e-03,1.780000e-03,
579,3.760000e-03,1.068000e-03,
580,1.880000e-03,3.560000e-04,
581,2.820000e-03,1.424000e-03,
582,9.399999e-04,-3.560000e-04,
583,9.399999e-04,3.560000e-04,
584,-1.880000e-03,7.120000e-04,
585,-9.399999e-04,1.424000e-03,
586,-3.760000e-03,1.424000e-03,
587,-3.760000e-03,2.136000e-03,
588,-6.580000e-03,3.204000e-03,
589,-6.580000e-03,2.492000e-03,
590,-8.459999e-03,1.424000e-03,
591,-8.459999e-03,1.780000e-03,
592,-9.400000e-03,7.120000e-04,
593,-9.400000e-03,1.424000e-03,
594,-1.222000e-02,3.560000e-04,
595,-1.222000e-02,0.000000e+00,
596,-1.316000e-02,1.424000e-03,
597,-1.410000e-02,2.136000e-03,
598,-1.692000e-02,2.848000e-03,
599,-1.692000e-02,3.204000e-03,
600,-1.880000e-02,3.560000e-04,
601,-1.880000e-02,-3.560000e-04,
602,-1.974000e-02,2.136000e-03,
603,-2.068000e-02,1.780000e-03,
604,-2.256000e-02,1.780000e-03,
605,-2.162000e-02,1.068000e-03,
606,-2.444000e-02,2.136000e-03,
607,-2.444000e-02,2.848000e-03,
608,-2.632000e-02,7.120000e-04,
609,-2.632000e-02,1.424000e-03,
610,-2.820000e-02,7.120000e-04,
611,-2.820000e-02,1.424000e-03,
612,-3.008000e-02,1.424000e-03,
613,-3.008000e-02,7.120000e-04,
614,-3.196000e-02,7.120000e-04,
615,-3.196000e-02,3.560000e-04,
616,-3.384000e-02,2.136000e-03,
617,-3.290000e-02,2.848000e-03,
618,-3.572000e-02,-3.560000e-04,
619,-3.478000e-02,3.560000e-04,
620,-3.760000e-02,0.000000e+00,
621,-3.760000e-02,-7.120000e-04,
622,-3.948000e-02,1.424000e-03,
623,-3.948000e-02,1.780000e-03,
624,-4.042000e-02,1.780000e-03,
625,-4.042000e-02,1.424000e-03,
626,-4.324000e-02,2.492000e-03,
627,-4.324000e-02,3.204000e-03,
628,-4.418000e-02,3.560000e-04,
629,-4.512000e-02,1.068000e-03,
630,-4.606000e-02,3.560000e-04,
631,-4.606000e-02,-3.560000e-04,
632,-4.794000e-02,7.120000e-04,
633,-4.794000e-02,1.424000e-03,
634,-4.982000e-02,2.492000e-03,
