parte2/esp10/Data/d4/f1/4.csv

X,CH1,CH2,Start,Increment,
Sequence,Volt,Volt,2.076000e-04,4.060000e-08,
0,-5.704000e-02,2.760000e-04,
1,-5.704000e-02,0.000000e+00,
2,-5.704000e-02,2.760000e-04,
3,-5.704000e-02,0.000000e+00,
4,-5.520000e-02,8.280000e-04,
5,-5.520000e-02,1.104000e-03,
6,-5.428000e-02,1.104000e-03,
7,-5.336000e-02,8.280000e-04,
8,-5.152000e-02,-2.760000e-04,
9,-5.152000e-02,0.000000e+00,
10,-5.060000e-02,5.520000e-04,
11,-5.060000e-02,8.280000e-04,
12,-4.876000e-02,8.280000e-04,
13,-4.876000e-02,5.520000e-04,
14,-4.692000e-02,1.380000e-03,
15,-4.692000e-02,1.104000e-03,
16,-4.600000e-02,8.280000e-04,
17,-4.692000e-02,5.520000e-04,
18,-4.416000e-02,5.520000e-04,
19,-4.324000e-02,1.104000e-03,
20,-4.232000e-02,5.520000e-04,
21,-4.140000e-02,1.104000e-03,
22,-4.048000e-02,1.380000e-03,
23,-3.956000e-02,1.104000e-03,
24,-3.864000e-02,1.380000e-03,
25,-3.772000e-02,1.380000e-03,
26,-3.680000e-02,1.104000e-03,
27,-3.680000e-02,1.380000e-03,
28,-3.404000e-02,5.520000e-04,
29,-3.496000e-02,5.520000e-04,
30,-3.312000e-02,1.104000e-03,
31,-3.312000e-02,8.280000e-04,
32,-3.128000e-02,1.656000e-03,
33,-3.036000e-02,1.380000e-03,
34,-2.944000e-02,2.760000e-04,
35,-2.852000e-02,5.520000e-04,
36,-2.760000e-02,1.380000e-03,
37,-2.668000e-02,1.104000e-03,
38,-2.484000e-02,8.280000e-04,
39,-2.484000e-02,1.104000e-03,
40,-2.300000e-02,8.280000e-04,
41,-2.208000e-02,5.520000e-04,
42,-2.116000e-02,1.380000e-03,
43,-2.024000e-02,1.380000e-03,
44,-1.932000e-02,0.000000e+00,
45,-1.840000e-02,2.760000e-04,
46,-1.656000e-02,1.104000e-03,
47,-1.656000e-02,1.104000e-03,
48,-1.472000e-02,8.280000e-04,
49,-1.472000e-02,1.104000e-03,
50,-1.196000e-02,1.104000e-03,
51,-1.196000e-02,8.280000e-04,
52,-1.012000e-02,8.280000e-04,
53,-1.104000e-02,8.280000e-04,
54,-8.280001e-03,8.280000e-04,
55,-7.360000e-03,1.104000e-03,
56,-7.360000e-03,2.760000e-04,
57,-6.440000e-03,5.520000e-04,
58,-3.680000e-03,8.280000e-04,
59,-3.680000e-03,1.104000e-03,
60,-1.840000e-03,5.520000e-04,
61,-1.840000e-03,2.760000e-04,
62,0.000000e+00,1.932000e-03,
63,0.000000e+00,1.656000e-03,
64,1.840000e-03,8.280000e-04,
65,2.760000e-03,1.104000e-03,
66,3.680000e-03,1.380000e-03,
67,3.680000e-03,1.104000e-03,
68,6.440000e-03,1.104000e-03,
69,6.440000e-03,1.104000e-03,
70,9.200000e-03,0.000000e+00,
71,8.280001e-03,2.760000e-04,
72,1.104000e-02,1.380000e-03,
73,1.196000e-02,1.656000e-03,
74,1.288000e-02,8.280000e-04,
75,1.288000e-02,1.104000e-03,
76,1.564000e-02,8.280000e-04,
77,1.472000e-02,8.280000e-04,
78,1.656000e-02,1.104000e-03,
79,1.656000e-02,1.380000e-03,
80,1.932000e-02,1.104000e-03,
81,1.840000e-02,1.380000e-03,
82,2.116000e-02,1.104000e-03,
83,2.116000e-02,8.280000e-04,
84,2.392000e-02,1.380000e-03,
85,2.300000e-02,1.656000e-03,
86,2.484000e-02,1.104000e-03,
87,2.484000e-02,8.280000e-04,
88,2.668000e-02,1.104000e-03,
89,2.668000e-02,8.280000e-04,
90,2.944000e-02,1.656000e-03,
91,2.944000e-02,1.104000e-03,
92,3.036000e-02,1.380000e-03,
93,3.128000e-02,8.280000e-04,
94,3.220000e-02,1.380000e-03,
95,3.220000e-02,1.104000e-03,
96,3.496000e-02,1.380000e-03,
97,3.496000e-02,1.104000e-03,
98,3.680000e-02,1.932000e-03,
99,3.588000e-02,1.656000e-03,
100,3.864000e-02,1.104000e-03,
101,3.864000e-02,1.104000e-03,
102,4.048000e-02,8.280000e-04,
103,4.048000e-02,5.520000e-04,
104,4.232000e-02,1.104000e-03,
105,4.232000e-02,8.280000e-04,
106,4.324000e-02,8.280000e-04,
107,4.416000e-02,2.760000e-04,
108,4.508000e-02,5.520000e-04,
109,4.508000e-02,2.760000e-04,
110,4.784000e-02,1.104000e-03,
111,4.784000e-02,1.104000e-03,
112,4.876000e-02,1.104000e-03,
113,4.876000e-02,8.280000e-04,
114,5.060000e-02,1.104000e-03,
115,5.060000e-02,8.280000e-04,
116,5.244000e-02,2.760000e-04,
117,5.244000e-02,5.520000e-04,
118,5.428000e-02,8.280000e-04,
119,5.428000e-02,1.104000e-03,
120,5.612000e-02,5.520000e-04,
121,5.612000e-02,8.280000e-04,
122,5.704000e-02,0.000000e+00,
123,5.796000e-02,2.760000e-04,
124,5.888000e-02,5.520000e-04,
125,5.888000e-02,2.760000e-04,
126,6.072000e-02,1.104000e-03,
127,6.072000e-02,8.280000e-04,
128,6.072000e-02,5.520000e-04,
129,6.164000e-02,8.280000e-04,
130,6.348000e-02,2.760000e-04,
131,6.348000e-02,5.520000e-04,
132,6.440000e-02,5.520000e-04,
133,6.532000e-02,0.000000e+00,
134,6.624001e-02,8.280000e-04,
135,6.624001e-02,1.104000e-03,
136,6.716000e-02,5.520000e-04,
137,6.716000e-02,8.280000e-04,
138,6.808000e-02,8.280000e-04,
139,6.808000e-02,5.520000e-04,
140,6.900000e-02,1.104000e-03,
141,6.900000e-02,1.380000e-03,
142,7.084000e-02,2.760000e-04,
143,7.084000e-02,5.520000e-04,
144,7.176000e-02,8.280000e-04,
145,7.176000e-02,8.280000e-04,
146,7.268000e-02,5.520000e-04,
147,7.268000e-02,2.760000e-04,
148,7.360000e-02,8.280000e-04,
149,7.360000e-02,1.104000e-03,
150,7.452000e-02,2.760000e-04,
151,7.452000e-02,5.520000e-04,
152,7.544000e-02,5.520000e-04,
153,7.544000e-02,8.280000e-04,
154,7.544000e-02,5.520000e-04,
155,7.544000e-02,5.520000e-04,
156,7.728000e-02,1.104000e-03,
157,7.636000e-02,8.280000e-04,
158,7.728000e-02,5.520000e-04,
159,7.820000e-02,8.280000e-04,
160,7.820000e-02,1.380000e-03,
161,7.820000e-02,1.380000e-03,
162,7.912000e-02,2.760000e-04,
163,8.004000e-02,0.000000e+00,
164,8.004000e-02,5.520000e-04,
165,8.004000e-02,8.280000e-04,
166,8.004000e-02,8.280000e-04,
167,8.004000e-02,5.520000e-04,
168,8.096001e-02,2.760000e-04,
169,8.096001e-02,5.520000e-04,
170,8.096001e-02,5.520000e-04,
171,8.096001e-02,8.280000e-04,
172,8.188000e-02,5.520000e-04,
173,8.096001e-02,2.760000e-04,
174,8.188000e-02,8.280000e-04,
175,8.188000e-02,5.520000e-04,
176,8.280000e-02,5.520000e-04,
177,8.280000e-02,2.760000e-04,
178,8.280000e-02,-2.760000e-04,
179,8.280000e-02,2.760000e-04,
180,8.188000e-02,2.760000e-04,
181,8.280000e-02,0.000000e+00,
182,8.280000e-02,2.760000e-04,
183,8.280000e-02,2.760000e-04,
184,8.280000e-02,0.000000e+00,
185,8.280000e-02,0.000000e+00,
186,8.280000e-02,5.520000e-04,
187,8.280000e-02,5.520000e-04,
188,8.280000e-02,2.760000e-04,
189,8.280000e-02,0.000000e+00,
190,8.188000e-02,5.520000e-04,
191,8.188000e-02,8.280000e-04,
192,8.280000e-02,2.760000e-04,
193,8.280000e-02,5.520000e-04,
194,8.280000e-02,2.760000e-04,
195,8.372000e-02,0.000000e+00,
196,8.188000e-02,1.104000e-03,
197,8.188000e-02,8.280000e-04,
198,8.188000e-02,0.000000e+00,
199,8.188000e-02,-2.760000e-04,
200,8.096001e-02,0.000000e+00,
201,8.188000e-02,0.000000e+00,
202,8.096001e-02,8.280000e-04,
203,8.096001e-02,5.520000e-04,
204,8.004000e-02,2.760000e-04,
205,8.004000e-02,0.000000e+00,
206,8.004000e-02,2.760000e-04,
207,8.004000e-02,2.760000e-04,
208,8.004000e-02,5.520000e-04,
209,7.912000e-02,8.280000e-04,
210,7.820000e-02,2.760000e-04,
211,7.912000e-02,5.520000e-04,
212,7.820000e-02,5.520000e-04,
213,7.820000e-02,8.280000e-04,
214,7.820000e-02,0.000000e+00,
215,7.728000e-02,2.760000e-04,
216,7.636000e-02,8.280000e-04,
217,7.636000e-02,5.520000e-04,
218,7.636000e-02,-2.760000e-04,
219,7.544000e-02,0.000000e+00,
220,7.452000e-02,5.520000e-04,
221,7.452000e-02,8.280000e-04,
222,7.360000e-02,2.760000e-04,
223,7.360000e-02,-2.760000e-04,
224,7.360000e-02,2.760000e-04,
225,7.360000e-02,0.000000e+00,
226,7.268000e-02,0.000000e+00,
227,7.176000e-02,0.000000e+00,
228,7.084000e-02,5.520000e-04,
229,7.084000e-02,2.760000e-04,
230,6.992000e-02,-5.520000e-04,
231,6.992000e-02,-8.280000e-04,
232,6.900000e-02,2.760000e-04,
233,6.808000e-02,8.280000e-04,
234,6.716000e-02,-2.760000e-04,
235,6.808000e-02,2.760000e-04,
236,6.716000e-02,5.520000e-04,
237,6.716000e-02,2.760000e-04,
238,6.532000e-02,0.000000e+00,
239,6.532000e-02,0.000000e+00,
240,6.440000e-02,-5.520000e-04,
241,6.440000e-02,-2.760000e-04,
242,6.256000e-02,-2.760000e-04,
243,6.256000e-02,-5.520000e-04,
244,6.164000e-02,-2.760000e-04,
245,6.072000e-02,-2.760000e-04,
246,5.980000e-02,-2.760000e-04,
247,5.980000e-02,-5.520000e-04,
248,5.796000e-02,0.000000e+00,
249,5.796000e-02,2.760000e-04,
250,5.704000e-02,0.000000e+00,
251,5.612000e-02,2.760000e-04,
252,5.520000e-02,-2.760000e-04,
253,5.428000e-02,-5.520000e-04,
254,5.336000e-02,-2.760000e-04,
255,5.428000e-02,2.760000e-04,
256,5.152000e-02,-5.520000e-04,
257,5.152000e-02,-2.760000e-04,
258,5.060000e-02,2.760000e-04,
259,4.968000e-02,0.000000e+00,
260,4.876000e-02,-2.760000e-04,
261,4.876000e-02,-2.760000e-04,
262,4.600000e-02,-2.760000e-04,
263,4.600000e-02,0.000000e+00,
264,4.416000e-02,-2.760000e-04,
265,4.508000e-02,0.000000e+00,
266,4.324000e-02,-2.760000e-04,
267,4.324000e-02,-5.520000e-04,
268,4.140000e-02,5.520000e-04,
269,4.140000e-02,2.760000e-04,
270,3.956000e-02,-2.760000e-04,
271,3.956000e-02,0.000000e+00,
272,3.772000e-02,0.000000e+00,
273,3.772000e-02,2.760000e-04,
274,3.680000e-02,-5.520000e-04,
275,3.680000e-02,-8.280000e-04,
276,3.404000e-02,2.760000e-04,
277,3.404000e-02,0.000000e+00,
278,3.220000e-02,-5.520000e-04,
279,3.220000e-02,-5.520000e-04,
280,3.036000e-02,2.760000e-04,
281,2.944000e-02,0.000000e+00,
282,2.852000e-02,-5.520000e-04,
283,2.760000e-02,-8.280000e-04,
284,2.668000e-02,-2.760000e-04,
285,2.576000e-02,0.000000e+00,
286,2.484000e-02,-8.280000e-04,
287,2.392000e-02,-5.520000e-04,
288,2.208000e-02,5.520000e-04,
289,2.208000e-02,2.760000e-04,
290,2.024000e-02,-2.760000e-04,
291,2.024000e-02,0.000000e+00,
292,1.748000e-02,-5.520000e-04,
293,1.840000e-02,0.000000e+00,
294,1.564000e-02,-5.520000e-04,
295,1.564000e-02,-8.280000e-04,
296,1.472000e-02,2.760000e-04,
297,1.380000e-02,-2.760000e-04,
298,1.196000e-02,-5.520000e-04,
299,1.196000e-02,-8.280000e-04,
300,1.012000e-02,2.760000e-04,
301,1.012000e-02,0.000000e+00,
302,8.280001e-03,-5.520000e-04,
303,7.360000e-03,-8.280000e-04,
304,5.520000e-03,-2.760000e-04,
305,5.520000e-03,0.000000e+00,
306,3.680000e-03,-8.280000e-04,
307,4.600000e-03,-8.280000e-04,
308,1.840000e-03,-2.760000e-04,
309,1.840000e-03,-8.280000e-04,
310,-9.200000e-04,0.000000e+00,
311,-9.200000e-04,-2.760000e-04,
312,-2.760000e-03,-2.760000e-04,
313,-2.760000e-03,2.760000e-04,
314,-4.600000e-03,-5.520000e-04,
315,-5.520000e-03,-8.280000e-04,
316,-6.440000e-03,-5.520000e-04,
317,-6.440000e-03,-5.520000e-04,
318,-8.280001e-03,-5.520000e-04,
319,-8.280001e-03,-2.760000e-04,
320,-1.104000e-02,-2.760000e-04,
321,-1.104000e-02,-2.760000e-04,
322,-1.288000e-02,-5.520000e-04,
323,-1.380000e-02,-2.760000e-04,
324,-1.564000e-02,-2.760000e-04,
325,-1.564000e-02,0.000000e+00,
326,-1.748000e-02,-8.280000e-04,
327,-1.656000e-02,-5.520000e-04,
328,-1.932000e-02,-2.760000e-04,
329,-1.932000e-02,-2.760000e-04,
330,-2.116000e-02,-2.760000e-04,
331,-2.116000e-02,-2.760000e-04,
332,-2.300000e-02,-5.520000e-04,
333,-2.392000e-02,-5.520000e-04,
334,-2.484000e-02,-5.520000e-04,
335,-2.576000e-02,-2.760000e-04,
336,-2.760000e-02,0.000000e+00,
337,-2.760000e-02,-2.760000e-04,
338,-2.944000e-02,-8.280000e-04,
339,-2.944000e-02,-8.280000e-04,
340,-3.128000e-02,-5.520000e-04,
341,-3.128000e-02,-8.280000e-04,
342,-3.312000e-02,-1.104000e-03,
343,-3.312000e-02,-1.380000e-03,
344,-3.496000e-02,2.760000e-04,
345,-3.496000e-02,5.520000e-04,
346,-3.680000e-02,-2.760000e-04,
347,-3.772000e-02,-5.520000e-04,
348,-3.864000e-02,-5.520000e-04,
349,-3.864000e-02,-5.520000e-04,
350,-4.048000e-02,0.000000e+00,
351,-4.048000e-02,-2.760000e-04,
352,-4.324000e-02,0.000000e+00,
353,-4.324000e-02,2.760000e-04,
354,-4.416000e-02,-8.280000e-04,
355,-4.508000e-02,-5.520000e-04,
356,-4.600000e-02,0.000000e+00,
357,-4.600000e-02,-2.760000e-04,
358,-4.784000e-02,-1.104000e-03,
359,-4.784000e-02,-8.280000e-04,
360,-4.968000e-02,0.000000e+00,
361,-4.968000e-02,2.760000e-04,
362,-5.152000e-02,-2.760000e-04,
363,-5.060000e-02,-5.520000e-04,
364,-5.244000e-02,2.760000e-04,
365,-5.244000e-02,0.000000e+00,
366,-5.428000e-02,-2.760000e-04,
367,-5.428000e-02,0.000000e+00,
368,-5.612000e-02,0.000000e+00,
369,-5.612000e-02,-2.760000e-04,
370,-5.704000e-02,-2.760000e-04,
371,-5.796000e-02,0.000000e+00,
372,-5.888000e-02,2.760000e-04,
373,-5.980000e-02,0.000000e+00,
374,-6.072000e-02,-8.280000e-04,
375,-5.980000e-02,-8.280000e-04,
376,-6.164000e-02,0.000000e+00,
377,-6.164000e-02,2.760000e-04,
378,-6.348000e-02,-8.280000e-04,
379,-6.348000e-02,-5.520000e-04,
380,-6.440000e-02,-5.520000e-04,
381,-6.440000e-02,-2.760000e-04,
382,-6.624001e-02,-5.520000e-04,
383,-6.532000e-02,-2.760000e-04,
384,-6.716000e-02,2.760000e-04,
385,-6.716000e-02,0.000000e+00,
386,-6.900000e-02,-2.760000e-04,
387,-6.808000e-02,0.000000e+00,
388,-6.900000e-02,0.000000e+00,
389,-6.992000e-02,-2.760000e-04,
390,-6.992000e-02,-8.280000e-04,
391,-7.084000e-02,-5.520000e-04,
392,-7.176000e-02,0.000000e+00,
393,-7.176000e-02,2.760000e-04,
394,-7.176000e-02,-1.104000e-03,
395,-7.268000e-02,-5.520000e-04,
396,-7.360000e-02,0.000000e+00,
397,-7.360000e-02,-2.760000e-04,
398,-7.452000e-02,-2.760000e-04,
399,-7.360000e-02,-5.520000e-04,
400,-7.544000e-02,-5.520000e-04,
401,-7.544000e-02,-8.280000e-04,
402,-7.544000e-02,-2.760000e-04,
403,-7.544000e-02,0.000000e+00,
404,-7.636000e-02,0.000000e+00,
405,-7.636000e-02,-2.760000e-04,
406,-7.728000e-02,0.000000e+00,
407,-7.820000e-02,0.000000e+00,
408,-7.728000e-02,-5.520000e-04,
409,-7.820000e-02,-5.520000e-04,
410,-7.820000e-02,-5.520000e-04,
411,-7.728000e-02,-5.520000e-04,
412,-7.912000e-02,2.760000e-04,
413,-7.912000e-02,0.000000e+00,
414,-8.004000e-02,-8.280000e-04,
415,-8.004000e-02,-5.520000e-04,
416,-8.004000e-02,-2.760000e-04,
417,-8.004000e-02,-5.520000e-04,
418,-8.004000e-02,0.000000e+00,
419,-8.096001e-02,-2.760000e-04,
420,-8.096001e-02,5.520000e-04,
421,-8.188000e-02,2.760000e-04,
422,-8.096001e-02,-2.760000e-04,
423,-8.096001e-02,-2.760000e-04,
424,-8.188000e-02,5.520000e-04,
425,-8.096001e-02,5.520000e-04,
426,-8.188000e-02,0.000000e+00,
427,-8.188000e-02,2.760000e-04,
428,-8.188000e-02,0.000000e+00,
429,-8.096001e-02,2.760000e-04,
430,-8.188000e-02,0.000000e+00,
431,-8.280000e-02,-2.760000e-04,
432,-8.188000e-02,0.000000e+00,
433,-8.188000e-02,-2.760000e-04,
434,-8.188000e-02,-5.520000e-04,
435,-8.188000e-02,-2.760000e-04,
436,-8.280000e-02,2.760000e-04,
437,-8.188000e-02,5.520000e-04,
438,-8.188000e-02,8.280000e-04,
439,-8.188000e-02,5.520000e-04,
440,-8.188000e-02,5.520000e-04,
441,-8.188000e-02,2.760000e-04,
442,-8.096001e-02,2.760000e-04,
443,-8.096001e-02,0.000000e+00,
444,-8.096001e-02,8.280000e-04,
445,-8.096001e-02,5.520000e-04,
446,-8.096001e-02,0.000000e+00,
447,-8.096001e-02,2.760000e-04,
448,-8.004000e-02,0.000000e+00,
449,-8.004000e-02,-2.760000e-04,
450,-8.004000e-02,-2.760000e-04,
451,-8.004000e-02,0.000000e+00,
452,-7.912000e-02,5.520000e-04,
453,-7.912000e-02,2.760000e-04,
454,-7.912000e-02,0.000000e+00,
455,-7.912000e-02,0.000000e+00,
456,-7.820000e-02,2.760000e-04,
457,-7.820000e-02,5.520000e-04,
458,-7.728000e-02,0.000000e+00,
459,-7.728000e-02,-2.760000e-04,
460,-7.636000e-02,8.280000e-04,
461,-7.636000e-02,5.520000e-04,
462,-7.544000e-02,0.000000e+00,
463,-7.544000e-02,2.760000e-04,
464,-7.544000e-02,0.000000e+00,
465,-7.544000e-02,-5.520000e-04,
466,-7.452000e-02,-2.760000e-04,
467,-7.452000e-02,0.000000e+00,
468,-7.360000e-02,0.000000e+00,
469,-7.360000e-02,0.000000e+00,
470,-7.176000e-02,-2.760000e-04,
471,-7.176000e-02,0.000000e+00,
472,-7.176000e-02,5.520000e-04,
473,-7.176000e-02,5.520000e-04,
474,-6.992000e-02,2.760000e-04,
475,-6.992000e-02,5.520000e-04,
476,-6.900000e-02,0.000000e+00,
477,-6.900000e-02,0.000000e+00,
478,-6.808000e-02,2.760000e-04,
479,-6.808000e-02,5.520000e-04,
480,-6.716000e-02,-2.760000e-04,
481,-6.716000e-02,-5.520000e-04,
482,-6.532000e-02,2.760000e-04,
483,-6.532000e-02,5.520000e-04,
484,-6.440000e-02,2.760000e-04,
485,-6.440000e-02,0.000000e+00,
486,-6.348000e-02,5.520000e-04,
487,-6.256000e-02,5.520000e-04,
488,-6.164000e-02,5.520000e-04,
489,-6.164000e-02,2.760000e-04,
490,-6.072000e-02,5.520000e-04,
491,-5.980000e-02,2.760000e-04,
492,-5.888000e-02,8.280000e-04,
493,-5.888000e-02,8.280000e-04,
494,-5.796000e-02,5.520000e-04,
495,-5.704000e-02,8.280000e-04,
496,-5.612000e-02,2.760000e-04,
497,-5.612000e-02,-2.760000e-04,
498,-5.428000e-02,8.280000e-04,
499,-5.428000e-02,1.104000e-03,
500,-5.244000e-02,1.104000e-03,
501,-5.244000e-02,8.280000e-04,
502,-5.060000e-02,2.760000e-04,
503,-5.152000e-02,5.520000e-04,
504,-4.876000e-02,8.280000e-04,
505,-4.876000e-02,1.104000e-03,
506,-4.784000e-02,8.280000e-04,
507,-4.692000e-02,5.520000e-04,
508,-4.600000e-02,2.760000e-04,
509,-4.600000e-02,5.520000e-04,
510,-4.416000e-02,1.104000e-03,
511,-4.416000e-02,8.280000e-04,
512,-4.232000e-02,5.520000e-04,
513,-4.232000e-02,2.760000e-04,
514,-4.048000e-02,1.104000e-03,
515,-4.048000e-02,1.380000e-03,
516,-3.864000e-02,8.280000e-04,
517,-3.864000e-02,5.520000e-04,
518,-3.680000e-02,5.520000e-04,
519,-3.680000e-02,8.280000e-04,
520,-3.404000e-02,8.280000e-04,
521,-3.404000e-02,1.104000e-03,
522,-3.312000e-02,2.760000e-04,
523,-3.312000e-02,0.000000e+00,
524,-3.036000e-02,8.280000e-04,
525,-3.036000e-02,8.280000e-04,
526,-2.944000e-02,8.280000e-04,
527,-2.944000e-02,5.520000e-04,
528,-2.760000e-02,2.760000e-04,
529,-2.760000e-02,2.760000e-04,
530,-2.484000e-02,8.280000e-04,
531,-2.484000e-02,1.104000e-03,
532,-2.300000e-02,8.280000e-04,
533,-2.300000e-02,5.520000e-04,
534,-2.116000e-02,5.520000e-04,
535,-2.208000e-02,8.280000e-04,
536,-1.932000e-02,8.280000e-04,
537,-1.932000e-02,5.520000e-04,
538,-1.656000e-02,5.520000e-04,
539,-1.656000e-02,5.520000e-04,
540,-1.564000e-02,5.520000e-04,
541,-1.564000e-02,8.280000e-04,
542,-1.288000e-02,5.520000e-04,
543,-1.380000e-02,8.280000e-04,
544,-1.104000e-02,2.760000e-04,
545,-1.012000e-02,8.280000e-04,
546,-8.280001e-03,1.380000e-03,
547,-9.200000e-03,1.932000e-03,
548,-7.360000e-03,8.280000e-04,
549,-6.440000e-03,5.520000e-04,
550,-4.600000e-03,8.280000e-04,
551,-4.600000e-03,1.104000e-03,
552,-2.760000e-03,8.280000e-04,
553,-2.760000e-03,5.520000e-04,
554,0.000000e+00,1.104000e-03,
555,9.200000e-04,8.280000e-04,
556,9.200000e-04,0.000000e+00,
557,9.200000e-04,0.000000e+00,
558,4.600000e-03,1.104000e-03,
559,3.680000e-03,1.104000e-03,
560,5.520000e-03,1.104000e-03,
561,5.520000e-03,8.280000e-04,
562,8.280001e-03,1.380000e-03,
563,7.360000e-03,1.656000e-03,
564,1.012000e-02,1.104000e-03,
565,1.012000e-02,5.520000e-04,
566,1.196000e-02,1.380000e-03,
567,1.288000e-02,1.656000e-03,
568,1.472000e-02,1.380000e-03,
569,1.380000e-02,1.104000e-03,
570,1.656000e-02,5.520000e-04,
571,1.656000e-02,5.520000e-04,
572,1.840000e-02,8.280000e-04,
573,1.840000e-02,5.520000e-04,
574,2.024000e-02,1.104000e-03,
575,2.024000e-02,1.380000e-03,
576,2.208000e-02,1.104000e-03,
577,2.208000e-02,1.380000e-03,
578,2.392000e-02,1.380000e-03,
579,2.484000e-02,1.656000e-03,
580,2.668000e-02,5.520000e-04,
581,2.668000e-02,8.280000e-04,
582,2.852000e-02,1.104000e-03,
583,2.852000e-02,1.380000e-03,
584,3.036000e-02,1.380000e-03,
585,3.036000e-02,8.280000e-04,
586,3.220000e-02,1.104000e-03,
587,3.220000e-02,8.280000e-04,
588,3.404000e-02,2.760000e-04,
589,3.404000e-02,5.520000e-04,
590,3.588000e-02,1.104000e-03,
591,3.588000e-02,1.104000e-03,
592,3.772000e-02,1.104000e-03,
593,3.772000e-02,8.280000e-04,
594,3.864000e-02,1.104000e-03,
595,3.864000e-02,1.380000e-03,
596,4.232000e-02,2.760000e-04,
597,4.232000e-02,0.000000e+00,
598,4.416000e-02,1.380000e-03,
599,4.324000e-02,1.380000e-03,
600,4.508000e-02,8.280000e-04,
601,4.508000e-02,1.104000e-03,
602,4.692000e-02,8.280000e-04,
603,4.692000e-02,1.104000e-03,
604,4.876000e-02,2.760000e-04,
605,4.876000e-02,5.520000e-04,
606,5.060000e-02,8.280000e-04,
607,4.968000e-02,1.104000e-03,
608,5.152000e-02,8.280000e-04,
609,5.244000e-02,1.104000e-03,
610,5.336000e-02,1.104000e-03,
611,5.336000e-02,1.380000e-03,
612,5.520000e-02,2.760000e-04,
613,5.520000e-02,5.520000e-04,
614,5.704000e-02,1.104000e-03,
615,5.704000e-02,8.280000e-04,
616,5.796000e-02,8.280000e-04,
617,5.796000e-02,5.520000e-04,
618,5.980000e-02,8.280000e-04,
619,5.980000e-02,1.104000e-03,
620,6.072000e-02,2.760000e-04,
621,6.072000e-02,2.760000e-04,
622,6.256000e-02,1.104000e-03,
623,6.256000e-02,8.280000e-04,
624,6.440000e-02,5.520000e-04,
625,6.348000e-02,5.520000e-04,
626,6.440000e-02,1.104000e-03,
627,6.532000e-02,1.380000e-03,
628,6.716000e-02,2.760000e-04,
629,6.624001e-02,0.000000e+00,
630,6.808000e-02,1.104000e-03,
