parte2/esp9/Con_sorgente/Data_common_mode/3/4.csv

X,CH1,CH2,Start,Increment,
Sequence,Volt,Volt,-3.500000e-03,5.000000e-06,
0,-6.960000e-01,-9.999999e-04,
1,-7.040001e-01,-8.000000e-04,
2,-6.960000e-01,-9.999999e-04,
3,-7.040001e-01,-8.000000e-04,
4,-7.040001e-01,-8.000000e-04,
5,-7.120000e-01,-6.000000e-04,
6,-7.120000e-01,-8.000000e-04,
7,-7.200000e-01,-6.000000e-04,
8,-7.200000e-01,-6.000000e-04,
9,-7.280000e-01,-9.999999e-04,
10,-7.280000e-01,-6.000000e-04,
11,-7.280000e-01,-9.999999e-04,
12,-7.360001e-01,-6.000000e-04,
13,-7.360001e-01,-9.999999e-04,
14,-7.440000e-01,-6.000000e-04,
15,-7.360001e-01,-2.000000e-04,
16,-7.440000e-01,-2.000000e-04,
17,-7.440000e-01,-6.000000e-04,
18,-7.520000e-01,-9.999999e-04,
19,-7.440000e-01,-1.200000e-03,
20,-7.520000e-01,-8.000000e-04,
21,-7.520000e-01,-6.000000e-04,
22,-7.520000e-01,-9.999999e-04,
23,-7.520000e-01,-1.200000e-03,
24,-7.520000e-01,-8.000000e-04,
25,-7.600001e-01,-4.000000e-04,
26,-7.600001e-01,-4.000000e-04,
27,-7.520000e-01,-6.000000e-04,
28,-7.600001e-01,2.000000e-04,
29,-7.520000e-01,-4.000000e-04,
30,-7.520000e-01,-6.000000e-04,
31,-7.520000e-01,-4.000000e-04,
32,-7.520000e-01,-2.000000e-04,
33,-7.520000e-01,2.000000e-04,
34,-7.440000e-01,-8.000000e-04,
35,-7.520000e-01,-1.200000e-03,
36,-7.440000e-01,-4.000000e-04,
37,-7.440000e-01,-6.000000e-04,
38,-7.440000e-01,-2.000000e-04,
39,-7.440000e-01,2.000000e-04,
40,-7.360001e-01,-8.000000e-04,
41,-7.360001e-01,-6.000000e-04,
42,-7.280000e-01,-2.000000e-04,
43,-7.280000e-01,2.000000e-04,
44,-7.280000e-01,-8.000000e-04,
45,-7.200000e-01,-9.999999e-04,
46,-7.200000e-01,-4.000000e-04,
47,-7.120000e-01,-2.000000e-04,
48,-7.120000e-01,-2.000000e-04,
49,-7.040001e-01,-4.000000e-04,
50,-6.960000e-01,-2.000000e-04,
51,-6.960000e-01,-6.000000e-04,
52,-6.880000e-01,-4.000000e-04,
53,-6.880000e-01,-8.000000e-04,
54,-6.800000e-01,-4.000000e-04,
55,-6.720001e-01,-2.000000e-04,
56,-6.640000e-01,-8.000000e-04,
57,-6.640000e-01,-1.200000e-03,
58,-6.560000e-01,-2.000000e-04,
59,-6.560000e-01,-4.000000e-04,
60,-6.400000e-01,-2.000000e-04,
61,-6.400000e-01,-6.000000e-04,
62,-6.320000e-01,-2.000000e-04,
63,-6.240000e-01,-6.000000e-04,
64,-6.160001e-01,-4.000000e-04,
65,-6.160001e-01,-2.000000e-04,
66,-6.000000e-01,-2.000000e-04,
67,-6.000000e-01,2.000000e-04,
68,-5.840001e-01,-8.000000e-04,
69,-5.840001e-01,-4.000000e-04,
70,-5.680000e-01,-4.000000e-04,
71,-5.680000e-01,-8.000000e-04,
72,-5.520000e-01,-4.000000e-04,
73,-5.520000e-01,-2.000000e-04,
74,-5.360000e-01,2.000000e-04,
75,-5.280000e-01,0.000000e+00,
76,-5.200000e-01,-2.000000e-04,
77,-5.120000e-01,2.000000e-04,
78,-5.040000e-01,-6.000000e-04,
79,-4.960000e-01,-4.000000e-04,
80,-4.800000e-01,-4.000000e-04,
81,-4.800000e-01,-6.000000e-04,
82,-4.560000e-01,-1.200000e-03,
83,-4.560000e-01,-8.000000e-04,
84,-4.400000e-01,-8.000000e-04,
85,-4.320000e-01,-6.000000e-04,
86,-4.160000e-01,-2.000000e-04,
87,-4.160000e-01,2.000000e-04,
88,-4.000000e-01,-8.000000e-04,
89,-3.920000e-01,-4.000000e-04,
90,-3.760000e-01,-8.000000e-04,
91,-3.760000e-01,-4.000000e-04,
92,-3.520000e-01,2.000000e-04,
93,-3.520000e-01,0.000000e+00,
94,-3.360000e-01,2.000000e-04,
95,-3.280000e-01,0.000000e+00,
96,-3.120000e-01,-4.000000e-04,
97,-3.040000e-01,-2.000000e-04,
98,-2.880000e-01,2.000000e-04,
99,-2.800000e-01,6.000000e-04,
100,-2.640000e-01,2.000000e-04,
101,-2.560000e-01,-2.000000e-04,
102,-2.400000e-01,2.000000e-04,
103,-2.400000e-01,6.000000e-04,
104,-2.160000e-01,2.000000e-04,
105,-2.160000e-01,0.000000e+00,
106,-1.920000e-01,-6.000000e-04,
107,-1.920000e-01,-4.000000e-04,
108,-1.680000e-01,0.000000e+00,
109,-1.680000e-01,-4.000000e-04,
110,-1.440000e-01,0.000000e+00,
111,-1.440000e-01,2.000000e-04,
112,-1.200000e-01,-4.000000e-04,
113,-1.200000e-01,0.000000e+00,
114,-9.600001e-02,-4.000000e-04,
115,-9.600001e-02,-2.000000e-04,
116,-7.200000e-02,0.000000e+00,
117,-6.400000e-02,-4.000000e-04,
118,-4.800000e-02,0.000000e+00,
119,-4.000000e-02,-2.000000e-04,
120,-2.400000e-02,0.000000e+00,
121,-1.600000e-02,-2.000000e-04,
122,8.000000e-03,-4.000000e-04,
123,8.000000e-03,-2.000000e-04,
124,3.200000e-02,2.000000e-04,
125,3.200000e-02,-4.000000e-04,
126,5.600000e-02,0.000000e+00,
127,5.600000e-02,2.000000e-04,
128,8.000001e-02,8.000000e-04,
129,8.000001e-02,4.000000e-04,
130,1.040000e-01,2.000000e-04,
131,1.040000e-01,6.000000e-04,
132,1.280000e-01,0.000000e+00,
133,1.360000e-01,2.000000e-04,
134,1.520000e-01,-4.000000e-04,
135,1.600000e-01,-2.000000e-04,
136,1.760000e-01,0.000000e+00,
137,1.840000e-01,-2.000000e-04,
138,2.000000e-01,4.000000e-04,
139,2.080000e-01,2.000000e-04,
140,2.240000e-01,2.000000e-04,
141,2.320000e-01,-2.000000e-04,
142,2.480000e-01,6.000000e-04,
143,2.480000e-01,2.000000e-04,
144,2.720000e-01,2.000000e-04,
145,2.720000e-01,-2.000000e-04,
146,2.880000e-01,4.000000e-04,
147,2.960000e-01,6.000000e-04,
148,3.200000e-01,4.000000e-04,
149,3.200000e-01,0.000000e+00,
150,3.360000e-01,9.999999e-04,
151,3.440000e-01,1.400000e-03,
152,3.600000e-01,4.000000e-04,
153,3.680000e-01,2.000000e-04,
154,3.840000e-01,0.000000e+00,
155,3.760000e-01,4.000000e-04,
156,4.080000e-01,8.000000e-04,
157,4.000000e-01,6.000000e-04,
158,4.240000e-01,4.000000e-04,
159,4.240000e-01,8.000000e-04,
160,4.480000e-01,6.000000e-04,
161,4.480000e-01,8.000000e-04,
162,4.640000e-01,8.000000e-04,
163,4.640000e-01,4.000000e-04,
164,4.800000e-01,8.000000e-04,
165,4.880000e-01,6.000000e-04,
166,5.040000e-01,8.000000e-04,
167,5.120000e-01,1.200000e-03,
168,5.200000e-01,0.000000e+00,
169,5.280000e-01,2.000000e-04,
170,5.440000e-01,6.000000e-04,
171,5.360000e-01,2.000000e-04,
172,5.600000e-01,8.000000e-04,
173,5.600000e-01,4.000000e-04,
174,5.760000e-01,6.000000e-04,
175,5.760000e-01,9.999999e-04,
176,5.920000e-01,6.000000e-04,
177,5.920000e-01,8.000000e-04,
178,6.080000e-01,0.000000e+00,
179,6.000000e-01,-2.000000e-04,
180,6.240000e-01,8.000000e-04,
181,6.240000e-01,1.200000e-03,
182,6.320000e-01,8.000000e-04,
183,6.400000e-01,9.999999e-04,
184,6.400000e-01,1.400000e-03,
185,6.480000e-01,9.999999e-04,
186,6.640000e-01,9.999999e-04,
187,6.640000e-01,1.200000e-03,
188,6.720001e-01,1.200000e-03,
189,6.720001e-01,8.000000e-04,
190,6.880000e-01,9.999999e-04,
191,6.880000e-01,1.400000e-03,
192,6.960000e-01,8.000000e-04,
193,6.960000e-01,4.000000e-04,
194,7.040001e-01,6.000000e-04,
195,7.040001e-01,9.999999e-04,
196,7.120000e-01,6.000000e-04,
197,7.200000e-01,8.000000e-04,
198,7.200000e-01,8.000000e-04,
199,7.280000e-01,1.200000e-03,
200,7.360001e-01,2.000000e-04,
201,7.280000e-01,6.000000e-04,
202,7.360001e-01,1.200000e-03,
203,7.360001e-01,8.000000e-04,
204,7.440000e-01,2.000000e-04,
205,7.440000e-01,4.000000e-04,
206,7.520000e-01,4.000000e-04,
207,7.440000e-01,8.000000e-04,
208,7.520000e-01,9.999999e-04,
209,7.520000e-01,6.000000e-04,
210,7.600001e-01,9.999999e-04,
211,7.520000e-01,1.200000e-03,
212,7.600001e-01,1.400000e-03,
213,7.520000e-01,1.200000e-03,
214,7.600001e-01,9.999999e-04,
215,7.600001e-01,1.200000e-03,
216,7.680001e-01,9.999999e-04,
217,7.600001e-01,6.000000e-04,
218,7.600001e-01,9.999999e-04,
219,7.680001e-01,1.400000e-03,
220,7.600001e-01,8.000000e-04,
221,7.680001e-01,1.200000e-03,
222,7.600001e-01,8.000000e-04,
223,7.680001e-01,6.000000e-04,
224,7.600001e-01,8.000000e-04,
225,7.600001e-01,9.999999e-04,
226,7.600001e-01,0.000000e+00,
227,7.520000e-01,2.000000e-04,
228,7.520000e-01,6.000000e-04,
229,7.520000e-01,8.000000e-04,
230,7.520000e-01,6.000000e-04,
231,7.520000e-01,2.000000e-04,
232,7.440000e-01,9.999999e-04,
233,7.440000e-01,8.000000e-04,
234,7.440000e-01,8.000000e-04,
235,7.360001e-01,9.999999e-04,
236,7.360001e-01,6.000000e-04,
237,7.360001e-01,8.000000e-04,
238,7.280000e-01,4.000000e-04,
239,7.200000e-01,0.000000e+00,
240,7.200000e-01,0.000000e+00,
241,7.200000e-01,2.000000e-04,
242,7.120000e-01,1.200000e-03,
243,7.040001e-01,1.400000e-03,
244,6.960000e-01,4.000000e-04,
245,7.040001e-01,0.000000e+00,
246,6.880000e-01,6.000000e-04,
247,6.880000e-01,8.000000e-04,
248,6.800000e-01,2.000000e-04,
249,6.720001e-01,6.000000e-04,
250,6.640000e-01,9.999999e-04,
251,6.640000e-01,6.000000e-04,
252,6.560000e-01,6.000000e-04,
253,6.480000e-01,9.999999e-04,
254,6.400000e-01,4.000000e-04,
255,6.400000e-01,0.000000e+00,
256,6.320000e-01,9.999999e-04,
257,6.240000e-01,6.000000e-04,
258,6.160001e-01,4.000000e-04,
259,6.080000e-01,8.000000e-04,
260,6.000000e-01,4.000000e-04,
261,5.920000e-01,0.000000e+00,
262,5.840001e-01,2.000000e-04,
263,5.760000e-01,6.000000e-04,
264,5.680000e-01,8.000000e-04,
265,5.600000e-01,9.999999e-04,
266,5.440000e-01,6.000000e-04,
267,5.440000e-01,8.000000e-04,
268,5.280000e-01,0.000000e+00,
269,5.280000e-01,2.000000e-04,
270,5.120000e-01,2.000000e-04,
271,5.040000e-01,0.000000e+00,
272,4.960000e-01,6.000000e-04,
273,4.880000e-01,2.000000e-04,
274,4.720000e-01,4.000000e-04,
275,4.720000e-01,6.000000e-04,
276,4.560000e-01,-2.000000e-04,
277,4.480000e-01,0.000000e+00,
278,4.320000e-01,-2.000000e-04,
279,4.240000e-01,-6.000000e-04,
280,4.160000e-01,0.000000e+00,
281,4.080000e-01,-2.000000e-04,
282,3.920000e-01,-6.000000e-04,
283,3.920000e-01,-2.000000e-04,
284,3.680000e-01,4.000000e-04,
285,3.680000e-01,6.000000e-04,
286,3.440000e-01,8.000000e-04,
287,3.440000e-01,4.000000e-04,
288,3.280000e-01,-2.000000e-04,
289,3.200000e-01,0.000000e+00,
290,3.040000e-01,-4.000000e-04,
291,3.040000e-01,0.000000e+00,
292,2.800000e-01,-2.000000e-04,
293,2.800000e-01,-6.000000e-04,
294,2.560000e-01,0.000000e+00,
295,2.560000e-01,-2.000000e-04,
296,2.320000e-01,4.000000e-04,
297,2.320000e-01,0.000000e+00,
298,2.080000e-01,-2.000000e-04,
299,2.080000e-01,0.000000e+00,
300,1.840000e-01,2.000000e-04,
301,1.840000e-01,4.000000e-04,
302,1.600000e-01,-4.000000e-04,
303,1.600000e-01,0.000000e+00,
304,1.360000e-01,-4.000000e-04,
305,1.360000e-01,0.000000e+00,
306,1.120000e-01,-2.000000e-04,
307,1.120000e-01,-6.000000e-04,
308,8.800001e-02,-6.000000e-04,
309,8.800001e-02,-2.000000e-04,
310,6.400000e-02,2.000000e-04,
311,6.400000e-02,4.000000e-04,
312,4.000000e-02,0.000000e+00,
313,4.000000e-02,-2.000000e-04,
314,1.600000e-02,-8.000000e-04,
315,8.000000e-03,-4.000000e-04,
316,-8.000000e-03,-4.000000e-04,
317,-1.600000e-02,0.000000e+00,
318,-3.200000e-02,-4.000000e-04,
319,-4.000000e-02,0.000000e+00,
320,-6.400000e-02,-6.000000e-04,
321,-6.400000e-02,-2.000000e-04,
322,-8.800001e-02,0.000000e+00,
323,-8.800001e-02,4.000000e-04,
324,-1.120000e-01,0.000000e+00,
325,-1.120000e-01,2.000000e-04,
326,-1.360000e-01,-4.000000e-04,
327,-1.360000e-01,-2.000000e-04,
328,-1.600000e-01,-2.000000e-04,
329,-1.600000e-01,2.000000e-04,
330,-1.840000e-01,2.000000e-04,
331,-1.840000e-01,4.000000e-04,
332,-2.080000e-01,-2.000000e-04,
333,-2.080000e-01,-4.000000e-04,
334,-2.320000e-01,-4.000000e-04,
335,-2.320000e-01,0.000000e+00,
336,-2.560000e-01,-6.000000e-04,
337,-2.560000e-01,-8.000000e-04,
338,-2.800000e-01,-8.000000e-04,
339,-2.800000e-01,-4.000000e-04,
340,-3.040000e-01,-6.000000e-04,
341,-3.040000e-01,-8.000000e-04,
342,-3.200000e-01,2.000000e-04,
343,-3.280000e-01,0.000000e+00,
344,-3.440000e-01,-9.999999e-04,
345,-3.520000e-01,-8.000000e-04,
346,-3.680000e-01,2.000000e-04,
347,-3.680000e-01,0.000000e+00,
348,-3.920000e-01,-4.000000e-04,
349,-3.920000e-01,-2.000000e-04,
350,-4.080000e-01,-2.000000e-04,
351,-4.160000e-01,2.000000e-04,
352,-4.320000e-01,-9.999999e-04,
353,-4.320000e-01,-6.000000e-04,
354,-4.480000e-01,-9.999999e-04,
355,-4.560000e-01,-6.000000e-04,
356,-4.720000e-01,-8.000000e-04,
357,-4.720000e-01,-9.999999e-04,
358,-4.880000e-01,-4.000000e-04,
359,-4.960000e-01,0.000000e+00,
360,-5.120000e-01,-4.000000e-04,
361,-5.120000e-01,-8.000000e-04,
362,-5.280000e-01,-9.999999e-04,
363,-5.280000e-01,-8.000000e-04,
364,-5.440000e-01,-4.000000e-04,
365,-5.440000e-01,-6.000000e-04,
366,-5.600000e-01,-9.999999e-04,
367,-5.680000e-01,-6.000000e-04,
368,-5.760000e-01,-6.000000e-04,
369,-5.840001e-01,-9.999999e-04,
370,-5.920000e-01,-1.200000e-03,
371,-6.000000e-01,-9.999999e-04,
372,-6.080000e-01,-9.999999e-04,
373,-6.080000e-01,-6.000000e-04,
374,-6.240000e-01,-1.200000e-03,
375,-6.240000e-01,-8.000000e-04,
376,-6.400000e-01,-9.999999e-04,
377,-6.400000e-01,-1.400000e-03,
378,-6.480000e-01,2.000000e-04,
379,-6.560000e-01,0.000000e+00,
380,-6.640000e-01,-1.800000e-03,
381,-6.640000e-01,-1.400000e-03,
382,-6.720001e-01,-8.000000e-04,
383,-6.720001e-01,-4.000000e-04,
384,-6.880000e-01,-1.200000e-03,
385,-6.880000e-01,-9.999999e-04,
386,-6.960000e-01,-9.999999e-04,
387,-6.960000e-01,-1.200000e-03,
388,-7.040001e-01,-4.000000e-04,
389,-7.040001e-01,0.000000e+00,
390,-7.120000e-01,-4.000000e-04,
391,-7.120000e-01,-8.000000e-04,
392,-7.200000e-01,-8.000000e-04,
393,-7.200000e-01,-6.000000e-04,
394,-7.280000e-01,-9.999999e-04,
395,-7.360001e-01,-1.200000e-03,
396,-7.360001e-01,-6.000000e-04,
397,-7.360001e-01,-4.000000e-04,
398,-7.360001e-01,-9.999999e-04,
399,-7.440000e-01,-6.000000e-04,
400,-7.440000e-01,-4.000000e-04,
401,-7.440000e-01,0.000000e+00,
402,-7.520000e-01,-9.999999e-04,
403,-7.440000e-01,-6.000000e-04,
404,-7.520000e-01,-6.000000e-04,
405,-7.520000e-01,-4.000000e-04,
406,-7.520000e-01,-1.200000e-03,
407,-7.520000e-01,-8.000000e-04,
408,-7.600001e-01,-6.000000e-04,
409,-7.520000e-01,-2.000000e-04,
410,-7.520000e-01,-1.200000e-03,
411,-7.600001e-01,-9.999999e-04,
412,-7.600001e-01,-8.000000e-04,
413,-7.520000e-01,-6.000000e-04,
414,-7.520000e-01,0.000000e+00,
415,-7.520000e-01,-2.000000e-04,
416,-7.520000e-01,-1.200000e-03,
417,-7.520000e-01,-8.000000e-04,
418,-7.520000e-01,4.000000e-04,
419,-7.440000e-01,2.000000e-04,
420,-7.440000e-01,-6.000000e-04,
421,-7.440000e-01,-4.000000e-04,
422,-7.440000e-01,-1.400000e-03,
423,-7.440000e-01,-9.999999e-04,
424,-7.360001e-01,-6.000000e-04,
425,-7.360001e-01,-9.999999e-04,
426,-7.280000e-01,-8.000000e-04,
427,-7.280000e-01,-6.000000e-04,
428,-7.280000e-01,0.000000e+00,
429,-7.280000e-01,-2.000000e-04,
430,-7.200000e-01,-9.999999e-04,
431,-7.120000e-01,-1.400000e-03,
432,-7.120000e-01,-9.999999e-04,
433,-7.120000e-01,-1.200000e-03,
434,-6.960000e-01,-8.000000e-04,
435,-7.040001e-01,-6.000000e-04,
436,-6.960000e-01,-4.000000e-04,
437,-6.880000e-01,-6.000000e-04,
438,-6.800000e-01,-1.400000e-03,
439,-6.800000e-01,-1.200000e-03,
440,-6.720001e-01,-1.200000e-03,
441,-6.720001e-01,-8.000000e-04,
442,-6.560000e-01,-2.000000e-04,
443,-6.560000e-01,-6.000000e-04,
444,-6.480000e-01,-9.999999e-04,
445,-6.400000e-01,-8.000000e-04,
446,-6.320000e-01,0.000000e+00,
447,-6.320000e-01,-4.000000e-04,
448,-6.240000e-01,-2.000000e-04,
449,-6.160001e-01,-4.000000e-04,
450,-6.080000e-01,-2.000000e-04,
451,-6.000000e-01,-4.000000e-04,
452,-5.920000e-01,-9.999999e-04,
453,-5.840001e-01,-6.000000e-04,
454,-5.760000e-01,-6.000000e-04,
455,-5.680000e-01,-2.000000e-04,
456,-5.600000e-01,-4.000000e-04,
457,-5.520000e-01,0.000000e+00,
458,-5.360000e-01,2.000000e-04,
459,-5.360000e-01,0.000000e+00,
460,-5.280000e-01,-2.000000e-04,
461,-5.200000e-01,0.000000e+00,
462,-5.040000e-01,2.000000e-04,
463,-5.040000e-01,0.000000e+00,
464,-4.880000e-01,6.000000e-04,
465,-4.800000e-01,2.000000e-04,
466,-4.640000e-01,-4.000000e-04,
467,-4.640000e-01,-8.000000e-04,
468,-4.400000e-01,0.000000e+00,
469,-4.400000e-01,4.000000e-04,
470,-4.240000e-01,-2.000000e-04,
471,-4.240000e-01,-6.000000e-04,
472,-4.000000e-01,-8.000000e-04,
473,-4.000000e-01,-6.000000e-04,
474,-3.840000e-01,-2.000000e-04,
475,-3.840000e-01,-4.000000e-04,
476,-3.600000e-01,-8.000000e-04,
477,-3.600000e-01,-4.000000e-04,
478,-3.360000e-01,-4.000000e-04,
479,-3.360000e-01,-6.000000e-04,
480,-3.120000e-01,2.000000e-04,
481,-3.200000e-01,0.000000e+00,
482,-2.960000e-01,2.000000e-04,
483,-2.880000e-01,-2.000000e-04,
484,-2.720000e-01,-6.000000e-04,
485,-2.640000e-01,-4.000000e-04,
486,-2.480000e-01,-6.000000e-04,
487,-2.400000e-01,-8.000000e-04,
488,-2.240000e-01,-8.000000e-04,
489,-2.240000e-01,-4.000000e-04,
490,-2.000000e-01,4.000000e-04,
491,-1.920000e-01,8.000000e-04,
492,-1.760000e-01,4.000000e-04,
493,-1.760000e-01,2.000000e-04,
494,-1.600000e-01,6.000000e-04,
495,-1.520000e-01,2.000000e-04,
496,-1.280000e-01,2.000000e-04,
497,-1.280000e-01,0.000000e+00,
498,-1.040000e-01,4.000000e-04,
499,-1.040000e-01,6.000000e-04,
500,-8.000001e-02,-2.000000e-04,
501,-7.200000e-02,0.000000e+00,
502,-5.600000e-02,-2.000000e-04,
503,-4.800000e-02,2.000000e-04,
504,-3.200000e-02,-4.000000e-04,
505,-2.400000e-02,-8.000000e-04,
506,0.000000e+00,-4.000000e-04,
507,0.000000e+00,0.000000e+00,
508,2.400000e-02,2.000000e-04,
509,2.400000e-02,0.000000e+00,
510,4.800000e-02,2.000000e-04,
511,4.800000e-02,6.000000e-04,
512,7.200000e-02,6.000000e-04,
513,7.200000e-02,2.000000e-04,
514,9.600001e-02,4.000000e-04,
515,9.600001e-02,6.000000e-04,
516,1.200000e-01,4.000000e-04,
517,1.280000e-01,6.000000e-04,
518,1.440000e-01,6.000000e-04,
519,1.520000e-01,9.999999e-04,
520,1.680000e-01,2.000000e-04,
521,1.760000e-01,4.000000e-04,
522,1.920000e-01,-2.000000e-04,
523,2.000000e-01,2.000000e-04,
524,2.160000e-01,2.000000e-04,
525,2.240000e-01,4.000000e-04,
526,2.400000e-01,6.000000e-04,
527,2.480000e-01,4.000000e-04,
528,2.640000e-01,0.000000e+00,
529,2.640000e-01,-2.000000e-04,
530,2.800000e-01,8.000000e-04,
531,2.880000e-01,6.000000e-04,
532,3.120000e-01,0.000000e+00,
533,3.120000e-01,-4.000000e-04,
534,3.280000e-01,4.000000e-04,
535,3.360000e-01,6.000000e-04,
536,3.520000e-01,8.000000e-04,
537,3.600000e-01,6.000000e-04,
538,3.760000e-01,4.000000e-04,
539,3.760000e-01,6.000000e-04,
540,4.000000e-01,8.000000e-04,
541,4.000000e-01,6.000000e-04,
542,4.160000e-01,8.000000e-04,
543,4.240000e-01,4.000000e-04,
544,4.400000e-01,9.999999e-04,
545,4.400000e-01,8.000000e-04,
546,4.560000e-01,9.999999e-04,
547,4.640000e-01,1.400000e-03,
548,4.800000e-01,4.000000e-04,
549,4.720000e-01,8.000000e-04,
550,4.960000e-01,2.000000e-04,
551,5.040000e-01,6.000000e-04,
552,5.200000e-01,6.000000e-04,
553,5.200000e-01,8.000000e-04,
554,5.360000e-01,6.000000e-04,
555,5.360000e-01,2.000000e-04,
556,5.440000e-01,8.000000e-04,
557,5.520000e-01,4.000000e-04,
558,5.680000e-01,4.000000e-04,
559,5.680000e-01,2.000000e-04,
560,5.840001e-01,4.000000e-04,
561,5.920000e-01,8.000000e-04,
562,6.000000e-01,8.000000e-04,
563,6.000000e-01,4.000000e-04,
564,6.160001e-01,9.999999e-04,
565,6.160001e-01,8.000000e-04,
566,6.320000e-01,4.000000e-04,
567,6.320000e-01,8.000000e-04,
568,6.400000e-01,2.000000e-04,
569,6.480000e-01,4.000000e-04,
570,6.560000e-01,6.000000e-04,
571,6.560000e-01,2.000000e-04,
572,6.720001e-01,2.000000e-04,
573,6.640000e-01,0.000000e+00,
574,6.800000e-01,6.000000e-04,
575,6.800000e-01,9.999999e-04,
576,6.960000e-01,2.000000e-04,
577,6.880000e-01,4.000000e-04,
578,6.960000e-01,1.600000e-03,
579,7.040001e-01,1.400000e-03,
580,7.120000e-01,1.400000e-03,
581,7.120000e-01,9.999999e-04,
582,7.200000e-01,6.000000e-04,
583,7.200000e-01,2.000000e-04,
584,7.280000e-01,1.200000e-03,
585,7.280000e-01,1.600000e-03,
586,7.360001e-01,1.200000e-03,
587,7.360001e-01,8.000000e-04,
588,7.360001e-01,9.999999e-04,
589,7.440000e-01,8.000000e-04,
590,7.440000e-01,1.200000e-03,
591,7.520000e-01,9.999999e-04,
592,7.520000e-01,4.000000e-04,
593,7.520000e-01,8.000000e-04,
594,7.520000e-01,8.000000e-04,
595,7.600001e-01,9.999999e-04,
596,7.600001e-01,9.999999e-04,
597,7.520000e-01,1.200000e-03,
598,7.600001e-01,8.000000e-04,
599,7.600001e-01,1.200000e-03,
600,7.600001e-01,1.400000e-03,
601,7.680001e-01,9.999999e-04,
602,7.600001e-01,4.000000e-04,
603,7.680001e-01,2.000000e-04,
604,7.680001e-01,8.000000e-04,
605,7.600001e-01,6.000000e-04,
606,7.680001e-01,9.999999e-04,
607,7.600001e-01,6.000000e-04,
608,7.600001e-01,4.000000e-04,
609,7.600001e-01,0.000000e+00,
610,7.600001e-01,8.000000e-04,
611,7.520000e-01,4.000000e-04,
612,7.600001e-01,2.000000e-04,
613,7.520000e-01,6.000000e-04,
614,7.520000e-01,0.000000e+00,
615,7.520000e-01,4.000000e-04,
616,7.440000e-01,1.800000e-03,
617,7.440000e-01,1.400000e-03,
618,7.440000e-01,-4.000000e-04,
619,7.360001e-01,0.000000e+00,
620,7.360001e-01,8.000000e-04,
621,7.360001e-01,1.200000e-03,
622,7.280000e-01,6.000000e-04,
623,7.200000e-01,8.000000e-04,
624,7.200000e-01,8.000000e-04,
625,7.200000e-01,1.200000e-03,
626,7.120000e-01,1.200000e-03,
