parte2/esp10/Data/d2/f1/1.csv

X,CH1,CH2,Start,Increment,
Sequence,Volt,Volt,-1.163980e-03,2.000000e-06,
0,6.956000e-02,-6.000000e-04,
1,6.862000e-02,-1.200000e-03,
2,6.956000e-02,-6.000000e-04,
3,6.862000e-02,-1.200000e-03,
4,6.862000e-02,-1.200000e-03,
5,6.862000e-02,-4.000000e-04,
6,6.767999e-02,-2.000000e-04,
7,6.767999e-02,-8.000000e-04,
8,6.580000e-02,-9.999999e-04,
9,6.580000e-02,-4.000000e-04,
10,6.485999e-02,-8.000000e-04,
11,6.485999e-02,-1.400000e-03,
12,6.392000e-02,-1.800000e-03,
13,6.298000e-02,-1.200000e-03,
14,6.204000e-02,-9.999999e-04,
15,6.204000e-02,-4.000000e-04,
16,6.109999e-02,6.000000e-04,
17,6.109999e-02,2.000000e-04,
18,5.922000e-02,-4.000000e-04,
19,5.922000e-02,-9.999999e-04,
20,5.827999e-02,-6.000000e-04,
21,5.827999e-02,-1.200000e-03,
22,5.640000e-02,-1.400000e-03,
23,5.640000e-02,-8.000000e-04,
24,5.545999e-02,-8.000000e-04,
25,5.452000e-02,-1.400000e-03,
26,5.358000e-02,-2.000000e-03,
27,5.264000e-02,-2.600000e-03,
28,5.170000e-02,-9.999999e-04,
29,5.264000e-02,-1.600000e-03,
30,5.076000e-02,-9.999999e-04,
31,4.982000e-02,-1.600000e-03,
32,4.888000e-02,-2.000000e-04,
33,4.794000e-02,4.000000e-04,
34,4.700000e-02,-1.800000e-03,
35,4.700000e-02,-2.400000e-03,
36,4.512000e-02,-6.000000e-04,
37,4.418000e-02,-2.000000e-04,
38,4.324000e-02,-9.999999e-04,
39,4.324000e-02,-1.600000e-03,
40,4.136000e-02,-2.000000e-04,
41,4.136000e-02,-8.000000e-04,
42,3.948000e-02,-1.800000e-03,
43,3.948000e-02,-9.999999e-04,
44,3.666000e-02,0.000000e+00,
45,3.760000e-02,4.000000e-04,
46,3.572000e-02,-1.200000e-03,
47,3.572000e-02,-6.000000e-04,
48,3.384000e-02,-1.400000e-03,
49,3.384000e-02,-2.000000e-03,
50,3.290000e-02,-2.000000e-03,
51,3.196000e-02,-1.400000e-03,
52,3.008000e-02,-1.400000e-03,
53,3.102000e-02,-2.200000e-03,
54,2.914000e-02,-8.000000e-04,
55,2.914000e-02,-4.000000e-04,
56,2.632000e-02,-1.400000e-03,
57,2.632000e-02,-2.000000e-03,
58,2.538000e-02,-8.000000e-04,
59,2.444000e-02,-2.000000e-04,
60,2.256000e-02,-2.000000e-04,
61,2.256000e-02,-8.000000e-04,
62,2.068000e-02,-2.000000e-03,
63,2.068000e-02,-1.200000e-03,
64,1.880000e-02,0.000000e+00,
65,1.786000e-02,6.000000e-04,
66,1.692000e-02,-8.000000e-04,
67,1.598000e-02,-2.000000e-04,
68,1.410000e-02,-2.200000e-03,
69,1.410000e-02,-1.400000e-03,
70,1.316000e-02,-4.000000e-04,
71,1.316000e-02,2.000000e-04,
72,1.128000e-02,-6.000000e-04,
73,1.034000e-02,-1.200000e-03,
74,8.459999e-03,-6.000000e-04,
75,8.459999e-03,-1.200000e-03,
76,6.580000e-03,-8.000000e-04,
77,6.580000e-03,-1.400000e-03,
78,3.760000e-03,-4.000000e-04,
79,3.760000e-03,2.000000e-04,
80,1.880000e-03,-1.400000e-03,
81,2.820000e-03,-8.000000e-04,
82,0.000000e+00,-1.200000e-03,
83,0.000000e+00,-1.800000e-03,
84,-2.820000e-03,-4.000000e-04,
85,-1.880000e-03,4.000000e-04,
86,-4.700000e-03,-2.000000e-04,
87,-5.640000e-03,4.000000e-04,
88,-5.640000e-03,-8.000000e-04,
89,-6.580000e-03,-1.400000e-03,
90,-7.520000e-03,-2.200000e-03,
91,-6.580000e-03,-1.600000e-03,
92,-1.034000e-02,-6.000000e-04,
93,-9.400000e-03,0.000000e+00,
94,-1.222000e-02,-6.000000e-04,
95,-1.222000e-02,0.000000e+00,
96,-1.410000e-02,-1.600000e-03,
97,-1.504000e-02,-2.200000e-03,
98,-1.692000e-02,-1.200000e-03,
99,-1.598000e-02,-6.000000e-04,
100,-1.786000e-02,-2.000000e-03,
101,-1.786000e-02,-2.600000e-03,
102,-1.974000e-02,-1.800000e-03,
103,-2.068000e-02,-1.400000e-03,
104,-2.162000e-02,-1.400000e-03,
105,-2.256000e-02,-6.000000e-04,
106,-2.444000e-02,-8.000000e-04,
107,-2.538000e-02,-1.400000e-03,
108,-2.538000e-02,-8.000000e-04,
109,-2.632000e-02,-1.600000e-03,
110,-2.820000e-02,-6.000000e-04,
111,-2.726000e-02,-2.000000e-04,
112,-3.008000e-02,-1.800000e-03,
113,-3.102000e-02,-9.999999e-04,
114,-3.102000e-02,-1.600000e-03,
115,-3.196000e-02,-1.200000e-03,
116,-3.384000e-02,6.000000e-04,
117,-3.384000e-02,0.000000e+00,
118,-3.572000e-02,-1.600000e-03,
119,-3.572000e-02,-8.000000e-04,
120,-3.760000e-02,-1.600000e-03,
121,-3.760000e-02,-2.000000e-03,
122,-3.948000e-02,-2.000000e-03,
123,-4.042000e-02,-2.800000e-03,
124,-4.136000e-02,-3.200000e-03,
125,-4.042000e-02,-2.400000e-03,
126,-4.230000e-02,-6.000000e-04,
127,-4.230000e-02,0.000000e+00,
128,-4.512000e-02,6.000000e-04,
129,-4.512000e-02,-2.000000e-04,
130,-4.512000e-02,-6.000000e-04,
131,-4.606000e-02,2.000000e-04,
132,-4.794000e-02,-1.200000e-03,
133,-4.794000e-02,-1.600000e-03,
134,-4.888000e-02,-9.999999e-04,
135,-4.982000e-02,-1.600000e-03,
136,-5.170000e-02,0.000000e+00,
137,-5.170000e-02,6.000000e-04,
138,-5.264000e-02,4.000000e-04,
139,-5.264000e-02,-4.000000e-04,
140,-5.452000e-02,-1.400000e-03,
141,-5.452000e-02,-2.000000e-03,
142,-5.640000e-02,-2.200000e-03,
143,-5.640000e-02,-1.600000e-03,
144,-5.734000e-02,-4.000000e-04,
145,-5.734000e-02,-9.999999e-04,
146,-5.922000e-02,2.000000e-04,
147,-5.922000e-02,8.000000e-04,
148,-6.016000e-02,6.000000e-04,
149,-6.016000e-02,0.000000e+00,
150,-6.204000e-02,-1.200000e-03,
151,-6.204000e-02,-2.000000e-03,
152,-6.298000e-02,-1.600000e-03,
153,-6.298000e-02,-2.200000e-03,
154,-6.298000e-02,-2.000000e-04,
155,-6.392000e-02,-8.000000e-04,
156,-6.580000e-02,0.000000e+00,
157,-6.580000e-02,6.000000e-04,
158,-6.767999e-02,-4.000000e-04,
159,-6.674000e-02,-9.999999e-04,
160,-6.767999e-02,6.000000e-04,
161,-6.674000e-02,0.000000e+00,
162,-6.862000e-02,-9.999999e-04,
163,-6.956000e-02,-1.400000e-03,
164,-7.049999e-02,8.000000e-04,
165,-7.049999e-02,2.000000e-04,
166,-7.144000e-02,-6.000000e-04,
167,-7.144000e-02,0.000000e+00,
168,-7.049999e-02,-1.200000e-03,
169,-7.144000e-02,-6.000000e-04,
170,-7.238000e-02,-6.000000e-04,
171,-7.238000e-02,0.000000e+00,
172,-7.426000e-02,6.000000e-04,
173,-7.331999e-02,2.000000e-04,
174,-7.426000e-02,-2.000000e-03,
175,-7.426000e-02,-1.400000e-03,
176,-7.520000e-02,-9.999999e-04,
177,-7.520000e-02,-4.000000e-04,
178,-7.708000e-02,-8.000000e-04,
179,-7.613999e-02,-4.000000e-04,
180,-7.801999e-02,0.000000e+00,
181,-7.708000e-02,-6.000000e-04,
182,-7.801999e-02,-8.000000e-04,
183,-7.801999e-02,-2.000000e-04,
184,-7.801999e-02,-2.000000e-04,
185,-7.895999e-02,6.000000e-04,
186,-7.895999e-02,0.000000e+00,
187,-7.895999e-02,-6.000000e-04,
188,-7.895999e-02,9.999999e-04,
189,-7.895999e-02,4.000000e-04,
190,-7.895999e-02,-1.200000e-03,
191,-7.895999e-02,-1.800000e-03,
192,-7.895999e-02,-2.000000e-04,
193,-7.895999e-02,-8.000000e-04,
194,-7.990000e-02,9.999999e-04,
195,-7.990000e-02,4.000000e-04,
196,-7.990000e-02,-6.000000e-04,
197,-8.083999e-02,-1.200000e-03,
198,-8.083999e-02,0.000000e+00,
199,-8.083999e-02,-6.000000e-04,
200,-8.083999e-02,-9.999999e-04,
201,-7.990000e-02,-4.000000e-04,
202,-7.990000e-02,2.000000e-03,
203,-7.990000e-02,2.800000e-03,
204,-8.083999e-02,-8.000000e-04,
205,-8.083999e-02,-2.000000e-04,
206,-8.083999e-02,-1.400000e-03,
207,-8.083999e-02,-8.000000e-04,
208,-8.083999e-02,6.000000e-04,
209,-8.177999e-02,0.000000e+00,
210,-8.083999e-02,2.000000e-04,
211,-8.177999e-02,-2.000000e-04,
212,-8.083999e-02,0.000000e+00,
213,-8.083999e-02,6.000000e-04,
214,-7.990000e-02,-4.000000e-04,
215,-8.083999e-02,-9.999999e-04,
216,-8.083999e-02,0.000000e+00,
217,-8.083999e-02,-6.000000e-04,
218,-7.895999e-02,2.000000e-03,
219,-7.990000e-02,2.600000e-03,
220,-7.990000e-02,-6.000000e-04,
221,-7.895999e-02,0.000000e+00,
222,-7.895999e-02,-2.000000e-04,
223,-7.895999e-02,4.000000e-04,
224,-7.895999e-02,2.000000e-04,
225,-7.895999e-02,-4.000000e-04,
226,-7.801999e-02,2.000000e-04,
227,-7.801999e-02,8.000000e-04,
228,-7.801999e-02,2.000000e-03,
229,-7.801999e-02,1.400000e-03,
230,-7.708000e-02,9.999999e-04,
231,-7.708000e-02,1.800000e-03,
232,-7.613999e-02,0.000000e+00,
233,-7.708000e-02,8.000000e-04,
234,-7.613999e-02,0.000000e+00,
235,-7.520000e-02,6.000000e-04,
236,-7.520000e-02,4.000000e-04,
237,-7.613999e-02,-2.000000e-04,
238,-7.426000e-02,-1.400000e-03,
239,-7.520000e-02,-8.000000e-04,
240,-7.331999e-02,-1.200000e-03,
241,-7.426000e-02,-6.000000e-04,
242,-7.238000e-02,-6.000000e-04,
243,-7.238000e-02,0.000000e+00,
244,-7.144000e-02,1.800000e-03,
245,-7.144000e-02,1.200000e-03,
246,-7.049999e-02,9.999999e-04,
247,-7.049999e-02,4.000000e-04,
248,-6.956000e-02,1.800000e-03,
249,-6.956000e-02,1.200000e-03,
250,-6.862000e-02,9.999999e-04,
251,-6.767999e-02,1.600000e-03,
252,-6.767999e-02,4.000000e-04,
253,-6.767999e-02,9.999999e-04,
254,-6.674000e-02,0.000000e+00,
255,-6.674000e-02,8.000000e-04,
256,-6.674000e-02,1.400000e-03,
257,-6.580000e-02,2.000000e-03,
258,-6.392000e-02,6.000000e-04,
259,-6.392000e-02,0.000000e+00,
260,-6.298000e-02,-1.200000e-03,
261,-6.204000e-02,-6.000000e-04,
262,-6.298000e-02,6.000000e-04,
263,-6.204000e-02,9.999999e-04,
264,-6.016000e-02,8.000000e-04,
265,-5.922000e-02,0.000000e+00,
266,-5.827999e-02,9.999999e-04,
267,-5.827999e-02,1.800000e-03,
268,-5.734000e-02,6.000000e-04,
269,-5.734000e-02,1.200000e-03,
270,-5.545999e-02,2.200000e-03,
271,-5.545999e-02,1.600000e-03,
272,-5.452000e-02,8.000000e-04,
273,-5.452000e-02,1.400000e-03,
274,-5.264000e-02,1.400000e-03,
275,-5.264000e-02,2.000000e-03,
276,-5.076000e-02,2.400000e-03,
277,-5.076000e-02,1.600000e-03,
278,-4.982000e-02,-4.000000e-04,
279,-4.982000e-02,4.000000e-04,
280,-4.794000e-02,-4.000000e-04,
281,-4.700000e-02,0.000000e+00,
282,-4.700000e-02,9.999999e-04,
283,-4.606000e-02,1.600000e-03,
284,-4.418000e-02,4.000000e-04,
285,-4.418000e-02,1.200000e-03,
286,-4.324000e-02,2.000000e-03,
287,-4.324000e-02,2.600000e-03,
288,-4.042000e-02,9.999999e-04,
289,-4.042000e-02,1.600000e-03,
290,-3.854000e-02,1.400000e-03,
291,-3.854000e-02,9.999999e-04,
292,-3.760000e-02,4.000000e-04,
293,-3.760000e-02,1.200000e-03,
294,-3.478000e-02,9.999999e-04,
295,-3.572000e-02,4.000000e-04,
296,-3.384000e-02,8.000000e-04,
297,-3.478000e-02,1.400000e-03,
298,-3.196000e-02,2.400000e-03,
299,-3.196000e-02,1.800000e-03,
300,-3.008000e-02,6.000000e-04,
301,-3.102000e-02,1.200000e-03,
302,-2.726000e-02,8.000000e-04,
303,-2.820000e-02,1.600000e-03,
304,-2.538000e-02,2.000000e-03,
305,-2.538000e-02,1.200000e-03,
306,-2.444000e-02,9.999999e-04,
307,-2.350000e-02,4.000000e-04,
308,-2.256000e-02,9.999999e-04,
309,-2.162000e-02,1.600000e-03,
310,-2.068000e-02,8.000000e-04,
311,-1.974000e-02,1.600000e-03,
312,-1.880000e-02,1.200000e-03,
313,-1.880000e-02,8.000000e-04,
314,-1.692000e-02,2.600000e-03,
315,-1.598000e-02,2.000000e-03,
316,-1.504000e-02,6.000000e-04,
317,-1.410000e-02,1.200000e-03,
318,-1.222000e-02,1.600000e-03,
319,-1.222000e-02,9.999999e-04,
320,-9.400000e-03,-4.000000e-04,
321,-9.400000e-03,2.000000e-04,
322,-8.459999e-03,9.999999e-04,
323,-8.459999e-03,4.000000e-04,
324,-6.580000e-03,1.400000e-03,
325,-6.580000e-03,2.000000e-03,
326,-3.760000e-03,2.400000e-03,
327,-3.760000e-03,1.800000e-03,
328,-1.880000e-03,4.000000e-04,
329,-1.880000e-03,-2.000000e-04,
330,0.000000e+00,2.000000e-04,
331,0.000000e+00,8.000000e-04,
332,2.820000e-03,6.000000e-04,
333,2.820000e-03,1.400000e-03,
334,3.760000e-03,1.400000e-03,
335,3.760000e-03,8.000000e-04,
336,6.580000e-03,2.600000e-03,
337,6.580000e-03,1.800000e-03,
338,9.400000e-03,1.600000e-03,
339,8.459999e-03,2.000000e-03,
340,1.034000e-02,2.400000e-03,
341,1.034000e-02,1.600000e-03,
342,1.316000e-02,1.200000e-03,
343,1.316000e-02,1.800000e-03,
344,1.504000e-02,1.400000e-03,
345,1.410000e-02,8.000000e-04,
346,1.692000e-02,1.600000e-03,
347,1.786000e-02,2.000000e-03,
348,1.880000e-02,1.600000e-03,
349,1.880000e-02,9.999999e-04,
350,2.162000e-02,2.600000e-03,
351,2.162000e-02,2.000000e-03,
352,2.256000e-02,0.000000e+00,
353,2.256000e-02,6.000000e-04,
354,2.444000e-02,2.000000e-04,
355,2.444000e-02,8.000000e-04,
356,2.632000e-02,9.999999e-04,
357,2.632000e-02,4.000000e-04,
358,2.820000e-02,1.600000e-03,
359,2.820000e-02,9.999999e-04,
360,3.008000e-02,1.400000e-03,
361,3.008000e-02,2.000000e-03,
362,3.196000e-02,9.999999e-04,
363,3.196000e-02,4.000000e-04,
364,3.384000e-02,9.999999e-04,
365,3.384000e-02,4.000000e-04,
366,3.666000e-02,1.400000e-03,
367,3.572000e-02,8.000000e-04,
368,3.760000e-02,1.200000e-03,
369,3.760000e-02,2.000000e-03,
370,3.948000e-02,1.800000e-03,
371,3.948000e-02,2.400000e-03,
372,4.230000e-02,2.000000e-04,
373,4.136000e-02,8.000000e-04,
374,4.230000e-02,1.200000e-03,
375,4.324000e-02,6.000000e-04,
376,4.418000e-02,1.200000e-03,
377,4.418000e-02,6.000000e-04,
378,4.700000e-02,2.200000e-03,
379,4.700000e-02,3.000000e-03,
380,4.794000e-02,1.200000e-03,
381,4.794000e-02,6.000000e-04,
382,4.982000e-02,6.000000e-04,
383,4.982000e-02,1.200000e-03,
384,5.170000e-02,1.600000e-03,
385,5.170000e-02,9.999999e-04,
386,5.264000e-02,1.600000e-03,
387,5.358000e-02,9.999999e-04,
388,5.452000e-02,9.999999e-04,
389,5.452000e-02,1.400000e-03,
390,5.545999e-02,2.200000e-03,
391,5.640000e-02,1.600000e-03,
392,5.827999e-02,2.000000e-04,
393,5.827999e-02,8.000000e-04,
394,5.922000e-02,2.800000e-03,
395,5.922000e-02,2.400000e-03,
396,6.109999e-02,1.400000e-03,
397,6.016000e-02,2.000000e-03,
398,6.109999e-02,2.200000e-03,
399,6.204000e-02,1.600000e-03,
400,6.392000e-02,1.200000e-03,
401,6.485999e-02,2.000000e-03,
402,6.485999e-02,1.200000e-03,
403,6.485999e-02,8.000000e-04,
404,6.580000e-02,8.000000e-04,
405,6.580000e-02,1.200000e-03,
406,6.767999e-02,1.200000e-03,
407,6.674000e-02,1.800000e-03,
408,6.767999e-02,9.999999e-04,
409,6.767999e-02,6.000000e-04,
410,6.956000e-02,1.800000e-03,
411,6.956000e-02,1.200000e-03,
412,7.049999e-02,1.400000e-03,
413,6.956000e-02,6.000000e-04,
414,7.238000e-02,4.000000e-04,
415,7.144000e-02,9.999999e-04,
416,7.238000e-02,-2.000000e-04,
417,7.238000e-02,4.000000e-04,
418,7.426000e-02,1.400000e-03,
419,7.331999e-02,8.000000e-04,
420,7.426000e-02,2.000000e-03,
421,7.331999e-02,1.400000e-03,
422,7.520000e-02,2.000000e-04,
423,7.426000e-02,6.000000e-04,
424,7.613999e-02,9.999999e-04,
425,7.613999e-02,1.600000e-03,
426,7.801999e-02,2.000000e-03,
427,7.708000e-02,2.600000e-03,
428,7.801999e-02,0.000000e+00,
429,7.801999e-02,4.000000e-04,
430,7.895999e-02,-6.000000e-04,
431,7.895999e-02,0.000000e+00,
432,7.801999e-02,1.200000e-03,
433,7.895999e-02,6.000000e-04,
434,7.990000e-02,8.000000e-04,
435,7.990000e-02,1.400000e-03,
436,8.083999e-02,-4.000000e-04,
437,7.990000e-02,-9.999999e-04,
438,8.083999e-02,1.800000e-03,
439,8.177999e-02,1.200000e-03,
440,8.083999e-02,8.000000e-04,
441,7.990000e-02,2.000000e-04,
442,8.083999e-02,9.999999e-04,
443,8.083999e-02,4.000000e-04,
444,8.177999e-02,6.000000e-04,
445,8.177999e-02,1.200000e-03,
446,8.177999e-02,9.999999e-04,
447,8.177999e-02,4.000000e-04,
448,8.272000e-02,0.000000e+00,
449,8.177999e-02,-6.000000e-04,
450,8.177999e-02,2.000000e-04,
451,8.272000e-02,8.000000e-04,
452,8.272000e-02,-2.000000e-04,
453,8.365999e-02,-8.000000e-04,
454,8.365999e-02,-2.000000e-04,
455,8.365999e-02,-8.000000e-04,
456,8.272000e-02,4.000000e-04,
457,8.272000e-02,-2.000000e-04,
458,8.272000e-02,-6.000000e-04,
459,8.272000e-02,0.000000e+00,
460,8.272000e-02,6.000000e-04,
461,8.272000e-02,1.200000e-03,
462,8.272000e-02,4.000000e-04,
463,8.177999e-02,9.999999e-04,
464,8.272000e-02,9.999999e-04,
465,8.177999e-02,2.000000e-04,
466,8.177999e-02,-4.000000e-04,
467,8.177999e-02,-9.999999e-04,
468,8.177999e-02,0.000000e+00,
469,8.177999e-02,6.000000e-04,
470,8.177999e-02,2.000000e-04,
471,8.177999e-02,-4.000000e-04,
472,8.177999e-02,6.000000e-04,
473,8.177999e-02,1.200000e-03,
474,8.083999e-02,4.000000e-04,
475,8.083999e-02,-2.000000e-04,
476,7.990000e-02,0.000000e+00,
477,7.990000e-02,-6.000000e-04,
478,7.990000e-02,-1.200000e-03,
479,7.990000e-02,-2.000000e-03,
480,7.895999e-02,0.000000e+00,
481,7.801999e-02,-6.000000e-04,
482,7.801999e-02,0.000000e+00,
483,7.801999e-02,-6.000000e-04,
484,7.801999e-02,0.000000e+00,
485,7.801999e-02,-8.000000e-04,
486,7.708000e-02,2.000000e-04,
487,7.708000e-02,6.000000e-04,
488,7.613999e-02,-8.000000e-04,
489,7.613999e-02,-1.400000e-03,
490,7.520000e-02,-2.000000e-03,
491,7.520000e-02,-2.600000e-03,
492,7.520000e-02,-1.200000e-03,
493,7.426000e-02,-6.000000e-04,
494,7.426000e-02,-4.000000e-04,
495,7.520000e-02,2.000000e-04,
496,7.238000e-02,1.200000e-03,
497,7.331999e-02,8.000000e-04,
498,7.144000e-02,-2.000000e-04,
499,7.144000e-02,4.000000e-04,
500,7.049999e-02,8.000000e-04,
501,7.049999e-02,2.000000e-04,
502,6.956000e-02,-1.800000e-03,
503,6.862000e-02,-2.400000e-03,
504,6.862000e-02,4.000000e-04,
505,6.767999e-02,-2.000000e-04,
506,6.767999e-02,-6.000000e-04,
507,6.674000e-02,-9.999999e-04,
508,6.580000e-02,-8.000000e-04,
509,6.485999e-02,-1.400000e-03,
510,6.580000e-02,-1.200000e-03,
511,6.485999e-02,-4.000000e-04,
512,6.392000e-02,-1.400000e-03,
513,6.392000e-02,-8.000000e-04,
514,6.204000e-02,0.000000e+00,
515,6.204000e-02,-6.000000e-04,
516,6.109999e-02,0.000000e+00,
517,6.016000e-02,8.000000e-04,
518,5.922000e-02,-2.000000e-04,
519,5.827999e-02,-9.999999e-04,
520,5.827999e-02,-6.000000e-04,
521,5.827999e-02,0.000000e+00,
522,5.640000e-02,-1.800000e-03,
523,5.734000e-02,-2.600000e-03,
524,5.545999e-02,-8.000000e-04,
525,5.545999e-02,-2.000000e-04,
526,5.358000e-02,-1.400000e-03,
527,5.358000e-02,-8.000000e-04,
528,5.170000e-02,-1.600000e-03,
529,5.076000e-02,-9.999999e-04,
530,4.982000e-02,2.000000e-04,
531,4.982000e-02,-6.000000e-04,
532,4.888000e-02,-2.000000e-03,
533,4.888000e-02,-1.400000e-03,
534,4.606000e-02,0.000000e+00,
535,4.606000e-02,-6.000000e-04,
536,4.418000e-02,-2.000000e-04,
537,4.512000e-02,4.000000e-04,
538,4.324000e-02,-2.400000e-03,
539,4.324000e-02,-1.800000e-03,
540,4.042000e-02,-6.000000e-04,
541,4.042000e-02,-1.200000e-03,
542,4.042000e-02,-2.000000e-03,
543,4.042000e-02,-1.200000e-03,
544,3.854000e-02,1.200000e-03,
545,3.854000e-02,6.000000e-04,
546,3.572000e-02,0.000000e+00,
547,3.666000e-02,-6.000000e-04,
548,3.478000e-02,-2.400000e-03,
549,3.384000e-02,-1.600000e-03,
550,3.196000e-02,-1.200000e-03,
551,3.102000e-02,-8.000000e-04,
552,3.008000e-02,-1.200000e-03,
553,3.008000e-02,-6.000000e-04,
554,2.820000e-02,0.000000e+00,
555,2.820000e-02,8.000000e-04,
556,2.632000e-02,-2.600000e-03,
557,2.538000e-02,-2.000000e-03,
558,2.350000e-02,-1.600000e-03,
559,2.444000e-02,-2.200000e-03,
560,2.256000e-02,-1.200000e-03,
561,2.162000e-02,-2.000000e-03,
562,2.068000e-02,-8.000000e-04,
563,1.974000e-02,-2.000000e-04,
564,1.880000e-02,-2.600000e-03,
565,1.880000e-02,-2.000000e-03,
566,1.598000e-02,-1.800000e-03,
567,1.598000e-02,-2.400000e-03,
568,1.504000e-02,-8.000000e-04,
569,1.504000e-02,-2.000000e-04,
570,1.222000e-02,-4.000000e-04,
571,1.222000e-02,0.000000e+00,
572,1.128000e-02,-4.000000e-04,
573,1.034000e-02,-1.200000e-03,
574,8.459999e-03,-2.000000e-04,
575,8.459999e-03,-8.000000e-04,
576,6.580000e-03,-6.000000e-04,
577,6.580000e-03,0.000000e+00,
578,3.760000e-03,-1.800000e-03,
579,3.760000e-03,-2.200000e-03,
580,1.880000e-03,-1.200000e-03,
581,1.880000e-03,-1.800000e-03,
582,0.000000e+00,-8.000000e-04,
583,0.000000e+00,-4.000000e-04,
584,-1.880000e-03,-8.000000e-04,
585,-1.880000e-03,-1.600000e-03,
586,-4.700000e-03,-6.000000e-04,
587,-4.700000e-03,-1.200000e-03,
588,-5.640000e-03,-1.600000e-03,
589,-6.580000e-03,-2.200000e-03,
590,-8.459999e-03,-8.000000e-04,
591,-8.459999e-03,-1.400000e-03,
592,-9.400000e-03,-2.200000e-03,
593,-1.034000e-02,-2.800000e-03,
594,-1.128000e-02,-9.999999e-04,
595,-1.222000e-02,-4.000000e-04,
596,-1.410000e-02,-1.600000e-03,
597,-1.410000e-02,-8.000000e-04,
598,-1.598000e-02,-4.000000e-04,
599,-1.598000e-02,-9.999999e-04,
600,-1.786000e-02,-1.200000e-03,
601,-1.786000e-02,-1.800000e-03,
602,-2.068000e-02,-2.200000e-03,
603,-2.068000e-02,-2.800000e-03,
604,-2.256000e-02,-2.400000e-03,
605,-2.162000e-02,-2.000000e-03,
606,-2.444000e-02,-1.600000e-03,
607,-2.444000e-02,-9.999999e-04,
608,-2.632000e-02,-9.999999e-04,
609,-2.632000e-02,-1.600000e-03,
610,-2.726000e-02,-1.200000e-03,
611,-2.726000e-02,-8.000000e-04,
612,-3.008000e-02,-8.000000e-04,
613,-3.008000e-02,0.000000e+00,
614,-3.196000e-02,8.000000e-04,
615,-3.102000e-02,2.000000e-04,
616,-3.384000e-02,-1.600000e-03,
617,-3.290000e-02,-9.999999e-04,
618,-3.478000e-02,-8.000000e-04,
619,-3.572000e-02,-1.400000e-03,
620,-3.760000e-02,-6.000000e-04,
621,-3.760000e-02,0.000000e+00,
622,-3.948000e-02,0.000000e+00,
623,-3.948000e-02,-6.000000e-04,
624,-4.136000e-02,6.000000e-04,
625,-4.136000e-02,1.200000e-03,
