parte2/esp10/Data/h/f3/2.csv

X,CH1,CH2,Start,Increment,
Sequence,Volt,Volt,2.220200e-04,2.000000e-08,
0,-7.744000e-02,0.000000e+00,
1,-7.744000e-02,0.000000e+00,
2,-7.744000e-02,0.000000e+00,
3,-7.744000e-02,0.000000e+00,
4,-7.656000e-02,-2.080000e-04,
5,-7.656000e-02,0.000000e+00,
6,-7.480000e-02,0.000000e+00,
7,-7.480000e-02,2.080000e-04,
8,-7.392000e-02,-2.080000e-04,
9,-7.392000e-02,0.000000e+00,
10,-7.304000e-02,-4.160000e-04,
11,-7.304000e-02,-2.080000e-04,
12,-7.040000e-02,4.160000e-04,
13,-7.040000e-02,4.160000e-04,
14,-6.952000e-02,-2.080000e-04,
15,-6.952000e-02,-2.080000e-04,
16,-6.776000e-02,-2.080000e-04,
17,-6.776000e-02,-2.080000e-04,
18,-6.600000e-02,-2.080000e-04,
19,-6.600000e-02,-2.080000e-04,
20,-6.336000e-02,4.160000e-04,
21,-6.336000e-02,4.160000e-04,
22,-6.248000e-02,-2.080000e-04,
23,-6.160000e-02,-2.080000e-04,
24,-5.984000e-02,0.000000e+00,
25,-5.984000e-02,-2.080000e-04,
26,-5.720000e-02,0.000000e+00,
27,-5.720000e-02,0.000000e+00,
28,-5.544000e-02,2.080000e-04,
29,-5.544000e-02,2.080000e-04,
30,-5.280000e-02,-4.160000e-04,
31,-5.280000e-02,-4.160000e-04,
32,-5.016000e-02,0.000000e+00,
33,-5.016000e-02,2.080000e-04,
34,-4.752000e-02,2.080000e-04,
35,-4.752000e-02,2.080000e-04,
36,-4.488000e-02,0.000000e+00,
37,-4.488000e-02,0.000000e+00,
38,-4.224000e-02,-2.080000e-04,
39,-4.224000e-02,-2.080000e-04,
40,-3.960000e-02,-2.080000e-04,
41,-3.960000e-02,-2.080000e-04,
42,-3.696000e-02,-2.080000e-04,
43,-3.696000e-02,0.000000e+00,
44,-3.432000e-02,-2.080000e-04,
45,-3.432000e-02,-2.080000e-04,
46,-3.168000e-02,0.000000e+00,
47,-3.080000e-02,0.000000e+00,
48,-2.816000e-02,-4.160000e-04,
49,-2.816000e-02,-4.160000e-04,
50,-2.552000e-02,2.080000e-04,
51,-2.552000e-02,2.080000e-04,
52,-2.288000e-02,0.000000e+00,
53,-2.288000e-02,0.000000e+00,
54,-2.024000e-02,0.000000e+00,
55,-1.936000e-02,0.000000e+00,
56,-1.672000e-02,-2.080000e-04,
57,-1.672000e-02,-2.080000e-04,
58,-1.408000e-02,2.080000e-04,
59,-1.408000e-02,2.080000e-04,
60,-1.056000e-02,2.080000e-04,
61,-1.056000e-02,2.080000e-04,
62,-7.920000e-03,0.000000e+00,
63,-7.040000e-03,0.000000e+00,
64,-4.400000e-03,0.000000e+00,
65,-4.400000e-03,0.000000e+00,
66,-8.800000e-04,2.080000e-04,
67,0.000000e+00,2.080000e-04,
68,2.640000e-03,-4.160000e-04,
69,2.640000e-03,-2.080000e-04,
70,5.280000e-03,-2.080000e-04,
71,5.280000e-03,-4.160000e-04,
72,7.920000e-03,-2.080000e-04,
73,7.920000e-03,0.000000e+00,
74,1.144000e-02,-2.080000e-04,
75,1.232000e-02,0.000000e+00,
76,1.496000e-02,0.000000e+00,
77,1.496000e-02,0.000000e+00,
78,1.760000e-02,-4.160000e-04,
79,1.760000e-02,-4.160000e-04,
80,2.024000e-02,0.000000e+00,
81,2.024000e-02,0.000000e+00,
82,2.376000e-02,0.000000e+00,
83,2.376000e-02,0.000000e+00,
84,2.640000e-02,2.080000e-04,
85,2.640000e-02,2.080000e-04,
86,2.904000e-02,0.000000e+00,
87,2.904000e-02,0.000000e+00,
88,3.256000e-02,0.000000e+00,
89,3.168000e-02,0.000000e+00,
90,3.520000e-02,2.080000e-04,
91,3.520000e-02,2.080000e-04,
92,3.784000e-02,2.080000e-04,
93,3.784000e-02,2.080000e-04,
94,4.048000e-02,-4.160000e-04,
95,4.048000e-02,-4.160000e-04,
96,4.400000e-02,0.000000e+00,
97,4.312000e-02,0.000000e+00,
98,4.576000e-02,0.000000e+00,
99,4.576000e-02,0.000000e+00,
100,4.840000e-02,0.000000e+00,
101,4.840000e-02,0.000000e+00,
102,5.104000e-02,-2.080000e-04,
103,5.104000e-02,-2.080000e-04,
104,5.368000e-02,0.000000e+00,
105,5.368000e-02,0.000000e+00,
106,5.544000e-02,-2.080000e-04,
107,5.544000e-02,-2.080000e-04,
108,5.808000e-02,-2.080000e-04,
109,5.808000e-02,-2.080000e-04,
110,6.072000e-02,0.000000e+00,
111,6.072000e-02,0.000000e+00,
112,6.248000e-02,0.000000e+00,
113,6.160000e-02,-2.080000e-04,
114,6.424000e-02,-2.080000e-04,
115,6.424000e-02,-2.080000e-04,
116,6.600000e-02,2.080000e-04,
117,6.600000e-02,4.160000e-04,
118,6.864000e-02,0.000000e+00,
119,6.864000e-02,0.000000e+00,
120,6.952000e-02,0.000000e+00,
121,7.040000e-02,0.000000e+00,
122,7.128000e-02,-2.080000e-04,
123,7.128000e-02,-2.080000e-04,
124,7.216000e-02,0.000000e+00,
125,7.304000e-02,0.000000e+00,
126,7.392000e-02,2.080000e-04,
127,7.392000e-02,2.080000e-04,
128,7.568000e-02,-2.080000e-04,
129,7.568000e-02,-4.160000e-04,
130,7.744000e-02,4.160000e-04,
131,7.656000e-02,4.160000e-04,
132,7.744000e-02,-2.080000e-04,
133,7.744000e-02,-2.080000e-04,
134,7.920000e-02,0.000000e+00,
135,7.920000e-02,0.000000e+00,
136,8.008000e-02,0.000000e+00,
137,8.008000e-02,0.000000e+00,
138,8.008000e-02,-4.160000e-04,
139,8.008000e-02,-4.160000e-04,
140,8.184000e-02,0.000000e+00,
141,8.184000e-02,-2.080000e-04,
142,8.272000e-02,4.160000e-04,
143,8.272000e-02,2.080000e-04,
144,8.272000e-02,-2.080000e-04,
145,8.272000e-02,-2.080000e-04,
146,8.272000e-02,-2.080000e-04,
147,8.272000e-02,0.000000e+00,
148,8.360000e-02,2.080000e-04,
149,8.360000e-02,2.080000e-04,
150,8.272000e-02,2.080000e-04,
151,8.272000e-02,0.000000e+00,
152,8.272000e-02,0.000000e+00,
153,8.272000e-02,-2.080000e-04,
154,8.272000e-02,-2.080000e-04,
155,8.272000e-02,-2.080000e-04,
156,8.272000e-02,2.080000e-04,
157,8.272000e-02,4.160000e-04,
158,8.184000e-02,-2.080000e-04,
159,8.184000e-02,-2.080000e-04,
160,8.096000e-02,-2.080000e-04,
161,8.096000e-02,-2.080000e-04,
162,8.096000e-02,0.000000e+00,
163,8.096000e-02,0.000000e+00,
164,8.008000e-02,0.000000e+00,
165,8.008000e-02,0.000000e+00,
166,7.920000e-02,-2.080000e-04,
167,7.920000e-02,-4.160000e-04,
168,7.832000e-02,-2.080000e-04,
169,7.832000e-02,-2.080000e-04,
170,7.744000e-02,0.000000e+00,
171,7.744000e-02,0.000000e+00,
172,7.568000e-02,4.160000e-04,
173,7.568000e-02,4.160000e-04,
174,7.480000e-02,-2.080000e-04,
175,7.480000e-02,-2.080000e-04,
176,7.392000e-02,-4.160000e-04,
177,7.392000e-02,-2.080000e-04,
178,7.216000e-02,0.000000e+00,
179,7.216000e-02,2.080000e-04,
180,7.040000e-02,0.000000e+00,
181,7.040000e-02,-2.080000e-04,
182,6.864000e-02,-2.080000e-04,
183,6.864000e-02,-4.160000e-04,
184,6.776000e-02,-2.080000e-04,
185,6.688000e-02,-2.080000e-04,
186,6.512000e-02,0.000000e+00,
187,6.512000e-02,0.000000e+00,
188,6.248000e-02,-2.080000e-04,
189,6.248000e-02,-2.080000e-04,
190,6.072000e-02,0.000000e+00,
191,6.072000e-02,-2.080000e-04,
192,5.896000e-02,0.000000e+00,
193,5.896000e-02,0.000000e+00,
194,5.632000e-02,-4.160000e-04,
195,5.632000e-02,-4.160000e-04,
196,5.456000e-02,0.000000e+00,
197,5.456000e-02,0.000000e+00,
198,5.192000e-02,0.000000e+00,
199,5.104000e-02,2.080000e-04,
200,4.928000e-02,-2.080000e-04,
201,4.928000e-02,-4.160000e-04,
202,4.664000e-02,-2.080000e-04,
203,4.664000e-02,-2.080000e-04,
204,4.400000e-02,2.080000e-04,
205,4.400000e-02,2.080000e-04,
206,4.136000e-02,0.000000e+00,
207,4.136000e-02,-2.080000e-04,
208,3.960000e-02,-4.160000e-04,
209,3.872000e-02,-4.160000e-04,
210,3.608000e-02,0.000000e+00,
211,3.696000e-02,0.000000e+00,
212,3.344000e-02,4.160000e-04,
213,3.256000e-02,2.080000e-04,
214,3.080000e-02,0.000000e+00,
215,3.080000e-02,-2.080000e-04,
216,2.728000e-02,-4.160000e-04,
217,2.728000e-02,-6.240000e-04,
218,2.464000e-02,0.000000e+00,
219,2.464000e-02,2.080000e-04,
220,2.112000e-02,-2.080000e-04,
221,2.112000e-02,-4.160000e-04,
222,1.848000e-02,0.000000e+00,
223,1.848000e-02,0.000000e+00,
224,1.584000e-02,-4.160000e-04,
225,1.584000e-02,-4.160000e-04,
226,1.232000e-02,0.000000e+00,
227,1.232000e-02,2.080000e-04,
228,9.680000e-03,-2.080000e-04,
229,8.800000e-03,-2.080000e-04,
230,6.160000e-03,0.000000e+00,
231,6.160000e-03,-2.080000e-04,
232,3.520000e-03,-2.080000e-04,
233,2.640000e-03,0.000000e+00,
234,0.000000e+00,-2.080000e-04,
235,0.000000e+00,-4.160000e-04,
236,-3.520000e-03,0.000000e+00,
237,-3.520000e-03,2.080000e-04,
238,-7.040000e-03,0.000000e+00,
239,-7.040000e-03,2.080000e-04,
240,-8.800000e-03,0.000000e+00,
241,-8.800000e-03,0.000000e+00,
242,-1.232000e-02,-4.160000e-04,
243,-1.232000e-02,-4.160000e-04,
244,-1.584000e-02,2.080000e-04,
245,-1.584000e-02,0.000000e+00,
246,-1.936000e-02,-2.080000e-04,
247,-1.848000e-02,-2.080000e-04,
248,-2.112000e-02,-2.080000e-04,
249,-2.112000e-02,-2.080000e-04,
250,-2.464000e-02,-2.080000e-04,
251,-2.464000e-02,-2.080000e-04,
252,-2.728000e-02,0.000000e+00,
253,-2.728000e-02,0.000000e+00,
254,-2.992000e-02,-4.160000e-04,
255,-2.992000e-02,-2.080000e-04,
256,-3.344000e-02,-2.080000e-04,
257,-3.256000e-02,-2.080000e-04,
258,-3.608000e-02,0.000000e+00,
259,-3.608000e-02,-2.080000e-04,
260,-3.872000e-02,2.080000e-04,
261,-3.960000e-02,0.000000e+00,
262,-4.136000e-02,-2.080000e-04,
263,-4.136000e-02,-2.080000e-04,
264,-4.400000e-02,0.000000e+00,
265,-4.488000e-02,-2.080000e-04,
266,-4.664000e-02,2.080000e-04,
267,-4.664000e-02,2.080000e-04,
268,-4.928000e-02,-2.080000e-04,
269,-5.016000e-02,-2.080000e-04,
270,-5.192000e-02,2.080000e-04,
271,-5.192000e-02,0.000000e+00,
272,-5.456000e-02,-2.080000e-04,
273,-5.456000e-02,-2.080000e-04,
274,-5.720000e-02,0.000000e+00,
275,-5.720000e-02,-2.080000e-04,
276,-5.896000e-02,-4.160000e-04,
277,-5.896000e-02,-4.160000e-04,
278,-6.160000e-02,2.080000e-04,
279,-6.072000e-02,0.000000e+00,
280,-6.248000e-02,0.000000e+00,
281,-6.248000e-02,0.000000e+00,
282,-6.512000e-02,-4.160000e-04,
283,-6.512000e-02,-6.240000e-04,
284,-6.688000e-02,-2.080000e-04,
285,-6.688000e-02,-2.080000e-04,
286,-6.864000e-02,2.080000e-04,
287,-6.864000e-02,2.080000e-04,
288,-7.040000e-02,-6.240000e-04,
289,-7.040000e-02,-6.240000e-04,
290,-7.216000e-02,-4.160000e-04,
291,-7.128000e-02,-4.160000e-04,
292,-7.304000e-02,4.160000e-04,
293,-7.304000e-02,4.160000e-04,
294,-7.480000e-02,-4.160000e-04,
295,-7.480000e-02,-2.080000e-04,
296,-7.568000e-02,-2.080000e-04,
297,-7.568000e-02,-2.080000e-04,
298,-7.744000e-02,-2.080000e-04,
299,-7.744000e-02,-2.080000e-04,
300,-7.832000e-02,0.000000e+00,
301,-7.832000e-02,0.000000e+00,
302,-7.920000e-02,-2.080000e-04,
303,-7.920000e-02,-2.080000e-04,
304,-8.008000e-02,-2.080000e-04,
305,-8.008000e-02,-4.160000e-04,
306,-8.096000e-02,2.080000e-04,
307,-8.008000e-02,0.000000e+00,
308,-8.096000e-02,-2.080000e-04,
309,-8.184000e-02,-2.080000e-04,
310,-8.184000e-02,2.080000e-04,
311,-8.184000e-02,2.080000e-04,
312,-8.272000e-02,0.000000e+00,
313,-8.272000e-02,0.000000e+00,
314,-8.184000e-02,-4.160000e-04,
315,-8.184000e-02,-2.080000e-04,
316,-8.272000e-02,-4.160000e-04,
317,-8.184000e-02,-2.080000e-04,
318,-8.272000e-02,0.000000e+00,
319,-8.272000e-02,0.000000e+00,
320,-8.184000e-02,0.000000e+00,
321,-8.184000e-02,-2.080000e-04,
322,-8.184000e-02,-4.160000e-04,
323,-8.184000e-02,-2.080000e-04,
324,-8.184000e-02,0.000000e+00,
325,-8.184000e-02,0.000000e+00,
326,-8.096000e-02,0.000000e+00,
327,-8.184000e-02,0.000000e+00,
328,-8.008000e-02,-4.160000e-04,
329,-8.008000e-02,-2.080000e-04,
330,-8.008000e-02,0.000000e+00,
331,-8.008000e-02,0.000000e+00,
332,-7.920000e-02,2.080000e-04,
333,-7.920000e-02,2.080000e-04,
334,-7.832000e-02,-2.080000e-04,
335,-7.832000e-02,-4.160000e-04,
336,-7.656000e-02,0.000000e+00,
337,-7.656000e-02,2.080000e-04,
338,-7.656000e-02,0.000000e+00,
339,-7.656000e-02,-2.080000e-04,
340,-7.480000e-02,0.000000e+00,
341,-7.480000e-02,0.000000e+00,
342,-7.304000e-02,0.000000e+00,
343,-7.392000e-02,0.000000e+00,
344,-7.216000e-02,-2.080000e-04,
345,-7.216000e-02,-2.080000e-04,
346,-7.040000e-02,0.000000e+00,
347,-7.040000e-02,0.000000e+00,
348,-6.864000e-02,-2.080000e-04,
349,-6.864000e-02,-2.080000e-04,
350,-6.776000e-02,0.000000e+00,
351,-6.776000e-02,0.000000e+00,
352,-6.512000e-02,2.080000e-04,
353,-6.512000e-02,0.000000e+00,
354,-6.248000e-02,-2.080000e-04,
355,-6.248000e-02,-2.080000e-04,
356,-6.072000e-02,-2.080000e-04,
357,-6.160000e-02,-2.080000e-04,
358,-5.896000e-02,2.080000e-04,
359,-5.896000e-02,2.080000e-04,
360,-5.632000e-02,-4.160000e-04,
361,-5.632000e-02,-4.160000e-04,
362,-5.368000e-02,0.000000e+00,
363,-5.368000e-02,0.000000e+00,
364,-5.192000e-02,0.000000e+00,
365,-5.192000e-02,-2.080000e-04,
366,-4.928000e-02,0.000000e+00,
367,-5.016000e-02,0.000000e+00,
368,-4.664000e-02,-2.080000e-04,
369,-4.664000e-02,-2.080000e-04,
370,-4.400000e-02,-2.080000e-04,
371,-4.488000e-02,0.000000e+00,
372,-4.136000e-02,2.080000e-04,
373,-4.224000e-02,2.080000e-04,
374,-3.960000e-02,0.000000e+00,
375,-3.960000e-02,0.000000e+00,
376,-3.608000e-02,-2.080000e-04,
377,-3.608000e-02,-2.080000e-04,
378,-3.344000e-02,0.000000e+00,
379,-3.344000e-02,0.000000e+00,
380,-3.080000e-02,2.080000e-04,
381,-2.992000e-02,0.000000e+00,
382,-2.816000e-02,-4.160000e-04,
383,-2.816000e-02,-4.160000e-04,
384,-2.376000e-02,2.080000e-04,
385,-2.376000e-02,2.080000e-04,
386,-2.112000e-02,-2.080000e-04,
387,-2.112000e-02,-4.160000e-04,
388,-1.848000e-02,-2.080000e-04,
389,-1.848000e-02,0.000000e+00,
390,-1.584000e-02,0.000000e+00,
391,-1.496000e-02,0.000000e+00,
392,-1.232000e-02,2.080000e-04,
393,-1.232000e-02,2.080000e-04,
394,-9.680000e-03,-4.160000e-04,
395,-8.800000e-03,-4.160000e-04,
396,-5.280000e-03,0.000000e+00,
397,-5.280000e-03,0.000000e+00,
398,-2.640000e-03,0.000000e+00,
399,-3.520000e-03,2.080000e-04,
400,0.000000e+00,0.000000e+00,
401,-8.800000e-04,0.000000e+00,
402,3.520000e-03,-2.080000e-04,
403,3.520000e-03,-2.080000e-04,
404,6.160000e-03,-2.080000e-04,
405,6.160000e-03,-2.080000e-04,
406,8.800000e-03,2.080000e-04,
407,8.800000e-03,2.080000e-04,
408,1.232000e-02,-4.160000e-04,
409,1.232000e-02,-4.160000e-04,
410,1.584000e-02,0.000000e+00,
411,1.584000e-02,-2.080000e-04,
412,1.848000e-02,0.000000e+00,
413,1.936000e-02,2.080000e-04,
414,2.112000e-02,0.000000e+00,
415,2.200000e-02,0.000000e+00,
416,2.464000e-02,0.000000e+00,
417,2.464000e-02,0.000000e+00,
418,2.728000e-02,0.000000e+00,
419,2.816000e-02,-2.080000e-04,
420,3.080000e-02,0.000000e+00,
421,3.080000e-02,2.080000e-04,
422,3.256000e-02,-2.080000e-04,
423,3.344000e-02,-2.080000e-04,
424,3.608000e-02,0.000000e+00,
425,3.608000e-02,0.000000e+00,
426,3.872000e-02,0.000000e+00,
427,3.872000e-02,0.000000e+00,
428,4.224000e-02,-2.080000e-04,
429,4.224000e-02,-2.080000e-04,
430,4.400000e-02,0.000000e+00,
431,4.488000e-02,2.080000e-04,
432,4.664000e-02,0.000000e+00,
433,4.664000e-02,0.000000e+00,
434,4.928000e-02,-2.080000e-04,
435,4.928000e-02,-2.080000e-04,
436,5.192000e-02,0.000000e+00,
437,5.192000e-02,-2.080000e-04,
438,5.368000e-02,0.000000e+00,
439,5.368000e-02,0.000000e+00,
440,5.632000e-02,-2.080000e-04,
441,5.632000e-02,-2.080000e-04,
442,5.896000e-02,0.000000e+00,
443,5.896000e-02,0.000000e+00,
444,6.072000e-02,2.080000e-04,
445,6.072000e-02,2.080000e-04,
446,6.336000e-02,2.080000e-04,
447,6.248000e-02,2.080000e-04,
448,6.512000e-02,-2.080000e-04,
449,6.424000e-02,-2.080000e-04,
450,6.688000e-02,2.080000e-04,
451,6.688000e-02,2.080000e-04,
452,6.864000e-02,-2.080000e-04,
453,6.864000e-02,-2.080000e-04,
454,7.040000e-02,0.000000e+00,
455,7.040000e-02,0.000000e+00,
456,7.128000e-02,0.000000e+00,
457,7.216000e-02,2.080000e-04,
458,7.392000e-02,2.080000e-04,
459,7.392000e-02,0.000000e+00,
460,7.568000e-02,-2.080000e-04,
461,7.568000e-02,-4.160000e-04,
462,7.568000e-02,0.000000e+00,
463,7.656000e-02,-2.080000e-04,
464,7.744000e-02,0.000000e+00,
465,7.744000e-02,0.000000e+00,
466,7.920000e-02,-2.080000e-04,
467,7.832000e-02,-4.160000e-04,
468,7.920000e-02,-2.080000e-04,
469,7.920000e-02,-2.080000e-04,
470,8.008000e-02,0.000000e+00,
471,8.096000e-02,0.000000e+00,
472,8.096000e-02,0.000000e+00,
473,8.096000e-02,0.000000e+00,
474,8.184000e-02,-4.160000e-04,
475,8.184000e-02,-4.160000e-04,
476,8.184000e-02,0.000000e+00,
477,8.184000e-02,0.000000e+00,
478,8.184000e-02,2.080000e-04,
479,8.272000e-02,2.080000e-04,
480,8.272000e-02,-2.080000e-04,
481,8.272000e-02,-2.080000e-04,
482,8.272000e-02,0.000000e+00,
483,8.272000e-02,-2.080000e-04,
484,8.272000e-02,0.000000e+00,
485,8.272000e-02,0.000000e+00,
486,8.272000e-02,2.080000e-04,
487,8.360000e-02,2.080000e-04,
488,8.184000e-02,-4.160000e-04,
489,8.184000e-02,-2.080000e-04,
490,8.272000e-02,2.080000e-04,
491,8.272000e-02,2.080000e-04,
492,8.184000e-02,0.000000e+00,
493,8.184000e-02,0.000000e+00,
494,8.096000e-02,-6.240000e-04,
495,8.096000e-02,-6.240000e-04,
496,8.096000e-02,-2.080000e-04,
497,8.008000e-02,-2.080000e-04,
498,8.008000e-02,2.080000e-04,
499,8.008000e-02,0.000000e+00,
500,7.920000e-02,-4.160000e-04,
501,7.920000e-02,-4.160000e-04,
502,7.832000e-02,0.000000e+00,
503,7.832000e-02,-2.080000e-04,
504,7.744000e-02,2.080000e-04,
505,7.744000e-02,0.000000e+00,
506,7.568000e-02,-2.080000e-04,
507,7.568000e-02,-4.160000e-04,
508,7.480000e-02,-2.080000e-04,
509,7.480000e-02,-2.080000e-04,
510,7.304000e-02,2.080000e-04,
511,7.304000e-02,2.080000e-04,
512,7.128000e-02,2.080000e-04,
513,7.128000e-02,2.080000e-04,
514,7.040000e-02,-4.160000e-04,
515,7.040000e-02,-4.160000e-04,
516,6.776000e-02,0.000000e+00,
517,6.776000e-02,0.000000e+00,
518,6.600000e-02,2.080000e-04,
519,6.600000e-02,0.000000e+00,
520,6.424000e-02,-2.080000e-04,
521,6.424000e-02,-2.080000e-04,
522,6.248000e-02,-2.080000e-04,
523,6.248000e-02,-2.080000e-04,
524,6.072000e-02,0.000000e+00,
525,5.984000e-02,0.000000e+00,
526,5.808000e-02,-4.160000e-04,
527,5.808000e-02,-4.160000e-04,
528,5.544000e-02,-2.080000e-04,
529,5.632000e-02,-2.080000e-04,
530,5.368000e-02,0.000000e+00,
531,5.368000e-02,0.000000e+00,
532,5.104000e-02,0.000000e+00,
533,5.104000e-02,0.000000e+00,
534,4.840000e-02,-2.080000e-04,
535,4.840000e-02,-2.080000e-04,
536,4.576000e-02,0.000000e+00,
537,4.576000e-02,0.000000e+00,
538,4.312000e-02,0.000000e+00,
539,4.400000e-02,0.000000e+00,
540,4.048000e-02,-2.080000e-04,
541,4.048000e-02,-2.080000e-04,
542,3.872000e-02,0.000000e+00,
543,3.784000e-02,0.000000e+00,
544,3.520000e-02,-2.080000e-04,
545,3.520000e-02,0.000000e+00,
546,3.256000e-02,-2.080000e-04,
547,3.256000e-02,-2.080000e-04,
548,2.992000e-02,-2.080000e-04,
549,2.992000e-02,-2.080000e-04,
550,2.640000e-02,0.000000e+00,
551,2.640000e-02,0.000000e+00,
552,2.376000e-02,0.000000e+00,
553,2.376000e-02,0.000000e+00,
554,2.024000e-02,-2.080000e-04,
555,2.024000e-02,-2.080000e-04,
556,1.760000e-02,-2.080000e-04,
557,1.760000e-02,-2.080000e-04,
558,1.408000e-02,-2.080000e-04,
559,1.408000e-02,0.000000e+00,
560,1.144000e-02,-2.080000e-04,
561,1.232000e-02,-2.080000e-04,
562,8.800000e-03,-4.160000e-04,
563,8.800000e-03,-4.160000e-04,
564,5.280000e-03,2.080000e-04,
565,5.280000e-03,2.080000e-04,
566,1.760000e-03,-4.160000e-04,
567,1.760000e-03,-4.160000e-04,
568,-8.800000e-04,2.080000e-04,
569,-8.800000e-04,2.080000e-04,
570,-3.520000e-03,-6.240000e-04,
571,-3.520000e-03,-6.240000e-04,
572,-7.920000e-03,0.000000e+00,
573,-7.040000e-03,2.080000e-04,
574,-1.056000e-02,-2.080000e-04,
575,-1.056000e-02,-2.080000e-04,
576,-1.408000e-02,-2.080000e-04,
577,-1.408000e-02,-2.080000e-04,
578,-1.584000e-02,0.000000e+00,
579,-1.584000e-02,0.000000e+00,
580,-1.936000e-02,0.000000e+00,
581,-2.024000e-02,0.000000e+00,
582,-2.288000e-02,-2.080000e-04,
583,-2.288000e-02,-2.080000e-04,
584,-2.552000e-02,-2.080000e-04,
585,-2.552000e-02,0.000000e+00,
586,-2.816000e-02,2.080000e-04,
587,-2.904000e-02,0.000000e+00,
588,-3.168000e-02,-4.160000e-04,
589,-3.168000e-02,-4.160000e-04,
590,-3.432000e-02,-2.080000e-04,
591,-3.432000e-02,-2.080000e-04,
592,-3.696000e-02,0.000000e+00,
593,-3.696000e-02,0.000000e+00,
594,-3.960000e-02,0.000000e+00,
595,-3.960000e-02,0.000000e+00,
596,-4.224000e-02,-2.080000e-04,
597,-4.312000e-02,0.000000e+00,
598,-4.488000e-02,0.000000e+00,
599,-4.488000e-02,-2.080000e-04,
600,-4.752000e-02,0.000000e+00,
601,-4.752000e-02,0.000000e+00,
602,-5.016000e-02,-4.160000e-04,
603,-5.016000e-02,-4.160000e-04,
604,-5.280000e-02,-2.080000e-04,
605,-5.280000e-02,-2.080000e-04,
606,-5.456000e-02,-2.080000e-04,
607,-5.456000e-02,0.000000e+00,
608,-5.720000e-02,-2.080000e-04,
609,-5.720000e-02,0.000000e+00,
610,-5.984000e-02,0.000000e+00,
611,-5.984000e-02,0.000000e+00,
612,-6.160000e-02,-4.160000e-04,
613,-6.160000e-02,-4.160000e-04,
614,-6.336000e-02,-4.160000e-04,
615,-6.336000e-02,-4.160000e-04,
616,-6.600000e-02,0.000000e+00,
617,-6.600000e-02,0.000000e+00,
618,-6.776000e-02,0.000000e+00,
619,-6.776000e-02,0.000000e+00,
620,-6.952000e-02,0.000000e+00,
621,-6.952000e-02,0.000000e+00,
622,-7.040000e-02,0.000000e+00,
623,-7.128000e-02,-2.080000e-04,
624,-7.304000e-02,0.000000e+00,
625,-7.304000e-02,0.000000e+00,
626,-7.392000e-02,0.000000e+00,
