parte2/esp10/Data/h/f3/3.csv

X,CH1,CH2,Start,Increment,
Sequence,Volt,Volt,2.220200e-04,2.000000e-08,
0,-7.744000e-02,-2.080000e-04,
1,-7.744000e-02,-2.080000e-04,
2,-7.744000e-02,-2.080000e-04,
3,-7.744000e-02,-2.080000e-04,
4,-7.656000e-02,2.080000e-04,
5,-7.568000e-02,2.080000e-04,
6,-7.480000e-02,0.000000e+00,
7,-7.568000e-02,0.000000e+00,
8,-7.392000e-02,2.080000e-04,
9,-7.392000e-02,2.080000e-04,
10,-7.304000e-02,2.080000e-04,
11,-7.216000e-02,2.080000e-04,
12,-7.128000e-02,0.000000e+00,
13,-7.128000e-02,0.000000e+00,
14,-6.952000e-02,2.080000e-04,
15,-6.952000e-02,2.080000e-04,
16,-6.776000e-02,0.000000e+00,
17,-6.688000e-02,-2.080000e-04,
18,-6.600000e-02,2.080000e-04,
19,-6.600000e-02,2.080000e-04,
20,-6.424000e-02,0.000000e+00,
21,-6.336000e-02,-2.080000e-04,
22,-6.160000e-02,-2.080000e-04,
23,-6.160000e-02,-2.080000e-04,
24,-5.896000e-02,0.000000e+00,
25,-5.984000e-02,2.080000e-04,
26,-5.808000e-02,0.000000e+00,
27,-5.720000e-02,0.000000e+00,
28,-5.456000e-02,0.000000e+00,
29,-5.544000e-02,-2.080000e-04,
30,-5.280000e-02,-2.080000e-04,
31,-5.280000e-02,0.000000e+00,
32,-5.016000e-02,2.080000e-04,
33,-5.016000e-02,2.080000e-04,
34,-4.752000e-02,2.080000e-04,
35,-4.752000e-02,0.000000e+00,
36,-4.488000e-02,0.000000e+00,
37,-4.488000e-02,-2.080000e-04,
38,-4.224000e-02,4.160000e-04,
39,-4.224000e-02,2.080000e-04,
40,-4.048000e-02,4.160000e-04,
41,-4.048000e-02,4.160000e-04,
42,-3.696000e-02,2.080000e-04,
43,-3.696000e-02,0.000000e+00,
44,-3.432000e-02,0.000000e+00,
45,-3.432000e-02,0.000000e+00,
46,-3.168000e-02,4.160000e-04,
47,-3.080000e-02,4.160000e-04,
48,-2.816000e-02,2.080000e-04,
49,-2.816000e-02,0.000000e+00,
50,-2.552000e-02,0.000000e+00,
51,-2.552000e-02,0.000000e+00,
52,-2.288000e-02,2.080000e-04,
53,-2.288000e-02,4.160000e-04,
54,-2.024000e-02,0.000000e+00,
55,-2.024000e-02,-2.080000e-04,
56,-1.672000e-02,0.000000e+00,
57,-1.672000e-02,2.080000e-04,
58,-1.320000e-02,0.000000e+00,
59,-1.408000e-02,-2.080000e-04,
60,-1.056000e-02,4.160000e-04,
61,-9.680000e-03,4.160000e-04,
62,-7.040000e-03,6.240000e-04,
63,-7.040000e-03,4.160000e-04,
64,-4.400000e-03,-2.080000e-04,
65,-4.400000e-03,-2.080000e-04,
66,0.000000e+00,6.240000e-04,
67,0.000000e+00,6.240000e-04,
68,2.640000e-03,-4.160000e-04,
69,2.640000e-03,-4.160000e-04,
70,5.280000e-03,2.080000e-04,
71,4.400000e-03,0.000000e+00,
72,7.920000e-03,0.000000e+00,
73,7.920000e-03,2.080000e-04,
74,1.144000e-02,6.240000e-04,
75,1.144000e-02,6.240000e-04,
76,1.496000e-02,-4.160000e-04,
77,1.496000e-02,-6.240000e-04,
78,1.760000e-02,4.160000e-04,
79,1.760000e-02,2.080000e-04,
80,2.024000e-02,2.080000e-04,
81,2.024000e-02,2.080000e-04,
82,2.376000e-02,0.000000e+00,
83,2.376000e-02,0.000000e+00,
84,2.640000e-02,2.080000e-04,
85,2.728000e-02,2.080000e-04,
86,2.904000e-02,2.080000e-04,
87,2.904000e-02,2.080000e-04,
88,3.168000e-02,2.080000e-04,
89,3.168000e-02,2.080000e-04,
90,3.520000e-02,0.000000e+00,
91,3.520000e-02,0.000000e+00,
92,3.784000e-02,4.160000e-04,
93,3.872000e-02,6.240000e-04,
94,4.048000e-02,4.160000e-04,
95,4.048000e-02,4.160000e-04,
96,4.312000e-02,-2.080000e-04,
97,4.400000e-02,0.000000e+00,
98,4.664000e-02,4.160000e-04,
99,4.576000e-02,4.160000e-04,
100,4.840000e-02,2.080000e-04,
101,4.840000e-02,2.080000e-04,
102,5.104000e-02,-2.080000e-04,
103,5.016000e-02,-2.080000e-04,
104,5.368000e-02,4.160000e-04,
105,5.368000e-02,4.160000e-04,
106,5.632000e-02,2.080000e-04,
107,5.544000e-02,2.080000e-04,
108,5.808000e-02,2.080000e-04,
109,5.808000e-02,4.160000e-04,
110,6.072000e-02,-2.080000e-04,
111,6.072000e-02,-4.160000e-04,
112,6.248000e-02,2.080000e-04,
113,6.248000e-02,2.080000e-04,
114,6.512000e-02,2.080000e-04,
115,6.512000e-02,2.080000e-04,
116,6.600000e-02,-2.080000e-04,
117,6.688000e-02,-2.080000e-04,
118,6.776000e-02,2.080000e-04,
119,6.864000e-02,0.000000e+00,
120,6.952000e-02,2.080000e-04,
121,6.952000e-02,2.080000e-04,
122,7.128000e-02,2.080000e-04,
123,7.128000e-02,4.160000e-04,
124,7.304000e-02,2.080000e-04,
125,7.304000e-02,0.000000e+00,
126,7.392000e-02,2.080000e-04,
127,7.392000e-02,0.000000e+00,
128,7.568000e-02,2.080000e-04,
129,7.568000e-02,2.080000e-04,
130,7.656000e-02,4.160000e-04,
131,7.744000e-02,4.160000e-04,
132,7.744000e-02,-2.080000e-04,
133,7.744000e-02,-2.080000e-04,
134,7.920000e-02,2.080000e-04,
135,7.920000e-02,2.080000e-04,
136,8.008000e-02,2.080000e-04,
137,8.008000e-02,2.080000e-04,
138,8.096000e-02,2.080000e-04,
139,8.096000e-02,2.080000e-04,
140,8.184000e-02,2.080000e-04,
141,8.096000e-02,2.080000e-04,
142,8.184000e-02,-2.080000e-04,
143,8.184000e-02,0.000000e+00,
144,8.272000e-02,2.080000e-04,
145,8.272000e-02,4.160000e-04,
146,8.272000e-02,-4.160000e-04,
147,8.184000e-02,-2.080000e-04,
148,8.272000e-02,2.080000e-04,
149,8.272000e-02,2.080000e-04,
150,8.272000e-02,2.080000e-04,
151,8.272000e-02,4.160000e-04,
152,8.272000e-02,2.080000e-04,
153,8.272000e-02,2.080000e-04,
154,8.272000e-02,2.080000e-04,
155,8.272000e-02,4.160000e-04,
156,8.184000e-02,0.000000e+00,
157,8.272000e-02,0.000000e+00,
158,8.272000e-02,2.080000e-04,
159,8.272000e-02,0.000000e+00,
160,8.184000e-02,0.000000e+00,
161,8.184000e-02,0.000000e+00,
162,8.096000e-02,0.000000e+00,
163,8.096000e-02,0.000000e+00,
164,8.008000e-02,0.000000e+00,
165,8.008000e-02,0.000000e+00,
166,8.008000e-02,-2.080000e-04,
167,8.008000e-02,-2.080000e-04,
168,7.832000e-02,0.000000e+00,
169,7.920000e-02,2.080000e-04,
170,7.744000e-02,0.000000e+00,
171,7.744000e-02,2.080000e-04,
172,7.656000e-02,0.000000e+00,
173,7.656000e-02,-2.080000e-04,
174,7.480000e-02,0.000000e+00,
175,7.480000e-02,0.000000e+00,
176,7.392000e-02,0.000000e+00,
177,7.392000e-02,2.080000e-04,
178,7.216000e-02,-2.080000e-04,
179,7.128000e-02,-2.080000e-04,
180,7.040000e-02,4.160000e-04,
181,7.040000e-02,2.080000e-04,
182,6.864000e-02,-2.080000e-04,
183,6.864000e-02,0.000000e+00,
184,6.688000e-02,4.160000e-04,
185,6.688000e-02,4.160000e-04,
186,6.424000e-02,0.000000e+00,
187,6.424000e-02,0.000000e+00,
188,6.248000e-02,2.080000e-04,
189,6.248000e-02,2.080000e-04,
190,6.072000e-02,2.080000e-04,
191,6.072000e-02,2.080000e-04,
192,5.808000e-02,0.000000e+00,
193,5.896000e-02,0.000000e+00,
194,5.632000e-02,-2.080000e-04,
195,5.632000e-02,-2.080000e-04,
196,5.456000e-02,0.000000e+00,
197,5.368000e-02,2.080000e-04,
198,5.192000e-02,0.000000e+00,
199,5.192000e-02,0.000000e+00,
200,4.928000e-02,0.000000e+00,
201,4.928000e-02,2.080000e-04,
202,4.664000e-02,-2.080000e-04,
203,4.664000e-02,-2.080000e-04,
204,4.488000e-02,2.080000e-04,
205,4.488000e-02,0.000000e+00,
206,4.224000e-02,-2.080000e-04,
207,4.224000e-02,-2.080000e-04,
208,3.960000e-02,-4.160000e-04,
209,3.872000e-02,-4.160000e-04,
210,3.696000e-02,4.160000e-04,
211,3.608000e-02,4.160000e-04,
212,3.344000e-02,0.000000e+00,
213,3.344000e-02,0.000000e+00,
214,3.080000e-02,2.080000e-04,
215,3.080000e-02,2.080000e-04,
216,2.728000e-02,-2.080000e-04,
217,2.728000e-02,-2.080000e-04,
218,2.464000e-02,4.160000e-04,
219,2.376000e-02,4.160000e-04,
220,2.200000e-02,0.000000e+00,
221,2.112000e-02,0.000000e+00,
222,1.848000e-02,0.000000e+00,
223,1.848000e-02,2.080000e-04,
224,1.496000e-02,0.000000e+00,
225,1.496000e-02,0.000000e+00,
226,1.232000e-02,0.000000e+00,
227,1.232000e-02,0.000000e+00,
228,9.680000e-03,2.080000e-04,
229,9.680000e-03,0.000000e+00,
230,6.160000e-03,-2.080000e-04,
231,6.160000e-03,0.000000e+00,
232,3.520000e-03,-2.080000e-04,
233,2.640000e-03,-2.080000e-04,
234,8.800000e-04,-2.080000e-04,
235,8.800000e-04,-2.080000e-04,
236,-3.520000e-03,4.160000e-04,
237,-3.520000e-03,4.160000e-04,
238,-7.040000e-03,2.080000e-04,
239,-7.040000e-03,2.080000e-04,
240,-8.800000e-03,-2.080000e-04,
241,-8.800000e-03,-2.080000e-04,
242,-1.144000e-02,2.080000e-04,
243,-1.232000e-02,2.080000e-04,
244,-1.584000e-02,4.160000e-04,
245,-1.584000e-02,4.160000e-04,
246,-1.848000e-02,0.000000e+00,
247,-1.936000e-02,0.000000e+00,
248,-2.112000e-02,0.000000e+00,
249,-2.112000e-02,0.000000e+00,
250,-2.376000e-02,2.080000e-04,
251,-2.376000e-02,2.080000e-04,
252,-2.816000e-02,0.000000e+00,
253,-2.816000e-02,-2.080000e-04,
254,-3.080000e-02,-2.080000e-04,
255,-3.080000e-02,-4.160000e-04,
256,-3.344000e-02,-2.080000e-04,
257,-3.344000e-02,-2.080000e-04,
258,-3.608000e-02,2.080000e-04,
259,-3.608000e-02,2.080000e-04,
260,-3.872000e-02,-2.080000e-04,
261,-3.960000e-02,-2.080000e-04,
262,-4.224000e-02,-2.080000e-04,
263,-4.136000e-02,-2.080000e-04,
264,-4.400000e-02,0.000000e+00,
265,-4.400000e-02,0.000000e+00,
266,-4.664000e-02,0.000000e+00,
267,-4.752000e-02,2.080000e-04,
268,-4.928000e-02,0.000000e+00,
269,-5.016000e-02,0.000000e+00,
270,-5.192000e-02,2.080000e-04,
271,-5.192000e-02,2.080000e-04,
272,-5.456000e-02,0.000000e+00,
273,-5.368000e-02,0.000000e+00,
274,-5.632000e-02,2.080000e-04,
275,-5.632000e-02,2.080000e-04,
276,-5.896000e-02,0.000000e+00,
277,-5.896000e-02,0.000000e+00,
278,-6.072000e-02,2.080000e-04,
279,-6.072000e-02,0.000000e+00,
280,-6.336000e-02,0.000000e+00,
281,-6.336000e-02,-2.080000e-04,
282,-6.512000e-02,-2.080000e-04,
283,-6.512000e-02,0.000000e+00,
284,-6.688000e-02,4.160000e-04,
285,-6.688000e-02,4.160000e-04,
286,-6.864000e-02,-2.080000e-04,
287,-6.864000e-02,-2.080000e-04,
288,-7.040000e-02,-2.080000e-04,
289,-7.040000e-02,0.000000e+00,
290,-7.128000e-02,2.080000e-04,
291,-7.216000e-02,2.080000e-04,
292,-7.392000e-02,0.000000e+00,
293,-7.392000e-02,-2.080000e-04,
294,-7.480000e-02,-4.160000e-04,
295,-7.480000e-02,-2.080000e-04,
296,-7.568000e-02,-2.080000e-04,
297,-7.656000e-02,0.000000e+00,
298,-7.744000e-02,4.160000e-04,
299,-7.744000e-02,4.160000e-04,
300,-7.832000e-02,-2.080000e-04,
301,-7.832000e-02,-2.080000e-04,
302,-7.920000e-02,0.000000e+00,
303,-7.920000e-02,0.000000e+00,
304,-7.920000e-02,6.240000e-04,
305,-8.008000e-02,4.160000e-04,
306,-8.096000e-02,-4.160000e-04,
307,-8.008000e-02,-4.160000e-04,
308,-8.096000e-02,-2.080000e-04,
309,-8.184000e-02,-2.080000e-04,
310,-8.184000e-02,2.080000e-04,
311,-8.096000e-02,2.080000e-04,
312,-8.184000e-02,-2.080000e-04,
313,-8.184000e-02,-2.080000e-04,
314,-8.272000e-02,-2.080000e-04,
315,-8.272000e-02,-2.080000e-04,
316,-8.272000e-02,2.080000e-04,
317,-8.272000e-02,0.000000e+00,
318,-8.184000e-02,2.080000e-04,
319,-8.272000e-02,2.080000e-04,
320,-8.184000e-02,0.000000e+00,
321,-8.184000e-02,0.000000e+00,
322,-8.184000e-02,-4.160000e-04,
323,-8.272000e-02,-4.160000e-04,
324,-8.184000e-02,6.240000e-04,
325,-8.096000e-02,4.160000e-04,
326,-8.184000e-02,-2.080000e-04,
327,-8.184000e-02,-2.080000e-04,
328,-8.096000e-02,2.080000e-04,
329,-8.096000e-02,4.160000e-04,
330,-8.008000e-02,4.160000e-04,
331,-8.008000e-02,4.160000e-04,
332,-7.920000e-02,0.000000e+00,
333,-7.920000e-02,0.000000e+00,
334,-7.832000e-02,0.000000e+00,
335,-7.832000e-02,0.000000e+00,
336,-7.744000e-02,4.160000e-04,
337,-7.744000e-02,4.160000e-04,
338,-7.568000e-02,0.000000e+00,
339,-7.568000e-02,0.000000e+00,
340,-7.480000e-02,0.000000e+00,
341,-7.392000e-02,-2.080000e-04,
342,-7.392000e-02,0.000000e+00,
343,-7.304000e-02,0.000000e+00,
344,-7.216000e-02,0.000000e+00,
345,-7.216000e-02,0.000000e+00,
346,-7.040000e-02,-2.080000e-04,
347,-7.040000e-02,-2.080000e-04,
348,-6.864000e-02,-2.080000e-04,
349,-6.864000e-02,-2.080000e-04,
350,-6.688000e-02,6.240000e-04,
351,-6.688000e-02,6.240000e-04,
352,-6.424000e-02,-4.160000e-04,
353,-6.512000e-02,-4.160000e-04,
354,-6.248000e-02,-2.080000e-04,
355,-6.248000e-02,-2.080000e-04,
356,-6.072000e-02,2.080000e-04,
357,-6.072000e-02,0.000000e+00,
358,-5.896000e-02,2.080000e-04,
359,-5.896000e-02,2.080000e-04,
360,-5.720000e-02,0.000000e+00,
361,-5.632000e-02,0.000000e+00,
362,-5.456000e-02,2.080000e-04,
363,-5.456000e-02,4.160000e-04,
364,-5.192000e-02,6.240000e-04,
365,-5.192000e-02,6.240000e-04,
366,-4.928000e-02,0.000000e+00,
367,-4.928000e-02,-2.080000e-04,
368,-4.664000e-02,2.080000e-04,
369,-4.664000e-02,2.080000e-04,
370,-4.400000e-02,2.080000e-04,
371,-4.400000e-02,2.080000e-04,
372,-4.136000e-02,0.000000e+00,
373,-4.136000e-02,0.000000e+00,
374,-3.960000e-02,0.000000e+00,
375,-3.960000e-02,0.000000e+00,
376,-3.608000e-02,2.080000e-04,
377,-3.608000e-02,0.000000e+00,
378,-3.256000e-02,0.000000e+00,
379,-3.344000e-02,0.000000e+00,
380,-3.080000e-02,2.080000e-04,
381,-2.992000e-02,4.160000e-04,
382,-2.728000e-02,2.080000e-04,
383,-2.728000e-02,2.080000e-04,
384,-2.464000e-02,0.000000e+00,
385,-2.376000e-02,2.080000e-04,
386,-2.112000e-02,-2.080000e-04,
387,-2.112000e-02,-2.080000e-04,
388,-1.848000e-02,2.080000e-04,
389,-1.848000e-02,0.000000e+00,
390,-1.584000e-02,4.160000e-04,
391,-1.584000e-02,2.080000e-04,
392,-1.232000e-02,-2.080000e-04,
393,-1.232000e-02,-2.080000e-04,
394,-9.680000e-03,2.080000e-04,
395,-9.680000e-03,4.160000e-04,
396,-5.280000e-03,4.160000e-04,
397,-5.280000e-03,6.240000e-04,
398,-2.640000e-03,-2.080000e-04,
399,-3.520000e-03,-2.080000e-04,
400,-8.800000e-04,0.000000e+00,
401,0.000000e+00,-2.080000e-04,
402,3.520000e-03,0.000000e+00,
403,3.520000e-03,0.000000e+00,
404,6.160000e-03,0.000000e+00,
405,6.160000e-03,0.000000e+00,
406,8.800000e-03,-2.080000e-04,
407,9.680000e-03,-4.160000e-04,
408,1.232000e-02,0.000000e+00,
409,1.232000e-02,2.080000e-04,
410,1.584000e-02,4.160000e-04,
411,1.584000e-02,4.160000e-04,
412,1.848000e-02,0.000000e+00,
413,1.936000e-02,0.000000e+00,
414,2.112000e-02,2.080000e-04,
415,2.112000e-02,2.080000e-04,
416,2.464000e-02,2.080000e-04,
417,2.464000e-02,2.080000e-04,
418,2.816000e-02,2.080000e-04,
419,2.728000e-02,2.080000e-04,
420,3.080000e-02,0.000000e+00,
421,2.992000e-02,0.000000e+00,
422,3.344000e-02,6.240000e-04,
423,3.344000e-02,4.160000e-04,
424,3.608000e-02,4.160000e-04,
425,3.608000e-02,4.160000e-04,
426,3.872000e-02,0.000000e+00,
427,3.872000e-02,0.000000e+00,
428,4.136000e-02,2.080000e-04,
429,4.136000e-02,2.080000e-04,
430,4.488000e-02,2.080000e-04,
431,4.488000e-02,0.000000e+00,
432,4.664000e-02,-2.080000e-04,
433,4.664000e-02,-2.080000e-04,
434,4.928000e-02,2.080000e-04,
435,4.928000e-02,2.080000e-04,
436,5.192000e-02,2.080000e-04,
437,5.104000e-02,0.000000e+00,
438,5.368000e-02,2.080000e-04,
439,5.456000e-02,2.080000e-04,
440,5.632000e-02,-4.160000e-04,
441,5.720000e-02,-4.160000e-04,
442,5.896000e-02,2.080000e-04,
443,5.896000e-02,2.080000e-04,
444,6.072000e-02,2.080000e-04,
445,6.160000e-02,2.080000e-04,
446,6.336000e-02,0.000000e+00,
447,6.248000e-02,2.080000e-04,
448,6.512000e-02,2.080000e-04,
449,6.512000e-02,2.080000e-04,
450,6.688000e-02,0.000000e+00,
451,6.688000e-02,0.000000e+00,
452,6.864000e-02,-2.080000e-04,
453,6.864000e-02,0.000000e+00,
454,6.952000e-02,2.080000e-04,
455,7.040000e-02,2.080000e-04,
456,7.128000e-02,2.080000e-04,
457,7.216000e-02,2.080000e-04,
458,7.392000e-02,0.000000e+00,
459,7.304000e-02,2.080000e-04,
460,7.480000e-02,2.080000e-04,
461,7.480000e-02,4.160000e-04,
462,7.568000e-02,-2.080000e-04,
463,7.568000e-02,0.000000e+00,
464,7.744000e-02,2.080000e-04,
465,7.744000e-02,2.080000e-04,
466,7.832000e-02,-4.160000e-04,
467,7.832000e-02,-2.080000e-04,
468,7.920000e-02,4.160000e-04,
469,7.920000e-02,4.160000e-04,
470,8.008000e-02,2.080000e-04,
471,8.008000e-02,2.080000e-04,
472,8.096000e-02,-4.160000e-04,
473,8.096000e-02,-2.080000e-04,
474,8.184000e-02,2.080000e-04,
475,8.184000e-02,4.160000e-04,
476,8.184000e-02,2.080000e-04,
477,8.184000e-02,2.080000e-04,
478,8.272000e-02,4.160000e-04,
479,8.184000e-02,4.160000e-04,
480,8.272000e-02,2.080000e-04,
481,8.272000e-02,2.080000e-04,
482,8.272000e-02,-2.080000e-04,
483,8.272000e-02,-2.080000e-04,
484,8.360000e-02,2.080000e-04,
485,8.360000e-02,0.000000e+00,
486,8.272000e-02,0.000000e+00,
487,8.272000e-02,0.000000e+00,
488,8.272000e-02,0.000000e+00,
489,8.272000e-02,0.000000e+00,
490,8.272000e-02,2.080000e-04,
491,8.272000e-02,2.080000e-04,
492,8.184000e-02,-2.080000e-04,
493,8.184000e-02,-2.080000e-04,
494,8.184000e-02,0.000000e+00,
495,8.096000e-02,0.000000e+00,
496,8.096000e-02,-2.080000e-04,
497,8.096000e-02,-2.080000e-04,
498,8.008000e-02,2.080000e-04,
499,8.008000e-02,0.000000e+00,
500,7.920000e-02,0.000000e+00,
501,7.920000e-02,2.080000e-04,
502,7.744000e-02,2.080000e-04,
503,7.744000e-02,2.080000e-04,
504,7.744000e-02,2.080000e-04,
505,7.656000e-02,2.080000e-04,
506,7.568000e-02,-2.080000e-04,
507,7.568000e-02,-2.080000e-04,
508,7.392000e-02,2.080000e-04,
509,7.392000e-02,2.080000e-04,
510,7.216000e-02,4.160000e-04,
511,7.304000e-02,2.080000e-04,
512,7.128000e-02,2.080000e-04,
513,7.128000e-02,0.000000e+00,
514,6.952000e-02,2.080000e-04,
515,7.040000e-02,2.080000e-04,
516,6.864000e-02,0.000000e+00,
517,6.776000e-02,0.000000e+00,
518,6.600000e-02,0.000000e+00,
519,6.600000e-02,0.000000e+00,
520,6.424000e-02,0.000000e+00,
521,6.424000e-02,2.080000e-04,
522,6.248000e-02,-2.080000e-04,
523,6.248000e-02,0.000000e+00,
524,5.984000e-02,0.000000e+00,
525,5.984000e-02,0.000000e+00,
526,5.808000e-02,0.000000e+00,
527,5.808000e-02,0.000000e+00,
528,5.632000e-02,0.000000e+00,
529,5.632000e-02,0.000000e+00,
530,5.368000e-02,0.000000e+00,
531,5.368000e-02,0.000000e+00,
532,5.104000e-02,-4.160000e-04,
533,5.104000e-02,-4.160000e-04,
534,4.840000e-02,2.080000e-04,
535,4.840000e-02,2.080000e-04,
536,4.576000e-02,0.000000e+00,
537,4.576000e-02,0.000000e+00,
538,4.312000e-02,-2.080000e-04,
539,4.312000e-02,-2.080000e-04,
540,4.136000e-02,4.160000e-04,
541,4.048000e-02,4.160000e-04,
542,3.784000e-02,2.080000e-04,
543,3.784000e-02,2.080000e-04,
544,3.520000e-02,0.000000e+00,
545,3.520000e-02,0.000000e+00,
546,3.256000e-02,-2.080000e-04,
547,3.256000e-02,0.000000e+00,
548,2.992000e-02,2.080000e-04,
549,2.904000e-02,2.080000e-04,
550,2.640000e-02,0.000000e+00,
551,2.640000e-02,2.080000e-04,
552,2.376000e-02,-2.080000e-04,
553,2.288000e-02,-2.080000e-04,
554,2.112000e-02,2.080000e-04,
555,2.112000e-02,2.080000e-04,
556,1.760000e-02,0.000000e+00,
557,1.672000e-02,2.080000e-04,
558,1.496000e-02,-2.080000e-04,
559,1.408000e-02,-2.080000e-04,
560,1.144000e-02,2.080000e-04,
561,1.144000e-02,2.080000e-04,
562,8.800000e-03,4.160000e-04,
563,8.800000e-03,4.160000e-04,
564,5.280000e-03,-2.080000e-04,
565,5.280000e-03,-2.080000e-04,
566,1.760000e-03,0.000000e+00,
567,1.760000e-03,-2.080000e-04,
568,-8.800000e-04,4.160000e-04,
569,-8.800000e-04,4.160000e-04,
570,-3.520000e-03,-2.080000e-04,
571,-3.520000e-03,-2.080000e-04,
572,-7.040000e-03,0.000000e+00,
573,-7.920000e-03,-2.080000e-04,
574,-1.056000e-02,4.160000e-04,
575,-1.056000e-02,4.160000e-04,
576,-1.320000e-02,0.000000e+00,
577,-1.408000e-02,0.000000e+00,
578,-1.584000e-02,-4.160000e-04,
579,-1.584000e-02,-4.160000e-04,
580,-1.936000e-02,-4.160000e-04,
581,-2.024000e-02,-4.160000e-04,
582,-2.288000e-02,0.000000e+00,
583,-2.200000e-02,2.080000e-04,
584,-2.552000e-02,-4.160000e-04,
585,-2.552000e-02,-2.080000e-04,
586,-2.816000e-02,0.000000e+00,
587,-2.816000e-02,-2.080000e-04,
588,-3.168000e-02,0.000000e+00,
589,-3.168000e-02,0.000000e+00,
590,-3.432000e-02,0.000000e+00,
591,-3.432000e-02,0.000000e+00,
592,-3.696000e-02,-2.080000e-04,
593,-3.696000e-02,-2.080000e-04,
594,-3.960000e-02,2.080000e-04,
595,-3.960000e-02,2.080000e-04,
596,-4.224000e-02,2.080000e-04,
597,-4.224000e-02,2.080000e-04,
598,-4.488000e-02,0.000000e+00,
599,-4.576000e-02,0.000000e+00,
600,-4.840000e-02,2.080000e-04,
601,-4.752000e-02,2.080000e-04,
602,-5.016000e-02,-2.080000e-04,
603,-5.016000e-02,-2.080000e-04,
604,-5.280000e-02,4.160000e-04,
605,-5.280000e-02,4.160000e-04,
606,-5.544000e-02,-2.080000e-04,
607,-5.544000e-02,-2.080000e-04,
608,-5.720000e-02,4.160000e-04,
609,-5.720000e-02,4.160000e-04,
610,-5.896000e-02,-2.080000e-04,
611,-5.896000e-02,-2.080000e-04,
612,-6.160000e-02,-4.160000e-04,
613,-6.248000e-02,-2.080000e-04,
614,-6.336000e-02,2.080000e-04,
615,-6.336000e-02,2.080000e-04,
616,-6.600000e-02,0.000000e+00,
617,-6.600000e-02,0.000000e+00,
618,-6.688000e-02,2.080000e-04,
619,-6.688000e-02,2.080000e-04,
620,-6.864000e-02,-2.080000e-04,
621,-6.952000e-02,-2.080000e-04,
622,-7.128000e-02,2.080000e-04,
623,-7.040000e-02,2.080000e-04,
624,-7.216000e-02,2.080000e-04,
625,-7.216000e-02,0.000000e+00,
626,-7.392000e-02,-2.080000e-04,
627,-7.392000e-02,-2.080000e-04,
628,-7.480000e-02,0.000000e+00,
629,-7.480000e-02,0.000000e+00,
630,-7.656000e-02,0.000000e+00,
