parte2/esp9/Con_sorgente/Data_common_mode/2/1.csv

X,CH1,CH2,Start,Increment,
Sequence,Volt,Volt,-7.000000e-03,1.000000e-05,
0,-7.600001e-01,-8.000000e-04,
1,-7.520000e-01,-1.200000e-03,
2,-7.600001e-01,-8.000000e-04,
3,-7.520000e-01,-1.200000e-03,
4,-7.520000e-01,-1.200000e-03,
5,-7.520000e-01,-1.600000e-03,
6,-7.520000e-01,-1.200000e-03,
7,-7.520000e-01,-9.999999e-04,
8,-7.520000e-01,-4.000000e-04,
9,-7.520000e-01,0.000000e+00,
10,-7.520000e-01,-9.999999e-04,
11,-7.440000e-01,-6.000000e-04,
12,-7.360001e-01,2.000000e-04,
13,-7.440000e-01,-4.000000e-04,
14,-7.360001e-01,-6.000000e-04,
15,-7.360001e-01,-9.999999e-04,
16,-7.280000e-01,-1.400000e-03,
17,-7.360001e-01,-1.800000e-03,
18,-7.200000e-01,-4.000000e-04,
19,-7.280000e-01,0.000000e+00,
20,-7.200000e-01,2.000000e-04,
21,-7.120000e-01,-2.000000e-04,
22,-7.120000e-01,-4.000000e-04,
23,-7.040001e-01,-8.000000e-04,
24,-7.040001e-01,-8.000000e-04,
25,-6.960000e-01,-4.000000e-04,
26,-6.960000e-01,-6.000000e-04,
27,-6.880000e-01,-9.999999e-04,
28,-6.800000e-01,0.000000e+00,
29,-6.800000e-01,4.000000e-04,
30,-6.720001e-01,0.000000e+00,
31,-6.640000e-01,4.000000e-04,
32,-6.560000e-01,9.999999e-04,
33,-6.560000e-01,1.400000e-03,
34,-6.480000e-01,-9.999999e-04,
35,-6.480000e-01,-6.000000e-04,
36,-6.320000e-01,-6.000000e-04,
37,-6.400000e-01,-9.999999e-04,
38,-6.240000e-01,-4.000000e-04,
39,-6.160001e-01,0.000000e+00,
40,-6.080000e-01,-1.200000e-03,
41,-6.000000e-01,-8.000000e-04,
42,-5.920000e-01,-4.000000e-04,
43,-5.920000e-01,0.000000e+00,
44,-5.760000e-01,0.000000e+00,
45,-5.760000e-01,-4.000000e-04,
46,-5.600000e-01,-2.000000e-03,
47,-5.600000e-01,-1.600000e-03,
48,-5.440000e-01,-9.999999e-04,
49,-5.360000e-01,-6.000000e-04,
50,-5.280000e-01,0.000000e+00,
51,-5.280000e-01,4.000000e-04,
52,-5.120000e-01,2.000000e-04,
53,-5.040000e-01,-2.000000e-04,
54,-4.880000e-01,-9.999999e-04,
55,-4.880000e-01,-6.000000e-04,
56,-4.720000e-01,9.999999e-04,
57,-4.720000e-01,6.000000e-04,
58,-4.560000e-01,9.999999e-04,
59,-4.480000e-01,6.000000e-04,
60,-4.320000e-01,-1.200000e-03,
61,-4.320000e-01,-8.000000e-04,
62,-4.160000e-01,0.000000e+00,
63,-4.160000e-01,4.000000e-04,
64,-3.920000e-01,2.000000e-04,
65,-3.920000e-01,6.000000e-04,
66,-3.760000e-01,0.000000e+00,
67,-3.680000e-01,-4.000000e-04,
68,-3.520000e-01,-4.000000e-04,
69,-3.520000e-01,0.000000e+00,
70,-3.280000e-01,0.000000e+00,
71,-3.280000e-01,-4.000000e-04,
72,-3.120000e-01,4.000000e-04,
73,-3.040000e-01,0.000000e+00,
74,-2.880000e-01,9.999999e-04,
75,-2.800000e-01,6.000000e-04,
76,-2.640000e-01,-1.200000e-03,
77,-2.640000e-01,-8.000000e-04,
78,-2.480000e-01,4.000000e-04,
79,-2.400000e-01,8.000000e-04,
80,-2.240000e-01,6.000000e-04,
81,-2.160000e-01,9.999999e-04,
82,-2.000000e-01,-6.000000e-04,
83,-1.920000e-01,-9.999999e-04,
84,-1.760000e-01,-1.200000e-03,
85,-1.760000e-01,-8.000000e-04,
86,-1.520000e-01,-4.000000e-04,
87,-1.520000e-01,0.000000e+00,
88,-1.280000e-01,-6.000000e-04,
89,-1.280000e-01,-1.200000e-03,
90,-1.040000e-01,-4.000000e-04,
91,-1.040000e-01,0.000000e+00,
92,-8.000001e-02,-9.999999e-04,
93,-8.000001e-02,-6.000000e-04,
94,-5.600000e-02,1.200000e-03,
95,-5.600000e-02,8.000000e-04,
96,-3.200000e-02,-4.000000e-04,
97,-2.400000e-02,2.000000e-04,
98,-8.000000e-03,8.000000e-04,
99,0.000000e+00,4.000000e-04,
100,1.600000e-02,-4.000000e-04,
101,1.600000e-02,-9.999999e-04,
102,4.000000e-02,-6.000000e-04,
103,4.800000e-02,-2.000000e-04,
104,6.400000e-02,0.000000e+00,
105,7.200000e-02,4.000000e-04,
106,8.800001e-02,9.999999e-04,
107,9.600001e-02,1.600000e-03,
108,1.120000e-01,1.400000e-03,
109,1.200000e-01,9.999999e-04,
110,1.360000e-01,4.000000e-04,
111,1.440000e-01,8.000000e-04,
112,1.600000e-01,2.000000e-04,
113,1.680000e-01,6.000000e-04,
114,1.840000e-01,6.000000e-04,
115,1.760000e-01,2.000000e-04,
116,2.080000e-01,6.000000e-04,
117,2.080000e-01,0.000000e+00,
118,2.320000e-01,9.999999e-04,
119,2.320000e-01,6.000000e-04,
120,2.560000e-01,1.200000e-03,
121,2.560000e-01,8.000000e-04,
122,2.720000e-01,0.000000e+00,
123,2.800000e-01,4.000000e-04,
124,2.960000e-01,-2.000000e-04,
125,2.960000e-01,4.000000e-04,
126,3.200000e-01,1.400000e-03,
127,3.200000e-01,1.600000e-03,
128,3.440000e-01,4.000000e-04,
129,3.440000e-01,0.000000e+00,
130,3.600000e-01,1.200000e-03,
131,3.600000e-01,8.000000e-04,
132,3.840000e-01,2.000000e-04,
133,3.920000e-01,-2.000000e-04,
134,4.000000e-01,6.000000e-04,
135,4.080000e-01,2.000000e-04,
136,4.240000e-01,4.000000e-04,
137,4.240000e-01,9.999999e-04,
138,4.400000e-01,-2.000000e-04,
139,4.480000e-01,-6.000000e-04,
140,4.560000e-01,2.000000e-04,
141,4.640000e-01,-4.000000e-04,
142,4.720000e-01,1.200000e-03,
143,4.800000e-01,1.800000e-03,
144,4.960000e-01,2.000000e-04,
145,5.040000e-01,-2.000000e-04,
146,5.120000e-01,4.000000e-04,
147,5.120000e-01,0.000000e+00,
148,5.360000e-01,-2.000000e-04,
149,5.360000e-01,2.000000e-04,
150,5.520000e-01,4.000000e-04,
151,5.520000e-01,9.999999e-04,
152,5.680000e-01,-9.999999e-04,
153,5.680000e-01,-6.000000e-04,
154,5.760000e-01,6.000000e-04,
155,5.840001e-01,2.000000e-04,
156,6.000000e-01,8.000000e-04,
157,6.000000e-01,4.000000e-04,
158,6.160001e-01,2.000000e-04,
159,6.160001e-01,8.000000e-04,
160,6.240000e-01,-2.000000e-04,
161,6.320000e-01,4.000000e-04,
162,6.400000e-01,6.000000e-04,
163,6.400000e-01,2.000000e-04,
164,6.560000e-01,8.000000e-04,
165,6.560000e-01,1.200000e-03,
166,6.640000e-01,9.999999e-04,
167,6.640000e-01,1.200000e-03,
168,6.720001e-01,8.000000e-04,
169,6.800000e-01,1.200000e-03,
170,6.880000e-01,1.200000e-03,
171,6.800000e-01,8.000000e-04,
172,6.960000e-01,8.000000e-04,
173,7.040001e-01,4.000000e-04,
174,7.120000e-01,8.000000e-04,
175,7.120000e-01,4.000000e-04,
176,7.120000e-01,2.000000e-04,
177,7.200000e-01,6.000000e-04,
178,7.280000e-01,6.000000e-04,
179,7.200000e-01,9.999999e-04,
180,7.280000e-01,0.000000e+00,
181,7.360001e-01,-4.000000e-04,
182,7.360001e-01,4.000000e-04,
183,7.360001e-01,0.000000e+00,
184,7.440000e-01,0.000000e+00,
185,7.440000e-01,-6.000000e-04,
186,7.520000e-01,4.000000e-04,
187,7.440000e-01,8.000000e-04,
188,7.520000e-01,1.200000e-03,
189,7.520000e-01,8.000000e-04,
190,7.520000e-01,6.000000e-04,
191,7.600001e-01,9.999999e-04,
192,7.600001e-01,-4.000000e-04,
193,7.600001e-01,0.000000e+00,
194,7.600001e-01,9.999999e-04,
195,7.680001e-01,1.600000e-03,
196,7.600001e-01,-2.000000e-04,
197,7.680001e-01,2.000000e-04,
198,7.680001e-01,0.000000e+00,
199,7.600001e-01,-4.000000e-04,
200,7.680001e-01,4.000000e-04,
201,7.600001e-01,0.000000e+00,
202,7.680001e-01,8.000000e-04,
203,7.600001e-01,4.000000e-04,
204,7.600001e-01,0.000000e+00,
205,7.680001e-01,4.000000e-04,
206,7.600001e-01,6.000000e-04,
207,7.600001e-01,9.999999e-04,
208,7.600001e-01,8.000000e-04,
209,7.520000e-01,1.400000e-03,
210,7.520000e-01,-2.000000e-04,
211,7.520000e-01,-6.000000e-04,
212,7.520000e-01,1.600000e-03,
213,7.520000e-01,1.200000e-03,
214,7.440000e-01,8.000000e-04,
215,7.360001e-01,1.200000e-03,
216,7.360001e-01,4.000000e-04,
217,7.440000e-01,8.000000e-04,
218,7.360001e-01,2.000000e-04,
219,7.360001e-01,8.000000e-04,
220,7.200000e-01,8.000000e-04,
221,7.280000e-01,4.000000e-04,
222,7.200000e-01,6.000000e-04,
223,7.120000e-01,0.000000e+00,
224,7.120000e-01,0.000000e+00,
225,7.040001e-01,4.000000e-04,
226,7.040001e-01,2.000000e-04,
227,7.040001e-01,8.000000e-04,
228,6.880000e-01,1.200000e-03,
229,6.880000e-01,6.000000e-04,
230,6.800000e-01,6.000000e-04,
231,6.800000e-01,0.000000e+00,
232,6.720001e-01,8.000000e-04,
233,6.640000e-01,1.200000e-03,
234,6.560000e-01,-4.000000e-04,
235,6.480000e-01,-2.000000e-04,
236,6.400000e-01,8.000000e-04,
237,6.400000e-01,2.000000e-04,
238,6.320000e-01,8.000000e-04,
239,6.240000e-01,4.000000e-04,
240,6.160001e-01,6.000000e-04,
241,6.080000e-01,2.000000e-04,
242,6.000000e-01,9.999999e-04,
243,6.000000e-01,6.000000e-04,
244,5.840001e-01,-4.000000e-04,
245,5.840001e-01,-8.000000e-04,
246,5.680000e-01,9.999999e-04,
247,5.680000e-01,6.000000e-04,
248,5.520000e-01,-2.000000e-04,
249,5.520000e-01,-6.000000e-04,
250,5.360000e-01,-2.000000e-04,
251,5.360000e-01,2.000000e-04,
252,5.200000e-01,9.999999e-04,
253,5.120000e-01,4.000000e-04,
254,4.960000e-01,2.000000e-04,
255,4.960000e-01,-2.000000e-04,
256,4.800000e-01,-4.000000e-04,
257,4.800000e-01,0.000000e+00,
258,4.560000e-01,4.000000e-04,
259,4.640000e-01,0.000000e+00,
260,4.480000e-01,-4.000000e-04,
261,4.400000e-01,0.000000e+00,
262,4.240000e-01,6.000000e-04,
263,4.160000e-01,2.000000e-04,
264,4.080000e-01,6.000000e-04,
265,4.000000e-01,9.999999e-04,
266,3.840000e-01,-1.200000e-03,
267,3.920000e-01,-6.000000e-04,
268,3.680000e-01,9.999999e-04,
269,3.600000e-01,1.400000e-03,
270,3.440000e-01,2.000000e-04,
271,3.440000e-01,6.000000e-04,
272,3.280000e-01,4.000000e-04,
273,3.280000e-01,8.000000e-04,
274,3.040000e-01,0.000000e+00,
275,2.960000e-01,-6.000000e-04,
276,2.800000e-01,-6.000000e-04,
277,2.720000e-01,-2.000000e-04,
278,2.560000e-01,4.000000e-04,
279,2.560000e-01,0.000000e+00,
280,2.320000e-01,0.000000e+00,
281,2.320000e-01,6.000000e-04,
282,2.080000e-01,6.000000e-04,
283,2.080000e-01,2.000000e-04,
284,1.840000e-01,-9.999999e-04,
285,1.920000e-01,-6.000000e-04,
286,1.680000e-01,-6.000000e-04,
287,1.600000e-01,-9.999999e-04,
288,1.440000e-01,0.000000e+00,
289,1.360000e-01,-6.000000e-04,
290,1.200000e-01,-4.000000e-04,
291,1.200000e-01,0.000000e+00,
292,9.600001e-02,-9.999999e-04,
293,8.800001e-02,-6.000000e-04,
294,7.200000e-02,-6.000000e-04,
295,6.400000e-02,-9.999999e-04,
296,4.000000e-02,-2.000000e-04,
297,4.000000e-02,2.000000e-04,
298,2.400000e-02,-4.000000e-04,
299,1.600000e-02,0.000000e+00,
300,0.000000e+00,-6.000000e-04,
301,-8.000000e-03,-2.000000e-04,
302,-2.400000e-02,-8.000000e-04,
303,-3.200000e-02,-1.200000e-03,
304,-4.800000e-02,-6.000000e-04,
305,-5.600000e-02,-2.000000e-04,
306,-8.000001e-02,-1.600000e-03,
307,-8.000001e-02,-1.200000e-03,
308,-9.600001e-02,-2.000000e-04,
309,-1.040000e-01,2.000000e-04,
310,-1.200000e-01,-8.000000e-04,
311,-1.280000e-01,-2.000000e-04,
312,-1.440000e-01,-1.600000e-03,
313,-1.520000e-01,-1.200000e-03,
314,-1.680000e-01,2.000000e-04,
315,-1.760000e-01,6.000000e-04,
316,-1.920000e-01,4.000000e-04,
317,-2.000000e-01,0.000000e+00,
318,-2.160000e-01,4.000000e-04,
319,-2.240000e-01,8.000000e-04,
320,-2.400000e-01,-4.000000e-04,
321,-2.400000e-01,-9.999999e-04,
322,-2.560000e-01,-6.000000e-04,
323,-2.640000e-01,-9.999999e-04,
324,-2.880000e-01,-6.000000e-04,
325,-2.800000e-01,-9.999999e-04,
326,-3.040000e-01,-6.000000e-04,
327,-3.120000e-01,-2.000000e-04,
328,-3.280000e-01,-1.200000e-03,
329,-3.280000e-01,-1.800000e-03,
330,-3.440000e-01,-1.400000e-03,
331,-3.520000e-01,-9.999999e-04,
332,-3.760000e-01,-9.999999e-04,
333,-3.680000e-01,-6.000000e-04,
334,-3.920000e-01,-6.000000e-04,
335,-3.920000e-01,-9.999999e-04,
336,-4.080000e-01,2.000000e-04,
337,-4.160000e-01,-2.000000e-04,
338,-4.320000e-01,2.000000e-04,
339,-4.320000e-01,-2.000000e-04,
340,-4.480000e-01,-1.400000e-03,
341,-4.480000e-01,-9.999999e-04,
342,-4.640000e-01,-8.000000e-04,
343,-4.720000e-01,-1.200000e-03,
344,-4.880000e-01,-8.000000e-04,
345,-4.880000e-01,-4.000000e-04,
346,-5.040000e-01,-4.000000e-04,
347,-5.120000e-01,-8.000000e-04,
348,-5.200000e-01,-6.000000e-04,
349,-5.280000e-01,-9.999999e-04,
350,-5.360000e-01,-8.000000e-04,
351,-5.440000e-01,-2.000000e-04,
352,-5.600000e-01,-1.600000e-03,
353,-5.600000e-01,-9.999999e-04,
354,-5.760000e-01,2.000000e-04,
355,-5.760000e-01,-4.000000e-04,
356,-5.840001e-01,-6.000000e-04,
357,-5.920000e-01,-9.999999e-04,
358,-6.000000e-01,-6.000000e-04,
359,-6.080000e-01,-2.000000e-04,
360,-6.160001e-01,-8.000000e-04,
361,-6.240000e-01,-1.200000e-03,
362,-6.320000e-01,-9.999999e-04,
363,-6.320000e-01,-6.000000e-04,
364,-6.400000e-01,2.000000e-04,
365,-6.480000e-01,-2.000000e-04,
366,-6.560000e-01,-6.000000e-04,
367,-6.560000e-01,-9.999999e-04,
368,-6.720001e-01,-9.999999e-04,
369,-6.720001e-01,-1.600000e-03,
370,-6.800000e-01,-2.000000e-04,
371,-6.800000e-01,-6.000000e-04,
372,-6.880000e-01,-1.600000e-03,
373,-6.960000e-01,-9.999999e-04,
374,-6.960000e-01,-9.999999e-04,
375,-7.040001e-01,-6.000000e-04,
376,-7.040001e-01,-2.000000e-04,
377,-7.120000e-01,4.000000e-04,
378,-7.120000e-01,-4.000000e-04,
379,-7.200000e-01,0.000000e+00,
380,-7.200000e-01,-2.000000e-04,
381,-7.280000e-01,-6.000000e-04,
382,-7.280000e-01,8.000000e-04,
383,-7.280000e-01,4.000000e-04,
384,-7.360001e-01,-2.000000e-04,
385,-7.440000e-01,-6.000000e-04,
386,-7.360001e-01,6.000000e-04,
387,-7.440000e-01,9.999999e-04,
388,-7.440000e-01,0.000000e+00,
389,-7.440000e-01,-4.000000e-04,
390,-7.520000e-01,-1.200000e-03,
391,-7.440000e-01,-1.600000e-03,
392,-7.520000e-01,-6.000000e-04,
393,-7.520000e-01,-2.000000e-04,
394,-7.520000e-01,-4.000000e-04,
395,-7.600001e-01,-9.999999e-04,
396,-7.600001e-01,-9.999999e-04,
397,-7.520000e-01,-1.400000e-03,
398,-7.600001e-01,-6.000000e-04,
399,-7.520000e-01,0.000000e+00,
400,-7.520000e-01,-1.200000e-03,
401,-7.600001e-01,-6.000000e-04,
402,-7.600001e-01,-1.200000e-03,
403,-7.520000e-01,-8.000000e-04,
404,-7.520000e-01,0.000000e+00,
405,-7.600001e-01,4.000000e-04,
406,-7.520000e-01,-1.400000e-03,
407,-7.520000e-01,-8.000000e-04,
408,-7.520000e-01,-1.800000e-03,
409,-7.440000e-01,-1.200000e-03,
410,-7.440000e-01,-4.000000e-04,
411,-7.440000e-01,0.000000e+00,
412,-7.440000e-01,-6.000000e-04,
413,-7.360001e-01,-2.000000e-04,
414,-7.360001e-01,-8.000000e-04,
415,-7.360001e-01,-4.000000e-04,
416,-7.280000e-01,-8.000000e-04,
417,-7.280000e-01,-4.000000e-04,
418,-7.280000e-01,-4.000000e-04,
419,-7.200000e-01,-8.000000e-04,
420,-7.200000e-01,6.000000e-04,
421,-7.120000e-01,2.000000e-04,
422,-7.120000e-01,-4.000000e-04,
423,-7.040001e-01,-8.000000e-04,
424,-7.040001e-01,-4.000000e-04,
425,-6.960000e-01,0.000000e+00,
426,-6.880000e-01,-1.200000e-03,
427,-6.880000e-01,-8.000000e-04,
428,-6.800000e-01,-4.000000e-04,
429,-6.800000e-01,0.000000e+00,
430,-6.640000e-01,-4.000000e-04,
431,-6.720001e-01,0.000000e+00,
432,-6.560000e-01,-9.999999e-04,
433,-6.640000e-01,-1.400000e-03,
434,-6.480000e-01,0.000000e+00,
435,-6.400000e-01,-4.000000e-04,
436,-6.320000e-01,-9.999999e-04,
437,-6.320000e-01,-6.000000e-04,
438,-6.240000e-01,-6.000000e-04,
439,-6.240000e-01,-9.999999e-04,
440,-6.080000e-01,-1.400000e-03,
441,-6.000000e-01,-9.999999e-04,
442,-5.920000e-01,-2.000000e-04,
443,-5.920000e-01,4.000000e-04,
444,-5.760000e-01,-9.999999e-04,
445,-5.760000e-01,-6.000000e-04,
446,-5.600000e-01,-2.000000e-04,
447,-5.600000e-01,2.000000e-04,
448,-5.440000e-01,-4.000000e-04,
449,-5.360000e-01,-8.000000e-04,
450,-5.280000e-01,-2.000000e-04,
451,-5.200000e-01,-6.000000e-04,
452,-5.040000e-01,-4.000000e-04,
453,-5.040000e-01,-8.000000e-04,
454,-4.880000e-01,-8.000000e-04,
455,-4.880000e-01,-4.000000e-04,
456,-4.720000e-01,-4.000000e-04,
457,-4.720000e-01,2.000000e-04,
458,-4.560000e-01,2.000000e-04,
459,-4.480000e-01,-2.000000e-04,
460,-4.400000e-01,4.000000e-04,
461,-4.320000e-01,8.000000e-04,
462,-4.160000e-01,-9.999999e-04,
463,-4.080000e-01,-1.400000e-03,
464,-3.920000e-01,2.000000e-04,
465,-3.920000e-01,8.000000e-04,
466,-3.680000e-01,-4.000000e-04,
467,-3.760000e-01,0.000000e+00,
468,-3.520000e-01,9.999999e-04,
469,-3.520000e-01,6.000000e-04,
470,-3.280000e-01,-4.000000e-04,
471,-3.280000e-01,0.000000e+00,
472,-3.120000e-01,6.000000e-04,
473,-3.040000e-01,2.000000e-04,
474,-2.880000e-01,-4.000000e-04,
475,-2.880000e-01,-8.000000e-04,
476,-2.640000e-01,6.000000e-04,
477,-2.560000e-01,9.999999e-04,
478,-2.400000e-01,2.000000e-04,
479,-2.400000e-01,-2.000000e-04,
480,-2.240000e-01,4.000000e-04,
481,-2.160000e-01,8.000000e-04,
482,-2.000000e-01,0.000000e+00,
483,-1.920000e-01,4.000000e-04,
484,-1.760000e-01,0.000000e+00,
485,-1.680000e-01,-4.000000e-04,
486,-1.520000e-01,4.000000e-04,
487,-1.440000e-01,8.000000e-04,
488,-1.280000e-01,-2.000000e-04,
489,-1.280000e-01,2.000000e-04,
490,-1.040000e-01,-1.200000e-03,
491,-1.040000e-01,-8.000000e-04,
492,-8.000001e-02,6.000000e-04,
493,-7.200000e-02,2.000000e-04,
494,-5.600000e-02,2.000000e-04,
495,-5.600000e-02,6.000000e-04,
496,-3.200000e-02,4.000000e-04,
497,-2.400000e-02,0.000000e+00,
498,-8.000000e-03,8.000000e-04,
499,-8.000000e-03,4.000000e-04,
500,2.400000e-02,9.999999e-04,
501,1.600000e-02,6.000000e-04,
502,4.000000e-02,-4.000000e-04,
503,4.800000e-02,-9.999999e-04,
504,7.200000e-02,4.000000e-04,
505,6.400000e-02,8.000000e-04,
506,8.800001e-02,0.000000e+00,
507,8.800001e-02,-4.000000e-04,
508,1.120000e-01,1.800000e-03,
509,1.200000e-01,1.400000e-03,
510,1.360000e-01,8.000000e-04,
511,1.440000e-01,4.000000e-04,
512,1.600000e-01,6.000000e-04,
513,1.600000e-01,1.200000e-03,
514,1.840000e-01,-4.000000e-04,
515,1.840000e-01,0.000000e+00,
516,2.000000e-01,9.999999e-04,
517,2.080000e-01,6.000000e-04,
518,2.320000e-01,-4.000000e-04,
519,2.320000e-01,0.000000e+00,
520,2.560000e-01,2.000000e-04,
521,2.560000e-01,8.000000e-04,
522,2.720000e-01,4.000000e-04,
523,2.800000e-01,8.000000e-04,
524,2.960000e-01,4.000000e-04,
525,3.040000e-01,8.000000e-04,
526,3.200000e-01,8.000000e-04,
527,3.200000e-01,4.000000e-04,
528,3.360000e-01,6.000000e-04,
529,3.440000e-01,2.000000e-04,
530,3.600000e-01,8.000000e-04,
531,3.680000e-01,1.200000e-03,
532,3.840000e-01,-2.000000e-04,
533,3.920000e-01,2.000000e-04,
534,4.000000e-01,2.000000e-04,
535,4.080000e-01,-2.000000e-04,
536,4.160000e-01,8.000000e-04,
537,4.240000e-01,1.200000e-03,
538,4.400000e-01,2.000000e-04,
539,4.400000e-01,6.000000e-04,
540,4.560000e-01,0.000000e+00,
541,4.640000e-01,-4.000000e-04,
542,4.800000e-01,1.200000e-03,
543,4.800000e-01,1.800000e-03,
544,4.960000e-01,4.000000e-04,
545,5.040000e-01,0.000000e+00,
546,5.120000e-01,-2.000000e-04,
547,5.200000e-01,2.000000e-04,
548,5.360000e-01,1.200000e-03,
549,5.280000e-01,6.000000e-04,
550,5.520000e-01,0.000000e+00,
551,5.520000e-01,-4.000000e-04,
552,5.680000e-01,1.400000e-03,
553,5.680000e-01,8.000000e-04,
554,5.840001e-01,4.000000e-04,
555,5.840001e-01,0.000000e+00,
556,6.000000e-01,4.000000e-04,
557,6.000000e-01,8.000000e-04,
558,6.080000e-01,9.999999e-04,
559,6.160001e-01,1.400000e-03,
560,6.320000e-01,1.400000e-03,
561,6.240000e-01,9.999999e-04,
562,6.400000e-01,-2.000000e-04,
563,6.400000e-01,2.000000e-04,
564,6.560000e-01,6.000000e-04,
565,6.480000e-01,2.000000e-04,
566,6.640000e-01,8.000000e-04,
567,6.640000e-01,1.200000e-03,
568,6.720001e-01,1.200000e-03,
569,6.800000e-01,8.000000e-04,
570,6.880000e-01,8.000000e-04,
571,6.880000e-01,4.000000e-04,
572,6.960000e-01,6.000000e-04,
573,7.040001e-01,9.999999e-04,
574,7.040001e-01,4.000000e-04,
575,7.120000e-01,8.000000e-04,
576,7.200000e-01,0.000000e+00,
577,7.200000e-01,4.000000e-04,
578,7.280000e-01,-6.000000e-04,
579,7.200000e-01,-2.000000e-04,
580,7.280000e-01,6.000000e-04,
581,7.360001e-01,9.999999e-04,
582,7.360001e-01,1.400000e-03,
583,7.360001e-01,9.999999e-04,
584,7.440000e-01,-6.000000e-04,
585,7.440000e-01,-2.000000e-04,
586,7.520000e-01,9.999999e-04,
587,7.520000e-01,6.000000e-04,
588,7.520000e-01,4.000000e-04,
589,7.520000e-01,0.000000e+00,
590,7.600001e-01,-4.000000e-04,
591,7.520000e-01,0.000000e+00,
592,7.600001e-01,0.000000e+00,
593,7.600001e-01,4.000000e-04,
594,7.680001e-01,2.000000e-04,
595,7.600001e-01,6.000000e-04,
596,7.680001e-01,1.200000e-03,
597,7.600001e-01,8.000000e-04,
598,7.680001e-01,6.000000e-04,
599,7.600001e-01,9.999999e-04,
600,7.600001e-01,1.200000e-03,
601,7.680001e-01,8.000000e-04,
602,7.680001e-01,6.000000e-04,
603,7.600001e-01,2.000000e-04,
604,7.600001e-01,4.000000e-04,
605,7.680001e-01,0.000000e+00,
606,7.600001e-01,9.999999e-04,
607,7.600001e-01,1.400000e-03,
608,7.600001e-01,4.000000e-04,
609,7.520000e-01,9.999999e-04,
610,7.520000e-01,4.000000e-04,
611,7.520000e-01,-2.000000e-04,
612,7.520000e-01,9.999999e-04,
613,7.520000e-01,1.400000e-03,
614,7.440000e-01,8.000000e-04,
615,7.440000e-01,4.000000e-04,
616,7.360001e-01,0.000000e+00,
617,7.440000e-01,-4.000000e-04,
618,7.280000e-01,6.000000e-04,
619,7.360001e-01,0.000000e+00,
620,7.280000e-01,-2.000000e-04,
621,7.200000e-01,4.000000e-04,
622,7.200000e-01,8.000000e-04,
623,7.200000e-01,2.000000e-04,
624,7.120000e-01,9.999999e-04,
625,7.120000e-01,6.000000e-04,
626,7.040001e-01,9.999999e-04,
627,6.960000e-01,6.000000e-04,
