parte2/esp9/Con_sorgente/Data_common_mode/2/6.csv

X,CH1,CH2,Start,Increment,
Sequence,Volt,Volt,-7.000000e-03,1.000000e-05,
0,-7.520000e-01,-2.000000e-04,
1,-7.600001e-01,2.000000e-04,
2,-7.520000e-01,-2.000000e-04,
3,-7.600001e-01,2.000000e-04,
4,-7.520000e-01,-2.000000e-04,
5,-7.520000e-01,-6.000000e-04,
6,-7.520000e-01,-6.000000e-04,
7,-7.600001e-01,-8.000000e-04,
8,-7.520000e-01,-6.000000e-04,
9,-7.520000e-01,-2.000000e-04,
10,-7.520000e-01,-1.400000e-03,
11,-7.440000e-01,-1.200000e-03,
12,-7.440000e-01,-4.000000e-04,
13,-7.440000e-01,0.000000e+00,
14,-7.360001e-01,-8.000000e-04,
15,-7.360001e-01,-1.400000e-03,
16,-7.360001e-01,2.000000e-04,
17,-7.280000e-01,6.000000e-04,
18,-7.280000e-01,-8.000000e-04,
19,-7.200000e-01,-4.000000e-04,
20,-7.200000e-01,-9.999999e-04,
21,-7.200000e-01,-1.400000e-03,
22,-7.120000e-01,-2.000000e-04,
23,-7.120000e-01,0.000000e+00,
24,-7.040001e-01,4.000000e-04,
25,-7.040001e-01,0.000000e+00,
26,-6.960000e-01,2.000000e-04,
27,-6.880000e-01,-2.000000e-04,
28,-6.800000e-01,-6.000000e-04,
29,-6.800000e-01,-9.999999e-04,
30,-6.720001e-01,-4.000000e-04,
31,-6.720001e-01,-2.000000e-04,
32,-6.640000e-01,-9.999999e-04,
33,-6.560000e-01,-6.000000e-04,
34,-6.480000e-01,2.000000e-04,
35,-6.480000e-01,-2.000000e-04,
36,-6.320000e-01,-6.000000e-04,
37,-6.320000e-01,-8.000000e-04,
38,-6.240000e-01,4.000000e-04,
39,-6.160001e-01,2.000000e-04,
40,-6.080000e-01,-4.000000e-04,
41,-6.080000e-01,-8.000000e-04,
42,-5.920000e-01,-2.000000e-04,
43,-5.920000e-01,2.000000e-04,
44,-5.760000e-01,-2.000000e-04,
45,-5.760000e-01,-6.000000e-04,
46,-5.600000e-01,4.000000e-04,
47,-5.600000e-01,0.000000e+00,
48,-5.440000e-01,-6.000000e-04,
49,-5.440000e-01,-2.000000e-04,
50,-5.280000e-01,-4.000000e-04,
51,-5.280000e-01,0.000000e+00,
52,-5.040000e-01,4.000000e-04,
53,-5.120000e-01,0.000000e+00,
54,-4.960000e-01,2.000000e-04,
55,-4.880000e-01,-2.000000e-04,
56,-4.720000e-01,2.000000e-04,
57,-4.720000e-01,6.000000e-04,
58,-4.480000e-01,8.000000e-04,
59,-4.560000e-01,6.000000e-04,
60,-4.320000e-01,-6.000000e-04,
61,-4.400000e-01,-9.999999e-04,
62,-4.160000e-01,9.999999e-04,
63,-4.080000e-01,2.000000e-04,
64,-3.920000e-01,-4.000000e-04,
65,-3.920000e-01,0.000000e+00,
66,-3.760000e-01,2.000000e-04,
67,-3.680000e-01,6.000000e-04,
68,-3.520000e-01,-2.000000e-04,
69,-3.520000e-01,-8.000000e-04,
70,-3.280000e-01,4.000000e-04,
71,-3.280000e-01,8.000000e-04,
72,-3.120000e-01,-2.000000e-04,
73,-3.040000e-01,2.000000e-04,
74,-2.880000e-01,6.000000e-04,
75,-2.880000e-01,2.000000e-04,
76,-2.640000e-01,8.000000e-04,
77,-2.640000e-01,4.000000e-04,
78,-2.400000e-01,6.000000e-04,
79,-2.400000e-01,8.000000e-04,
80,-2.240000e-01,2.000000e-04,
81,-2.160000e-01,-2.000000e-04,
82,-2.000000e-01,-2.000000e-04,
83,-1.920000e-01,4.000000e-04,
84,-1.760000e-01,0.000000e+00,
85,-1.760000e-01,4.000000e-04,
86,-1.520000e-01,-2.000000e-04,
87,-1.520000e-01,-6.000000e-04,
88,-1.280000e-01,2.000000e-04,
89,-1.280000e-01,-2.000000e-04,
90,-1.040000e-01,0.000000e+00,
91,-1.040000e-01,4.000000e-04,
92,-8.000001e-02,2.000000e-04,
93,-8.000001e-02,-2.000000e-04,
94,-5.600000e-02,4.000000e-04,
95,-5.600000e-02,6.000000e-04,
96,-3.200000e-02,2.000000e-04,
97,-3.200000e-02,4.000000e-04,
98,-1.600000e-02,0.000000e+00,
99,-8.000000e-03,4.000000e-04,
100,1.600000e-02,4.000000e-04,
101,1.600000e-02,0.000000e+00,
102,4.000000e-02,-2.000000e-04,
103,4.800000e-02,2.000000e-04,
104,6.400000e-02,6.000000e-04,
105,6.400000e-02,2.000000e-04,
106,8.800001e-02,9.999999e-04,
107,9.600001e-02,6.000000e-04,
108,1.120000e-01,6.000000e-04,
109,1.120000e-01,2.000000e-04,
110,1.360000e-01,9.999999e-04,
111,1.440000e-01,6.000000e-04,
112,1.600000e-01,8.000000e-04,
113,1.600000e-01,4.000000e-04,
114,1.840000e-01,6.000000e-04,
115,1.840000e-01,9.999999e-04,
116,2.080000e-01,1.200000e-03,
117,2.080000e-01,1.600000e-03,
118,2.240000e-01,1.600000e-03,
119,2.320000e-01,1.200000e-03,
120,2.560000e-01,4.000000e-04,
121,2.560000e-01,6.000000e-04,
122,2.720000e-01,2.000000e-04,
123,2.800000e-01,6.000000e-04,
124,2.960000e-01,-2.000000e-04,
125,2.960000e-01,2.000000e-04,
126,3.200000e-01,1.200000e-03,
127,3.200000e-01,8.000000e-04,
128,3.360000e-01,8.000000e-04,
129,3.440000e-01,9.999999e-04,
130,3.600000e-01,8.000000e-04,
131,3.600000e-01,1.200000e-03,
132,3.840000e-01,8.000000e-04,
133,3.840000e-01,1.200000e-03,
134,4.000000e-01,1.200000e-03,
135,4.080000e-01,8.000000e-04,
136,4.160000e-01,1.200000e-03,
137,4.240000e-01,1.600000e-03,
138,4.400000e-01,1.600000e-03,
139,4.400000e-01,1.200000e-03,
140,4.560000e-01,0.000000e+00,
141,4.640000e-01,2.000000e-04,
142,4.720000e-01,6.000000e-04,
143,4.800000e-01,9.999999e-04,
144,4.960000e-01,1.800000e-03,
145,5.040000e-01,1.400000e-03,
146,5.200000e-01,9.999999e-04,
147,5.200000e-01,6.000000e-04,
148,5.360000e-01,1.400000e-03,
149,5.360000e-01,9.999999e-04,
150,5.520000e-01,2.400000e-03,
151,5.520000e-01,2.000000e-03,
152,5.680000e-01,1.600000e-03,
153,5.680000e-01,1.200000e-03,
154,5.840001e-01,2.000000e-04,
155,5.760000e-01,6.000000e-04,
156,6.000000e-01,1.200000e-03,
157,6.000000e-01,1.600000e-03,
158,6.080000e-01,9.999999e-04,
159,6.160001e-01,1.200000e-03,
160,6.320000e-01,4.000000e-04,
161,6.240000e-01,8.000000e-04,
162,6.400000e-01,1.600000e-03,
163,6.400000e-01,1.200000e-03,
164,6.560000e-01,0.000000e+00,
165,6.480000e-01,-2.000000e-04,
166,6.640000e-01,6.000000e-04,
167,6.640000e-01,9.999999e-04,
168,6.800000e-01,1.200000e-03,
169,6.800000e-01,8.000000e-04,
170,6.880000e-01,1.400000e-03,
171,6.880000e-01,8.000000e-04,
172,6.960000e-01,1.200000e-03,
173,7.040001e-01,1.600000e-03,
174,7.120000e-01,1.200000e-03,
175,7.120000e-01,8.000000e-04,
176,7.200000e-01,1.200000e-03,
177,7.200000e-01,8.000000e-04,
178,7.200000e-01,2.000000e-03,
179,7.280000e-01,2.400000e-03,
180,7.360001e-01,1.200000e-03,
181,7.280000e-01,1.400000e-03,
182,7.360001e-01,8.000000e-04,
183,7.360001e-01,6.000000e-04,
184,7.440000e-01,1.400000e-03,
185,7.440000e-01,1.800000e-03,
186,7.440000e-01,4.000000e-04,
187,7.520000e-01,8.000000e-04,
188,7.520000e-01,2.000000e-04,
189,7.520000e-01,6.000000e-04,
190,7.600001e-01,4.000000e-04,
191,7.520000e-01,8.000000e-04,
192,7.600001e-01,1.200000e-03,
193,7.600001e-01,8.000000e-04,
194,7.600001e-01,8.000000e-04,
195,7.600001e-01,4.000000e-04,
196,7.600001e-01,1.400000e-03,
197,7.680001e-01,9.999999e-04,
198,7.680001e-01,6.000000e-04,
199,7.680001e-01,9.999999e-04,
200,7.600001e-01,-2.000000e-04,
201,7.680001e-01,2.000000e-04,
202,7.680001e-01,0.000000e+00,
203,7.600001e-01,-4.000000e-04,
204,7.600001e-01,0.000000e+00,
205,7.600001e-01,-4.000000e-04,
206,7.600001e-01,1.400000e-03,
207,7.600001e-01,9.999999e-04,
208,7.600001e-01,1.200000e-03,
209,7.600001e-01,1.600000e-03,
210,7.520000e-01,1.400000e-03,
211,7.520000e-01,1.800000e-03,
212,7.520000e-01,1.600000e-03,
213,7.440000e-01,1.200000e-03,
214,7.440000e-01,4.000000e-04,
215,7.440000e-01,8.000000e-04,
216,7.360001e-01,6.000000e-04,
217,7.360001e-01,9.999999e-04,
218,7.280000e-01,1.200000e-03,
219,7.360001e-01,1.400000e-03,
220,7.280000e-01,6.000000e-04,
221,7.200000e-01,9.999999e-04,
222,7.200000e-01,4.000000e-04,
223,7.120000e-01,8.000000e-04,
224,7.040001e-01,6.000000e-04,
225,7.120000e-01,2.000000e-04,
226,6.960000e-01,8.000000e-04,
227,7.040001e-01,1.200000e-03,
228,6.880000e-01,4.000000e-04,
229,6.880000e-01,0.000000e+00,
230,6.800000e-01,4.000000e-04,
231,6.720001e-01,8.000000e-04,
232,6.640000e-01,1.400000e-03,
233,6.640000e-01,9.999999e-04,
234,6.560000e-01,2.000000e-04,
235,6.560000e-01,-2.000000e-04,
236,6.400000e-01,8.000000e-04,
237,6.320000e-01,4.000000e-04,
238,6.240000e-01,8.000000e-04,
239,6.240000e-01,9.999999e-04,
240,6.160001e-01,9.999999e-04,
241,6.160001e-01,1.400000e-03,
242,6.000000e-01,8.000000e-04,
243,6.000000e-01,4.000000e-04,
244,5.840001e-01,9.999999e-04,
245,5.840001e-01,8.000000e-04,
246,5.680000e-01,-4.000000e-04,
247,5.600000e-01,0.000000e+00,
248,5.520000e-01,0.000000e+00,
249,5.520000e-01,4.000000e-04,
250,5.360000e-01,2.000000e-04,
251,5.360000e-01,6.000000e-04,
252,5.200000e-01,9.999999e-04,
253,5.200000e-01,6.000000e-04,
254,5.040000e-01,4.000000e-04,
255,4.960000e-01,0.000000e+00,
256,4.800000e-01,-4.000000e-04,
257,4.800000e-01,-8.000000e-04,
258,4.640000e-01,4.000000e-04,
259,4.560000e-01,8.000000e-04,
260,4.400000e-01,6.000000e-04,
261,4.400000e-01,9.999999e-04,
262,4.240000e-01,2.000000e-04,
263,4.240000e-01,6.000000e-04,
264,4.080000e-01,6.000000e-04,
265,4.080000e-01,2.000000e-04,
266,3.840000e-01,4.000000e-04,
267,3.840000e-01,8.000000e-04,
268,3.680000e-01,-2.000000e-04,
269,3.600000e-01,2.000000e-04,
270,3.440000e-01,9.999999e-04,
271,3.440000e-01,6.000000e-04,
272,3.200000e-01,-8.000000e-04,
273,3.200000e-01,-4.000000e-04,
274,2.960000e-01,6.000000e-04,
275,2.960000e-01,2.000000e-04,
276,2.800000e-01,-2.000000e-04,
277,2.720000e-01,2.000000e-04,
278,2.560000e-01,2.000000e-04,
279,2.560000e-01,4.000000e-04,
280,2.320000e-01,0.000000e+00,
281,2.320000e-01,-6.000000e-04,
282,2.080000e-01,0.000000e+00,
283,2.080000e-01,4.000000e-04,
284,1.920000e-01,4.000000e-04,
285,1.840000e-01,0.000000e+00,
286,1.600000e-01,4.000000e-04,
287,1.600000e-01,0.000000e+00,
288,1.440000e-01,-2.000000e-04,
289,1.360000e-01,-6.000000e-04,
290,1.200000e-01,4.000000e-04,
291,1.200000e-01,0.000000e+00,
292,9.600001e-02,2.000000e-04,
293,8.800001e-02,6.000000e-04,
294,6.400000e-02,2.000000e-04,
295,6.400000e-02,6.000000e-04,
296,4.000000e-02,4.000000e-04,
297,4.800000e-02,6.000000e-04,
298,2.400000e-02,0.000000e+00,
299,1.600000e-02,-4.000000e-04,
300,-8.000000e-03,2.000000e-04,
301,-8.000000e-03,-2.000000e-04,
302,-3.200000e-02,0.000000e+00,
303,-3.200000e-02,-4.000000e-04,
304,-5.600000e-02,-4.000000e-04,
305,-5.600000e-02,-6.000000e-04,
306,-8.000001e-02,-2.000000e-04,
307,-8.000001e-02,-4.000000e-04,
308,-1.040000e-01,4.000000e-04,
309,-1.040000e-01,8.000000e-04,
310,-1.280000e-01,6.000000e-04,
311,-1.280000e-01,2.000000e-04,
312,-1.520000e-01,-6.000000e-04,
313,-1.520000e-01,0.000000e+00,
314,-1.680000e-01,2.000000e-04,
315,-1.760000e-01,6.000000e-04,
316,-1.920000e-01,-2.000000e-04,
317,-1.920000e-01,2.000000e-04,
318,-2.160000e-01,0.000000e+00,
319,-2.160000e-01,4.000000e-04,
320,-2.400000e-01,-4.000000e-04,
321,-2.400000e-01,0.000000e+00,
322,-2.640000e-01,2.000000e-04,
323,-2.640000e-01,-2.000000e-04,
324,-2.880000e-01,-2.000000e-04,
325,-2.880000e-01,0.000000e+00,
326,-3.040000e-01,2.000000e-04,
327,-3.040000e-01,-4.000000e-04,
328,-3.280000e-01,-6.000000e-04,
329,-3.280000e-01,-2.000000e-04,
330,-3.440000e-01,-6.000000e-04,
331,-3.520000e-01,-2.000000e-04,
332,-3.680000e-01,2.000000e-04,
333,-3.760000e-01,4.000000e-04,
334,-3.920000e-01,6.000000e-04,
335,-3.920000e-01,2.000000e-04,
336,-4.080000e-01,4.000000e-04,
337,-4.080000e-01,0.000000e+00,
338,-4.320000e-01,8.000000e-04,
339,-4.320000e-01,6.000000e-04,
340,-4.480000e-01,2.000000e-04,
341,-4.560000e-01,-2.000000e-04,
342,-4.720000e-01,2.000000e-04,
343,-4.720000e-01,-2.000000e-04,
344,-4.880000e-01,-6.000000e-04,
345,-4.880000e-01,-4.000000e-04,
346,-5.040000e-01,-2.000000e-04,
347,-5.040000e-01,-6.000000e-04,
348,-5.200000e-01,-6.000000e-04,
349,-5.280000e-01,-9.999999e-04,
350,-5.440000e-01,0.000000e+00,
351,-5.440000e-01,-4.000000e-04,
352,-5.600000e-01,-2.000000e-04,
353,-5.600000e-01,2.000000e-04,
354,-5.760000e-01,2.000000e-04,
355,-5.760000e-01,6.000000e-04,
356,-5.920000e-01,-2.000000e-04,
357,-5.920000e-01,-6.000000e-04,
358,-6.080000e-01,-8.000000e-04,
359,-6.080000e-01,-4.000000e-04,
360,-6.160001e-01,-6.000000e-04,
361,-6.240000e-01,-2.000000e-04,
362,-6.320000e-01,-8.000000e-04,
363,-6.320000e-01,-4.000000e-04,
364,-6.480000e-01,-8.000000e-04,
365,-6.480000e-01,-1.200000e-03,
366,-6.560000e-01,-2.000000e-04,
367,-6.560000e-01,2.000000e-04,
368,-6.720001e-01,-6.000000e-04,
369,-6.720001e-01,-9.999999e-04,
370,-6.800000e-01,-9.999999e-04,
371,-6.880000e-01,-4.000000e-04,
372,-6.880000e-01,-9.999999e-04,
373,-6.960000e-01,-6.000000e-04,
374,-6.960000e-01,-9.999999e-04,
375,-7.040001e-01,-6.000000e-04,
376,-7.120000e-01,-2.000000e-04,
377,-7.120000e-01,2.000000e-04,
378,-7.120000e-01,-9.999999e-04,
379,-7.200000e-01,-6.000000e-04,
380,-7.200000e-01,-2.000000e-04,
381,-7.200000e-01,-4.000000e-04,
382,-7.280000e-01,-8.000000e-04,
383,-7.280000e-01,-4.000000e-04,
384,-7.360001e-01,0.000000e+00,
385,-7.360001e-01,-4.000000e-04,
386,-7.440000e-01,2.000000e-04,
387,-7.440000e-01,-2.000000e-04,
388,-7.440000e-01,-2.000000e-04,
389,-7.440000e-01,-4.000000e-04,
390,-7.520000e-01,-8.000000e-04,
391,-7.520000e-01,-6.000000e-04,
392,-7.520000e-01,-8.000000e-04,
393,-7.520000e-01,-4.000000e-04,
394,-7.520000e-01,-9.999999e-04,
395,-7.600001e-01,-8.000000e-04,
396,-7.600001e-01,0.000000e+00,
397,-7.520000e-01,-4.000000e-04,
398,-7.600001e-01,0.000000e+00,
399,-7.600001e-01,-4.000000e-04,
400,-7.600001e-01,0.000000e+00,
401,-7.600001e-01,2.000000e-04,
402,-7.600001e-01,-6.000000e-04,
403,-7.600001e-01,-8.000000e-04,
404,-7.520000e-01,-6.000000e-04,
405,-7.520000e-01,-9.999999e-04,
406,-7.520000e-01,4.000000e-04,
407,-7.520000e-01,0.000000e+00,
408,-7.520000e-01,6.000000e-04,
409,-7.520000e-01,2.000000e-04,
410,-7.440000e-01,0.000000e+00,
411,-7.440000e-01,-2.000000e-04,
412,-7.440000e-01,-6.000000e-04,
413,-7.440000e-01,-2.000000e-04,
414,-7.360001e-01,-2.000000e-04,
415,-7.360001e-01,-6.000000e-04,
416,-7.280000e-01,-9.999999e-04,
417,-7.280000e-01,-6.000000e-04,
418,-7.280000e-01,0.000000e+00,
419,-7.200000e-01,-4.000000e-04,
420,-7.200000e-01,-4.000000e-04,
421,-7.200000e-01,0.000000e+00,
422,-7.120000e-01,-8.000000e-04,
423,-7.120000e-01,-4.000000e-04,
424,-7.040001e-01,-2.000000e-04,
425,-7.040001e-01,0.000000e+00,
426,-6.960000e-01,0.000000e+00,
427,-6.960000e-01,4.000000e-04,
428,-6.800000e-01,-4.000000e-04,
429,-6.800000e-01,0.000000e+00,
430,-6.720001e-01,2.000000e-04,
431,-6.720001e-01,-4.000000e-04,
432,-6.560000e-01,-2.000000e-04,
433,-6.560000e-01,2.000000e-04,
434,-6.480000e-01,-2.000000e-04,
435,-6.480000e-01,2.000000e-04,
436,-6.320000e-01,-9.999999e-04,
437,-6.320000e-01,-6.000000e-04,
438,-6.240000e-01,2.000000e-04,
439,-6.160001e-01,0.000000e+00,
440,-6.080000e-01,-8.000000e-04,
441,-6.080000e-01,-4.000000e-04,
442,-5.920000e-01,-8.000000e-04,
443,-6.000000e-01,-1.200000e-03,
444,-5.760000e-01,-4.000000e-04,
445,-5.760000e-01,0.000000e+00,
446,-5.600000e-01,-8.000000e-04,
447,-5.680000e-01,-4.000000e-04,
448,-5.440000e-01,0.000000e+00,
449,-5.440000e-01,4.000000e-04,
450,-5.280000e-01,-2.000000e-04,
451,-5.280000e-01,-4.000000e-04,
452,-5.120000e-01,-2.000000e-04,
453,-5.040000e-01,-6.000000e-04,
454,-4.880000e-01,-6.000000e-04,
455,-4.960000e-01,-2.000000e-04,
456,-4.720000e-01,2.000000e-04,
457,-4.720000e-01,-2.000000e-04,
458,-4.480000e-01,4.000000e-04,
459,-4.560000e-01,2.000000e-04,
460,-4.320000e-01,-4.000000e-04,
461,-4.320000e-01,-2.000000e-04,
462,-4.160000e-01,4.000000e-04,
463,-4.080000e-01,0.000000e+00,
464,-4.000000e-01,0.000000e+00,
465,-3.920000e-01,-4.000000e-04,
466,-3.760000e-01,0.000000e+00,
467,-3.680000e-01,-4.000000e-04,
468,-3.520000e-01,8.000000e-04,
469,-3.520000e-01,4.000000e-04,
470,-3.280000e-01,1.200000e-03,
471,-3.280000e-01,1.600000e-03,
472,-3.120000e-01,2.000000e-04,
473,-3.040000e-01,6.000000e-04,
474,-2.880000e-01,4.000000e-04,
475,-2.880000e-01,8.000000e-04,
476,-2.640000e-01,-2.000000e-04,
477,-2.640000e-01,2.000000e-04,
478,-2.400000e-01,2.000000e-04,
479,-2.400000e-01,6.000000e-04,
480,-2.160000e-01,0.000000e+00,
481,-2.240000e-01,-2.000000e-04,
482,-2.000000e-01,0.000000e+00,
483,-1.920000e-01,-4.000000e-04,
484,-1.760000e-01,2.000000e-04,
485,-1.680000e-01,-2.000000e-04,
486,-1.600000e-01,6.000000e-04,
487,-1.520000e-01,2.000000e-04,
488,-1.280000e-01,8.000000e-04,
489,-1.280000e-01,9.999999e-04,
490,-1.040000e-01,2.000000e-04,
491,-1.040000e-01,-2.000000e-04,
492,-8.000001e-02,8.000000e-04,
493,-8.800001e-02,4.000000e-04,
494,-5.600000e-02,6.000000e-04,
495,-5.600000e-02,9.999999e-04,
496,-3.200000e-02,-2.000000e-04,
497,-3.200000e-02,-4.000000e-04,
498,-8.000000e-03,8.000000e-04,
499,-8.000000e-03,1.200000e-03,
500,1.600000e-02,8.000000e-04,
501,1.600000e-02,4.000000e-04,
502,4.000000e-02,1.200000e-03,
503,4.000000e-02,8.000000e-04,
504,6.400000e-02,9.999999e-04,
505,6.400000e-02,1.400000e-03,
506,8.800001e-02,4.000000e-04,
507,8.800001e-02,0.000000e+00,
508,1.120000e-01,8.000000e-04,
509,1.200000e-01,4.000000e-04,
510,1.360000e-01,8.000000e-04,
511,1.440000e-01,6.000000e-04,
512,1.600000e-01,8.000000e-04,
513,1.600000e-01,1.200000e-03,
514,1.840000e-01,9.999999e-04,
515,1.840000e-01,6.000000e-04,
516,2.080000e-01,2.000000e-04,
517,2.080000e-01,4.000000e-04,
518,2.320000e-01,1.200000e-03,
519,2.320000e-01,1.600000e-03,
520,2.560000e-01,-2.000000e-04,
521,2.560000e-01,-4.000000e-04,
522,2.720000e-01,6.000000e-04,
523,2.800000e-01,8.000000e-04,
524,2.960000e-01,8.000000e-04,
525,2.960000e-01,9.999999e-04,
526,3.120000e-01,8.000000e-04,
527,3.200000e-01,1.200000e-03,
528,3.440000e-01,9.999999e-04,
529,3.440000e-01,6.000000e-04,
530,3.600000e-01,1.800000e-03,
531,3.600000e-01,2.200000e-03,
532,3.840000e-01,1.200000e-03,
533,3.840000e-01,6.000000e-04,
534,4.000000e-01,0.000000e+00,
535,4.080000e-01,4.000000e-04,
536,4.240000e-01,8.000000e-04,
537,4.160000e-01,1.200000e-03,
538,4.400000e-01,4.000000e-04,
539,4.400000e-01,0.000000e+00,
540,4.640000e-01,6.000000e-04,
541,4.640000e-01,2.000000e-04,
542,4.800000e-01,1.400000e-03,
543,4.800000e-01,9.999999e-04,
544,4.960000e-01,4.000000e-04,
545,4.960000e-01,0.000000e+00,
546,5.200000e-01,2.000000e-04,
547,5.120000e-01,0.000000e+00,
548,5.360000e-01,1.200000e-03,
549,5.360000e-01,9.999999e-04,
550,5.520000e-01,1.400000e-03,
551,5.520000e-01,9.999999e-04,
552,5.600000e-01,1.600000e-03,
553,5.680000e-01,2.000000e-03,
554,5.840001e-01,1.200000e-03,
555,5.840001e-01,1.600000e-03,
556,6.000000e-01,9.999999e-04,
557,6.000000e-01,1.400000e-03,
558,6.160001e-01,1.200000e-03,
559,6.160001e-01,9.999999e-04,
560,6.240000e-01,2.000000e-04,
561,6.240000e-01,6.000000e-04,
562,6.400000e-01,8.000000e-04,
563,6.400000e-01,4.000000e-04,
564,6.480000e-01,1.200000e-03,
565,6.560000e-01,1.600000e-03,
566,6.640000e-01,9.999999e-04,
567,6.560000e-01,8.000000e-04,
568,6.800000e-01,4.000000e-04,
569,6.800000e-01,8.000000e-04,
570,6.800000e-01,1.600000e-03,
571,6.880000e-01,1.200000e-03,
572,6.960000e-01,8.000000e-04,
573,6.960000e-01,1.200000e-03,
574,7.120000e-01,1.200000e-03,
575,7.040001e-01,8.000000e-04,
576,7.120000e-01,6.000000e-04,
577,7.200000e-01,4.000000e-04,
578,7.200000e-01,6.000000e-04,
579,7.280000e-01,8.000000e-04,
580,7.280000e-01,1.200000e-03,
581,7.360001e-01,1.600000e-03,
582,7.360001e-01,6.000000e-04,
583,7.360001e-01,9.999999e-04,
584,7.440000e-01,1.200000e-03,
585,7.360001e-01,1.600000e-03,
586,7.520000e-01,9.999999e-04,
587,7.440000e-01,1.400000e-03,
588,7.520000e-01,8.000000e-04,
589,7.520000e-01,1.200000e-03,
590,7.520000e-01,1.400000e-03,
591,7.600001e-01,9.999999e-04,
592,7.600001e-01,4.000000e-04,
593,7.600001e-01,8.000000e-04,
594,7.600001e-01,1.600000e-03,
595,7.600001e-01,1.200000e-03,
596,7.680001e-01,9.999999e-04,
597,7.600001e-01,6.000000e-04,
598,7.680001e-01,1.800000e-03,
599,7.680001e-01,1.600000e-03,
600,7.680001e-01,4.000000e-04,
601,7.600001e-01,8.000000e-04,
602,7.600001e-01,9.999999e-04,
603,7.680001e-01,1.400000e-03,
604,7.600001e-01,8.000000e-04,
605,7.600001e-01,6.000000e-04,
606,7.600001e-01,1.200000e-03,
607,7.600001e-01,1.600000e-03,
608,7.600001e-01,1.600000e-03,
609,7.520000e-01,2.000000e-03,
610,7.520000e-01,1.200000e-03,
611,7.520000e-01,8.000000e-04,
612,7.520000e-01,1.400000e-03,
613,7.440000e-01,9.999999e-04,
614,7.440000e-01,1.800000e-03,
615,7.440000e-01,1.400000e-03,
616,7.360001e-01,1.200000e-03,
617,7.360001e-01,8.000000e-04,
618,7.360001e-01,1.600000e-03,
619,7.280000e-01,1.200000e-03,
620,7.280000e-01,8.000000e-04,
621,7.200000e-01,1.200000e-03,
622,7.200000e-01,8.000000e-04,
623,7.120000e-01,4.000000e-04,
624,7.120000e-01,4.000000e-04,
625,7.120000e-01,8.000000e-04,
626,6.960000e-01,9.999999e-04,
627,7.040001e-01,6.000000e-04,
628,6.880000e-01,1.400000e-03,
629,6.880000e-01,1.200000e-03,
