parte2/esp9/Con_sorgente/Data_common_mode/5/5.csv

X,CH1,CH2,Start,Increment,
Sequence,Volt,Volt,-2.190000e-04,6.500000e-07,
0,-7.216000e-01,-1.600000e-03,
1,-7.134000e-01,-1.200000e-03,
2,-7.216000e-01,-1.600000e-03,
3,-7.134000e-01,-1.200000e-03,
4,-7.216000e-01,-2.000000e-04,
5,-7.216000e-01,-6.000000e-04,
6,-7.216000e-01,-4.000000e-04,
7,-7.216000e-01,-8.000000e-04,
8,-7.298000e-01,-4.000000e-04,
9,-7.298000e-01,-2.000000e-04,
10,-7.216000e-01,4.000000e-04,
11,-7.298000e-01,0.000000e+00,
12,-7.298000e-01,-9.999999e-04,
13,-7.298000e-01,-6.000000e-04,
14,-7.298000e-01,0.000000e+00,
15,-7.298000e-01,-4.000000e-04,
16,-7.298000e-01,-2.000000e-04,
17,-7.216000e-01,-6.000000e-04,
18,-7.298000e-01,2.000000e-04,
19,-7.216000e-01,6.000000e-04,
20,-7.298000e-01,-9.999999e-04,
21,-7.298000e-01,-6.000000e-04,
22,-7.298000e-01,-6.000000e-04,
23,-7.216000e-01,-4.000000e-04,
24,-7.298000e-01,-2.000000e-04,
25,-7.298000e-01,0.000000e+00,
26,-7.216000e-01,0.000000e+00,
27,-7.216000e-01,-4.000000e-04,
28,-7.216000e-01,0.000000e+00,
29,-7.134000e-01,-2.000000e-04,
30,-7.134000e-01,-4.000000e-04,
31,-7.134000e-01,-2.000000e-04,
32,-7.052000e-01,-6.000000e-04,
33,-7.052000e-01,-4.000000e-04,
34,-7.052000e-01,-1.200000e-03,
35,-7.052000e-01,-9.999999e-04,
36,-6.970000e-01,-9.999999e-04,
37,-6.888000e-01,-1.400000e-03,
38,-6.888000e-01,2.000000e-04,
39,-6.888000e-01,-2.000000e-04,
40,-6.806000e-01,-6.000000e-04,
41,-6.806000e-01,-2.000000e-04,
42,-6.724000e-01,-1.400000e-03,
43,-6.724000e-01,-1.200000e-03,
44,-6.642000e-01,4.000000e-04,
45,-6.642000e-01,8.000000e-04,
46,-6.478000e-01,-4.000000e-04,
47,-6.560000e-01,-2.000000e-04,
48,-6.478000e-01,2.000000e-04,
49,-6.396000e-01,6.000000e-04,
50,-6.396000e-01,-2.000000e-04,
51,-6.396000e-01,-6.000000e-04,
52,-6.232000e-01,4.000000e-04,
53,-6.232000e-01,6.000000e-04,
54,-6.150000e-01,-6.000000e-04,
55,-6.068000e-01,-8.000000e-04,
56,-5.986000e-01,-4.000000e-04,
57,-5.904000e-01,0.000000e+00,
58,-5.822000e-01,-2.000000e-04,
59,-5.822000e-01,-4.000000e-04,
60,-5.740000e-01,0.000000e+00,
61,-5.740000e-01,4.000000e-04,
62,-5.576000e-01,2.000000e-04,
63,-5.494000e-01,-2.000000e-04,
64,-5.494000e-01,-2.000000e-04,
65,-5.412000e-01,0.000000e+00,
66,-5.248000e-01,-2.000000e-04,
67,-5.330000e-01,0.000000e+00,
68,-5.166000e-01,8.000000e-04,
69,-5.084000e-01,4.000000e-04,
70,-5.002000e-01,-4.000000e-04,
71,-4.920000e-01,-2.000000e-04,
72,-4.838000e-01,0.000000e+00,
73,-4.756000e-01,-4.000000e-04,
74,-4.674000e-01,2.000000e-04,
75,-4.592000e-01,0.000000e+00,
76,-4.428000e-01,4.000000e-04,
77,-4.428000e-01,8.000000e-04,
78,-4.264000e-01,-2.000000e-04,
79,-4.182000e-01,-6.000000e-04,
80,-4.100000e-01,-2.000000e-04,
81,-4.100000e-01,-6.000000e-04,
82,-3.936000e-01,-8.000000e-04,
83,-3.854000e-01,-4.000000e-04,
84,-3.690000e-01,2.000000e-04,
85,-3.690000e-01,4.000000e-04,
86,-3.526000e-01,2.000000e-04,
87,-3.526000e-01,4.000000e-04,
88,-3.362000e-01,6.000000e-04,
89,-3.280000e-01,9.999999e-04,
90,-3.198000e-01,-2.000000e-04,
91,-3.116000e-01,0.000000e+00,
92,-2.870000e-01,6.000000e-04,
93,-2.870000e-01,4.000000e-04,
94,-2.706000e-01,6.000000e-04,
95,-2.706000e-01,2.000000e-04,
96,-2.542000e-01,-4.000000e-04,
97,-2.542000e-01,0.000000e+00,
98,-2.296000e-01,2.000000e-04,
99,-2.296000e-01,6.000000e-04,
100,-2.132000e-01,6.000000e-04,
101,-2.132000e-01,9.999999e-04,
102,-1.886000e-01,0.000000e+00,
103,-1.886000e-01,4.000000e-04,
104,-1.722000e-01,6.000000e-04,
105,-1.640000e-01,9.999999e-04,
106,-1.476000e-01,0.000000e+00,
107,-1.476000e-01,-4.000000e-04,
108,-1.230000e-01,4.000000e-04,
109,-1.230000e-01,2.000000e-04,
110,-1.066000e-01,-4.000000e-04,
111,-9.840000e-02,-2.000000e-04,
112,-8.200000e-02,-4.000000e-04,
113,-8.200000e-02,0.000000e+00,
114,-5.740000e-02,2.000000e-04,
115,-5.740000e-02,0.000000e+00,
116,-3.280000e-02,2.000000e-04,
117,-3.280000e-02,6.000000e-04,
118,-1.640000e-02,2.000000e-04,
119,-8.200000e-03,6.000000e-04,
120,8.200000e-03,2.000000e-04,
121,8.200000e-03,4.000000e-04,
122,3.280000e-02,6.000000e-04,
123,4.100000e-02,1.200000e-03,
124,5.740000e-02,1.200000e-03,
125,5.740000e-02,8.000000e-04,
126,7.380000e-02,8.000000e-04,
127,7.380000e-02,9.999999e-04,
128,9.840000e-02,4.000000e-04,
129,1.066000e-01,0.000000e+00,
130,1.230000e-01,4.000000e-04,
131,1.230000e-01,8.000000e-04,
132,1.476000e-01,4.000000e-04,
133,1.394000e-01,6.000000e-04,
134,1.640000e-01,1.200000e-03,
135,1.640000e-01,1.400000e-03,
136,1.886000e-01,9.999999e-04,
137,1.886000e-01,8.000000e-04,
138,2.132000e-01,2.000000e-04,
139,2.132000e-01,4.000000e-04,
140,2.296000e-01,9.999999e-04,
141,2.378000e-01,6.000000e-04,
142,2.542000e-01,8.000000e-04,
143,2.542000e-01,1.200000e-03,
144,2.706000e-01,1.600000e-03,
145,2.706000e-01,2.000000e-03,
146,2.952000e-01,4.000000e-04,
147,2.952000e-01,2.000000e-04,
148,3.116000e-01,8.000000e-04,
149,3.198000e-01,6.000000e-04,
150,3.362000e-01,4.000000e-04,
151,3.362000e-01,6.000000e-04,
152,3.526000e-01,9.999999e-04,
153,3.608000e-01,1.400000e-03,
154,3.690000e-01,8.000000e-04,
155,3.772000e-01,6.000000e-04,
156,3.936000e-01,0.000000e+00,
157,4.018000e-01,2.000000e-04,
158,4.182000e-01,1.400000e-03,
159,4.182000e-01,9.999999e-04,
160,4.346000e-01,9.999999e-04,
161,4.346000e-01,8.000000e-04,
162,4.510000e-01,6.000000e-04,
163,4.592000e-01,9.999999e-04,
164,4.674000e-01,6.000000e-04,
165,4.674000e-01,9.999999e-04,
166,4.920000e-01,4.000000e-04,
167,4.920000e-01,0.000000e+00,
168,5.002000e-01,9.999999e-04,
169,5.084000e-01,8.000000e-04,
170,5.248000e-01,1.400000e-03,
171,5.330000e-01,1.200000e-03,
172,5.412000e-01,-2.000000e-04,
173,5.412000e-01,0.000000e+00,
174,5.576000e-01,6.000000e-04,
175,5.576000e-01,8.000000e-04,
176,5.740000e-01,1.400000e-03,
177,5.740000e-01,9.999999e-04,
178,5.904000e-01,9.999999e-04,
179,5.904000e-01,1.200000e-03,
180,6.068000e-01,1.200000e-03,
181,6.068000e-01,1.400000e-03,
182,6.232000e-01,8.000000e-04,
183,6.232000e-01,4.000000e-04,
184,6.314000e-01,9.999999e-04,
185,6.396000e-01,6.000000e-04,
186,6.478000e-01,1.400000e-03,
187,6.478000e-01,1.200000e-03,
188,6.560000e-01,1.200000e-03,
189,6.560000e-01,8.000000e-04,
190,6.724000e-01,1.800000e-03,
191,6.724000e-01,1.400000e-03,
192,6.806000e-01,9.999999e-04,
193,6.806000e-01,8.000000e-04,
194,6.970000e-01,9.999999e-04,
195,6.970000e-01,1.400000e-03,
196,7.052000e-01,4.000000e-04,
197,7.052000e-01,6.000000e-04,
198,7.216000e-01,9.999999e-04,
199,7.134000e-01,1.200000e-03,
200,7.216000e-01,1.200000e-03,
201,7.298000e-01,8.000000e-04,
202,7.380000e-01,1.200000e-03,
203,7.380000e-01,1.400000e-03,
204,7.462000e-01,1.200000e-03,
205,7.462000e-01,8.000000e-04,
206,7.544000e-01,1.200000e-03,
207,7.544000e-01,1.600000e-03,
208,7.544000e-01,8.000000e-04,
209,7.626000e-01,9.999999e-04,
210,7.626000e-01,2.200000e-03,
211,7.708000e-01,2.400000e-03,
212,7.708000e-01,1.400000e-03,
213,7.708000e-01,1.600000e-03,
214,7.708000e-01,1.200000e-03,
215,7.790000e-01,8.000000e-04,
216,7.872000e-01,1.400000e-03,
217,7.790000e-01,1.200000e-03,
218,7.872000e-01,1.800000e-03,
219,7.790000e-01,1.600000e-03,
220,7.872000e-01,8.000000e-04,
221,7.872000e-01,9.999999e-04,
222,7.954000e-01,6.000000e-04,
223,7.872000e-01,9.999999e-04,
224,7.954000e-01,2.200000e-03,
225,7.954000e-01,2.000000e-03,
226,7.954000e-01,8.000000e-04,
227,7.954000e-01,4.000000e-04,
228,7.954000e-01,1.600000e-03,
229,7.954000e-01,1.200000e-03,
230,7.954000e-01,1.200000e-03,
231,7.954000e-01,1.400000e-03,
232,7.872000e-01,8.000000e-04,
233,7.954000e-01,6.000000e-04,
234,7.872000e-01,1.200000e-03,
235,7.954000e-01,9.999999e-04,
236,7.872000e-01,1.800000e-03,
237,7.954000e-01,1.600000e-03,
238,7.872000e-01,1.400000e-03,
239,7.872000e-01,9.999999e-04,
240,7.872000e-01,1.600000e-03,
241,7.872000e-01,1.400000e-03,
242,7.872000e-01,1.200000e-03,
243,7.790000e-01,8.000000e-04,
244,7.708000e-01,6.000000e-04,
245,7.790000e-01,8.000000e-04,
246,7.708000e-01,8.000000e-04,
247,7.708000e-01,1.200000e-03,
248,7.626000e-01,1.400000e-03,
249,7.626000e-01,9.999999e-04,
250,7.626000e-01,8.000000e-04,
251,7.544000e-01,1.200000e-03,
252,7.544000e-01,4.000000e-04,
253,7.544000e-01,8.000000e-04,
254,7.462000e-01,6.000000e-04,
255,7.462000e-01,8.000000e-04,
256,7.380000e-01,1.200000e-03,
257,7.380000e-01,8.000000e-04,
258,7.298000e-01,9.999999e-04,
259,7.298000e-01,6.000000e-04,
260,7.216000e-01,2.000000e-04,
261,7.134000e-01,6.000000e-04,
262,7.052000e-01,8.000000e-04,
263,7.052000e-01,4.000000e-04,
264,6.970000e-01,9.999999e-04,
265,6.970000e-01,8.000000e-04,
266,6.888000e-01,9.999999e-04,
267,6.888000e-01,8.000000e-04,
268,6.724000e-01,6.000000e-04,
269,6.724000e-01,4.000000e-04,
270,6.642000e-01,8.000000e-04,
271,6.560000e-01,9.999999e-04,
272,6.478000e-01,9.999999e-04,
273,6.478000e-01,8.000000e-04,
274,6.396000e-01,8.000000e-04,
275,6.314000e-01,4.000000e-04,
276,6.232000e-01,6.000000e-04,
277,6.232000e-01,9.999999e-04,
278,6.068000e-01,1.200000e-03,
279,6.068000e-01,1.400000e-03,
280,5.904000e-01,2.000000e-04,
281,5.822000e-01,4.000000e-04,
282,5.740000e-01,6.000000e-04,
283,5.740000e-01,2.000000e-04,
284,5.576000e-01,1.200000e-03,
285,5.658000e-01,9.999999e-04,
286,5.412000e-01,4.000000e-04,
287,5.412000e-01,0.000000e+00,
288,5.248000e-01,6.000000e-04,
289,5.248000e-01,8.000000e-04,
290,5.084000e-01,6.000000e-04,
291,5.002000e-01,4.000000e-04,
292,4.920000e-01,2.000000e-04,
293,4.838000e-01,6.000000e-04,
294,4.674000e-01,1.800000e-03,
295,4.674000e-01,2.000000e-03,
296,4.510000e-01,6.000000e-04,
297,4.510000e-01,2.000000e-04,
298,4.346000e-01,8.000000e-04,
299,4.264000e-01,4.000000e-04,
300,4.100000e-01,-9.999999e-04,
301,4.182000e-01,-8.000000e-04,
302,3.936000e-01,6.000000e-04,
303,3.936000e-01,8.000000e-04,
304,3.772000e-01,8.000000e-04,
305,3.772000e-01,4.000000e-04,
306,3.526000e-01,1.200000e-03,
307,3.526000e-01,6.000000e-04,
308,3.362000e-01,0.000000e+00,
309,3.280000e-01,-2.000000e-04,
310,3.198000e-01,9.999999e-04,
311,3.198000e-01,8.000000e-04,
312,2.952000e-01,-2.000000e-04,
313,2.952000e-01,-4.000000e-04,
314,2.706000e-01,2.000000e-04,
315,2.706000e-01,0.000000e+00,
316,2.542000e-01,-4.000000e-04,
317,2.542000e-01,-6.000000e-04,
318,2.296000e-01,4.000000e-04,
319,2.296000e-01,0.000000e+00,
320,2.132000e-01,6.000000e-04,
321,2.050000e-01,4.000000e-04,
322,1.886000e-01,-2.000000e-04,
323,1.804000e-01,0.000000e+00,
324,1.640000e-01,2.000000e-04,
325,1.640000e-01,0.000000e+00,
326,1.394000e-01,0.000000e+00,
327,1.476000e-01,4.000000e-04,
328,1.230000e-01,4.000000e-04,
329,1.230000e-01,0.000000e+00,
330,9.840000e-02,6.000000e-04,
331,9.840000e-02,2.000000e-04,
332,7.380000e-02,0.000000e+00,
333,7.380000e-02,-2.000000e-04,
334,5.740000e-02,6.000000e-04,
335,4.920000e-02,8.000000e-04,
336,3.280000e-02,0.000000e+00,
337,3.280000e-02,-2.000000e-04,
338,8.200000e-03,4.000000e-04,
339,0.000000e+00,0.000000e+00,
340,-8.200000e-03,-9.999999e-04,
341,-1.640000e-02,-1.400000e-03,
342,-3.280000e-02,-4.000000e-04,
343,-4.100000e-02,-2.000000e-04,
344,-5.740000e-02,-2.000000e-04,
345,-6.560000e-02,0.000000e+00,
346,-8.200000e-02,-2.000000e-04,
347,-8.200000e-02,0.000000e+00,
348,-1.066000e-01,-6.000000e-04,
349,-9.840000e-02,-2.000000e-04,
350,-1.230000e-01,-4.000000e-04,
351,-1.312000e-01,0.000000e+00,
352,-1.476000e-01,0.000000e+00,
353,-1.476000e-01,-2.000000e-04,
354,-1.640000e-01,0.000000e+00,
355,-1.722000e-01,-2.000000e-04,
356,-1.886000e-01,-8.000000e-04,
357,-1.886000e-01,-6.000000e-04,
358,-2.050000e-01,4.000000e-04,
359,-2.132000e-01,0.000000e+00,
360,-2.296000e-01,0.000000e+00,
361,-2.296000e-01,-4.000000e-04,
362,-2.542000e-01,0.000000e+00,
363,-2.542000e-01,-2.000000e-04,
364,-2.706000e-01,-8.000000e-04,
365,-2.788000e-01,-6.000000e-04,
366,-2.870000e-01,0.000000e+00,
367,-2.952000e-01,4.000000e-04,
368,-3.116000e-01,-6.000000e-04,
369,-3.198000e-01,-9.999999e-04,
370,-3.362000e-01,2.000000e-04,
371,-3.362000e-01,0.000000e+00,
372,-3.526000e-01,-4.000000e-04,
373,-3.526000e-01,0.000000e+00,
374,-3.690000e-01,2.000000e-04,
375,-3.772000e-01,0.000000e+00,
376,-3.854000e-01,-6.000000e-04,
377,-3.936000e-01,-4.000000e-04,
378,-4.100000e-01,-9.999999e-04,
379,-4.100000e-01,-6.000000e-04,
380,-4.264000e-01,-4.000000e-04,
381,-4.264000e-01,-8.000000e-04,
382,-4.428000e-01,-8.000000e-04,
383,-4.510000e-01,-9.999999e-04,
384,-4.592000e-01,0.000000e+00,
385,-4.674000e-01,-2.000000e-04,
386,-4.838000e-01,-1.400000e-03,
387,-4.756000e-01,-1.200000e-03,
388,-4.920000e-01,-2.000000e-04,
389,-5.002000e-01,-6.000000e-04,
390,-5.166000e-01,-4.000000e-04,
391,-5.166000e-01,-6.000000e-04,
392,-5.248000e-01,-8.000000e-04,
393,-5.330000e-01,-6.000000e-04,
394,-5.412000e-01,-2.000000e-04,
395,-5.494000e-01,2.000000e-04,
396,-5.576000e-01,-8.000000e-04,
397,-5.494000e-01,-4.000000e-04,
398,-5.740000e-01,-8.000000e-04,
399,-5.740000e-01,-4.000000e-04,
400,-5.822000e-01,-6.000000e-04,
401,-5.822000e-01,-2.000000e-04,
402,-5.986000e-01,-6.000000e-04,
403,-5.986000e-01,-4.000000e-04,
404,-6.150000e-01,6.000000e-04,
405,-6.150000e-01,4.000000e-04,
406,-6.232000e-01,-8.000000e-04,
407,-6.232000e-01,-6.000000e-04,
408,-6.314000e-01,-9.999999e-04,
409,-6.314000e-01,-6.000000e-04,
410,-6.478000e-01,-8.000000e-04,
411,-6.478000e-01,-9.999999e-04,
412,-6.560000e-01,-6.000000e-04,
413,-6.560000e-01,-9.999999e-04,
414,-6.642000e-01,-6.000000e-04,
415,-6.642000e-01,-2.000000e-04,
416,-6.724000e-01,-2.000000e-03,
417,-6.724000e-01,-1.600000e-03,
418,-6.806000e-01,-6.000000e-04,
419,-6.806000e-01,-8.000000e-04,
420,-6.888000e-01,-9.999999e-04,
421,-6.888000e-01,-6.000000e-04,
422,-6.970000e-01,-4.000000e-04,
423,-6.970000e-01,-8.000000e-04,
424,-7.052000e-01,-2.000000e-04,
425,-6.970000e-01,-4.000000e-04,
426,-7.052000e-01,2.000000e-04,
427,-7.134000e-01,-2.000000e-04,
428,-7.134000e-01,2.000000e-04,
429,-7.134000e-01,-2.000000e-04,
430,-7.134000e-01,-8.000000e-04,
431,-7.216000e-01,-9.999999e-04,
432,-7.216000e-01,-2.000000e-04,
433,-7.216000e-01,-6.000000e-04,
434,-7.216000e-01,-6.000000e-04,
435,-7.298000e-01,-2.000000e-04,
436,-7.216000e-01,-4.000000e-04,
437,-7.298000e-01,0.000000e+00,
438,-7.298000e-01,4.000000e-04,
439,-7.298000e-01,2.000000e-04,
440,-7.298000e-01,-6.000000e-04,
441,-7.216000e-01,-9.999999e-04,
442,-7.298000e-01,2.000000e-04,
443,-7.298000e-01,4.000000e-04,
444,-7.298000e-01,-1.200000e-03,
445,-7.298000e-01,-8.000000e-04,
446,-7.298000e-01,0.000000e+00,
447,-7.298000e-01,-4.000000e-04,
448,-7.298000e-01,-8.000000e-04,
449,-7.216000e-01,-1.200000e-03,
450,-7.298000e-01,0.000000e+00,
451,-7.216000e-01,-4.000000e-04,
452,-7.216000e-01,4.000000e-04,
453,-7.216000e-01,0.000000e+00,
454,-7.216000e-01,-1.400000e-03,
455,-7.134000e-01,-1.200000e-03,
456,-7.134000e-01,0.000000e+00,
457,-7.134000e-01,-4.000000e-04,
458,-7.134000e-01,-1.400000e-03,
459,-7.134000e-01,-9.999999e-04,
460,-7.052000e-01,-4.000000e-04,
461,-7.052000e-01,-8.000000e-04,
462,-6.970000e-01,-1.200000e-03,
463,-7.052000e-01,-1.600000e-03,
464,-6.970000e-01,-8.000000e-04,
465,-6.888000e-01,-4.000000e-04,
466,-6.888000e-01,0.000000e+00,
467,-6.888000e-01,-2.000000e-04,
468,-6.806000e-01,-4.000000e-04,
469,-6.806000e-01,-6.000000e-04,
470,-6.724000e-01,-6.000000e-04,
471,-6.724000e-01,-2.000000e-04,
472,-6.642000e-01,4.000000e-04,
473,-6.560000e-01,8.000000e-04,
474,-6.478000e-01,-4.000000e-04,
475,-6.478000e-01,-6.000000e-04,
476,-6.396000e-01,-2.000000e-04,
477,-6.396000e-01,0.000000e+00,
478,-6.314000e-01,-4.000000e-04,
479,-6.314000e-01,-6.000000e-04,
480,-6.232000e-01,8.000000e-04,
481,-6.150000e-01,6.000000e-04,
482,-6.068000e-01,-1.200000e-03,
483,-6.068000e-01,-8.000000e-04,
484,-5.986000e-01,-2.000000e-04,
485,-5.904000e-01,-4.000000e-04,
486,-5.822000e-01,-4.000000e-04,
487,-5.740000e-01,-2.000000e-04,
488,-5.658000e-01,4.000000e-04,
489,-5.658000e-01,0.000000e+00,
490,-5.494000e-01,2.000000e-04,
491,-5.494000e-01,6.000000e-04,
492,-5.412000e-01,0.000000e+00,
493,-5.330000e-01,-2.000000e-04,
494,-5.248000e-01,-4.000000e-04,
495,-5.166000e-01,0.000000e+00,
496,-5.084000e-01,-6.000000e-04,
497,-5.084000e-01,-8.000000e-04,
498,-4.920000e-01,-2.000000e-04,
499,-4.920000e-01,0.000000e+00,
500,-4.756000e-01,2.000000e-04,
501,-4.674000e-01,4.000000e-04,
502,-4.510000e-01,0.000000e+00,
503,-4.510000e-01,-4.000000e-04,
504,-4.428000e-01,0.000000e+00,
505,-4.346000e-01,2.000000e-04,
506,-4.264000e-01,0.000000e+00,
507,-4.182000e-01,-4.000000e-04,
508,-4.018000e-01,-2.000000e-04,
509,-4.018000e-01,-4.000000e-04,
510,-3.854000e-01,-2.000000e-04,
511,-3.854000e-01,2.000000e-04,
512,-3.690000e-01,8.000000e-04,
513,-3.608000e-01,6.000000e-04,
514,-3.444000e-01,2.000000e-04,
515,-3.444000e-01,-2.000000e-04,
516,-3.280000e-01,2.000000e-04,
517,-3.280000e-01,4.000000e-04,
518,-3.116000e-01,-2.000000e-04,
519,-3.034000e-01,-6.000000e-04,
520,-2.870000e-01,2.000000e-04,
521,-2.870000e-01,6.000000e-04,
522,-2.624000e-01,0.000000e+00,
523,-2.624000e-01,-4.000000e-04,
524,-2.460000e-01,4.000000e-04,
525,-2.460000e-01,2.000000e-04,
526,-2.296000e-01,1.200000e-03,
527,-2.214000e-01,1.400000e-03,
528,-2.050000e-01,6.000000e-04,
529,-1.968000e-01,2.000000e-04,
530,-1.804000e-01,2.000000e-04,
531,-1.804000e-01,0.000000e+00,
532,-1.558000e-01,4.000000e-04,
533,-1.640000e-01,8.000000e-04,
534,-1.394000e-01,2.000000e-04,
535,-1.394000e-01,-2.000000e-04,
536,-1.230000e-01,-4.000000e-04,
537,-1.148000e-01,0.000000e+00,
538,-9.840000e-02,0.000000e+00,
539,-9.020000e-02,2.000000e-04,
540,-7.380000e-02,4.000000e-04,
541,-6.560000e-02,6.000000e-04,
542,-4.920000e-02,8.000000e-04,
543,-4.920000e-02,6.000000e-04,
544,-3.280000e-02,4.000000e-04,
545,-2.460000e-02,0.000000e+00,
546,-8.200000e-03,2.000000e-04,
547,0.000000e+00,6.000000e-04,
548,1.640000e-02,8.000000e-04,
549,2.460000e-02,4.000000e-04,
550,4.100000e-02,1.400000e-03,
551,4.100000e-02,9.999999e-04,
552,5.740000e-02,4.000000e-04,
553,6.560000e-02,0.000000e+00,
554,8.200000e-02,-2.000000e-04,
555,8.200000e-02,0.000000e+00,
556,1.066000e-01,6.000000e-04,
557,1.066000e-01,2.000000e-04,
558,1.230000e-01,0.000000e+00,
559,1.312000e-01,-2.000000e-04,
560,1.476000e-01,8.000000e-04,
561,1.558000e-01,4.000000e-04,
562,1.722000e-01,8.000000e-04,
563,1.722000e-01,1.200000e-03,
564,1.968000e-01,6.000000e-04,
565,1.968000e-01,2.000000e-04,
566,2.132000e-01,6.000000e-04,
567,2.214000e-01,8.000000e-04,
568,2.378000e-01,8.000000e-04,
569,2.378000e-01,1.200000e-03,
570,2.542000e-01,4.000000e-04,
571,2.624000e-01,2.000000e-04,
572,2.788000e-01,6.000000e-04,
573,2.788000e-01,9.999999e-04,
574,2.952000e-01,0.000000e+00,
575,3.034000e-01,2.000000e-04,
576,3.280000e-01,1.800000e-03,
577,3.198000e-01,1.600000e-03,
578,3.444000e-01,4.000000e-04,
579,3.444000e-01,0.000000e+00,
580,3.608000e-01,-2.000000e-04,
581,3.690000e-01,2.000000e-04,
582,3.772000e-01,6.000000e-04,
583,3.854000e-01,9.999999e-04,
584,4.018000e-01,8.000000e-04,
585,4.018000e-01,1.200000e-03,
586,4.264000e-01,8.000000e-04,
587,4.264000e-01,6.000000e-04,
588,4.346000e-01,8.000000e-04,
589,4.428000e-01,4.000000e-04,
590,4.592000e-01,1.200000e-03,
591,4.592000e-01,1.600000e-03,
592,4.756000e-01,8.000000e-04,
593,4.838000e-01,1.200000e-03,
594,4.920000e-01,6.000000e-04,
595,5.002000e-01,9.999999e-04,
596,5.166000e-01,4.000000e-04,
597,5.166000e-01,2.000000e-04,
598,5.330000e-01,2.000000e-03,
599,5.330000e-01,1.800000e-03,
600,5.494000e-01,9.999999e-04,
601,5.576000e-01,8.000000e-04,
602,5.658000e-01,8.000000e-04,
603,5.576000e-01,1.200000e-03,
604,5.822000e-01,9.999999e-04,
605,5.822000e-01,6.000000e-04,
606,5.904000e-01,8.000000e-04,
607,5.904000e-01,1.200000e-03,
608,6.150000e-01,1.800000e-03,
609,6.068000e-01,1.600000e-03,
610,6.232000e-01,6.000000e-04,
611,6.314000e-01,9.999999e-04,
612,6.396000e-01,4.000000e-04,
613,6.396000e-01,6.000000e-04,
614,6.478000e-01,1.600000e-03,
615,6.478000e-01,1.200000e-03,
616,6.642000e-01,9.999999e-04,
617,6.724000e-01,1.400000e-03,
618,6.724000e-01,9.999999e-04,
619,6.806000e-01,8.000000e-04,
620,6.888000e-01,2.000000e-04,
621,6.970000e-01,4.000000e-04,
622,6.970000e-01,9.999999e-04,
623,6.970000e-01,8.000000e-04,
624,7.134000e-01,9.999999e-04,
625,7.134000e-01,8.000000e-04,
626,7.216000e-01,1.200000e-03,
627,7.216000e-01,1.600000e-03,
628,7.298000e-01,6.000000e-04,
