parte2/esp10/Data/d3/f3/5.csv

X,CH1,CH2,Start,Increment,
Sequence,Volt,Volt,2.095600e-04,3.780000e-08,
0,-1.260000e-02,1.080000e-02,
1,-1.260000e-02,1.080000e-02,
2,-1.260000e-02,1.080000e-02,
3,-1.260000e-02,1.080000e-02,
4,-1.080000e-02,1.080000e-02,
5,-1.080000e-02,1.080000e-02,
6,-9.000001e-03,1.080000e-02,
7,-9.000001e-03,1.296000e-02,
8,-6.300000e-03,1.080000e-02,
9,-7.200000e-03,1.080000e-02,
10,-4.500000e-03,1.296000e-02,
11,-5.400000e-03,1.080000e-02,
12,-3.600000e-03,1.080000e-02,
13,-2.700000e-03,1.080000e-02,
14,-9.000000e-04,1.296000e-02,
15,-9.000000e-04,1.296000e-02,
16,1.800000e-03,1.080000e-02,
17,1.800000e-03,1.296000e-02,
18,2.700000e-03,1.080000e-02,
19,3.600000e-03,1.296000e-02,
20,5.400000e-03,1.296000e-02,
21,5.400000e-03,1.080000e-02,
22,6.300000e-03,1.296000e-02,
23,7.200000e-03,1.296000e-02,
24,9.000001e-03,1.296000e-02,
25,9.900001e-03,1.296000e-02,
26,1.170000e-02,1.296000e-02,
27,1.080000e-02,1.080000e-02,
28,1.260000e-02,1.296000e-02,
29,1.260000e-02,1.080000e-02,
30,1.530000e-02,1.296000e-02,
31,1.530000e-02,1.296000e-02,
32,1.710000e-02,1.296000e-02,
33,1.710000e-02,1.296000e-02,
34,1.890000e-02,1.080000e-02,
35,1.890000e-02,1.080000e-02,
36,2.070000e-02,1.080000e-02,
37,2.070000e-02,1.296000e-02,
38,2.250000e-02,1.296000e-02,
39,2.250000e-02,1.080000e-02,
40,2.430000e-02,1.296000e-02,
41,2.430000e-02,1.080000e-02,
42,2.610000e-02,1.296000e-02,
43,2.610000e-02,1.296000e-02,
44,2.790000e-02,1.296000e-02,
45,2.790000e-02,1.296000e-02,
46,2.970000e-02,1.296000e-02,
47,2.970000e-02,1.296000e-02,
48,3.150000e-02,1.296000e-02,
49,3.240000e-02,1.296000e-02,
50,3.420000e-02,1.296000e-02,
51,3.330000e-02,1.296000e-02,
52,3.510000e-02,1.296000e-02,
53,3.600000e-02,1.512000e-02,
54,3.690000e-02,1.296000e-02,
55,3.780000e-02,1.296000e-02,
56,3.870000e-02,1.296000e-02,
57,3.870000e-02,1.296000e-02,
58,4.050000e-02,1.080000e-02,
59,4.050000e-02,1.080000e-02,
60,4.140000e-02,1.296000e-02,
61,4.140000e-02,1.296000e-02,
62,4.410000e-02,1.080000e-02,
63,4.410000e-02,1.296000e-02,
64,4.500000e-02,1.296000e-02,
65,4.500000e-02,1.296000e-02,
66,4.680000e-02,1.080000e-02,
67,4.770000e-02,1.080000e-02,
68,4.860000e-02,1.080000e-02,
69,4.950000e-02,1.296000e-02,
70,5.040000e-02,1.080000e-02,
71,4.950000e-02,1.296000e-02,
72,5.130000e-02,1.296000e-02,
73,5.220000e-02,1.080000e-02,
74,5.310000e-02,1.296000e-02,
75,5.310000e-02,1.296000e-02,
76,5.400000e-02,1.080000e-02,
77,5.400000e-02,1.080000e-02,
78,5.580000e-02,1.296000e-02,
79,5.670000e-02,1.080000e-02,
80,5.760000e-02,1.296000e-02,
81,5.850000e-02,1.080000e-02,
82,5.940000e-02,1.296000e-02,
83,5.940000e-02,1.080000e-02,
84,6.120000e-02,1.080000e-02,
85,6.120000e-02,1.080000e-02,
86,6.120000e-02,1.296000e-02,
87,6.210000e-02,1.296000e-02,
88,6.390000e-02,1.080000e-02,
89,6.390000e-02,1.296000e-02,
90,6.480000e-02,1.296000e-02,
91,6.480000e-02,1.296000e-02,
92,6.570000e-02,1.080000e-02,
93,6.660000e-02,1.296000e-02,
94,6.750000e-02,1.296000e-02,
95,6.660000e-02,1.296000e-02,
96,6.840000e-02,1.080000e-02,
97,6.750000e-02,1.296000e-02,
98,6.930000e-02,1.080000e-02,
99,6.840000e-02,1.080000e-02,
100,7.020000e-02,1.080000e-02,
101,7.020000e-02,1.080000e-02,
102,7.020000e-02,1.080000e-02,
103,7.110000e-02,1.080000e-02,
104,7.200000e-02,1.080000e-02,
105,7.200000e-02,1.080000e-02,
106,7.200000e-02,1.296000e-02,
107,7.200000e-02,1.080000e-02,
108,7.380001e-02,1.080000e-02,
109,7.380001e-02,1.080000e-02,
110,7.380001e-02,1.080000e-02,
111,7.470001e-02,1.080000e-02,
112,7.560001e-02,1.080000e-02,
113,7.560001e-02,1.080000e-02,
114,7.650001e-02,1.080000e-02,
115,7.650001e-02,1.080000e-02,
116,7.740001e-02,1.080000e-02,
117,7.740001e-02,1.080000e-02,
118,7.830001e-02,8.640001e-03,
119,7.740001e-02,1.080000e-02,
120,7.830001e-02,1.080000e-02,
121,7.830001e-02,1.080000e-02,
122,7.920001e-02,1.080000e-02,
123,8.010001e-02,8.640001e-03,
124,7.920001e-02,1.080000e-02,
125,8.010001e-02,1.080000e-02,
126,8.010001e-02,1.080000e-02,
127,8.010001e-02,1.080000e-02,
128,8.100000e-02,8.640001e-03,
129,8.100000e-02,8.640001e-03,
130,8.100000e-02,8.640001e-03,
131,8.100000e-02,8.640001e-03,
132,8.100000e-02,8.640001e-03,
133,8.190000e-02,8.640001e-03,
134,8.190000e-02,8.640001e-03,
135,8.190000e-02,8.640001e-03,
136,8.190000e-02,8.640001e-03,
137,8.190000e-02,8.640001e-03,
138,8.190000e-02,8.640001e-03,
139,8.190000e-02,8.640001e-03,
140,8.280000e-02,8.640001e-03,
141,8.190000e-02,8.640001e-03,
142,8.280000e-02,6.480000e-03,
143,8.280000e-02,8.640001e-03,
144,8.280000e-02,8.640001e-03,
145,8.190000e-02,8.640001e-03,
146,8.280000e-02,8.640001e-03,
147,8.280000e-02,8.640001e-03,
148,8.280000e-02,6.480000e-03,
149,8.280000e-02,8.640001e-03,
150,8.280000e-02,6.480000e-03,
151,8.280000e-02,6.480000e-03,
152,8.280000e-02,8.640001e-03,
153,8.280000e-02,8.640001e-03,
154,8.280000e-02,6.480000e-03,
155,8.280000e-02,6.480000e-03,
156,8.190000e-02,8.640001e-03,
157,8.280000e-02,6.480000e-03,
158,8.190000e-02,6.480000e-03,
159,8.190000e-02,6.480000e-03,
160,8.190000e-02,6.480000e-03,
161,8.100000e-02,6.480000e-03,
162,8.190000e-02,6.480000e-03,
163,8.100000e-02,8.640001e-03,
164,8.190000e-02,6.480000e-03,
165,8.100000e-02,6.480000e-03,
166,8.100000e-02,6.480000e-03,
167,8.100000e-02,6.480000e-03,
168,8.100000e-02,4.320000e-03,
169,8.100000e-02,4.320000e-03,
170,7.920001e-02,6.480000e-03,
171,7.920001e-02,6.480000e-03,
172,7.920001e-02,4.320000e-03,
173,7.920001e-02,6.480000e-03,
174,7.920001e-02,6.480000e-03,
175,7.830001e-02,4.320000e-03,
176,7.830001e-02,4.320000e-03,
177,7.830001e-02,6.480000e-03,
178,7.740001e-02,6.480000e-03,
179,7.740001e-02,4.320000e-03,
180,7.740001e-02,6.480000e-03,
181,7.650001e-02,4.320000e-03,
182,7.560001e-02,6.480000e-03,
183,7.650001e-02,6.480000e-03,
184,7.650001e-02,4.320000e-03,
185,7.560001e-02,4.320000e-03,
186,7.470001e-02,6.480000e-03,
187,7.380001e-02,4.320000e-03,
188,7.380001e-02,4.320000e-03,
189,7.380001e-02,4.320000e-03,
190,7.200000e-02,4.320000e-03,
191,7.290000e-02,4.320000e-03,
192,7.110000e-02,4.320000e-03,
193,7.110000e-02,2.160000e-03,
194,7.110000e-02,4.320000e-03,
195,7.020000e-02,4.320000e-03,
196,7.020000e-02,2.160000e-03,
197,7.020000e-02,4.320000e-03,
198,6.840000e-02,4.320000e-03,
199,6.840000e-02,2.160000e-03,
200,6.750000e-02,2.160000e-03,
201,6.750000e-02,2.160000e-03,
202,6.570000e-02,4.320000e-03,
203,6.660000e-02,2.160000e-03,
204,6.480000e-02,2.160000e-03,
205,6.480000e-02,2.160000e-03,
206,6.390000e-02,2.160000e-03,
207,6.390000e-02,2.160000e-03,
208,6.210000e-02,2.160000e-03,
209,6.210000e-02,2.160000e-03,
210,6.210000e-02,2.160000e-03,
211,6.120000e-02,2.160000e-03,
212,6.030000e-02,2.160000e-03,
213,6.030000e-02,2.160000e-03,
214,5.850000e-02,0.000000e+00,
215,5.850000e-02,2.160000e-03,
216,5.670000e-02,2.160000e-03,
217,5.670000e-02,0.000000e+00,
218,5.580000e-02,2.160000e-03,
219,5.580000e-02,0.000000e+00,
220,5.400000e-02,2.160000e-03,
221,5.400000e-02,0.000000e+00,
222,5.310000e-02,0.000000e+00,
223,5.310000e-02,0.000000e+00,
224,5.130000e-02,0.000000e+00,
225,5.130000e-02,0.000000e+00,
226,4.950000e-02,0.000000e+00,
227,4.950000e-02,0.000000e+00,
228,4.860000e-02,0.000000e+00,
229,4.770000e-02,0.000000e+00,
230,4.590000e-02,0.000000e+00,
231,4.590000e-02,0.000000e+00,
232,4.500000e-02,0.000000e+00,
233,4.410000e-02,0.000000e+00,
234,4.320000e-02,0.000000e+00,
235,4.410000e-02,0.000000e+00,
236,4.140000e-02,0.000000e+00,
237,4.050000e-02,0.000000e+00,
238,3.960000e-02,0.000000e+00,
239,3.960000e-02,0.000000e+00,
240,3.780000e-02,2.160000e-03,
241,3.780000e-02,0.000000e+00,
242,3.600000e-02,0.000000e+00,
243,3.600000e-02,0.000000e+00,
244,3.420000e-02,0.000000e+00,
245,3.510000e-02,-2.160000e-03,
246,3.240000e-02,0.000000e+00,
247,3.330000e-02,-2.160000e-03,
248,3.060000e-02,0.000000e+00,
249,3.060000e-02,0.000000e+00,
250,2.880000e-02,0.000000e+00,
251,2.970000e-02,-2.160000e-03,
252,2.790000e-02,0.000000e+00,
253,2.700000e-02,0.000000e+00,
254,2.610000e-02,-2.160000e-03,
255,2.520000e-02,0.000000e+00,
256,2.430000e-02,-2.160000e-03,
257,2.430000e-02,-2.160000e-03,
258,2.160000e-02,0.000000e+00,
259,2.160000e-02,-2.160000e-03,
260,2.070000e-02,-2.160000e-03,
261,1.980000e-02,-2.160000e-03,
262,1.800000e-02,-2.160000e-03,
263,1.800000e-02,0.000000e+00,
264,1.620000e-02,-2.160000e-03,
265,1.620000e-02,-2.160000e-03,
266,1.440000e-02,-2.160000e-03,
267,1.440000e-02,-2.160000e-03,
268,1.260000e-02,-2.160000e-03,
269,1.170000e-02,-2.160000e-03,
270,9.900001e-03,-2.160000e-03,
271,9.900001e-03,-2.160000e-03,
272,8.100000e-03,-2.160000e-03,
273,8.100000e-03,-2.160000e-03,
274,5.400000e-03,-2.160000e-03,
275,6.300000e-03,-2.160000e-03,
276,3.600000e-03,-2.160000e-03,
277,3.600000e-03,-2.160000e-03,
278,2.700000e-03,-2.160000e-03,
279,2.700000e-03,-2.160000e-03,
280,9.000000e-04,-4.320000e-03,
281,9.000000e-04,-2.160000e-03,
282,-1.800000e-03,-2.160000e-03,
283,-1.800000e-03,-2.160000e-03,
284,-3.600000e-03,-2.160000e-03,
285,-3.600000e-03,-2.160000e-03,
286,-5.400000e-03,-4.320000e-03,
287,-6.300000e-03,-2.160000e-03,
288,-7.200000e-03,-4.320000e-03,
289,-7.200000e-03,-4.320000e-03,
290,-9.000001e-03,-4.320000e-03,
291,-9.000001e-03,-2.160000e-03,
292,-1.080000e-02,-4.320000e-03,
293,-1.170000e-02,-2.160000e-03,
294,-1.350000e-02,-2.160000e-03,
295,-1.350000e-02,-4.320000e-03,
296,-1.530000e-02,-4.320000e-03,
297,-1.530000e-02,-2.160000e-03,
298,-1.710000e-02,-4.320000e-03,
299,-1.710000e-02,-2.160000e-03,
300,-1.980000e-02,-2.160000e-03,
301,-1.890000e-02,-4.320000e-03,
302,-2.070000e-02,-2.160000e-03,
303,-2.160000e-02,-2.160000e-03,
304,-2.340000e-02,-2.160000e-03,
305,-2.340000e-02,-2.160000e-03,
306,-2.430000e-02,-4.320000e-03,
307,-2.430000e-02,-2.160000e-03,
308,-2.700000e-02,-4.320000e-03,
309,-2.700000e-02,-2.160000e-03,
310,-2.880000e-02,-4.320000e-03,
311,-2.790000e-02,-2.160000e-03,
312,-2.970000e-02,-2.160000e-03,
313,-2.970000e-02,-2.160000e-03,
314,-3.150000e-02,-2.160000e-03,
315,-3.240000e-02,-4.320000e-03,
316,-3.330000e-02,-2.160000e-03,
317,-3.330000e-02,-4.320000e-03,
318,-3.510000e-02,-2.160000e-03,
319,-3.600000e-02,-2.160000e-03,
320,-3.690000e-02,-2.160000e-03,
321,-3.780000e-02,-2.160000e-03,
322,-3.870000e-02,-2.160000e-03,
323,-3.870000e-02,-4.320000e-03,
324,-4.050000e-02,-2.160000e-03,
325,-4.050000e-02,-2.160000e-03,
326,-4.230000e-02,-4.320000e-03,
327,-4.140000e-02,-2.160000e-03,
328,-4.410000e-02,-4.320000e-03,
329,-4.410000e-02,-2.160000e-03,
330,-4.590000e-02,-4.320000e-03,
331,-4.590000e-02,-2.160000e-03,
332,-4.770000e-02,-2.160000e-03,
333,-4.680000e-02,-2.160000e-03,
334,-4.860000e-02,-2.160000e-03,
335,-4.950000e-02,-2.160000e-03,
336,-5.040000e-02,-2.160000e-03,
337,-5.040000e-02,-2.160000e-03,
338,-5.220000e-02,-4.320000e-03,
339,-5.220000e-02,-2.160000e-03,
340,-5.400000e-02,-4.320000e-03,
341,-5.310000e-02,-2.160000e-03,
342,-5.490000e-02,-2.160000e-03,
343,-5.490000e-02,-2.160000e-03,
344,-5.580000e-02,-4.320000e-03,
345,-5.580000e-02,-2.160000e-03,
346,-5.760000e-02,-4.320000e-03,
347,-5.760000e-02,-2.160000e-03,
348,-5.850000e-02,-4.320000e-03,
349,-5.940000e-02,-2.160000e-03,
350,-5.940000e-02,-2.160000e-03,
351,-6.030000e-02,-2.160000e-03,
352,-6.120000e-02,-2.160000e-03,
353,-6.120000e-02,-2.160000e-03,
354,-6.300000e-02,-2.160000e-03,
355,-6.390000e-02,-2.160000e-03,
356,-6.390000e-02,-2.160000e-03,
357,-6.390000e-02,-2.160000e-03,
358,-6.570000e-02,-4.320000e-03,
359,-6.480000e-02,-2.160000e-03,
360,-6.660000e-02,-4.320000e-03,
361,-6.660000e-02,-2.160000e-03,
362,-6.840000e-02,-2.160000e-03,
363,-6.750000e-02,-2.160000e-03,
364,-6.840000e-02,-2.160000e-03,
365,-6.930000e-02,-2.160000e-03,
366,-7.020000e-02,-2.160000e-03,
367,-7.020000e-02,-2.160000e-03,
368,-7.110000e-02,-2.160000e-03,
369,-7.110000e-02,-2.160000e-03,
370,-7.200000e-02,-2.160000e-03,
371,-7.200000e-02,-2.160000e-03,
372,-7.200000e-02,-2.160000e-03,
373,-7.290000e-02,-2.160000e-03,
374,-7.380001e-02,0.000000e+00,
375,-7.380001e-02,-2.160000e-03,
376,-7.380001e-02,-2.160000e-03,
377,-7.380001e-02,-2.160000e-03,
378,-7.470001e-02,-2.160000e-03,
379,-7.470001e-02,-2.160000e-03,
380,-7.650001e-02,-2.160000e-03,
381,-7.650001e-02,0.000000e+00,
382,-7.650001e-02,0.000000e+00,
383,-7.650001e-02,-2.160000e-03,
384,-7.650001e-02,0.000000e+00,
385,-7.740001e-02,-2.160000e-03,
386,-7.830001e-02,0.000000e+00,
387,-7.740001e-02,0.000000e+00,
388,-7.830001e-02,0.000000e+00,
389,-7.920001e-02,0.000000e+00,
390,-7.830001e-02,0.000000e+00,
391,-7.920001e-02,-2.160000e-03,
392,-7.920001e-02,0.000000e+00,
393,-8.010001e-02,0.000000e+00,
394,-7.920001e-02,0.000000e+00,
395,-8.010001e-02,0.000000e+00,
396,-8.100000e-02,2.160000e-03,
397,-8.010001e-02,0.000000e+00,
398,-8.100000e-02,2.160000e-03,
399,-8.100000e-02,2.160000e-03,
400,-8.100000e-02,2.160000e-03,
401,-8.100000e-02,0.000000e+00,
402,-8.100000e-02,0.000000e+00,
403,-8.100000e-02,2.160000e-03,
404,-8.100000e-02,2.160000e-03,
405,-8.190000e-02,2.160000e-03,
406,-8.100000e-02,0.000000e+00,
407,-8.100000e-02,2.160000e-03,
408,-8.100000e-02,2.160000e-03,
409,-8.100000e-02,0.000000e+00,
410,-8.100000e-02,0.000000e+00,
411,-8.190000e-02,0.000000e+00,
412,-8.190000e-02,2.160000e-03,
413,-8.190000e-02,0.000000e+00,
414,-8.190000e-02,0.000000e+00,
415,-8.190000e-02,2.160000e-03,
416,-8.190000e-02,2.160000e-03,
417,-8.190000e-02,2.160000e-03,
418,-8.100000e-02,2.160000e-03,
419,-8.100000e-02,2.160000e-03,
420,-8.100000e-02,2.160000e-03,
421,-8.100000e-02,2.160000e-03,
422,-8.100000e-02,2.160000e-03,
423,-8.190000e-02,2.160000e-03,
424,-8.100000e-02,2.160000e-03,
425,-8.190000e-02,4.320000e-03,
426,-8.100000e-02,2.160000e-03,
427,-8.010001e-02,4.320000e-03,
428,-8.010001e-02,2.160000e-03,
429,-8.010001e-02,4.320000e-03,
430,-8.100000e-02,4.320000e-03,
431,-8.010001e-02,2.160000e-03,
432,-7.920001e-02,2.160000e-03,
433,-7.920001e-02,2.160000e-03,
434,-7.920001e-02,4.320000e-03,
435,-7.920001e-02,4.320000e-03,
436,-7.830001e-02,4.320000e-03,
437,-7.830001e-02,2.160000e-03,
438,-7.830001e-02,4.320000e-03,
439,-7.830001e-02,4.320000e-03,
440,-7.740001e-02,4.320000e-03,
441,-7.740001e-02,2.160000e-03,
442,-7.650001e-02,4.320000e-03,
443,-7.740001e-02,4.320000e-03,
444,-7.560001e-02,4.320000e-03,
445,-7.560001e-02,4.320000e-03,
446,-7.560001e-02,6.480000e-03,
447,-7.560001e-02,4.320000e-03,
448,-7.470001e-02,4.320000e-03,
449,-7.470001e-02,6.480000e-03,
450,-7.380001e-02,6.480000e-03,
451,-7.380001e-02,6.480000e-03,
452,-7.290000e-02,4.320000e-03,
453,-7.290000e-02,4.320000e-03,
454,-7.290000e-02,4.320000e-03,
455,-7.200000e-02,6.480000e-03,
456,-7.110000e-02,6.480000e-03,
457,-7.110000e-02,4.320000e-03,
458,-7.020000e-02,6.480000e-03,
459,-7.020000e-02,6.480000e-03,
460,-6.930000e-02,6.480000e-03,
461,-6.930000e-02,6.480000e-03,
462,-6.840000e-02,6.480000e-03,
463,-6.750000e-02,6.480000e-03,
464,-6.660000e-02,6.480000e-03,
465,-6.750000e-02,6.480000e-03,
466,-6.570000e-02,6.480000e-03,
467,-6.570000e-02,6.480000e-03,
468,-6.480000e-02,6.480000e-03,
469,-6.480000e-02,6.480000e-03,
470,-6.300000e-02,8.640001e-03,
471,-6.300000e-02,6.480000e-03,
472,-6.210000e-02,8.640001e-03,
473,-6.300000e-02,8.640001e-03,
474,-6.030000e-02,6.480000e-03,
475,-6.030000e-02,6.480000e-03,
476,-5.940000e-02,8.640001e-03,
477,-5.850000e-02,6.480000e-03,
478,-5.760000e-02,8.640001e-03,
479,-5.760000e-02,8.640001e-03,
480,-5.760000e-02,8.640001e-03,
481,-5.670000e-02,6.480000e-03,
482,-5.580000e-02,8.640001e-03,
483,-5.580000e-02,8.640001e-03,
484,-5.400000e-02,8.640001e-03,
485,-5.310000e-02,8.640001e-03,
486,-5.220000e-02,8.640001e-03,
487,-5.130000e-02,8.640001e-03,
488,-5.040000e-02,8.640001e-03,
489,-5.040000e-02,8.640001e-03,
490,-4.860000e-02,8.640001e-03,
491,-4.860000e-02,8.640001e-03,
492,-4.770000e-02,8.640001e-03,
493,-4.770000e-02,8.640001e-03,
494,-4.590000e-02,6.480000e-03,
495,-4.590000e-02,8.640001e-03,
496,-4.410000e-02,8.640001e-03,
497,-4.410000e-02,8.640001e-03,
498,-4.230000e-02,8.640001e-03,
499,-4.230000e-02,8.640001e-03,
500,-4.140000e-02,1.080000e-02,
501,-4.050000e-02,8.640001e-03,
502,-3.870000e-02,8.640001e-03,
503,-3.960000e-02,1.080000e-02,
504,-3.780000e-02,8.640001e-03,
505,-3.780000e-02,8.640001e-03,
506,-3.600000e-02,8.640001e-03,
507,-3.510000e-02,8.640001e-03,
508,-3.420000e-02,8.640001e-03,
509,-3.420000e-02,1.080000e-02,
510,-3.240000e-02,8.640001e-03,
511,-3.240000e-02,1.080000e-02,
512,-3.060000e-02,1.080000e-02,
513,-3.060000e-02,8.640001e-03,
514,-2.970000e-02,1.080000e-02,
515,-2.880000e-02,1.080000e-02,
516,-2.700000e-02,1.080000e-02,
517,-2.610000e-02,1.080000e-02,
518,-2.430000e-02,1.080000e-02,
519,-2.520000e-02,1.080000e-02,
520,-2.250000e-02,1.080000e-02,
521,-2.250000e-02,1.080000e-02,
522,-2.160000e-02,1.080000e-02,
523,-2.070000e-02,1.080000e-02,
524,-1.890000e-02,1.080000e-02,
525,-1.890000e-02,1.080000e-02,
526,-1.800000e-02,1.296000e-02,
527,-1.710000e-02,1.080000e-02,
528,-1.530000e-02,1.080000e-02,
529,-1.530000e-02,1.080000e-02,
530,-1.350000e-02,1.296000e-02,
531,-1.350000e-02,1.080000e-02,
532,-1.170000e-02,1.296000e-02,
533,-1.170000e-02,1.080000e-02,
534,-9.900001e-03,1.296000e-02,
535,-9.900001e-03,1.080000e-02,
536,-7.200000e-03,1.296000e-02,
537,-8.100000e-03,1.080000e-02,
538,-5.400000e-03,1.296000e-02,
539,-5.400000e-03,1.296000e-02,
540,-4.500000e-03,1.296000e-02,
541,-4.500000e-03,1.296000e-02,
542,-1.800000e-03,1.296000e-02,
543,-9.000000e-04,1.296000e-02,
544,0.000000e+00,1.296000e-02,
545,0.000000e+00,1.296000e-02,
546,1.800000e-03,1.080000e-02,
547,2.700000e-03,1.296000e-02,
548,3.600000e-03,1.080000e-02,
549,3.600000e-03,1.296000e-02,
550,6.300000e-03,1.080000e-02,
551,6.300000e-03,1.296000e-02,
552,8.100000e-03,1.296000e-02,
553,9.000001e-03,1.296000e-02,
554,9.900001e-03,1.296000e-02,
555,1.080000e-02,1.080000e-02,
556,1.260000e-02,1.296000e-02,
557,1.170000e-02,1.080000e-02,
558,1.350000e-02,1.296000e-02,
559,1.440000e-02,1.080000e-02,
560,1.620000e-02,1.080000e-02,
561,1.710000e-02,1.296000e-02,
562,1.800000e-02,1.296000e-02,
563,1.890000e-02,1.296000e-02,
564,1.890000e-02,1.296000e-02,
565,1.980000e-02,1.296000e-02,
566,2.070000e-02,1.080000e-02,
567,2.160000e-02,1.296000e-02,
568,2.340000e-02,1.080000e-02,
569,2.340000e-02,1.080000e-02,
570,2.520000e-02,1.080000e-02,
571,2.520000e-02,1.296000e-02,
572,2.700000e-02,1.296000e-02,
573,2.790000e-02,1.296000e-02,
574,2.880000e-02,1.296000e-02,
575,2.880000e-02,1.296000e-02,
576,3.060000e-02,1.296000e-02,
577,3.060000e-02,1.080000e-02,
578,3.240000e-02,1.080000e-02,
579,3.240000e-02,1.296000e-02,
580,3.420000e-02,1.080000e-02,
581,3.510000e-02,1.296000e-02,
582,3.600000e-02,1.296000e-02,
583,3.690000e-02,1.296000e-02,
584,3.780000e-02,1.296000e-02,
585,3.780000e-02,1.296000e-02,
586,4.050000e-02,1.296000e-02,
587,4.050000e-02,1.296000e-02,
588,4.140000e-02,1.296000e-02,
589,4.140000e-02,1.296000e-02,
590,4.320000e-02,1.296000e-02,
591,4.320000e-02,1.296000e-02,
592,4.500000e-02,1.296000e-02,
593,4.500000e-02,1.296000e-02,
594,4.590000e-02,1.296000e-02,
595,4.590000e-02,1.296000e-02,
596,4.770000e-02,1.296000e-02,
597,4.770000e-02,1.080000e-02,
598,4.950000e-02,1.296000e-02,
599,4.950000e-02,1.080000e-02,
600,5.040000e-02,1.296000e-02,
601,5.130000e-02,1.080000e-02,
602,5.220000e-02,1.296000e-02,
603,5.310000e-02,1.296000e-02,
604,5.490000e-02,1.296000e-02,
605,5.400000e-02,1.080000e-02,
606,5.490000e-02,1.296000e-02,
607,5.490000e-02,1.080000e-02,
608,5.670000e-02,1.080000e-02,
609,5.670000e-02,1.296000e-02,
610,5.760000e-02,1.296000e-02,
611,5.760000e-02,1.296000e-02,
612,6.030000e-02,1.080000e-02,
613,6.030000e-02,1.296000e-02,
614,6.030000e-02,1.296000e-02,
615,6.120000e-02,1.296000e-02,
616,6.300000e-02,1.296000e-02,
617,6.300000e-02,1.080000e-02,
618,6.390000e-02,1.080000e-02,
619,6.390000e-02,1.080000e-02,
620,6.570000e-02,1.080000e-02,
621,6.570000e-02,1.080000e-02,
622,6.660000e-02,1.080000e-02,
623,6.570000e-02,1.296000e-02,
624,6.750000e-02,1.080000e-02,
625,6.750000e-02,1.296000e-02,
626,6.840000e-02,1.080000e-02,
627,6.750000e-02,1.296000e-02,
628,6.930000e-02,1.080000e-02,
629,6.930000e-02,1.080000e-02,
630,7.110000e-02,1.080000e-02,
631,7.110000e-02,1.080000e-02,
632,7.110000e-02,1.080000e-02,
