parte2/esp10/Data/d4/f3/1.csv

X,CH1,CH2,Start,Increment,
Sequence,Volt,Volt,2.250300e-04,1.570000e-08,
0,8.370000e-02,1.700000e-03,
1,8.280000e-02,1.700000e-03,
2,8.370000e-02,1.700000e-03,
3,8.280000e-02,1.700000e-03,
4,8.280000e-02,1.360000e-03,
5,8.280000e-02,1.020000e-03,
6,8.190000e-02,2.040000e-03,
7,8.190000e-02,1.700000e-03,
8,8.190000e-02,1.700000e-03,
9,8.280000e-02,1.700000e-03,
10,8.190000e-02,2.040000e-03,
11,8.190000e-02,2.040000e-03,
12,8.100000e-02,2.720000e-03,
13,8.190000e-02,2.380000e-03,
14,8.100000e-02,2.040000e-03,
15,8.100000e-02,1.700000e-03,
16,8.010001e-02,1.020000e-03,
17,8.010001e-02,1.360000e-03,
18,8.010001e-02,2.040000e-03,
19,8.010001e-02,1.360000e-03,
20,7.920001e-02,1.700000e-03,
21,7.920001e-02,2.040000e-03,
22,7.830001e-02,2.040000e-03,
23,7.830001e-02,2.380000e-03,
24,7.740001e-02,2.040000e-03,
25,7.830001e-02,2.040000e-03,
26,7.740001e-02,1.360000e-03,
27,7.650001e-02,1.020000e-03,
28,7.650001e-02,1.700000e-03,
29,7.560001e-02,1.360000e-03,
30,7.470001e-02,2.040000e-03,
31,7.470001e-02,1.700000e-03,
32,7.380001e-02,1.700000e-03,
33,7.380001e-02,1.700000e-03,
34,7.200000e-02,1.020000e-03,
35,7.290000e-02,6.800001e-04,
36,7.110000e-02,1.020000e-03,
37,7.110000e-02,1.360000e-03,
38,7.110000e-02,6.800001e-04,
39,7.020000e-02,1.020000e-03,
40,6.930000e-02,1.020000e-03,
41,6.930000e-02,1.360000e-03,
42,6.750000e-02,1.360000e-03,
43,6.750000e-02,1.020000e-03,
44,6.570000e-02,1.360000e-03,
45,6.660000e-02,1.020000e-03,
46,6.480000e-02,1.360000e-03,
47,6.480000e-02,1.360000e-03,
48,6.300000e-02,1.020000e-03,
49,6.300000e-02,1.360000e-03,
50,6.120000e-02,6.800001e-04,
51,6.210000e-02,3.400000e-04,
52,6.030000e-02,6.800001e-04,
53,6.030000e-02,3.400000e-04,
54,5.760000e-02,1.020000e-03,
55,5.760000e-02,1.360000e-03,
56,5.670000e-02,1.700000e-03,
57,5.670000e-02,1.360000e-03,
58,5.490000e-02,1.020000e-03,
59,5.400000e-02,1.360000e-03,
60,5.310000e-02,1.020000e-03,
61,5.220000e-02,1.020000e-03,
62,5.040000e-02,6.800001e-04,
63,5.040000e-02,6.800001e-04,
64,4.860000e-02,6.800001e-04,
65,4.860000e-02,3.400000e-04,
66,4.680000e-02,1.700000e-03,
67,4.680000e-02,1.020000e-03,
68,4.410000e-02,1.020000e-03,
69,4.500000e-02,6.800001e-04,
70,4.230000e-02,-3.400000e-04,
71,4.230000e-02,0.000000e+00,
72,4.050000e-02,0.000000e+00,
73,4.050000e-02,3.400000e-04,
74,3.870000e-02,3.400000e-04,
75,3.780000e-02,6.800001e-04,
76,3.600000e-02,-3.400000e-04,
77,3.690000e-02,0.000000e+00,
78,3.420000e-02,3.400000e-04,
79,3.420000e-02,0.000000e+00,
80,3.240000e-02,6.800001e-04,
81,3.150000e-02,3.400000e-04,
82,2.970000e-02,6.800001e-04,
83,2.970000e-02,1.020000e-03,
84,2.790000e-02,3.400000e-04,
85,2.790000e-02,6.800001e-04,
86,2.520000e-02,0.000000e+00,
87,2.520000e-02,-3.400000e-04,
88,2.250000e-02,1.020000e-03,
89,2.340000e-02,6.800001e-04,
90,2.070000e-02,6.800001e-04,
91,1.980000e-02,1.020000e-03,
92,1.800000e-02,0.000000e+00,
93,1.710000e-02,3.400000e-04,
94,1.530000e-02,3.400000e-04,
95,1.530000e-02,0.000000e+00,
96,1.260000e-02,3.400000e-04,
97,1.350000e-02,0.000000e+00,
98,1.080000e-02,-3.400000e-04,
99,1.080000e-02,0.000000e+00,
100,8.100000e-03,-3.400000e-04,
101,7.200000e-03,0.000000e+00,
102,5.400000e-03,3.400000e-04,
103,4.500000e-03,3.400000e-04,
104,3.600000e-03,6.800001e-04,
105,3.600000e-03,3.400000e-04,
106,9.000000e-04,3.400000e-04,
107,9.000000e-04,3.400000e-04,
108,-1.800000e-03,-3.400000e-04,
109,-1.800000e-03,-3.400000e-04,
110,-3.600000e-03,0.000000e+00,
111,-3.600000e-03,0.000000e+00,
112,-7.200000e-03,3.400000e-04,
113,-7.200000e-03,3.400000e-04,
114,-9.000001e-03,3.400000e-04,
115,-9.000001e-03,0.000000e+00,
116,-1.170000e-02,3.400000e-04,
117,-1.170000e-02,0.000000e+00,
118,-1.440000e-02,-3.400000e-04,
119,-1.440000e-02,0.000000e+00,
120,-1.620000e-02,0.000000e+00,
121,-1.620000e-02,3.400000e-04,
122,-1.890000e-02,0.000000e+00,
123,-1.890000e-02,3.400000e-04,
124,-2.160000e-02,0.000000e+00,
125,-2.070000e-02,-3.400000e-04,
126,-2.340000e-02,0.000000e+00,
127,-2.340000e-02,0.000000e+00,
128,-2.520000e-02,-6.800001e-04,
129,-2.610000e-02,0.000000e+00,
130,-2.790000e-02,-6.800001e-04,
131,-2.880000e-02,-3.400000e-04,
132,-3.060000e-02,-6.800001e-04,
133,-3.060000e-02,-6.800001e-04,
134,-3.240000e-02,-6.800001e-04,
135,-3.240000e-02,-1.020000e-03,
136,-3.510000e-02,-6.800001e-04,
137,-3.510000e-02,-6.800001e-04,
138,-3.600000e-02,-6.800001e-04,
139,-3.600000e-02,-1.020000e-03,
140,-3.870000e-02,-6.800001e-04,
141,-3.870000e-02,-3.400000e-04,
142,-4.050000e-02,-1.020000e-03,
143,-4.050000e-02,-1.360000e-03,
144,-4.320000e-02,-6.800001e-04,
145,-4.320000e-02,-6.800001e-04,
146,-4.500000e-02,-3.400000e-04,
147,-4.500000e-02,-6.800001e-04,
148,-4.680000e-02,-3.400000e-04,
149,-4.770000e-02,-6.800001e-04,
150,-4.950000e-02,-3.400000e-04,
151,-4.950000e-02,-3.400000e-04,
152,-5.130000e-02,-3.400000e-04,
153,-5.130000e-02,0.000000e+00,
154,-5.310000e-02,-3.400000e-04,
155,-5.310000e-02,-6.800001e-04,
156,-5.580000e-02,0.000000e+00,
157,-5.490000e-02,-3.400000e-04,
158,-5.670000e-02,-1.020000e-03,
159,-5.760000e-02,-1.020000e-03,
160,-5.940000e-02,-1.020000e-03,
161,-5.850000e-02,-1.020000e-03,
162,-6.120000e-02,-6.800001e-04,
163,-6.120000e-02,-1.020000e-03,
164,-6.210000e-02,-1.020000e-03,
165,-6.210000e-02,-6.800001e-04,
166,-6.390000e-02,-1.020000e-03,
167,-6.390000e-02,-6.800001e-04,
168,-6.570000e-02,0.000000e+00,
169,-6.570000e-02,0.000000e+00,
170,-6.570000e-02,0.000000e+00,
171,-6.660000e-02,3.400000e-04,
172,-6.750000e-02,-1.020000e-03,
173,-6.750000e-02,-6.800001e-04,
174,-6.930000e-02,-6.800001e-04,
175,-6.930000e-02,-6.800001e-04,
176,-7.020000e-02,3.400000e-04,
177,-7.020000e-02,-3.400000e-04,
178,-7.200000e-02,3.400000e-04,
179,-7.200000e-02,0.000000e+00,
180,-7.380001e-02,-3.400000e-04,
181,-7.380001e-02,0.000000e+00,
182,-7.470001e-02,-1.020000e-03,
183,-7.380001e-02,-1.360000e-03,
184,-7.470001e-02,-3.400000e-04,
185,-7.560001e-02,-6.800001e-04,
186,-7.650001e-02,3.400000e-04,
187,-7.650001e-02,3.400000e-04,
188,-7.650001e-02,-1.360000e-03,
189,-7.740001e-02,-1.020000e-03,
190,-7.740001e-02,-1.700000e-03,
191,-7.830001e-02,-1.360000e-03,
192,-7.830001e-02,0.000000e+00,
193,-7.920001e-02,3.400000e-04,
194,-7.920001e-02,0.000000e+00,
195,-8.010001e-02,3.400000e-04,
196,-8.010001e-02,-3.400000e-04,
197,-8.010001e-02,0.000000e+00,
198,-8.010001e-02,3.400000e-04,
199,-8.010001e-02,3.400000e-04,
200,-8.100000e-02,-3.400000e-04,
201,-8.100000e-02,0.000000e+00,
202,-8.190000e-02,0.000000e+00,
203,-8.190000e-02,0.000000e+00,
204,-8.190000e-02,0.000000e+00,
205,-8.190000e-02,0.000000e+00,
206,-8.190000e-02,-3.400000e-04,
207,-8.190000e-02,-6.800001e-04,
208,-8.190000e-02,-1.020000e-03,
209,-8.190000e-02,-6.800001e-04,
210,-8.190000e-02,-6.800001e-04,
211,-8.190000e-02,-3.400000e-04,
212,-8.190000e-02,-3.400000e-04,
213,-8.280000e-02,-3.400000e-04,
214,-8.280000e-02,0.000000e+00,
215,-8.190000e-02,0.000000e+00,
216,-8.280000e-02,-3.400000e-04,
217,-8.280000e-02,-3.400000e-04,
218,-8.190000e-02,-6.800001e-04,
219,-8.190000e-02,-3.400000e-04,
220,-8.190000e-02,0.000000e+00,
221,-8.190000e-02,0.000000e+00,
222,-8.100000e-02,-6.800001e-04,
223,-8.100000e-02,-3.400000e-04,
224,-8.100000e-02,-1.020000e-03,
225,-8.100000e-02,-1.020000e-03,
226,-8.010001e-02,-6.800001e-04,
227,-8.100000e-02,-6.800001e-04,
228,-8.010001e-02,0.000000e+00,
229,-8.010001e-02,3.400000e-04,
230,-7.920001e-02,0.000000e+00,
231,-7.920001e-02,3.400000e-04,
232,-7.830001e-02,-6.800001e-04,
233,-7.830001e-02,-3.400000e-04,
234,-7.740001e-02,-3.400000e-04,
235,-7.740001e-02,0.000000e+00,
236,-7.650001e-02,3.400000e-04,
237,-7.650001e-02,0.000000e+00,
238,-7.650001e-02,3.400000e-04,
239,-7.650001e-02,6.800001e-04,
240,-7.560001e-02,0.000000e+00,
241,-7.560001e-02,3.400000e-04,
242,-7.470001e-02,0.000000e+00,
243,-7.470001e-02,3.400000e-04,
244,-7.380001e-02,0.000000e+00,
245,-7.380001e-02,3.400000e-04,
246,-7.200000e-02,0.000000e+00,
247,-7.200000e-02,0.000000e+00,
248,-7.110000e-02,0.000000e+00,
249,-7.110000e-02,0.000000e+00,
250,-7.020000e-02,0.000000e+00,
251,-7.020000e-02,0.000000e+00,
252,-6.840000e-02,3.400000e-04,
253,-6.930000e-02,6.800001e-04,
254,-6.660000e-02,0.000000e+00,
255,-6.750000e-02,3.400000e-04,
256,-6.570000e-02,3.400000e-04,
257,-6.570000e-02,0.000000e+00,
258,-6.480000e-02,1.360000e-03,
259,-6.390000e-02,1.020000e-03,
260,-6.300000e-02,3.400000e-04,
261,-6.300000e-02,1.020000e-03,
262,-6.120000e-02,1.020000e-03,
263,-6.120000e-02,6.800001e-04,
264,-5.940000e-02,1.020000e-03,
265,-5.940000e-02,1.360000e-03,
266,-5.760000e-02,3.400000e-04,
267,-5.760000e-02,6.800001e-04,
268,-5.580000e-02,0.000000e+00,
269,-5.580000e-02,6.800001e-04,
270,-5.400000e-02,0.000000e+00,
271,-5.400000e-02,3.400000e-04,
272,-5.220000e-02,6.800001e-04,
273,-5.220000e-02,3.400000e-04,
274,-5.040000e-02,1.360000e-03,
275,-5.040000e-02,1.020000e-03,
276,-4.860000e-02,6.800001e-04,
277,-4.860000e-02,1.360000e-03,
278,-4.590000e-02,6.800001e-04,
279,-4.590000e-02,1.020000e-03,
280,-4.410000e-02,1.020000e-03,
281,-4.410000e-02,1.020000e-03,
282,-4.230000e-02,1.020000e-03,
283,-4.230000e-02,3.400000e-04,
284,-4.050000e-02,0.000000e+00,
285,-3.960000e-02,3.400000e-04,
286,-3.780000e-02,6.800001e-04,
287,-3.780000e-02,1.020000e-03,
288,-3.510000e-02,1.700000e-03,
289,-3.510000e-02,1.360000e-03,
290,-3.330000e-02,1.360000e-03,
291,-3.330000e-02,1.360000e-03,
292,-3.060000e-02,6.800001e-04,
293,-3.150000e-02,1.020000e-03,
294,-2.880000e-02,1.700000e-03,
295,-2.790000e-02,1.360000e-03,
296,-2.610000e-02,1.700000e-03,
297,-2.610000e-02,2.040000e-03,
298,-2.520000e-02,1.700000e-03,
299,-2.430000e-02,1.360000e-03,
300,-2.250000e-02,1.360000e-03,
301,-2.250000e-02,1.020000e-03,
302,-1.980000e-02,1.020000e-03,
303,-1.890000e-02,6.800001e-04,
304,-1.710000e-02,1.020000e-03,
305,-1.710000e-02,1.360000e-03,
306,-1.530000e-02,6.800001e-04,
307,-1.530000e-02,1.020000e-03,
308,-1.170000e-02,1.020000e-03,
309,-1.260000e-02,6.800001e-04,
310,-9.900001e-03,1.360000e-03,
311,-9.900001e-03,1.700000e-03,
312,-7.200000e-03,1.700000e-03,
313,-8.100000e-03,1.700000e-03,
314,-4.500000e-03,1.020000e-03,
315,-4.500000e-03,6.800001e-04,
316,-2.700000e-03,1.020000e-03,
317,-1.800000e-03,6.800001e-04,
318,0.000000e+00,1.700000e-03,
319,0.000000e+00,1.700000e-03,
320,2.700000e-03,6.800001e-04,
321,2.700000e-03,1.020000e-03,
322,4.500000e-03,1.020000e-03,
323,5.400000e-03,1.360000e-03,
324,8.100000e-03,2.040000e-03,
325,8.100000e-03,1.700000e-03,
326,9.900001e-03,1.700000e-03,
327,1.080000e-02,1.700000e-03,
328,1.260000e-02,1.360000e-03,
329,1.260000e-02,1.360000e-03,
330,1.530000e-02,1.700000e-03,
331,1.530000e-02,1.360000e-03,
332,1.710000e-02,2.040000e-03,
333,1.710000e-02,2.040000e-03,
334,1.980000e-02,2.380000e-03,
335,1.980000e-02,2.040000e-03,
336,2.160000e-02,2.040000e-03,
337,2.160000e-02,1.700000e-03,
338,2.340000e-02,1.360000e-03,
339,2.430000e-02,1.020000e-03,
340,2.610000e-02,2.040000e-03,
341,2.610000e-02,1.700000e-03,
342,2.790000e-02,2.040000e-03,
343,2.790000e-02,2.380000e-03,
344,3.060000e-02,2.040000e-03,
345,3.150000e-02,1.700000e-03,
346,3.330000e-02,1.700000e-03,
347,3.330000e-02,1.360000e-03,
348,3.510000e-02,1.700000e-03,
349,3.510000e-02,2.040000e-03,
350,3.780000e-02,3.060000e-03,
351,3.690000e-02,3.400000e-03,
352,3.960000e-02,2.720000e-03,
353,3.960000e-02,3.400000e-03,
354,4.230000e-02,2.720000e-03,
355,4.140000e-02,2.380000e-03,
356,4.410000e-02,2.040000e-03,
357,4.410000e-02,2.380000e-03,
358,4.590000e-02,2.720000e-03,
359,4.590000e-02,2.720000e-03,
360,4.770000e-02,3.060000e-03,
361,4.770000e-02,2.720000e-03,
362,4.950000e-02,2.040000e-03,
363,4.950000e-02,2.380000e-03,
364,5.130000e-02,1.360000e-03,
365,5.130000e-02,1.700000e-03,
366,5.310000e-02,2.040000e-03,
367,5.310000e-02,2.380000e-03,
368,5.580000e-02,2.040000e-03,
369,5.580000e-02,2.380000e-03,
370,5.670000e-02,2.040000e-03,
371,5.760000e-02,1.700000e-03,
372,5.940000e-02,2.040000e-03,
373,5.940000e-02,2.040000e-03,
374,6.120000e-02,2.040000e-03,
375,6.030000e-02,2.040000e-03,
376,6.210000e-02,2.040000e-03,
377,6.300000e-02,2.040000e-03,
378,6.480000e-02,2.720000e-03,
379,6.390000e-02,3.060000e-03,
380,6.570000e-02,1.700000e-03,
381,6.570000e-02,1.700000e-03,
382,6.750000e-02,2.040000e-03,
383,6.750000e-02,2.040000e-03,
384,6.840000e-02,2.720000e-03,
385,6.840000e-02,2.380000e-03,
386,6.930000e-02,2.720000e-03,
387,7.020000e-02,2.040000e-03,
388,7.110000e-02,2.040000e-03,
389,7.110000e-02,2.040000e-03,
390,7.200000e-02,2.380000e-03,
391,7.290000e-02,2.040000e-03,
392,7.290000e-02,2.040000e-03,
393,7.380001e-02,2.040000e-03,
394,7.470001e-02,2.380000e-03,
395,7.470001e-02,2.380000e-03,
396,7.650001e-02,1.360000e-03,
397,7.560001e-02,1.700000e-03,
398,7.650001e-02,1.360000e-03,
399,7.650001e-02,1.700000e-03,
400,7.740001e-02,2.720000e-03,
401,7.740001e-02,2.720000e-03,
402,7.830001e-02,2.040000e-03,
403,7.830001e-02,2.380000e-03,
404,7.920001e-02,1.360000e-03,
405,7.920001e-02,1.020000e-03,
406,8.010001e-02,1.700000e-03,
407,8.010001e-02,2.380000e-03,
408,8.010001e-02,2.040000e-03,
409,8.010001e-02,2.380000e-03,
410,8.100000e-02,2.040000e-03,
411,8.100000e-02,1.700000e-03,
412,8.100000e-02,2.380000e-03,
413,8.100000e-02,2.040000e-03,
414,8.190000e-02,2.380000e-03,
415,8.190000e-02,2.040000e-03,
416,8.280000e-02,2.040000e-03,
417,8.190000e-02,2.380000e-03,
418,8.280000e-02,2.040000e-03,
419,8.280000e-02,1.700000e-03,
420,8.370000e-02,2.040000e-03,
421,8.370000e-02,1.700000e-03,
422,8.280000e-02,2.720000e-03,
423,8.280000e-02,2.380000e-03,
424,8.280000e-02,2.040000e-03,
425,8.280000e-02,2.380000e-03,
426,8.190000e-02,2.040000e-03,
427,8.280000e-02,1.700000e-03,
428,8.280000e-02,1.700000e-03,
429,8.280000e-02,2.040000e-03,
430,8.190000e-02,2.380000e-03,
431,8.190000e-02,2.040000e-03,
432,8.190000e-02,2.380000e-03,
433,8.190000e-02,2.720000e-03,
434,8.190000e-02,2.040000e-03,
435,8.190000e-02,1.700000e-03,
436,8.190000e-02,2.040000e-03,
437,8.190000e-02,2.040000e-03,
438,8.190000e-02,1.700000e-03,
439,8.190000e-02,2.040000e-03,
440,8.100000e-02,1.360000e-03,
441,8.100000e-02,1.700000e-03,
442,8.010001e-02,2.040000e-03,
443,8.010001e-02,1.700000e-03,
444,7.920001e-02,2.720000e-03,
445,7.920001e-02,2.380000e-03,
446,7.830001e-02,2.380000e-03,
447,7.920001e-02,2.720000e-03,
448,7.740001e-02,2.040000e-03,
449,7.830001e-02,2.040000e-03,
450,7.650001e-02,1.700000e-03,
451,7.740001e-02,2.040000e-03,
452,7.650001e-02,1.360000e-03,
453,7.560001e-02,1.700000e-03,
454,7.560001e-02,1.360000e-03,
455,7.470001e-02,1.700000e-03,
456,7.470001e-02,1.020000e-03,
457,7.380001e-02,1.020000e-03,
458,7.290000e-02,1.020000e-03,
459,7.290000e-02,6.800001e-04,
460,7.200000e-02,1.700000e-03,
461,7.200000e-02,2.040000e-03,
462,7.110000e-02,1.360000e-03,
463,7.110000e-02,1.700000e-03,
464,6.930000e-02,1.360000e-03,
465,6.930000e-02,1.020000e-03,
466,6.840000e-02,1.020000e-03,
467,6.840000e-02,6.800001e-04,
468,6.660000e-02,1.360000e-03,
469,6.660000e-02,1.020000e-03,
470,6.480000e-02,1.360000e-03,
471,6.480000e-02,1.700000e-03,
472,6.390000e-02,1.360000e-03,
473,6.390000e-02,1.700000e-03,
474,6.210000e-02,6.800001e-04,
475,6.210000e-02,1.020000e-03,
476,6.120000e-02,6.800001e-04,
477,6.120000e-02,6.800001e-04,
478,5.940000e-02,3.400000e-04,
479,5.940000e-02,3.400000e-04,
480,5.670000e-02,1.360000e-03,
481,5.670000e-02,1.020000e-03,
482,5.490000e-02,2.040000e-03,
483,5.490000e-02,1.700000e-03,
484,5.310000e-02,1.020000e-03,
485,5.310000e-02,1.020000e-03,
486,5.130000e-02,6.800001e-04,
487,5.130000e-02,3.400000e-04,
488,4.950000e-02,1.020000e-03,
489,4.860000e-02,6.800001e-04,
490,4.770000e-02,1.020000e-03,
491,4.680000e-02,1.360000e-03,
492,4.590000e-02,1.020000e-03,
493,4.500000e-02,6.800001e-04,
494,4.320000e-02,0.000000e+00,
495,4.320000e-02,0.000000e+00,
496,4.140000e-02,3.400000e-04,
497,4.140000e-02,6.800001e-04,
498,3.960000e-02,6.800001e-04,
499,3.960000e-02,6.800001e-04,
500,3.690000e-02,0.000000e+00,
501,3.690000e-02,3.400000e-04,
502,3.420000e-02,0.000000e+00,
503,3.510000e-02,-3.400000e-04,
504,3.240000e-02,1.360000e-03,
505,3.240000e-02,1.020000e-03,
506,2.970000e-02,1.360000e-03,
507,2.970000e-02,1.360000e-03,
508,2.790000e-02,1.020000e-03,
509,2.790000e-02,6.800001e-04,
510,2.610000e-02,6.800001e-04,
511,2.610000e-02,3.400000e-04,
512,2.250000e-02,3.400000e-04,
513,2.250000e-02,6.800001e-04,
514,2.070000e-02,6.800001e-04,
515,2.070000e-02,6.800001e-04,
516,1.890000e-02,6.800001e-04,
517,1.890000e-02,3.400000e-04,
518,1.620000e-02,0.000000e+00,
519,1.530000e-02,0.000000e+00,
520,1.440000e-02,0.000000e+00,
521,1.350000e-02,3.400000e-04,
522,1.170000e-02,-6.800001e-04,
523,1.080000e-02,-3.400000e-04,
524,9.000001e-03,3.400000e-04,
525,9.000001e-03,0.000000e+00,
526,6.300000e-03,1.020000e-03,
527,6.300000e-03,6.800001e-04,
528,3.600000e-03,6.800001e-04,
529,3.600000e-03,1.020000e-03,
530,9.000000e-04,3.400000e-04,
531,9.000000e-04,0.000000e+00,
532,-9.000000e-04,1.020000e-03,
533,-9.000000e-04,1.360000e-03,
534,-3.600000e-03,1.020000e-03,
535,-3.600000e-03,1.020000e-03,
536,-6.300000e-03,-3.400000e-04,
537,-6.300000e-03,0.000000e+00,
538,-8.100000e-03,-3.400000e-04,
539,-9.000001e-03,-6.800001e-04,
540,-1.080000e-02,3.400000e-04,
541,-1.170000e-02,6.800001e-04,
542,-1.260000e-02,6.800001e-04,
543,-1.350000e-02,1.020000e-03,
544,-1.620000e-02,-3.400000e-04,
545,-1.620000e-02,-3.400000e-04,
546,-1.800000e-02,-1.020000e-03,
547,-1.800000e-02,-6.800001e-04,
548,-1.980000e-02,0.000000e+00,
549,-1.980000e-02,-3.400000e-04,
550,-2.250000e-02,-6.800001e-04,
551,-2.250000e-02,-3.400000e-04,
552,-2.430000e-02,-1.360000e-03,
553,-2.430000e-02,-1.020000e-03,
554,-2.700000e-02,-1.020000e-03,
555,-2.700000e-02,-1.360000e-03,
556,-2.880000e-02,-6.800001e-04,
557,-2.880000e-02,-3.400000e-04,
558,-3.150000e-02,-3.400000e-04,
559,-3.150000e-02,0.000000e+00,
560,-3.420000e-02,-6.800001e-04,
561,-3.420000e-02,-1.020000e-03,
562,-3.600000e-02,-3.400000e-04,
563,-3.600000e-02,0.000000e+00,
564,-3.780000e-02,0.000000e+00,
565,-3.870000e-02,-3.400000e-04,
566,-4.050000e-02,-1.020000e-03,
567,-4.050000e-02,-3.400000e-04,
568,-4.320000e-02,-6.800001e-04,
569,-4.230000e-02,-1.020000e-03,
570,-4.500000e-02,-6.800001e-04,
571,-4.500000e-02,-1.020000e-03,
572,-4.680000e-02,-1.020000e-03,
573,-4.680000e-02,-1.020000e-03,
574,-4.860000e-02,-6.800001e-04,
575,-4.950000e-02,-6.800001e-04,
576,-5.040000e-02,-6.800001e-04,
577,-5.040000e-02,0.000000e+00,
578,-5.310000e-02,-3.400000e-04,
579,-5.220000e-02,-6.800001e-04,
580,-5.490000e-02,-3.400000e-04,
581,-5.400000e-02,-3.400000e-04,
582,-5.670000e-02,-6.800001e-04,
583,-5.670000e-02,-6.800001e-04,
584,-5.850000e-02,-1.020000e-03,
585,-5.850000e-02,-1.360000e-03,
586,-5.940000e-02,-6.800001e-04,
587,-6.030000e-02,-6.800001e-04,
588,-6.210000e-02,-6.800001e-04,
589,-6.210000e-02,-6.800001e-04,
590,-6.390000e-02,-6.800001e-04,
591,-6.300000e-02,-1.020000e-03,
592,-6.480000e-02,-3.400000e-04,
593,-6.480000e-02,-3.400000e-04,
594,-6.660000e-02,0.000000e+00,
595,-6.660000e-02,-3.400000e-04,
596,-6.840000e-02,-3.400000e-04,
597,-6.840000e-02,-6.800001e-04,
598,-6.930000e-02,-3.400000e-04,
599,-6.930000e-02,-6.800001e-04,
600,-7.110000e-02,-6.800001e-04,
601,-7.110000e-02,-3.400000e-04,
602,-7.110000e-02,-3.400000e-04,
603,-7.200000e-02,-3.400000e-04,
604,-7.290000e-02,-6.800001e-04,
605,-7.290000e-02,-3.400000e-04,
606,-7.380001e-02,-1.020000e-03,
607,-7.380001e-02,-6.800001e-04,
608,-7.470001e-02,-6.800001e-04,
609,-7.470001e-02,-3.400000e-04,
610,-7.560001e-02,-3.400000e-04,
611,-7.650001e-02,0.000000e+00,
612,-7.650001e-02,-6.800001e-04,
613,-7.650001e-02,-3.400000e-04,
614,-7.740001e-02,-6.800001e-04,
615,-7.740001e-02,-6.800001e-04,
616,-7.830001e-02,-3.400000e-04,
617,-7.920001e-02,0.000000e+00,
618,-7.920001e-02,0.000000e+00,
619,-7.920001e-02,0.000000e+00,
620,-8.010001e-02,0.000000e+00,
621,-8.010001e-02,-3.400000e-04,
622,-8.010001e-02,-3.400000e-04,
623,-8.100000e-02,-3.400000e-04,
624,-8.100000e-02,-1.020000e-03,
625,-8.100000e-02,-6.800001e-04,
626,-8.190000e-02,-1.020000e-03,
627,-8.100000e-02,-1.360000e-03,
628,-8.100000e-02,3.400000e-04,
629,-8.100000e-02,0.000000e+00,
630,-8.190000e-02,-3.400000e-04,
