parte2/esp10/Data/d1/f2/1.csv

X,CH1,CH2,Start,Increment,
Sequence,Volt,Volt,2.250300e-04,1.570000e-08,
0,8.280000e-02,2.556000e-01,
1,8.370000e-02,2.556000e-01,
2,8.280000e-02,2.556000e-01,
3,8.370000e-02,2.556000e-01,
4,8.280000e-02,2.484000e-01,
5,8.280000e-02,2.484000e-01,
6,8.190000e-02,2.448000e-01,
7,8.280000e-02,2.448000e-01,
8,8.190000e-02,2.376000e-01,
9,8.190000e-02,2.376000e-01,
10,8.190000e-02,2.304000e-01,
11,8.190000e-02,2.304000e-01,
12,8.100000e-02,2.232000e-01,
13,8.100000e-02,2.268000e-01,
14,8.100000e-02,2.160000e-01,
15,8.100000e-02,2.160000e-01,
16,8.100000e-02,2.088000e-01,
17,8.010001e-02,2.088000e-01,
18,8.010001e-02,2.016000e-01,
19,8.010001e-02,2.016000e-01,
20,8.010001e-02,1.944000e-01,
21,7.920001e-02,1.944000e-01,
22,7.920001e-02,1.872000e-01,
23,7.830001e-02,1.836000e-01,
24,7.830001e-02,1.800000e-01,
25,7.830001e-02,1.800000e-01,
26,7.740001e-02,1.728000e-01,
27,7.740001e-02,1.692000e-01,
28,7.650001e-02,1.620000e-01,
29,7.650001e-02,1.620000e-01,
30,7.470001e-02,1.548000e-01,
31,7.560001e-02,1.548000e-01,
32,7.290000e-02,1.440000e-01,
33,7.380001e-02,1.476000e-01,
34,7.200000e-02,1.368000e-01,
35,7.200000e-02,1.368000e-01,
36,7.110000e-02,1.260000e-01,
37,7.110000e-02,1.296000e-01,
38,7.020000e-02,1.152000e-01,
39,7.110000e-02,1.188000e-01,
40,6.930000e-02,1.080000e-01,
41,6.930000e-02,1.080000e-01,
42,6.840000e-02,1.008000e-01,
43,6.750000e-02,9.720001e-02,
44,6.660000e-02,9.360000e-02,
45,6.570000e-02,9.360000e-02,
46,6.480000e-02,8.280000e-02,
47,6.480000e-02,7.920001e-02,
48,6.300000e-02,7.200000e-02,
49,6.300000e-02,7.200000e-02,
50,6.120000e-02,6.480000e-02,
51,6.120000e-02,6.120000e-02,
52,5.940000e-02,5.760000e-02,
53,5.940000e-02,5.400000e-02,
54,5.760000e-02,4.680000e-02,
55,5.760000e-02,4.680000e-02,
56,5.580000e-02,3.600000e-02,
57,5.670000e-02,3.240000e-02,
58,5.400000e-02,2.520000e-02,
59,5.490000e-02,2.520000e-02,
60,5.220000e-02,1.440000e-02,
61,5.220000e-02,1.800000e-02,
62,5.130000e-02,7.200000e-03,
63,5.130000e-02,7.200000e-03,
64,4.950000e-02,-3.600000e-03,
65,4.860000e-02,-3.600000e-03,
66,4.680000e-02,-1.440000e-02,
67,4.590000e-02,-1.080000e-02,
68,4.410000e-02,-2.160000e-02,
69,4.410000e-02,-2.160000e-02,
70,4.230000e-02,-3.240000e-02,
71,4.230000e-02,-3.240000e-02,
72,3.960000e-02,-3.960000e-02,
73,3.960000e-02,-4.320000e-02,
74,3.780000e-02,-5.040000e-02,
75,3.780000e-02,-5.040000e-02,
76,3.600000e-02,-6.120000e-02,
77,3.600000e-02,-6.120000e-02,
78,3.420000e-02,-6.840000e-02,
79,3.420000e-02,-7.200000e-02,
80,3.240000e-02,-7.920001e-02,
81,3.240000e-02,-7.920001e-02,
82,2.970000e-02,-9.000000e-02,
83,2.970000e-02,-8.640000e-02,
84,2.700000e-02,-9.720001e-02,
85,2.700000e-02,-9.720001e-02,
86,2.520000e-02,-1.044000e-01,
87,2.430000e-02,-1.080000e-01,
88,2.250000e-02,-1.152000e-01,
89,2.250000e-02,-1.152000e-01,
90,2.070000e-02,-1.260000e-01,
91,2.070000e-02,-1.224000e-01,
92,1.710000e-02,-1.332000e-01,
93,1.710000e-02,-1.332000e-01,
94,1.530000e-02,-1.404000e-01,
95,1.530000e-02,-1.440000e-01,
96,1.260000e-02,-1.512000e-01,
97,1.350000e-02,-1.512000e-01,
98,1.080000e-02,-1.584000e-01,
99,1.080000e-02,-1.584000e-01,
100,8.100000e-03,-1.656000e-01,
101,8.100000e-03,-1.692000e-01,
102,6.300000e-03,-1.764000e-01,
103,5.400000e-03,-1.728000e-01,
104,3.600000e-03,-1.836000e-01,
105,3.600000e-03,-1.836000e-01,
106,9.000000e-04,-1.908000e-01,
107,9.000000e-04,-1.908000e-01,
108,-1.800000e-03,-1.980000e-01,
109,-1.800000e-03,-2.016000e-01,
110,-2.700000e-03,-2.052000e-01,
111,-3.600000e-03,-2.052000e-01,
112,-6.300000e-03,-2.124000e-01,
113,-6.300000e-03,-2.124000e-01,
114,-9.000001e-03,-2.196000e-01,
115,-9.000001e-03,-2.196000e-01,
116,-1.260000e-02,-2.232000e-01,
117,-1.260000e-02,-2.268000e-01,
118,-1.440000e-02,-2.340000e-01,
119,-1.440000e-02,-2.340000e-01,
120,-1.620000e-02,-2.412000e-01,
121,-1.620000e-02,-2.376000e-01,
122,-1.890000e-02,-2.448000e-01,
123,-1.890000e-02,-2.448000e-01,
124,-2.160000e-02,-2.520000e-01,
125,-2.070000e-02,-2.520000e-01,
126,-2.430000e-02,-2.592000e-01,
127,-2.340000e-02,-2.556000e-01,
128,-2.520000e-02,-2.628000e-01,
129,-2.610000e-02,-2.628000e-01,
130,-2.790000e-02,-2.700000e-01,
131,-2.880000e-02,-2.664000e-01,
132,-3.060000e-02,-2.736000e-01,
133,-3.060000e-02,-2.736000e-01,
134,-3.240000e-02,-2.808000e-01,
135,-3.240000e-02,-2.772000e-01,
136,-3.420000e-02,-2.844000e-01,
137,-3.420000e-02,-2.844000e-01,
138,-3.690000e-02,-2.844000e-01,
139,-3.690000e-02,-2.844000e-01,
140,-3.960000e-02,-2.916000e-01,
141,-3.960000e-02,-2.916000e-01,
142,-4.140000e-02,-2.952000e-01,
143,-4.140000e-02,-2.952000e-01,
144,-4.320000e-02,-2.952000e-01,
145,-4.320000e-02,-2.952000e-01,
146,-4.500000e-02,-2.988000e-01,
147,-4.500000e-02,-2.988000e-01,
148,-4.680000e-02,-3.024000e-01,
149,-4.770000e-02,-3.060000e-01,
150,-4.950000e-02,-3.060000e-01,
151,-4.950000e-02,-3.060000e-01,
152,-5.130000e-02,-3.096000e-01,
153,-5.220000e-02,-3.060000e-01,
154,-5.310000e-02,-3.096000e-01,
155,-5.310000e-02,-3.132000e-01,
156,-5.580000e-02,-3.132000e-01,
157,-5.490000e-02,-3.132000e-01,
158,-5.670000e-02,-3.168000e-01,
159,-5.670000e-02,-3.132000e-01,
160,-5.850000e-02,-3.168000e-01,
161,-5.850000e-02,-3.168000e-01,
162,-6.030000e-02,-3.168000e-01,
163,-6.030000e-02,-3.168000e-01,
164,-6.210000e-02,-3.168000e-01,
165,-6.210000e-02,-3.168000e-01,
166,-6.390000e-02,-3.204000e-01,
167,-6.390000e-02,-3.168000e-01,
168,-6.480000e-02,-3.204000e-01,
169,-6.570000e-02,-3.168000e-01,
170,-6.570000e-02,-3.168000e-01,
171,-6.660000e-02,-3.204000e-01,
172,-6.750000e-02,-3.204000e-01,
173,-6.750000e-02,-3.204000e-01,
174,-6.930000e-02,-3.168000e-01,
175,-7.020000e-02,-3.168000e-01,
176,-7.110000e-02,-3.168000e-01,
177,-7.110000e-02,-3.168000e-01,
178,-7.200000e-02,-3.132000e-01,
179,-7.200000e-02,-3.168000e-01,
180,-7.380001e-02,-3.132000e-01,
181,-7.290000e-02,-3.132000e-01,
182,-7.380001e-02,-3.132000e-01,
183,-7.470001e-02,-3.096000e-01,
184,-7.470001e-02,-3.096000e-01,
185,-7.470001e-02,-3.132000e-01,
186,-7.560001e-02,-3.096000e-01,
187,-7.650001e-02,-3.060000e-01,
188,-7.740001e-02,-3.060000e-01,
189,-7.740001e-02,-3.060000e-01,
190,-7.830001e-02,-3.024000e-01,
191,-7.830001e-02,-3.024000e-01,
192,-7.830001e-02,-2.988000e-01,
193,-7.830001e-02,-3.024000e-01,
194,-7.920001e-02,-2.952000e-01,
195,-7.920001e-02,-2.988000e-01,
196,-8.010001e-02,-2.952000e-01,
197,-8.010001e-02,-2.952000e-01,
198,-8.100000e-02,-2.880000e-01,
199,-8.010001e-02,-2.880000e-01,
200,-8.100000e-02,-2.844000e-01,
201,-8.100000e-02,-2.844000e-01,
202,-8.100000e-02,-2.808000e-01,
203,-8.100000e-02,-2.808000e-01,
204,-8.190000e-02,-2.772000e-01,
205,-8.100000e-02,-2.736000e-01,
206,-8.190000e-02,-2.700000e-01,
207,-8.190000e-02,-2.736000e-01,
208,-8.190000e-02,-2.664000e-01,
209,-8.190000e-02,-2.664000e-01,
210,-8.190000e-02,-2.592000e-01,
211,-8.190000e-02,-2.592000e-01,
212,-8.280000e-02,-2.556000e-01,
213,-8.280000e-02,-2.520000e-01,
214,-8.280000e-02,-2.484000e-01,
215,-8.280000e-02,-2.520000e-01,
216,-8.280000e-02,-2.412000e-01,
217,-8.190000e-02,-2.448000e-01,
218,-8.190000e-02,-2.376000e-01,
219,-8.190000e-02,-2.340000e-01,
220,-8.100000e-02,-2.304000e-01,
221,-8.190000e-02,-2.304000e-01,
222,-8.100000e-02,-2.268000e-01,
223,-8.190000e-02,-2.232000e-01,
224,-8.100000e-02,-2.160000e-01,
225,-8.100000e-02,-2.196000e-01,
226,-8.010001e-02,-2.088000e-01,
227,-8.010001e-02,-2.088000e-01,
228,-8.010001e-02,-2.016000e-01,
229,-7.920001e-02,-2.016000e-01,
230,-7.920001e-02,-1.944000e-01,
231,-7.920001e-02,-1.944000e-01,
232,-7.920001e-02,-1.872000e-01,
233,-7.830001e-02,-1.872000e-01,
234,-7.830001e-02,-1.800000e-01,
235,-7.830001e-02,-1.764000e-01,
236,-7.740001e-02,-1.692000e-01,
237,-7.740001e-02,-1.728000e-01,
238,-7.650001e-02,-1.620000e-01,
239,-7.650001e-02,-1.656000e-01,
240,-7.650001e-02,-1.548000e-01,
241,-7.650001e-02,-1.548000e-01,
242,-7.470001e-02,-1.476000e-01,
243,-7.560001e-02,-1.440000e-01,
244,-7.380001e-02,-1.404000e-01,
245,-7.380001e-02,-1.368000e-01,
246,-7.200000e-02,-1.296000e-01,
247,-7.290000e-02,-1.296000e-01,
248,-7.020000e-02,-1.224000e-01,
249,-7.110000e-02,-1.224000e-01,
250,-7.020000e-02,-1.116000e-01,
251,-6.930000e-02,-1.116000e-01,
252,-6.840000e-02,-1.008000e-01,
253,-6.840000e-02,-1.044000e-01,
254,-6.750000e-02,-9.360000e-02,
255,-6.750000e-02,-9.360000e-02,
256,-6.660000e-02,-8.640000e-02,
257,-6.570000e-02,-8.280000e-02,
258,-6.480000e-02,-7.200000e-02,
259,-6.480000e-02,-7.560001e-02,
260,-6.210000e-02,-6.480000e-02,
261,-6.210000e-02,-6.480000e-02,
262,-6.120000e-02,-5.760000e-02,
263,-6.120000e-02,-5.760000e-02,
264,-5.940000e-02,-4.680000e-02,
265,-5.940000e-02,-4.680000e-02,
266,-5.760000e-02,-3.960000e-02,
267,-5.760000e-02,-3.600000e-02,
268,-5.580000e-02,-2.880000e-02,
269,-5.580000e-02,-2.880000e-02,
270,-5.310000e-02,-1.800000e-02,
271,-5.400000e-02,-1.800000e-02,
272,-5.220000e-02,-1.080000e-02,
273,-5.220000e-02,-7.200000e-03,
274,-5.040000e-02,3.600000e-03,
275,-5.040000e-02,0.000000e+00,
276,-4.860000e-02,1.440000e-02,
277,-4.770000e-02,1.080000e-02,
278,-4.590000e-02,2.160000e-02,
279,-4.590000e-02,2.160000e-02,
280,-4.410000e-02,2.880000e-02,
281,-4.320000e-02,3.240000e-02,
282,-4.140000e-02,3.960000e-02,
283,-4.230000e-02,3.960000e-02,
284,-3.960000e-02,4.680000e-02,
285,-3.960000e-02,5.040000e-02,
286,-3.780000e-02,5.760000e-02,
287,-3.780000e-02,5.760000e-02,
288,-3.600000e-02,6.840000e-02,
289,-3.600000e-02,6.840000e-02,
290,-3.330000e-02,7.920001e-02,
291,-3.330000e-02,7.560001e-02,
292,-3.060000e-02,8.640000e-02,
293,-3.060000e-02,8.640000e-02,
294,-2.880000e-02,9.360000e-02,
295,-2.790000e-02,9.360000e-02,
296,-2.700000e-02,1.044000e-01,
297,-2.610000e-02,1.080000e-01,
298,-2.520000e-02,1.116000e-01,
299,-2.430000e-02,1.152000e-01,
300,-2.250000e-02,1.224000e-01,
301,-2.160000e-02,1.224000e-01,
302,-1.980000e-02,1.296000e-01,
303,-1.980000e-02,1.332000e-01,
304,-1.710000e-02,1.404000e-01,
305,-1.800000e-02,1.404000e-01,
306,-1.530000e-02,1.476000e-01,
307,-1.440000e-02,1.512000e-01,
308,-1.260000e-02,1.548000e-01,
309,-1.170000e-02,1.584000e-01,
310,-9.000001e-03,1.656000e-01,
311,-9.900001e-03,1.656000e-01,
312,-8.100000e-03,1.764000e-01,
313,-8.100000e-03,1.764000e-01,
314,-5.400000e-03,1.836000e-01,
315,-5.400000e-03,1.800000e-01,
316,-2.700000e-03,1.872000e-01,
317,-1.800000e-03,1.908000e-01,
318,0.000000e+00,1.980000e-01,
319,0.000000e+00,1.980000e-01,
320,2.700000e-03,2.052000e-01,
321,2.700000e-03,2.052000e-01,
322,3.600000e-03,2.124000e-01,
323,4.500000e-03,2.124000e-01,
324,7.200000e-03,2.196000e-01,
325,8.100000e-03,2.196000e-01,
326,9.900001e-03,2.268000e-01,
327,9.900001e-03,2.268000e-01,
328,1.260000e-02,2.340000e-01,
329,1.260000e-02,2.340000e-01,
330,1.530000e-02,2.412000e-01,
331,1.530000e-02,2.412000e-01,
332,1.710000e-02,2.448000e-01,
333,1.710000e-02,2.448000e-01,
334,1.980000e-02,2.520000e-01,
335,1.980000e-02,2.556000e-01,
336,2.070000e-02,2.592000e-01,
337,2.070000e-02,2.592000e-01,
338,2.340000e-02,2.664000e-01,
339,2.340000e-02,2.628000e-01,
340,2.610000e-02,2.700000e-01,
341,2.610000e-02,2.700000e-01,
342,2.880000e-02,2.736000e-01,
343,2.880000e-02,2.772000e-01,
344,3.060000e-02,2.808000e-01,
345,3.150000e-02,2.772000e-01,
346,3.330000e-02,2.844000e-01,
347,3.330000e-02,2.844000e-01,
348,3.510000e-02,2.880000e-01,
349,3.510000e-02,2.916000e-01,
350,3.780000e-02,2.952000e-01,
351,3.690000e-02,2.952000e-01,
352,3.960000e-02,2.988000e-01,
353,3.960000e-02,2.988000e-01,
354,4.140000e-02,3.024000e-01,
355,4.230000e-02,3.024000e-01,
356,4.410000e-02,3.060000e-01,
357,4.320000e-02,3.060000e-01,
358,4.590000e-02,3.096000e-01,
359,4.590000e-02,3.096000e-01,
360,4.770000e-02,3.132000e-01,
361,4.770000e-02,3.132000e-01,
362,4.950000e-02,3.132000e-01,
363,5.040000e-02,3.132000e-01,
364,5.220000e-02,3.168000e-01,
365,5.220000e-02,3.168000e-01,
366,5.400000e-02,3.204000e-01,
367,5.400000e-02,3.204000e-01,
368,5.580000e-02,3.204000e-01,
369,5.580000e-02,3.240000e-01,
370,5.760000e-02,3.204000e-01,
371,5.760000e-02,3.240000e-01,
372,5.850000e-02,3.276000e-01,
373,5.850000e-02,3.276000e-01,
374,6.030000e-02,3.276000e-01,
375,6.030000e-02,3.276000e-01,
376,6.210000e-02,3.276000e-01,
377,6.300000e-02,3.240000e-01,
378,6.390000e-02,3.240000e-01,
379,6.480000e-02,3.276000e-01,
380,6.570000e-02,3.276000e-01,
381,6.570000e-02,3.276000e-01,
382,6.750000e-02,3.276000e-01,
383,6.660000e-02,3.276000e-01,
384,6.840000e-02,3.276000e-01,
385,6.840000e-02,3.276000e-01,
386,7.020000e-02,3.240000e-01,
387,6.930000e-02,3.276000e-01,
388,7.110000e-02,3.240000e-01,
389,7.110000e-02,3.240000e-01,
390,7.200000e-02,3.240000e-01,
391,7.290000e-02,3.240000e-01,
392,7.380001e-02,3.240000e-01,
393,7.290000e-02,3.240000e-01,
394,7.470001e-02,3.204000e-01,
395,7.470001e-02,3.204000e-01,
396,7.560001e-02,3.168000e-01,
397,7.560001e-02,3.204000e-01,
398,7.650001e-02,3.168000e-01,
399,7.650001e-02,3.168000e-01,
400,7.740001e-02,3.168000e-01,
401,7.740001e-02,3.132000e-01,
402,7.830001e-02,3.132000e-01,
403,7.830001e-02,3.096000e-01,
404,7.920001e-02,3.060000e-01,
405,7.830001e-02,3.060000e-01,
406,8.010001e-02,3.060000e-01,
407,7.920001e-02,3.024000e-01,
408,8.010001e-02,3.024000e-01,
409,8.100000e-02,3.024000e-01,
410,8.100000e-02,2.988000e-01,
411,8.100000e-02,2.988000e-01,
412,8.100000e-02,2.916000e-01,
413,8.190000e-02,2.916000e-01,
414,8.190000e-02,2.880000e-01,
415,8.190000e-02,2.880000e-01,
416,8.280000e-02,2.844000e-01,
417,8.190000e-02,2.844000e-01,
418,8.280000e-02,2.808000e-01,
419,8.280000e-02,2.808000e-01,
420,8.280000e-02,2.736000e-01,
421,8.280000e-02,2.736000e-01,
422,8.280000e-02,2.664000e-01,
423,8.280000e-02,2.700000e-01,
424,8.280000e-02,2.628000e-01,
425,8.280000e-02,2.628000e-01,
426,8.280000e-02,2.592000e-01,
427,8.190000e-02,2.592000e-01,
428,8.280000e-02,2.520000e-01,
429,8.280000e-02,2.520000e-01,
430,8.280000e-02,2.448000e-01,
431,8.190000e-02,2.448000e-01,
432,8.280000e-02,2.376000e-01,
433,8.190000e-02,2.412000e-01,
434,8.190000e-02,2.340000e-01,
435,8.190000e-02,2.340000e-01,
436,8.190000e-02,2.268000e-01,
437,8.190000e-02,2.232000e-01,
438,8.100000e-02,2.160000e-01,
439,8.190000e-02,2.196000e-01,
440,8.100000e-02,2.124000e-01,
441,8.100000e-02,2.088000e-01,
442,8.010001e-02,2.052000e-01,
443,8.010001e-02,2.052000e-01,
444,7.920001e-02,1.980000e-01,
445,7.920001e-02,1.980000e-01,
446,7.830001e-02,1.872000e-01,
447,7.920001e-02,1.872000e-01,
448,7.830001e-02,1.836000e-01,
449,7.830001e-02,1.800000e-01,
450,7.740001e-02,1.728000e-01,
451,7.740001e-02,1.728000e-01,
452,7.650001e-02,1.620000e-01,
453,7.740001e-02,1.620000e-01,
454,7.560001e-02,1.548000e-01,
455,7.560001e-02,1.548000e-01,
456,7.470001e-02,1.476000e-01,
457,7.470001e-02,1.476000e-01,
458,7.290000e-02,1.404000e-01,
459,7.380001e-02,1.404000e-01,
460,7.200000e-02,1.296000e-01,
461,7.200000e-02,1.296000e-01,
462,7.020000e-02,1.188000e-01,
463,7.110000e-02,1.224000e-01,
464,6.840000e-02,1.116000e-01,
465,6.930000e-02,1.152000e-01,
466,6.840000e-02,1.044000e-01,
467,6.840000e-02,1.044000e-01,
468,6.660000e-02,9.360000e-02,
469,6.660000e-02,9.360000e-02,
470,6.570000e-02,8.640000e-02,
471,6.480000e-02,8.280000e-02,
472,6.390000e-02,7.560001e-02,
473,6.300000e-02,7.560001e-02,
474,6.210000e-02,6.840000e-02,
475,6.210000e-02,6.480000e-02,
476,6.120000e-02,5.760000e-02,
477,6.120000e-02,5.400000e-02,
478,5.940000e-02,4.680000e-02,
479,5.940000e-02,4.680000e-02,
480,5.670000e-02,3.960000e-02,
481,5.670000e-02,3.960000e-02,
482,5.490000e-02,2.880000e-02,
483,5.490000e-02,2.880000e-02,
484,5.310000e-02,1.800000e-02,
485,5.220000e-02,2.160000e-02,
486,5.040000e-02,1.080000e-02,
487,5.040000e-02,1.080000e-02,
488,4.950000e-02,0.000000e+00,
489,4.950000e-02,0.000000e+00,
490,4.680000e-02,-1.080000e-02,
491,4.770000e-02,-1.080000e-02,
492,4.500000e-02,-2.160000e-02,
493,4.500000e-02,-1.800000e-02,
494,4.320000e-02,-2.880000e-02,
495,4.230000e-02,-2.880000e-02,
496,4.050000e-02,-3.600000e-02,
497,4.050000e-02,-3.960000e-02,
498,3.960000e-02,-4.680000e-02,
499,3.870000e-02,-5.040000e-02,
500,3.780000e-02,-5.760000e-02,
501,3.690000e-02,-5.760000e-02,
502,3.510000e-02,-6.840000e-02,
503,3.420000e-02,-6.840000e-02,
504,3.240000e-02,-7.560001e-02,
505,3.150000e-02,-7.560001e-02,
506,2.970000e-02,-8.640000e-02,
507,2.970000e-02,-8.280000e-02,
508,2.700000e-02,-9.360000e-02,
509,2.790000e-02,-9.720001e-02,
510,2.610000e-02,-1.044000e-01,
511,2.520000e-02,-1.008000e-01,
512,2.340000e-02,-1.116000e-01,
513,2.340000e-02,-1.152000e-01,
514,2.160000e-02,-1.224000e-01,
515,2.070000e-02,-1.224000e-01,
516,1.890000e-02,-1.296000e-01,
517,1.890000e-02,-1.296000e-01,
518,1.620000e-02,-1.368000e-01,
519,1.620000e-02,-1.404000e-01,
520,1.350000e-02,-1.476000e-01,
521,1.350000e-02,-1.476000e-01,
522,1.170000e-02,-1.548000e-01,
523,1.170000e-02,-1.548000e-01,
524,9.000001e-03,-1.656000e-01,
525,9.000001e-03,-1.656000e-01,
526,6.300000e-03,-1.728000e-01,
527,6.300000e-03,-1.728000e-01,
528,4.500000e-03,-1.800000e-01,
529,4.500000e-03,-1.836000e-01,
530,1.800000e-03,-1.872000e-01,
531,1.800000e-03,-1.908000e-01,
532,-9.000000e-04,-1.944000e-01,
533,-9.000000e-04,-1.944000e-01,
534,-4.500000e-03,-2.016000e-01,
535,-4.500000e-03,-2.052000e-01,
536,-6.300000e-03,-2.124000e-01,
537,-6.300000e-03,-2.124000e-01,
538,-8.100000e-03,-2.196000e-01,
539,-8.100000e-03,-2.160000e-01,
540,-1.080000e-02,-2.232000e-01,
541,-1.170000e-02,-2.232000e-01,
542,-1.260000e-02,-2.304000e-01,
543,-1.350000e-02,-2.304000e-01,
544,-1.620000e-02,-2.376000e-01,
545,-1.620000e-02,-2.376000e-01,
546,-1.890000e-02,-2.448000e-01,
547,-1.800000e-02,-2.412000e-01,
548,-1.980000e-02,-2.484000e-01,
549,-1.980000e-02,-2.484000e-01,
550,-2.250000e-02,-2.556000e-01,
551,-2.250000e-02,-2.556000e-01,
552,-2.430000e-02,-2.628000e-01,
553,-2.430000e-02,-2.628000e-01,
554,-2.700000e-02,-2.664000e-01,
555,-2.700000e-02,-2.664000e-01,
556,-2.970000e-02,-2.700000e-01,
557,-2.970000e-02,-2.700000e-01,
558,-3.240000e-02,-2.736000e-01,
559,-3.240000e-02,-2.772000e-01,
560,-3.330000e-02,-2.808000e-01,
561,-3.420000e-02,-2.844000e-01,
562,-3.510000e-02,-2.880000e-01,
563,-3.600000e-02,-2.844000e-01,
564,-3.780000e-02,-2.880000e-01,
565,-3.870000e-02,-2.880000e-01,
566,-4.050000e-02,-2.916000e-01,
567,-4.050000e-02,-2.916000e-01,
568,-4.320000e-02,-2.952000e-01,
569,-4.230000e-02,-2.988000e-01,
570,-4.500000e-02,-3.024000e-01,
571,-4.500000e-02,-2.988000e-01,
572,-4.680000e-02,-3.024000e-01,
573,-4.680000e-02,-3.060000e-01,
574,-4.950000e-02,-3.060000e-01,
575,-4.860000e-02,-3.060000e-01,
576,-5.130000e-02,-3.096000e-01,
577,-5.130000e-02,-3.060000e-01,
578,-5.310000e-02,-3.132000e-01,
579,-5.310000e-02,-3.096000e-01,
580,-5.490000e-02,-3.132000e-01,
581,-5.490000e-02,-3.132000e-01,
582,-5.580000e-02,-3.132000e-01,
583,-5.580000e-02,-3.132000e-01,
584,-5.760000e-02,-3.168000e-01,
585,-5.760000e-02,-3.168000e-01,
586,-6.030000e-02,-3.168000e-01,
587,-6.030000e-02,-3.204000e-01,
588,-6.210000e-02,-3.168000e-01,
589,-6.210000e-02,-3.168000e-01,
590,-6.300000e-02,-3.168000e-01,
591,-6.390000e-02,-3.204000e-01,
592,-6.480000e-02,-3.204000e-01,
593,-6.480000e-02,-3.168000e-01,
594,-6.570000e-02,-3.204000e-01,
595,-6.570000e-02,-3.168000e-01,
596,-6.750000e-02,-3.168000e-01,
597,-6.750000e-02,-3.204000e-01,
598,-6.930000e-02,-3.168000e-01,
599,-6.840000e-02,-3.168000e-01,
600,-7.020000e-02,-3.168000e-01,
601,-7.020000e-02,-3.168000e-01,
602,-7.200000e-02,-3.132000e-01,
603,-7.200000e-02,-3.168000e-01,
604,-7.290000e-02,-3.132000e-01,
605,-7.290000e-02,-3.132000e-01,
606,-7.380001e-02,-3.132000e-01,
607,-7.380001e-02,-3.132000e-01,
608,-7.470001e-02,-3.096000e-01,
609,-7.470001e-02,-3.132000e-01,
610,-7.650001e-02,-3.096000e-01,
611,-7.560001e-02,-3.060000e-01,
612,-7.740001e-02,-3.060000e-01,
613,-7.740001e-02,-3.060000e-01,
614,-7.740001e-02,-3.060000e-01,
615,-7.830001e-02,-3.024000e-01,
616,-7.830001e-02,-2.988000e-01,
617,-7.920001e-02,-3.024000e-01,
618,-7.920001e-02,-2.988000e-01,
619,-7.920001e-02,-2.952000e-01,
620,-7.920001e-02,-2.952000e-01,
621,-7.920001e-02,-2.952000e-01,
622,-8.010001e-02,-2.916000e-01,
623,-8.010001e-02,-2.916000e-01,
624,-8.010001e-02,-2.844000e-01,
