parte2/esp9/Con_sorgente/Data_common_mode/12/1.csv

X,CH1,CH2,Start,Increment,
Sequence,Volt,Volt,2.290200e-04,1.000000e-08,
0,-2.880000e-01,1.600000e-03,
1,-2.800000e-01,1.600000e-03,
2,-2.880000e-01,1.600000e-03,
3,-2.800000e-01,1.600000e-03,
4,-2.720000e-01,1.600000e-03,
5,-2.720000e-01,1.600000e-03,
6,-2.560000e-01,1.600000e-03,
7,-2.560000e-01,1.600000e-03,
8,-2.480000e-01,1.600000e-03,
9,-2.400000e-01,1.600000e-03,
10,-2.320000e-01,1.600000e-03,
11,-2.240000e-01,2.400000e-03,
12,-2.160000e-01,1.600000e-03,
13,-2.080000e-01,2.400000e-03,
14,-2.000000e-01,1.600000e-03,
15,-2.000000e-01,2.400000e-03,
16,-1.840000e-01,1.600000e-03,
17,-1.760000e-01,2.400000e-03,
18,-1.680000e-01,2.400000e-03,
19,-1.600000e-01,2.400000e-03,
20,-1.520000e-01,2.400000e-03,
21,-1.520000e-01,1.600000e-03,
22,-1.440000e-01,2.400000e-03,
23,-1.360000e-01,2.400000e-03,
24,-1.280000e-01,2.400000e-03,
25,-1.200000e-01,2.400000e-03,
26,-1.120000e-01,3.200000e-03,
27,-1.040000e-01,3.200000e-03,
28,-9.600001e-02,3.200000e-03,
29,-8.800001e-02,3.200000e-03,
30,-8.000001e-02,3.200000e-03,
31,-7.200000e-02,3.200000e-03,
32,-6.400000e-02,3.200000e-03,
33,-5.600000e-02,3.200000e-03,
34,-4.800000e-02,3.200000e-03,
35,-4.000000e-02,4.000000e-03,
36,-3.200000e-02,4.000000e-03,
37,-2.400000e-02,4.000000e-03,
38,-1.600000e-02,4.000000e-03,
39,-1.600000e-02,4.000000e-03,
40,0.000000e+00,4.000000e-03,
41,0.000000e+00,3.200000e-03,
42,1.600000e-02,3.200000e-03,
43,1.600000e-02,4.000000e-03,
44,3.200000e-02,3.200000e-03,
45,3.200000e-02,3.200000e-03,
46,4.800000e-02,4.000000e-03,
47,4.800000e-02,3.200000e-03,
48,6.400000e-02,4.000000e-03,
49,6.400000e-02,4.800000e-03,
50,7.200000e-02,4.800000e-03,
51,8.000001e-02,4.000000e-03,
52,9.600001e-02,4.000000e-03,
53,9.600001e-02,4.000000e-03,
54,1.120000e-01,4.800000e-03,
55,1.040000e-01,4.000000e-03,
56,1.200000e-01,4.000000e-03,
57,1.280000e-01,4.800000e-03,
58,1.360000e-01,4.800000e-03,
59,1.440000e-01,4.800000e-03,
60,1.520000e-01,4.800000e-03,
61,1.600000e-01,4.800000e-03,
62,1.680000e-01,4.800000e-03,
63,1.680000e-01,4.800000e-03,
64,1.840000e-01,4.800000e-03,
65,1.840000e-01,5.600000e-03,
66,2.000000e-01,5.600000e-03,
67,2.000000e-01,6.400000e-03,
68,2.160000e-01,5.600000e-03,
69,2.160000e-01,5.600000e-03,
70,2.240000e-01,5.600000e-03,
71,2.320000e-01,5.600000e-03,
72,2.400000e-01,5.600000e-03,
73,2.480000e-01,5.600000e-03,
74,2.560000e-01,6.400000e-03,
75,2.560000e-01,6.400000e-03,
76,2.720000e-01,6.400000e-03,
77,2.720000e-01,6.400000e-03,
78,2.880000e-01,6.400000e-03,
79,2.880000e-01,6.400000e-03,
80,2.960000e-01,5.600000e-03,
81,3.040000e-01,5.600000e-03,
82,3.120000e-01,6.400000e-03,
83,3.200000e-01,5.600000e-03,
84,3.280000e-01,6.400000e-03,
85,3.360000e-01,5.600000e-03,
86,3.440000e-01,5.600000e-03,
87,3.520000e-01,6.400000e-03,
88,3.520000e-01,6.400000e-03,
89,3.600000e-01,6.400000e-03,
90,3.680000e-01,6.400000e-03,
91,3.680000e-01,6.400000e-03,
92,3.840000e-01,6.400000e-03,
93,3.840000e-01,6.400000e-03,
94,3.920000e-01,6.400000e-03,
95,4.000000e-01,6.400000e-03,
96,4.080000e-01,6.400000e-03,
97,4.160000e-01,6.400000e-03,
98,4.240000e-01,6.400000e-03,
99,4.320000e-01,7.200000e-03,
100,4.320000e-01,6.400000e-03,
101,4.400000e-01,6.400000e-03,
102,4.480000e-01,6.400000e-03,
103,4.560000e-01,6.400000e-03,
104,4.640000e-01,6.400000e-03,
105,4.560000e-01,6.400000e-03,
106,4.720000e-01,7.200000e-03,
107,4.800000e-01,6.400000e-03,
108,4.880000e-01,7.200000e-03,
109,4.880000e-01,7.200000e-03,
110,4.960000e-01,7.200000e-03,
111,5.040000e-01,6.400000e-03,
112,5.120000e-01,6.400000e-03,
113,5.120000e-01,7.200000e-03,
114,5.200000e-01,7.200000e-03,
115,5.280000e-01,7.200000e-03,
116,5.280000e-01,7.200000e-03,
117,5.360000e-01,7.200000e-03,
118,5.440000e-01,7.200000e-03,
119,5.440000e-01,7.200000e-03,
120,5.520000e-01,7.200000e-03,
121,5.600000e-01,7.200000e-03,
122,5.600000e-01,7.200000e-03,
123,5.680000e-01,7.200000e-03,
124,5.760000e-01,7.200000e-03,
125,5.840001e-01,7.200000e-03,
126,5.840001e-01,7.200000e-03,
127,5.920000e-01,7.200000e-03,
128,5.920000e-01,7.200000e-03,
129,6.000000e-01,7.200000e-03,
130,6.080000e-01,7.200000e-03,
131,6.160001e-01,7.200000e-03,
132,6.160001e-01,7.999999e-03,
133,6.240000e-01,7.999999e-03,
134,6.240000e-01,7.999999e-03,
135,6.320000e-01,7.999999e-03,
136,6.320000e-01,7.200000e-03,
137,6.400000e-01,7.200000e-03,
138,6.400000e-01,7.999999e-03,
139,6.480000e-01,7.200000e-03,
140,6.480000e-01,7.200000e-03,
141,6.560000e-01,7.200000e-03,
142,6.560000e-01,7.200000e-03,
143,6.640000e-01,7.200000e-03,
144,6.640000e-01,7.200000e-03,
145,6.720001e-01,7.200000e-03,
146,6.800000e-01,7.999999e-03,
147,6.720001e-01,7.999999e-03,
148,6.880000e-01,7.999999e-03,
149,6.800000e-01,7.999999e-03,
150,6.880000e-01,7.999999e-03,
151,6.960000e-01,7.200000e-03,
152,6.960000e-01,7.999999e-03,
153,7.040001e-01,7.200000e-03,
154,7.040001e-01,7.200000e-03,
155,7.120000e-01,7.999999e-03,
156,7.120000e-01,7.200000e-03,
157,7.200000e-01,7.200000e-03,
158,7.200000e-01,7.200000e-03,
159,7.200000e-01,7.200000e-03,
160,7.200000e-01,7.200000e-03,
161,7.280000e-01,7.200000e-03,
162,7.280000e-01,7.999999e-03,
163,7.360001e-01,7.200000e-03,
164,7.360001e-01,7.200000e-03,
165,7.360001e-01,7.200000e-03,
166,7.360001e-01,7.200000e-03,
167,7.440000e-01,7.200000e-03,
168,7.440000e-01,7.200000e-03,
169,7.520000e-01,6.400000e-03,
170,7.440000e-01,7.200000e-03,
171,7.520000e-01,7.200000e-03,
172,7.520000e-01,7.200000e-03,
173,7.600001e-01,7.200000e-03,
174,7.600001e-01,7.200000e-03,
175,7.520000e-01,7.200000e-03,
176,7.600001e-01,7.200000e-03,
177,7.680001e-01,7.200000e-03,
178,7.600001e-01,7.200000e-03,
179,7.680001e-01,7.999999e-03,
180,7.680001e-01,7.200000e-03,
181,7.680001e-01,7.200000e-03,
182,7.760000e-01,7.200000e-03,
183,7.680001e-01,7.200000e-03,
184,7.680001e-01,7.200000e-03,
185,7.760000e-01,7.200000e-03,
186,7.760000e-01,7.200000e-03,
187,7.680001e-01,7.200000e-03,
188,7.760000e-01,7.200000e-03,
189,7.840000e-01,7.999999e-03,
190,7.760000e-01,7.200000e-03,
191,7.840000e-01,7.200000e-03,
192,7.840000e-01,7.200000e-03,
193,7.760000e-01,7.200000e-03,
194,7.840000e-01,7.200000e-03,
195,7.760000e-01,7.200000e-03,
196,7.840000e-01,7.200000e-03,
197,7.760000e-01,7.200000e-03,
198,7.840000e-01,7.200000e-03,
199,7.760000e-01,7.200000e-03,
200,7.840000e-01,6.400000e-03,
201,7.760000e-01,6.400000e-03,
202,7.760000e-01,6.400000e-03,
203,7.840000e-01,6.400000e-03,
204,7.760000e-01,6.400000e-03,
205,7.840000e-01,6.400000e-03,
206,7.760000e-01,6.400000e-03,
207,7.840000e-01,6.400000e-03,
208,7.760000e-01,6.400000e-03,
209,7.840000e-01,6.400000e-03,
210,7.760000e-01,6.400000e-03,
211,7.840000e-01,6.400000e-03,
212,7.760000e-01,6.400000e-03,
213,7.680001e-01,5.600000e-03,
214,7.760000e-01,5.600000e-03,
215,7.680001e-01,5.600000e-03,
216,7.680001e-01,5.600000e-03,
217,7.680001e-01,6.400000e-03,
218,7.680001e-01,6.400000e-03,
219,7.680001e-01,5.600000e-03,
220,7.600001e-01,5.600000e-03,
221,7.680001e-01,5.600000e-03,
222,7.600001e-01,5.600000e-03,
223,7.600001e-01,5.600000e-03,
224,7.600001e-01,5.600000e-03,
225,7.520000e-01,5.600000e-03,
226,7.520000e-01,5.600000e-03,
227,7.520000e-01,4.800000e-03,
228,7.520000e-01,5.600000e-03,
229,7.520000e-01,5.600000e-03,
230,7.440000e-01,5.600000e-03,
231,7.440000e-01,4.800000e-03,
232,7.360001e-01,4.800000e-03,
233,7.440000e-01,4.800000e-03,
234,7.360001e-01,4.800000e-03,
235,7.280000e-01,5.600000e-03,
236,7.360001e-01,4.800000e-03,
237,7.280000e-01,4.800000e-03,
238,7.280000e-01,4.000000e-03,
239,7.200000e-01,4.800000e-03,
240,7.200000e-01,4.000000e-03,
241,7.120000e-01,4.800000e-03,
242,7.120000e-01,4.000000e-03,
243,7.120000e-01,4.800000e-03,
244,7.040001e-01,4.000000e-03,
245,7.040001e-01,4.000000e-03,
246,7.040001e-01,4.000000e-03,
247,6.960000e-01,4.000000e-03,
248,6.880000e-01,4.000000e-03,
249,6.960000e-01,4.800000e-03,
250,6.880000e-01,4.000000e-03,
251,6.800000e-01,4.000000e-03,
252,6.800000e-01,4.000000e-03,
253,6.720001e-01,4.000000e-03,
254,6.720001e-01,3.200000e-03,
255,6.640000e-01,3.200000e-03,
256,6.640000e-01,4.000000e-03,
257,6.560000e-01,3.200000e-03,
258,6.560000e-01,4.000000e-03,
259,6.480000e-01,4.000000e-03,
260,6.400000e-01,4.000000e-03,
261,6.480000e-01,3.200000e-03,
262,6.320000e-01,3.200000e-03,
263,6.320000e-01,3.200000e-03,
264,6.240000e-01,3.200000e-03,
265,6.240000e-01,3.200000e-03,
266,6.160001e-01,3.200000e-03,
267,6.160001e-01,3.200000e-03,
268,6.080000e-01,3.200000e-03,
269,6.000000e-01,3.200000e-03,
270,6.000000e-01,3.200000e-03,
271,5.920000e-01,2.400000e-03,
272,5.920000e-01,2.400000e-03,
273,5.840001e-01,2.400000e-03,
274,5.760000e-01,3.200000e-03,
275,5.680000e-01,3.200000e-03,
276,5.680000e-01,2.400000e-03,
277,5.600000e-01,2.400000e-03,
278,5.520000e-01,2.400000e-03,
279,5.520000e-01,2.400000e-03,
280,5.440000e-01,2.400000e-03,
281,5.360000e-01,2.400000e-03,
282,5.360000e-01,2.400000e-03,
283,5.280000e-01,2.400000e-03,
284,5.200000e-01,2.400000e-03,
285,5.200000e-01,2.400000e-03,
286,5.120000e-01,1.600000e-03,
287,5.040000e-01,1.600000e-03,
288,4.960000e-01,1.600000e-03,
289,4.960000e-01,1.600000e-03,
290,4.880000e-01,1.600000e-03,
291,4.800000e-01,1.600000e-03,
292,4.720000e-01,1.600000e-03,
293,4.720000e-01,1.600000e-03,
294,4.640000e-01,8.000000e-04,
295,4.560000e-01,8.000000e-04,
296,4.480000e-01,8.000000e-04,
297,4.400000e-01,8.000000e-04,
298,4.400000e-01,8.000000e-04,
299,4.320000e-01,8.000000e-04,
300,4.240000e-01,8.000000e-04,
301,4.160000e-01,8.000000e-04,
302,4.080000e-01,0.000000e+00,
303,4.080000e-01,0.000000e+00,
304,4.000000e-01,0.000000e+00,
305,3.920000e-01,0.000000e+00,
306,3.840000e-01,0.000000e+00,
307,3.760000e-01,8.000000e-04,
308,3.680000e-01,0.000000e+00,
309,3.680000e-01,0.000000e+00,
310,3.600000e-01,0.000000e+00,
311,3.520000e-01,0.000000e+00,
312,3.440000e-01,0.000000e+00,
313,3.360000e-01,0.000000e+00,
314,3.280000e-01,0.000000e+00,
315,3.280000e-01,0.000000e+00,
316,3.120000e-01,0.000000e+00,
317,3.120000e-01,0.000000e+00,
318,3.040000e-01,-8.000000e-04,
319,2.960000e-01,-8.000000e-04,
320,2.880000e-01,-8.000000e-04,
321,2.800000e-01,-8.000000e-04,
322,2.720000e-01,-1.600000e-03,
323,2.640000e-01,-1.600000e-03,
324,2.560000e-01,-1.600000e-03,
325,2.480000e-01,-1.600000e-03,
326,2.400000e-01,-8.000000e-04,
327,2.400000e-01,-1.600000e-03,
328,2.320000e-01,-8.000000e-04,
329,2.240000e-01,-1.600000e-03,
330,2.160000e-01,-8.000000e-04,
331,2.080000e-01,-8.000000e-04,
332,2.000000e-01,-1.600000e-03,
333,1.920000e-01,-1.600000e-03,
334,1.840000e-01,-1.600000e-03,
335,1.760000e-01,-2.400000e-03,
336,1.680000e-01,-1.600000e-03,
337,1.600000e-01,-2.400000e-03,
338,1.520000e-01,-1.600000e-03,
339,1.520000e-01,-1.600000e-03,
340,1.360000e-01,-2.400000e-03,
341,1.360000e-01,-2.400000e-03,
342,1.200000e-01,-2.400000e-03,
343,1.200000e-01,-2.400000e-03,
344,1.120000e-01,-2.400000e-03,
345,1.040000e-01,-2.400000e-03,
346,8.800001e-02,-2.400000e-03,
347,9.600001e-02,-2.400000e-03,
348,8.000001e-02,-2.400000e-03,
349,7.200000e-02,-2.400000e-03,
350,5.600000e-02,-2.400000e-03,
351,6.400000e-02,-3.200000e-03,
352,4.800000e-02,-2.400000e-03,
353,4.000000e-02,-3.200000e-03,
354,3.200000e-02,-2.400000e-03,
355,2.400000e-02,-2.400000e-03,
356,1.600000e-02,-2.400000e-03,
357,8.000000e-03,-3.200000e-03,
358,0.000000e+00,-3.200000e-03,
359,-8.000000e-03,-2.400000e-03,
360,-1.600000e-02,-3.200000e-03,
361,-2.400000e-02,-3.200000e-03,
362,-3.200000e-02,-3.200000e-03,
363,-4.000000e-02,-3.200000e-03,
364,-4.800000e-02,-3.200000e-03,
365,-5.600000e-02,-3.200000e-03,
366,-6.400000e-02,-3.200000e-03,
367,-6.400000e-02,-3.200000e-03,
368,-8.000001e-02,-3.200000e-03,
369,-8.000001e-02,-3.200000e-03,
370,-9.600001e-02,-4.000000e-03,
371,-9.600001e-02,-4.000000e-03,
372,-1.120000e-01,-4.000000e-03,
373,-1.120000e-01,-4.000000e-03,
374,-1.280000e-01,-4.000000e-03,
375,-1.280000e-01,-4.000000e-03,
376,-1.360000e-01,-4.000000e-03,
377,-1.440000e-01,-4.000000e-03,
378,-1.600000e-01,-3.200000e-03,
379,-1.600000e-01,-4.000000e-03,
380,-1.680000e-01,-4.000000e-03,
381,-1.760000e-01,-4.800000e-03,
382,-1.840000e-01,-4.800000e-03,
383,-1.920000e-01,-4.800000e-03,
384,-2.000000e-01,-4.800000e-03,
385,-2.000000e-01,-4.800000e-03,
386,-2.160000e-01,-4.800000e-03,
387,-2.160000e-01,-4.800000e-03,
388,-2.320000e-01,-4.800000e-03,
389,-2.320000e-01,-4.800000e-03,
390,-2.400000e-01,-4.800000e-03,
391,-2.480000e-01,-4.800000e-03,
392,-2.560000e-01,-4.800000e-03,
393,-2.640000e-01,-4.800000e-03,
394,-2.720000e-01,-4.800000e-03,
395,-2.800000e-01,-5.600000e-03,
396,-2.880000e-01,-5.600000e-03,
397,-2.960000e-01,-5.600000e-03,
398,-3.040000e-01,-5.600000e-03,
399,-3.040000e-01,-5.600000e-03,
400,-3.120000e-01,-4.800000e-03,
401,-3.120000e-01,-5.600000e-03,
402,-3.280000e-01,-5.600000e-03,
403,-3.360000e-01,-5.600000e-03,
404,-3.440000e-01,-5.600000e-03,
405,-3.520000e-01,-4.800000e-03,
406,-3.520000e-01,-4.800000e-03,
407,-3.600000e-01,-5.600000e-03,
408,-3.680000e-01,-5.600000e-03,
409,-3.760000e-01,-5.600000e-03,
410,-3.840000e-01,-4.800000e-03,
411,-3.920000e-01,-5.600000e-03,
412,-4.000000e-01,-6.400000e-03,
413,-4.000000e-01,-5.600000e-03,
414,-4.080000e-01,-6.400000e-03,
415,-4.160000e-01,-6.400000e-03,
416,-4.240000e-01,-6.400000e-03,
417,-4.240000e-01,-5.600000e-03,
418,-4.320000e-01,-5.600000e-03,
419,-4.400000e-01,-5.600000e-03,
420,-4.480000e-01,-6.400000e-03,
421,-4.560000e-01,-6.400000e-03,
422,-4.560000e-01,-5.600000e-03,
423,-4.640000e-01,-5.600000e-03,
424,-4.720000e-01,-5.600000e-03,
425,-4.800000e-01,-5.600000e-03,
426,-4.880000e-01,-5.600000e-03,
427,-4.960000e-01,-5.600000e-03,
428,-4.960000e-01,-5.600000e-03,
429,-5.040000e-01,-5.600000e-03,
430,-5.120000e-01,-5.600000e-03,
431,-5.120000e-01,-6.400000e-03,
432,-5.200000e-01,-5.600000e-03,
433,-5.200000e-01,-5.600000e-03,
434,-5.280000e-01,-5.600000e-03,
435,-5.280000e-01,-5.600000e-03,
436,-5.440000e-01,-5.600000e-03,
437,-5.440000e-01,-5.600000e-03,
438,-5.520000e-01,-5.600000e-03,
439,-5.520000e-01,-5.600000e-03,
440,-5.680000e-01,-5.600000e-03,
441,-5.680000e-01,-5.600000e-03,
442,-5.760000e-01,-5.600000e-03,
443,-5.760000e-01,-6.400000e-03,
444,-5.840001e-01,-6.400000e-03,
445,-5.920000e-01,-6.400000e-03,
446,-5.920000e-01,-6.400000e-03,
447,-6.000000e-01,-7.200000e-03,
448,-6.080000e-01,-6.400000e-03,
449,-6.080000e-01,-6.400000e-03,
450,-6.160001e-01,-6.400000e-03,
451,-6.160001e-01,-6.400000e-03,
452,-6.240000e-01,-5.600000e-03,
453,-6.240000e-01,-5.600000e-03,
454,-6.320000e-01,-6.400000e-03,
455,-6.400000e-01,-6.400000e-03,
456,-6.400000e-01,-6.400000e-03,
457,-6.480000e-01,-6.400000e-03,
458,-6.480000e-01,-6.400000e-03,
459,-6.560000e-01,-6.400000e-03,
460,-6.560000e-01,-6.400000e-03,
461,-6.640000e-01,-6.400000e-03,
462,-6.640000e-01,-6.400000e-03,
463,-6.720001e-01,-6.400000e-03,
464,-6.720001e-01,-6.400000e-03,
465,-6.800000e-01,-6.400000e-03,
466,-6.800000e-01,-5.600000e-03,
467,-6.800000e-01,-5.600000e-03,
468,-6.880000e-01,-5.600000e-03,
469,-6.880000e-01,-5.600000e-03,
470,-6.960000e-01,-5.600000e-03,
471,-6.880000e-01,-5.600000e-03,
472,-6.960000e-01,-5.600000e-03,
473,-7.040001e-01,-5.600000e-03,
474,-7.040001e-01,-5.600000e-03,
475,-7.120000e-01,-5.600000e-03,
476,-7.120000e-01,-5.600000e-03,
477,-7.120000e-01,-5.600000e-03,
478,-7.120000e-01,-5.600000e-03,
479,-7.200000e-01,-5.600000e-03,
480,-7.200000e-01,-6.400000e-03,
481,-7.280000e-01,-5.600000e-03,
482,-7.280000e-01,-6.400000e-03,
483,-7.280000e-01,-5.600000e-03,
484,-7.280000e-01,-5.600000e-03,
485,-7.360001e-01,-5.600000e-03,
486,-7.360001e-01,-5.600000e-03,
487,-7.360001e-01,-5.600000e-03,
488,-7.440000e-01,-5.600000e-03,
489,-7.360001e-01,-5.600000e-03,
490,-7.440000e-01,-5.600000e-03,
491,-7.440000e-01,-5.600000e-03,
492,-7.520000e-01,-5.600000e-03,
493,-7.440000e-01,-5.600000e-03,
494,-7.520000e-01,-5.600000e-03,
495,-7.440000e-01,-6.400000e-03,
496,-7.520000e-01,-5.600000e-03,
497,-7.600001e-01,-5.600000e-03,
498,-7.520000e-01,-5.600000e-03,
499,-7.600001e-01,-5.600000e-03,
500,-7.520000e-01,-5.600000e-03,
501,-7.600001e-01,-5.600000e-03,
502,-7.600001e-01,-5.600000e-03,
503,-7.600001e-01,-6.400000e-03,
504,-7.680001e-01,-5.600000e-03,
505,-7.600001e-01,-6.400000e-03,
506,-7.680001e-01,-5.600000e-03,
507,-7.600001e-01,-5.600000e-03,
508,-7.680001e-01,-5.600000e-03,
509,-7.600001e-01,-5.600000e-03,
510,-7.600001e-01,-4.800000e-03,
511,-7.680001e-01,-5.600000e-03,
512,-7.600001e-01,-4.800000e-03,
513,-7.680001e-01,-5.600000e-03,
514,-7.600001e-01,-4.800000e-03,
515,-7.600001e-01,-5.600000e-03,
516,-7.680001e-01,-4.800000e-03,
517,-7.600001e-01,-5.600000e-03,
518,-7.680001e-01,-4.800000e-03,
519,-7.680001e-01,-5.600000e-03,
520,-7.680001e-01,-4.800000e-03,
521,-7.600001e-01,-4.800000e-03,
522,-7.600001e-01,-4.800000e-03,
523,-7.600001e-01,-4.800000e-03,
524,-7.600001e-01,-4.800000e-03,
525,-7.520000e-01,-4.800000e-03,
526,-7.520000e-01,-4.800000e-03,
527,-7.600001e-01,-4.800000e-03,
528,-7.600001e-01,-4.800000e-03,
529,-7.520000e-01,-4.000000e-03,
530,-7.520000e-01,-4.800000e-03,
531,-7.520000e-01,-4.800000e-03,
532,-7.520000e-01,-4.800000e-03,
533,-7.440000e-01,-4.000000e-03,
534,-7.440000e-01,-4.800000e-03,
535,-7.440000e-01,-4.800000e-03,
536,-7.440000e-01,-4.800000e-03,
537,-7.440000e-01,-4.000000e-03,
538,-7.440000e-01,-4.000000e-03,
539,-7.360001e-01,-4.000000e-03,
540,-7.360001e-01,-4.000000e-03,
541,-7.360001e-01,-4.000000e-03,
542,-7.280000e-01,-4.000000e-03,
543,-7.360001e-01,-4.000000e-03,
544,-7.280000e-01,-4.000000e-03,
545,-7.280000e-01,-4.000000e-03,
546,-7.200000e-01,-3.200000e-03,
547,-7.280000e-01,-3.200000e-03,
548,-7.200000e-01,-3.200000e-03,
549,-7.120000e-01,-3.200000e-03,
550,-7.200000e-01,-3.200000e-03,
551,-7.120000e-01,-3.200000e-03,
552,-7.120000e-01,-3.200000e-03,
553,-7.040001e-01,-3.200000e-03,
554,-7.040001e-01,-3.200000e-03,
555,-6.960000e-01,-3.200000e-03,
556,-6.960000e-01,-2.400000e-03,
557,-6.960000e-01,-2.400000e-03,
558,-6.880000e-01,-2.400000e-03,
559,-6.880000e-01,-2.400000e-03,
560,-6.880000e-01,-2.400000e-03,
561,-6.800000e-01,-3.200000e-03,
562,-6.800000e-01,-2.400000e-03,
563,-6.720001e-01,-2.400000e-03,
564,-6.720001e-01,-2.400000e-03,
565,-6.640000e-01,-2.400000e-03,
566,-6.640000e-01,-2.400000e-03,
567,-6.560000e-01,-2.400000e-03,
568,-6.560000e-01,-3.200000e-03,
569,-6.480000e-01,-2.400000e-03,
570,-6.480000e-01,-2.400000e-03,
571,-6.400000e-01,-2.400000e-03,
572,-6.400000e-01,-2.400000e-03,
573,-6.320000e-01,-2.400000e-03,
574,-6.320000e-01,-2.400000e-03,
575,-6.240000e-01,-2.400000e-03,
576,-6.240000e-01,-2.400000e-03,
577,-6.160001e-01,-2.400000e-03,
578,-6.160001e-01,-1.600000e-03,
579,-6.080000e-01,-1.600000e-03,
580,-6.000000e-01,-1.600000e-03,
581,-6.000000e-01,-2.400000e-03,
582,-5.920000e-01,-1.600000e-03,
583,-5.840001e-01,-1.600000e-03,
584,-5.840001e-01,-1.600000e-03,
585,-5.760000e-01,-1.600000e-03,
586,-5.680000e-01,-1.600000e-03,
587,-5.680000e-01,-1.600000e-03,
588,-5.600000e-01,-1.600000e-03,
589,-5.520000e-01,-8.000000e-04,
590,-5.520000e-01,-8.000000e-04,
591,-5.440000e-01,-1.600000e-03,
592,-5.360000e-01,-1.600000e-03,
593,-5.360000e-01,-1.600000e-03,
594,-5.280000e-01,-8.000000e-04,
595,-5.200000e-01,-8.000000e-04,
596,-5.200000e-01,-1.600000e-03,
597,-5.120000e-01,-1.600000e-03,
598,-5.040000e-01,-8.000000e-04,
599,-5.040000e-01,-8.000000e-04,
600,-4.880000e-01,-8.000000e-04,
601,-4.960000e-01,-8.000000e-04,
602,-4.800000e-01,-8.000000e-04,
603,-4.720000e-01,-8.000000e-04,
604,-4.720000e-01,-8.000000e-04,
605,-4.640000e-01,0.000000e+00,
606,-4.560000e-01,0.000000e+00,
607,-4.560000e-01,-8.000000e-04,
608,-4.400000e-01,-8.000000e-04,
609,-4.400000e-01,0.000000e+00,
610,-4.320000e-01,0.000000e+00,
611,-4.240000e-01,0.000000e+00,
612,-4.160000e-01,-8.000000e-04,
613,-4.080000e-01,0.000000e+00,
614,-4.080000e-01,0.000000e+00,
615,-4.000000e-01,0.000000e+00,
616,-3.920000e-01,0.000000e+00,
617,-3.840000e-01,0.000000e+00,
618,-3.760000e-01,8.000000e-04,
619,-3.760000e-01,8.000000e-04,
620,-3.680000e-01,8.000000e-04,
621,-3.600000e-01,8.000000e-04,
622,-3.520000e-01,8.000000e-04,
623,-3.440000e-01,8.000000e-04,
624,-3.360000e-01,8.000000e-04,
625,-3.360000e-01,0.000000e+00,
626,-3.200000e-01,1.600000e-03,
