parte2/esp10/Data/d1/f3/1.csv

X,CH1,CH2,Start,Increment,
Sequence,Volt,Volt,2.095600e-04,3.780000e-08,
0,-1.170000e-02,1.360800e-01,
1,-1.170000e-02,1.382400e-01,
2,-1.170000e-02,1.360800e-01,
3,-1.170000e-02,1.382400e-01,
4,-1.080000e-02,1.382400e-01,
5,-9.900001e-03,1.382400e-01,
6,-9.000001e-03,1.382400e-01,
7,-8.100000e-03,1.404000e-01,
8,-7.200000e-03,1.425600e-01,
9,-6.300000e-03,1.425600e-01,
10,-4.500000e-03,1.447200e-01,
11,-4.500000e-03,1.447200e-01,
12,-2.700000e-03,1.468800e-01,
13,-2.700000e-03,1.447200e-01,
14,-9.000000e-04,1.490400e-01,
15,0.000000e+00,1.468800e-01,
16,1.800000e-03,1.490400e-01,
17,1.800000e-03,1.490400e-01,
18,3.600000e-03,1.512000e-01,
19,2.700000e-03,1.490400e-01,
20,5.400000e-03,1.533600e-01,
21,5.400000e-03,1.533600e-01,
22,7.200000e-03,1.533600e-01,
23,7.200000e-03,1.555200e-01,
24,9.000001e-03,1.555200e-01,
25,9.900001e-03,1.555200e-01,
26,1.080000e-02,1.555200e-01,
27,1.080000e-02,1.555200e-01,
28,1.260000e-02,1.555200e-01,
29,1.260000e-02,1.576800e-01,
30,1.530000e-02,1.555200e-01,
31,1.440000e-02,1.576800e-01,
32,1.620000e-02,1.576800e-01,
33,1.710000e-02,1.598400e-01,
34,1.890000e-02,1.598400e-01,
35,1.890000e-02,1.598400e-01,
36,2.070000e-02,1.598400e-01,
37,2.070000e-02,1.620000e-01,
38,2.250000e-02,1.620000e-01,
39,2.250000e-02,1.598400e-01,
40,2.430000e-02,1.598400e-01,
41,2.430000e-02,1.598400e-01,
42,2.610000e-02,1.598400e-01,
43,2.610000e-02,1.598400e-01,
44,2.790000e-02,1.620000e-01,
45,2.790000e-02,1.620000e-01,
46,2.970000e-02,1.641600e-01,
47,2.970000e-02,1.620000e-01,
48,3.150000e-02,1.620000e-01,
49,3.150000e-02,1.620000e-01,
50,3.330000e-02,1.620000e-01,
51,3.420000e-02,1.620000e-01,
52,3.510000e-02,1.620000e-01,
53,3.510000e-02,1.598400e-01,
54,3.690000e-02,1.620000e-01,
55,3.690000e-02,1.620000e-01,
56,3.870000e-02,1.620000e-01,
57,3.870000e-02,1.620000e-01,
58,4.050000e-02,1.620000e-01,
59,4.050000e-02,1.598400e-01,
60,4.230000e-02,1.620000e-01,
61,4.230000e-02,1.620000e-01,
62,4.410000e-02,1.598400e-01,
63,4.410000e-02,1.598400e-01,
64,4.500000e-02,1.576800e-01,
65,4.590000e-02,1.598400e-01,
66,4.680000e-02,1.576800e-01,
67,4.680000e-02,1.598400e-01,
68,4.860000e-02,1.576800e-01,
69,4.860000e-02,1.576800e-01,
70,5.040000e-02,1.576800e-01,
71,5.040000e-02,1.555200e-01,
72,5.130000e-02,1.576800e-01,
73,5.130000e-02,1.576800e-01,
74,5.310000e-02,1.555200e-01,
75,5.310000e-02,1.555200e-01,
76,5.490000e-02,1.533600e-01,
77,5.490000e-02,1.555200e-01,
78,5.580000e-02,1.533600e-01,
79,5.580000e-02,1.533600e-01,
80,5.760000e-02,1.533600e-01,
81,5.760000e-02,1.512000e-01,
82,5.850000e-02,1.512000e-01,
83,5.850000e-02,1.512000e-01,
84,6.030000e-02,1.490400e-01,
85,6.030000e-02,1.490400e-01,
86,6.120000e-02,1.490400e-01,
87,6.210000e-02,1.490400e-01,
88,6.300000e-02,1.447200e-01,
89,6.300000e-02,1.468800e-01,
90,6.480000e-02,1.447200e-01,
91,6.390000e-02,1.425600e-01,
92,6.480000e-02,1.447200e-01,
93,6.480000e-02,1.425600e-01,
94,6.660000e-02,1.425600e-01,
95,6.660000e-02,1.425600e-01,
96,6.750000e-02,1.382400e-01,
97,6.840000e-02,1.404000e-01,
98,6.840000e-02,1.360800e-01,
99,6.930000e-02,1.382400e-01,
100,7.020000e-02,1.339200e-01,
101,7.020000e-02,1.339200e-01,
102,7.110000e-02,1.339200e-01,
103,7.110000e-02,1.317600e-01,
104,7.200000e-02,1.317600e-01,
105,7.200000e-02,1.296000e-01,
106,7.200000e-02,1.296000e-01,
107,7.290000e-02,1.274400e-01,
108,7.380001e-02,1.274400e-01,
109,7.380001e-02,1.252800e-01,
110,7.560001e-02,1.231200e-01,
111,7.470001e-02,1.252800e-01,
112,7.560001e-02,1.209600e-01,
113,7.560001e-02,1.209600e-01,
114,7.560001e-02,1.188000e-01,
115,7.650001e-02,1.188000e-01,
116,7.740001e-02,1.166400e-01,
117,7.650001e-02,1.166400e-01,
118,7.740001e-02,1.144800e-01,
119,7.830001e-02,1.144800e-01,
120,7.920001e-02,1.101600e-01,
121,7.830001e-02,1.101600e-01,
122,7.920001e-02,1.080000e-01,
123,7.920001e-02,1.058400e-01,
124,7.920001e-02,1.036800e-01,
125,7.920001e-02,1.036800e-01,
126,8.010001e-02,1.015200e-01,
127,8.010001e-02,1.015200e-01,
128,8.010001e-02,9.936000e-02,
129,8.100000e-02,9.936000e-02,
130,8.010001e-02,9.720001e-02,
131,8.100000e-02,9.720001e-02,
132,8.100000e-02,9.288000e-02,
133,8.100000e-02,9.288000e-02,
134,8.190000e-02,9.072001e-02,
135,8.190000e-02,8.856001e-02,
136,8.190000e-02,8.640001e-02,
137,8.280000e-02,8.640001e-02,
138,8.280000e-02,8.424000e-02,
139,8.190000e-02,8.424000e-02,
140,8.280000e-02,7.992001e-02,
141,8.280000e-02,7.992001e-02,
142,8.280000e-02,7.776000e-02,
143,8.280000e-02,7.560001e-02,
144,8.280000e-02,7.128000e-02,
145,8.280000e-02,7.128000e-02,
146,8.280000e-02,6.912000e-02,
147,8.280000e-02,6.912000e-02,
148,8.280000e-02,6.696001e-02,
149,8.280000e-02,6.696001e-02,
150,8.280000e-02,6.480000e-02,
151,8.280000e-02,6.264000e-02,
152,8.280000e-02,6.048001e-02,
153,8.190000e-02,6.048001e-02,
154,8.280000e-02,5.616000e-02,
155,8.280000e-02,5.616000e-02,
156,8.280000e-02,5.184000e-02,
157,8.190000e-02,5.400001e-02,
158,8.190000e-02,4.968000e-02,
159,8.190000e-02,4.968000e-02,
160,8.190000e-02,4.536000e-02,
161,8.190000e-02,4.536000e-02,
162,8.100000e-02,4.320000e-02,
163,8.190000e-02,4.320000e-02,
164,8.100000e-02,3.888000e-02,
165,8.100000e-02,3.888000e-02,
166,8.100000e-02,3.456000e-02,
167,8.100000e-02,3.672000e-02,
168,8.010001e-02,3.024000e-02,
169,8.010001e-02,3.024000e-02,
170,8.010001e-02,2.592000e-02,
171,8.010001e-02,2.808000e-02,
172,7.920001e-02,2.376000e-02,
173,7.920001e-02,2.592000e-02,
174,7.830001e-02,2.160000e-02,
175,7.920001e-02,2.160000e-02,
176,7.830001e-02,1.728000e-02,
177,7.830001e-02,1.512000e-02,
178,7.740001e-02,1.296000e-02,
179,7.740001e-02,1.296000e-02,
180,7.650001e-02,8.640001e-03,
181,7.650001e-02,8.640001e-03,
182,7.650001e-02,4.320000e-03,
183,7.560001e-02,6.480000e-03,
184,7.560001e-02,2.160000e-03,
185,7.470001e-02,0.000000e+00,
186,7.470001e-02,-2.160000e-03,
187,7.380001e-02,-2.160000e-03,
188,7.380001e-02,-4.320000e-03,
189,7.380001e-02,-4.320000e-03,
190,7.290000e-02,-1.080000e-02,
191,7.290000e-02,-8.640001e-03,
192,7.110000e-02,-1.296000e-02,
193,7.110000e-02,-1.512000e-02,
194,7.110000e-02,-1.728000e-02,
195,7.020000e-02,-1.944000e-02,
196,6.930000e-02,-2.160000e-02,
197,6.930000e-02,-2.160000e-02,
198,6.840000e-02,-2.592000e-02,
199,6.840000e-02,-2.376000e-02,
200,6.750000e-02,-2.808000e-02,
201,6.750000e-02,-2.808000e-02,
202,6.660000e-02,-3.240000e-02,
203,6.570000e-02,-3.240000e-02,
204,6.480000e-02,-3.672000e-02,
205,6.480000e-02,-3.672000e-02,
206,6.390000e-02,-4.104000e-02,
207,6.390000e-02,-3.888000e-02,
208,6.210000e-02,-4.320000e-02,
209,6.210000e-02,-4.320000e-02,
210,6.120000e-02,-4.536000e-02,
211,6.120000e-02,-4.536000e-02,
212,5.940000e-02,-4.968000e-02,
213,5.940000e-02,-4.968000e-02,
214,5.850000e-02,-5.400001e-02,
215,5.760000e-02,-5.400001e-02,
216,5.760000e-02,-5.832000e-02,
217,5.670000e-02,-5.832000e-02,
218,5.490000e-02,-6.048001e-02,
219,5.490000e-02,-6.264000e-02,
220,5.400000e-02,-6.264000e-02,
221,5.400000e-02,-6.480000e-02,
222,5.220000e-02,-6.696001e-02,
223,5.220000e-02,-6.696001e-02,
224,5.130000e-02,-7.128000e-02,
225,5.040000e-02,-6.912000e-02,
226,4.860000e-02,-7.344001e-02,
227,4.950000e-02,-7.344001e-02,
228,4.770000e-02,-7.776000e-02,
229,4.770000e-02,-7.776000e-02,
230,4.680000e-02,-7.992001e-02,
231,4.680000e-02,-7.992001e-02,
232,4.500000e-02,-8.208001e-02,
233,4.500000e-02,-8.424000e-02,
234,4.320000e-02,-8.640001e-02,
235,4.320000e-02,-8.640001e-02,
236,4.140000e-02,-9.072001e-02,
237,4.230000e-02,-9.072001e-02,
238,3.960000e-02,-9.288000e-02,
239,3.960000e-02,-9.504001e-02,
240,3.870000e-02,-9.720001e-02,
241,3.780000e-02,-9.720001e-02,
242,3.690000e-02,-9.720001e-02,
243,3.600000e-02,-9.720001e-02,
244,3.420000e-02,-1.015200e-01,
245,3.420000e-02,-1.015200e-01,
246,3.240000e-02,-1.036800e-01,
247,3.330000e-02,-1.036800e-01,
248,3.150000e-02,-1.080000e-01,
249,3.060000e-02,-1.058400e-01,
250,2.880000e-02,-1.101600e-01,
251,2.970000e-02,-1.101600e-01,
252,2.700000e-02,-1.123200e-01,
253,2.700000e-02,-1.123200e-01,
254,2.610000e-02,-1.144800e-01,
255,2.520000e-02,-1.144800e-01,
256,2.430000e-02,-1.188000e-01,
257,2.340000e-02,-1.166400e-01,
258,2.160000e-02,-1.188000e-01,
259,2.160000e-02,-1.188000e-01,
260,1.980000e-02,-1.231200e-01,
261,1.980000e-02,-1.209600e-01,
262,1.890000e-02,-1.252800e-01,
263,1.800000e-02,-1.252800e-01,
264,1.530000e-02,-1.274400e-01,
265,1.620000e-02,-1.252800e-01,
266,1.440000e-02,-1.274400e-01,
267,1.440000e-02,-1.296000e-01,
268,1.260000e-02,-1.296000e-01,
269,1.260000e-02,-1.296000e-01,
270,1.080000e-02,-1.317600e-01,
271,9.900001e-03,-1.339200e-01,
272,8.100000e-03,-1.339200e-01,
273,8.100000e-03,-1.339200e-01,
274,7.200000e-03,-1.360800e-01,
275,7.200000e-03,-1.360800e-01,
276,3.600000e-03,-1.382400e-01,
277,3.600000e-03,-1.382400e-01,
278,2.700000e-03,-1.382400e-01,
279,2.700000e-03,-1.382400e-01,
280,9.000000e-04,-1.404000e-01,
281,9.000000e-04,-1.404000e-01,
282,-9.000000e-04,-1.425600e-01,
283,-1.800000e-03,-1.425600e-01,
284,-3.600000e-03,-1.425600e-01,
285,-2.700000e-03,-1.425600e-01,
286,-5.400000e-03,-1.447200e-01,
287,-5.400000e-03,-1.447200e-01,
288,-7.200000e-03,-1.468800e-01,
289,-7.200000e-03,-1.447200e-01,
290,-9.000001e-03,-1.468800e-01,
291,-9.900001e-03,-1.490400e-01,
292,-1.170000e-02,-1.468800e-01,
293,-1.080000e-02,-1.468800e-01,
294,-1.350000e-02,-1.490400e-01,
295,-1.260000e-02,-1.490400e-01,
296,-1.530000e-02,-1.490400e-01,
297,-1.530000e-02,-1.490400e-01,
298,-1.710000e-02,-1.512000e-01,
299,-1.620000e-02,-1.512000e-01,
300,-1.890000e-02,-1.512000e-01,
301,-1.890000e-02,-1.512000e-01,
302,-2.070000e-02,-1.512000e-01,
303,-2.070000e-02,-1.533600e-01,
304,-2.250000e-02,-1.512000e-01,
305,-2.250000e-02,-1.512000e-01,
306,-2.430000e-02,-1.533600e-01,
307,-2.430000e-02,-1.512000e-01,
308,-2.610000e-02,-1.533600e-01,
309,-2.610000e-02,-1.533600e-01,
310,-2.880000e-02,-1.533600e-01,
311,-2.790000e-02,-1.555200e-01,
312,-2.970000e-02,-1.555200e-01,
313,-3.060000e-02,-1.533600e-01,
314,-3.240000e-02,-1.533600e-01,
315,-3.150000e-02,-1.533600e-01,
316,-3.240000e-02,-1.533600e-01,
317,-3.330000e-02,-1.533600e-01,
318,-3.510000e-02,-1.533600e-01,
319,-3.510000e-02,-1.533600e-01,
320,-3.690000e-02,-1.533600e-01,
321,-3.690000e-02,-1.555200e-01,
322,-3.870000e-02,-1.533600e-01,
323,-3.870000e-02,-1.533600e-01,
324,-4.050000e-02,-1.533600e-01,
325,-4.050000e-02,-1.512000e-01,
326,-4.230000e-02,-1.512000e-01,
327,-4.230000e-02,-1.512000e-01,
328,-4.410000e-02,-1.512000e-01,
329,-4.320000e-02,-1.512000e-01,
330,-4.590000e-02,-1.512000e-01,
331,-4.590000e-02,-1.512000e-01,
332,-4.680000e-02,-1.512000e-01,
333,-4.770000e-02,-1.512000e-01,
334,-4.860000e-02,-1.490400e-01,
335,-4.860000e-02,-1.490400e-01,
336,-5.040000e-02,-1.490400e-01,
337,-5.040000e-02,-1.468800e-01,
338,-5.130000e-02,-1.468800e-01,
339,-5.220000e-02,-1.468800e-01,
340,-5.310000e-02,-1.447200e-01,
341,-5.310000e-02,-1.468800e-01,
342,-5.490000e-02,-1.468800e-01,
343,-5.490000e-02,-1.447200e-01,
344,-5.670000e-02,-1.447200e-01,
345,-5.580000e-02,-1.425600e-01,
346,-5.760000e-02,-1.404000e-01,
347,-5.760000e-02,-1.425600e-01,
348,-5.850000e-02,-1.425600e-01,
349,-5.940000e-02,-1.404000e-01,
350,-6.120000e-02,-1.382400e-01,
351,-6.030000e-02,-1.382400e-01,
352,-6.120000e-02,-1.404000e-01,
353,-6.210000e-02,-1.382400e-01,
354,-6.300000e-02,-1.382400e-01,
355,-6.300000e-02,-1.360800e-01,
356,-6.480000e-02,-1.360800e-01,
357,-6.390000e-02,-1.360800e-01,
358,-6.570000e-02,-1.339200e-01,
359,-6.570000e-02,-1.317600e-01,
360,-6.660000e-02,-1.296000e-01,
361,-6.660000e-02,-1.317600e-01,
362,-6.750000e-02,-1.274400e-01,
363,-6.750000e-02,-1.274400e-01,
364,-6.930000e-02,-1.274400e-01,
365,-6.930000e-02,-1.274400e-01,
366,-7.020000e-02,-1.252800e-01,
367,-7.020000e-02,-1.252800e-01,
368,-7.020000e-02,-1.231200e-01,
369,-7.110000e-02,-1.231200e-01,
370,-7.200000e-02,-1.209600e-01,
371,-7.200000e-02,-1.209600e-01,
372,-7.380001e-02,-1.166400e-01,
373,-7.290000e-02,-1.166400e-01,
374,-7.380001e-02,-1.144800e-01,
375,-7.380001e-02,-1.166400e-01,
376,-7.470001e-02,-1.123200e-01,
377,-7.470001e-02,-1.123200e-01,
378,-7.560001e-02,-1.123200e-01,
379,-7.560001e-02,-1.123200e-01,
380,-7.650001e-02,-1.080000e-01,
381,-7.650001e-02,-1.080000e-01,
382,-7.650001e-02,-1.058400e-01,
383,-7.650001e-02,-1.058400e-01,
384,-7.830001e-02,-1.036800e-01,
385,-7.740001e-02,-1.015200e-01,
386,-7.830001e-02,-1.015200e-01,
387,-7.830001e-02,-9.936000e-02,
388,-7.830001e-02,-9.720001e-02,
389,-7.830001e-02,-9.720001e-02,
390,-7.920001e-02,-9.504001e-02,
391,-7.920001e-02,-9.504001e-02,
392,-8.010001e-02,-9.288000e-02,
393,-8.010001e-02,-9.072001e-02,
394,-8.100000e-02,-8.856001e-02,
395,-8.010001e-02,-8.856001e-02,
396,-8.100000e-02,-8.640001e-02,
397,-8.100000e-02,-8.424000e-02,
398,-8.100000e-02,-8.208001e-02,
399,-8.100000e-02,-8.208001e-02,
400,-8.100000e-02,-7.992001e-02,
401,-8.100000e-02,-7.992001e-02,
402,-8.100000e-02,-7.776000e-02,
403,-8.190000e-02,-7.776000e-02,
404,-8.190000e-02,-7.344001e-02,
405,-8.100000e-02,-7.344001e-02,
406,-8.190000e-02,-6.912000e-02,
407,-8.190000e-02,-7.128000e-02,
408,-8.190000e-02,-6.480000e-02,
409,-8.190000e-02,-6.696001e-02,
410,-8.190000e-02,-6.264000e-02,
411,-8.280000e-02,-6.264000e-02,
412,-8.100000e-02,-6.048001e-02,
413,-8.190000e-02,-5.832000e-02,
414,-8.190000e-02,-5.616000e-02,
415,-8.190000e-02,-5.616000e-02,
416,-8.190000e-02,-5.400001e-02,
417,-8.190000e-02,-5.184000e-02,
418,-8.190000e-02,-4.968000e-02,
419,-8.190000e-02,-4.968000e-02,
420,-8.190000e-02,-4.536000e-02,
421,-8.190000e-02,-4.536000e-02,
422,-8.190000e-02,-4.104000e-02,
423,-8.190000e-02,-4.320000e-02,
424,-8.100000e-02,-3.888000e-02,
425,-8.100000e-02,-3.888000e-02,
426,-8.100000e-02,-3.456000e-02,
427,-8.100000e-02,-3.456000e-02,
428,-8.010001e-02,-3.240000e-02,
429,-8.010001e-02,-3.240000e-02,
430,-8.100000e-02,-2.592000e-02,
431,-8.010001e-02,-2.808000e-02,
432,-8.010001e-02,-2.376000e-02,
433,-8.010001e-02,-2.376000e-02,
434,-7.920001e-02,-1.944000e-02,
435,-7.920001e-02,-1.944000e-02,
436,-7.830001e-02,-1.728000e-02,
437,-7.920001e-02,-1.512000e-02,
438,-7.830001e-02,-1.296000e-02,
439,-7.740001e-02,-1.296000e-02,
440,-7.740001e-02,-8.640001e-03,
441,-7.740001e-02,-8.640001e-03,
442,-7.650001e-02,-4.320000e-03,
443,-7.740001e-02,-4.320000e-03,
444,-7.650001e-02,0.000000e+00,
445,-7.650001e-02,-2.160000e-03,
446,-7.470001e-02,2.160000e-03,
447,-7.560001e-02,4.320000e-03,
448,-7.470001e-02,4.320000e-03,
449,-7.470001e-02,6.480000e-03,
450,-7.380001e-02,1.080000e-02,
451,-7.380001e-02,1.080000e-02,
452,-7.290000e-02,1.512000e-02,
453,-7.380001e-02,1.512000e-02,
454,-7.110000e-02,1.728000e-02,
455,-7.110000e-02,1.944000e-02,
456,-7.110000e-02,2.160000e-02,
457,-7.110000e-02,2.160000e-02,
458,-7.020000e-02,2.376000e-02,
459,-7.020000e-02,2.592000e-02,
460,-6.930000e-02,2.808000e-02,
461,-6.840000e-02,2.808000e-02,
462,-6.840000e-02,3.240000e-02,
463,-6.840000e-02,3.240000e-02,
464,-6.750000e-02,3.672000e-02,
465,-6.750000e-02,3.672000e-02,
466,-6.570000e-02,4.104000e-02,
467,-6.570000e-02,4.104000e-02,
468,-6.480000e-02,4.320000e-02,
469,-6.390000e-02,4.320000e-02,
470,-6.300000e-02,4.752000e-02,
471,-6.390000e-02,4.536000e-02,
472,-6.210000e-02,5.184000e-02,
473,-6.210000e-02,4.968000e-02,
474,-6.030000e-02,5.400001e-02,
475,-6.030000e-02,5.400001e-02,
476,-5.940000e-02,5.832000e-02,
477,-6.030000e-02,5.832000e-02,
478,-5.760000e-02,6.048001e-02,
479,-5.850000e-02,6.264000e-02,
480,-5.670000e-02,6.480000e-02,
481,-5.670000e-02,6.480000e-02,
482,-5.580000e-02,6.696001e-02,
483,-5.490000e-02,6.912000e-02,
484,-5.310000e-02,7.128000e-02,
485,-5.310000e-02,7.128000e-02,
486,-5.220000e-02,7.344001e-02,
487,-5.220000e-02,7.560001e-02,
488,-5.040000e-02,7.992001e-02,
489,-5.040000e-02,7.776000e-02,
490,-4.950000e-02,8.208001e-02,
491,-4.950000e-02,8.208001e-02,
492,-4.770000e-02,8.424000e-02,
493,-4.770000e-02,8.640001e-02,
494,-4.590000e-02,8.640001e-02,
495,-4.500000e-02,8.856001e-02,
496,-4.410000e-02,9.072001e-02,
497,-4.410000e-02,9.072001e-02,
498,-4.320000e-02,9.288000e-02,
499,-4.230000e-02,9.504001e-02,
500,-4.050000e-02,9.720001e-02,
501,-4.050000e-02,9.936000e-02,
502,-3.960000e-02,1.015200e-01,
503,-3.960000e-02,1.015200e-01,
504,-3.690000e-02,1.015200e-01,
505,-3.690000e-02,1.036800e-01,
506,-3.600000e-02,1.058400e-01,
507,-3.510000e-02,1.080000e-01,
508,-3.420000e-02,1.080000e-01,
509,-3.330000e-02,1.080000e-01,
510,-3.240000e-02,1.144800e-01,
511,-3.150000e-02,1.123200e-01,
512,-2.970000e-02,1.144800e-01,
513,-3.060000e-02,1.166400e-01,
514,-2.880000e-02,1.188000e-01,
515,-2.880000e-02,1.188000e-01,
516,-2.610000e-02,1.188000e-01,
517,-2.700000e-02,1.188000e-01,
518,-2.520000e-02,1.231200e-01,
519,-2.520000e-02,1.231200e-01,
520,-2.250000e-02,1.231200e-01,
521,-2.250000e-02,1.231200e-01,
522,-2.160000e-02,1.274400e-01,
523,-2.160000e-02,1.274400e-01,
524,-1.980000e-02,1.296000e-01,
525,-1.980000e-02,1.296000e-01,
526,-1.710000e-02,1.339200e-01,
527,-1.710000e-02,1.317600e-01,
528,-1.620000e-02,1.339200e-01,
529,-1.530000e-02,1.339200e-01,
530,-1.350000e-02,1.360800e-01,
531,-1.260000e-02,1.360800e-01,
532,-1.170000e-02,1.382400e-01,
533,-1.170000e-02,1.382400e-01,
534,-9.000001e-03,1.404000e-01,
535,-9.000001e-03,1.404000e-01,
536,-8.100000e-03,1.425600e-01,
537,-7.200000e-03,1.425600e-01,
538,-5.400000e-03,1.447200e-01,
539,-5.400000e-03,1.447200e-01,
540,-4.500000e-03,1.447200e-01,
541,-4.500000e-03,1.447200e-01,
542,-1.800000e-03,1.447200e-01,
543,-1.800000e-03,1.468800e-01,
544,-9.000000e-04,1.490400e-01,
545,-9.000000e-04,1.490400e-01,
546,2.700000e-03,1.490400e-01,
547,1.800000e-03,1.512000e-01,
548,3.600000e-03,1.533600e-01,
549,4.500000e-03,1.533600e-01,
550,6.300000e-03,1.533600e-01,
551,6.300000e-03,1.512000e-01,
552,8.100000e-03,1.533600e-01,
553,8.100000e-03,1.555200e-01,
554,9.900001e-03,1.533600e-01,
555,9.900001e-03,1.555200e-01,
556,1.170000e-02,1.555200e-01,
557,1.170000e-02,1.555200e-01,
558,1.350000e-02,1.576800e-01,
559,1.350000e-02,1.576800e-01,
560,1.530000e-02,1.576800e-01,
561,1.620000e-02,1.576800e-01,
562,1.710000e-02,1.576800e-01,
563,1.800000e-02,1.598400e-01,
564,1.980000e-02,1.598400e-01,
565,1.890000e-02,1.598400e-01,
566,2.160000e-02,1.598400e-01,
567,2.160000e-02,1.598400e-01,
568,2.340000e-02,1.620000e-01,
569,2.340000e-02,1.620000e-01,
570,2.520000e-02,1.598400e-01,
571,2.520000e-02,1.620000e-01,
572,2.700000e-02,1.620000e-01,
573,2.700000e-02,1.620000e-01,
574,2.880000e-02,1.620000e-01,
575,2.880000e-02,1.620000e-01,
576,3.060000e-02,1.620000e-01,
577,3.060000e-02,1.620000e-01,
578,3.240000e-02,1.620000e-01,
579,3.240000e-02,1.620000e-01,
580,3.420000e-02,1.620000e-01,
581,3.420000e-02,1.620000e-01,
582,3.600000e-02,1.620000e-01,
583,3.600000e-02,1.620000e-01,
584,3.780000e-02,1.620000e-01,
585,3.780000e-02,1.620000e-01,
586,3.960000e-02,1.620000e-01,
587,3.960000e-02,1.620000e-01,
588,4.140000e-02,1.598400e-01,
589,4.140000e-02,1.620000e-01,
590,4.230000e-02,1.620000e-01,
591,4.320000e-02,1.620000e-01,
592,4.500000e-02,1.598400e-01,
593,4.500000e-02,1.598400e-01,
594,4.590000e-02,1.598400e-01,
595,4.590000e-02,1.598400e-01,
596,4.770000e-02,1.576800e-01,
597,4.770000e-02,1.598400e-01,
598,4.950000e-02,1.576800e-01,
599,4.860000e-02,1.576800e-01,
600,5.040000e-02,1.576800e-01,
601,5.040000e-02,1.555200e-01,
602,5.220000e-02,1.576800e-01,
603,5.130000e-02,1.555200e-01,
604,5.400000e-02,1.555200e-01,
605,5.400000e-02,1.555200e-01,
606,5.580000e-02,1.555200e-01,
607,5.580000e-02,1.555200e-01,
608,5.670000e-02,1.533600e-01,
609,5.670000e-02,1.533600e-01,
610,5.850000e-02,1.512000e-01,
611,5.850000e-02,1.512000e-01,
612,5.940000e-02,1.490400e-01,
613,5.940000e-02,1.490400e-01,
614,6.030000e-02,1.490400e-01,
615,6.120000e-02,1.468800e-01,
616,6.210000e-02,1.447200e-01,
617,6.210000e-02,1.468800e-01,
618,6.390000e-02,1.447200e-01,
619,6.300000e-02,1.447200e-01,
620,6.480000e-02,1.447200e-01,
621,6.480000e-02,1.425600e-01,
622,6.660000e-02,1.425600e-01,
623,6.660000e-02,1.404000e-01,
624,6.660000e-02,1.404000e-01,
625,6.660000e-02,1.404000e-01,
626,6.840000e-02,1.382400e-01,
627,6.930000e-02,1.382400e-01,
628,6.930000e-02,1.360800e-01,
