parte2/esp9/Con_resistenza/Data_diff/11.csv

X,CH1,CH2,Start,Increment,
Sequence,Volt,Volt,-7.700000e-06,1.000000e-08,
0,5.022000e-02,-8.112000e-01,
1,5.022000e-02,-8.008000e-01,
2,5.022000e-02,-8.112000e-01,
3,5.022000e-02,-8.008000e-01,
4,5.022000e-02,-8.112000e-01,
5,5.022000e-02,-8.216000e-01,
6,4.836000e-02,-8.216000e-01,
7,5.022000e-02,-8.320000e-01,
8,4.836000e-02,-8.320000e-01,
9,5.022000e-02,-8.424000e-01,
10,4.836000e-02,-8.424000e-01,
11,4.836000e-02,-8.528000e-01,
12,4.836000e-02,-8.528000e-01,
13,4.836000e-02,-8.632000e-01,
14,4.650000e-02,-8.632000e-01,
15,4.836000e-02,-8.736000e-01,
16,4.650000e-02,-8.736000e-01,
17,4.650000e-02,-8.840000e-01,
18,4.650000e-02,-8.840000e-01,
19,4.650000e-02,-8.840000e-01,
20,4.650000e-02,-8.840000e-01,
21,4.650000e-02,-8.944000e-01,
22,4.650000e-02,-8.944000e-01,
23,4.650000e-02,-9.048000e-01,
24,4.650000e-02,-9.048000e-01,
25,4.464000e-02,-9.048000e-01,
26,4.464000e-02,-9.048000e-01,
27,4.464000e-02,-9.152000e-01,
28,4.464000e-02,-9.152000e-01,
29,4.278000e-02,-9.256000e-01,
30,4.464000e-02,-9.256000e-01,
31,4.278000e-02,-9.152000e-01,
32,4.278000e-02,-9.360000e-01,
33,4.278000e-02,-9.256000e-01,
34,4.278000e-02,-9.360000e-01,
35,4.278000e-02,-9.360000e-01,
36,4.278000e-02,-9.360000e-01,
37,4.278000e-02,-9.464000e-01,
38,4.092000e-02,-9.464000e-01,
39,4.092000e-02,-9.464000e-01,
40,4.092000e-02,-9.464000e-01,
41,4.092000e-02,-9.464000e-01,
42,4.092000e-02,-9.568000e-01,
43,3.906000e-02,-9.568000e-01,
44,3.906000e-02,-9.568000e-01,
45,3.906000e-02,-9.672000e-01,
46,3.720000e-02,-9.672000e-01,
47,3.906000e-02,-9.568000e-01,
48,3.720000e-02,-9.672000e-01,
49,3.720000e-02,-9.672000e-01,
50,3.720000e-02,-9.672000e-01,
51,3.720000e-02,-9.672000e-01,
52,3.534000e-02,-9.672000e-01,
53,3.720000e-02,-9.672000e-01,
54,3.534000e-02,-9.672000e-01,
55,3.534000e-02,-9.776000e-01,
56,3.348000e-02,-9.776000e-01,
57,3.534000e-02,-9.672000e-01,
58,3.348000e-02,-9.776000e-01,
59,3.348000e-02,-9.672000e-01,
60,3.162000e-02,-9.776000e-01,
61,3.348000e-02,-9.672000e-01,
62,3.162000e-02,-9.776000e-01,
63,3.348000e-02,-9.672000e-01,
64,3.162000e-02,-9.776000e-01,
65,3.162000e-02,-9.776000e-01,
66,2.976000e-02,-9.776000e-01,
67,2.976000e-02,-9.776000e-01,
68,2.790000e-02,-9.776000e-01,
69,2.976000e-02,-9.776000e-01,
70,2.790000e-02,-9.672000e-01,
71,2.790000e-02,-9.776000e-01,
72,2.976000e-02,-9.776000e-01,
73,2.790000e-02,-9.672000e-01,
74,2.790000e-02,-9.672000e-01,
75,2.790000e-02,-9.672000e-01,
76,2.604000e-02,-9.776000e-01,
77,2.604000e-02,-9.672000e-01,
78,2.604000e-02,-9.672000e-01,
79,2.418000e-02,-9.568000e-01,
80,2.418000e-02,-9.672000e-01,
81,2.418000e-02,-9.568000e-01,
82,2.232000e-02,-9.672000e-01,
83,2.232000e-02,-9.568000e-01,
84,2.046000e-02,-9.568000e-01,
85,2.232000e-02,-9.568000e-01,
86,2.046000e-02,-9.568000e-01,
87,2.046000e-02,-9.568000e-01,
88,2.046000e-02,-9.464000e-01,
89,1.860000e-02,-9.464000e-01,
90,1.860000e-02,-9.360000e-01,
91,1.860000e-02,-9.464000e-01,
92,1.860000e-02,-9.360000e-01,
93,1.674000e-02,-9.360000e-01,
94,1.674000e-02,-9.360000e-01,
95,1.674000e-02,-9.360000e-01,
96,1.674000e-02,-9.360000e-01,
97,1.674000e-02,-9.256000e-01,
98,1.488000e-02,-9.256000e-01,
99,1.674000e-02,-9.152000e-01,
100,1.302000e-02,-9.152000e-01,
101,1.488000e-02,-9.152000e-01,
102,1.302000e-02,-9.152000e-01,
103,1.302000e-02,-9.048000e-01,
104,1.302000e-02,-9.048000e-01,
105,1.302000e-02,-8.944000e-01,
106,1.116000e-02,-8.944000e-01,
107,1.116000e-02,-8.944000e-01,
108,1.116000e-02,-8.944000e-01,
109,1.116000e-02,-8.840000e-01,
110,9.300000e-03,-8.840000e-01,
111,9.300000e-03,-8.736000e-01,
112,9.300000e-03,-8.736000e-01,
113,9.300000e-03,-8.632000e-01,
114,7.440000e-03,-8.632000e-01,
115,7.440000e-03,-8.632000e-01,
116,5.580000e-03,-8.528000e-01,
117,5.580000e-03,-8.528000e-01,
118,3.720000e-03,-8.424000e-01,
119,5.580000e-03,-8.424000e-01,
120,3.720000e-03,-8.424000e-01,
121,3.720000e-03,-8.320000e-01,
122,3.720000e-03,-8.216000e-01,
123,3.720000e-03,-8.216000e-01,
124,1.860000e-03,-8.112000e-01,
125,1.860000e-03,-8.112000e-01,
126,0.000000e+00,-8.112000e-01,
127,0.000000e+00,-8.008000e-01,
128,0.000000e+00,-8.008000e-01,
129,-1.860000e-03,-7.904000e-01,
130,-1.860000e-03,-7.800000e-01,
131,-1.860000e-03,-7.800000e-01,
132,-3.720000e-03,-7.696000e-01,
133,-1.860000e-03,-7.696000e-01,
134,-3.720000e-03,-7.592000e-01,
135,-3.720000e-03,-7.488000e-01,
136,-3.720000e-03,-7.488000e-01,
137,-5.580000e-03,-7.384000e-01,
138,-5.580000e-03,-7.384000e-01,
139,-5.580000e-03,-7.280000e-01,
140,-7.440000e-03,-7.176000e-01,
141,-7.440000e-03,-7.176000e-01,
142,-7.440000e-03,-7.072000e-01,
143,-7.440000e-03,-6.968000e-01,
144,-9.300000e-03,-6.968000e-01,
145,-1.116000e-02,-6.864000e-01,
146,-1.116000e-02,-6.864000e-01,
147,-9.300000e-03,-6.760000e-01,
148,-1.116000e-02,-6.656000e-01,
149,-1.116000e-02,-6.656000e-01,
150,-1.116000e-02,-6.552000e-01,
151,-1.302000e-02,-6.448000e-01,
152,-1.302000e-02,-6.448000e-01,
153,-1.302000e-02,-6.344000e-01,
154,-1.488000e-02,-6.240000e-01,
155,-1.488000e-02,-6.240000e-01,
156,-1.488000e-02,-6.136000e-01,
157,-1.488000e-02,-6.032000e-01,
158,-1.674000e-02,-5.928000e-01,
159,-1.488000e-02,-5.928000e-01,
160,-1.488000e-02,-5.824000e-01,
161,-1.674000e-02,-5.720000e-01,
162,-1.674000e-02,-5.616000e-01,
163,-1.674000e-02,-5.616000e-01,
164,-1.860000e-02,-5.512000e-01,
165,-1.860000e-02,-5.408000e-01,
166,-1.860000e-02,-5.304000e-01,
167,-2.046000e-02,-5.304000e-01,
168,-2.046000e-02,-5.200000e-01,
169,-2.046000e-02,-5.096000e-01,
170,-2.046000e-02,-4.992000e-01,
171,-2.232000e-02,-4.992000e-01,
172,-2.232000e-02,-4.888000e-01,
173,-2.232000e-02,-4.784000e-01,
174,-2.418000e-02,-4.680000e-01,
175,-2.232000e-02,-4.680000e-01,
176,-2.418000e-02,-4.472000e-01,
177,-2.418000e-02,-4.472000e-01,
178,-2.604000e-02,-4.368000e-01,
179,-2.418000e-02,-4.264000e-01,
180,-2.604000e-02,-4.160000e-01,
181,-2.604000e-02,-4.160000e-01,
182,-2.790000e-02,-3.952000e-01,
183,-2.790000e-02,-3.952000e-01,
184,-2.790000e-02,-3.848000e-01,
185,-2.790000e-02,-3.744000e-01,
186,-2.790000e-02,-3.640000e-01,
187,-2.976000e-02,-3.640000e-01,
188,-2.976000e-02,-3.432000e-01,
189,-2.976000e-02,-3.432000e-01,
190,-2.976000e-02,-3.328000e-01,
191,-2.976000e-02,-3.328000e-01,
192,-3.162000e-02,-3.120000e-01,
193,-3.162000e-02,-3.016000e-01,
194,-3.348000e-02,-3.016000e-01,
195,-3.162000e-02,-2.912000e-01,
196,-3.348000e-02,-2.808000e-01,
197,-3.348000e-02,-2.704000e-01,
198,-3.348000e-02,-2.600000e-01,
199,-3.348000e-02,-2.496000e-01,
200,-3.348000e-02,-2.392000e-01,
201,-3.534000e-02,-2.392000e-01,
202,-3.534000e-02,-2.184000e-01,
203,-3.534000e-02,-2.184000e-01,
204,-3.720000e-02,-1.976000e-01,
205,-3.534000e-02,-1.976000e-01,
206,-3.720000e-02,-1.872000e-01,
207,-3.720000e-02,-1.768000e-01,
208,-3.720000e-02,-1.664000e-01,
209,-3.906000e-02,-1.560000e-01,
210,-3.720000e-02,-1.456000e-01,
211,-3.906000e-02,-1.456000e-01,
212,-3.906000e-02,-1.248000e-01,
213,-3.906000e-02,-1.248000e-01,
214,-4.092000e-02,-1.040000e-01,
215,-3.906000e-02,-1.040000e-01,
216,-3.906000e-02,-9.360000e-02,
217,-4.092000e-02,-8.320000e-02,
218,-3.906000e-02,-7.280000e-02,
219,-4.092000e-02,-6.240000e-02,
220,-4.092000e-02,-5.200000e-02,
221,-4.092000e-02,-5.200000e-02,
222,-4.278000e-02,-3.120000e-02,
223,-4.092000e-02,-3.120000e-02,
224,-4.278000e-02,-2.080000e-02,
225,-4.278000e-02,-1.040000e-02,
226,-4.464000e-02,0.000000e+00,
227,-4.278000e-02,1.040000e-02,
228,-4.278000e-02,2.080000e-02,
229,-4.278000e-02,3.120000e-02,
230,-4.278000e-02,4.160000e-02,
231,-4.464000e-02,4.160000e-02,
232,-4.464000e-02,6.240000e-02,
233,-4.464000e-02,6.240000e-02,
234,-4.650000e-02,7.280000e-02,
235,-4.464000e-02,8.320000e-02,
236,-4.650000e-02,9.360000e-02,
237,-4.464000e-02,1.040000e-01,
238,-4.650000e-02,1.144000e-01,
239,-4.650000e-02,1.144000e-01,
240,-4.650000e-02,1.352000e-01,
241,-4.650000e-02,1.352000e-01,
242,-4.650000e-02,1.456000e-01,
243,-4.650000e-02,1.560000e-01,
244,-4.650000e-02,1.664000e-01,
245,-4.650000e-02,1.768000e-01,
246,-4.650000e-02,1.872000e-01,
247,-4.836000e-02,1.976000e-01,
248,-4.836000e-02,1.976000e-01,
249,-4.836000e-02,2.080000e-01,
250,-4.836000e-02,2.184000e-01,
251,-4.836000e-02,2.288000e-01,
252,-4.836000e-02,2.392000e-01,
253,-5.022000e-02,2.392000e-01,
254,-5.022000e-02,2.600000e-01,
255,-5.022000e-02,2.600000e-01,
256,-4.836000e-02,2.704000e-01,
257,-5.022000e-02,2.808000e-01,
258,-5.022000e-02,2.912000e-01,
259,-5.022000e-02,2.912000e-01,
260,-5.022000e-02,3.120000e-01,
261,-5.022000e-02,3.224000e-01,
262,-5.022000e-02,3.224000e-01,
263,-5.022000e-02,3.328000e-01,
264,-5.022000e-02,3.432000e-01,
265,-5.208000e-02,3.536000e-01,
266,-5.022000e-02,3.536000e-01,
267,-5.208000e-02,3.640000e-01,
268,-5.208000e-02,3.744000e-01,
269,-5.022000e-02,3.744000e-01,
270,-5.022000e-02,3.952000e-01,
271,-5.022000e-02,3.952000e-01,
272,-5.022000e-02,4.056000e-01,
273,-5.208000e-02,4.160000e-01,
274,-5.022000e-02,4.264000e-01,
275,-5.022000e-02,4.264000e-01,
276,-5.208000e-02,4.368000e-01,
277,-5.022000e-02,4.472000e-01,
278,-5.022000e-02,4.576000e-01,
279,-5.022000e-02,4.680000e-01,
280,-5.208000e-02,4.680000e-01,
281,-5.022000e-02,4.784000e-01,
282,-5.208000e-02,4.888000e-01,
283,-5.022000e-02,4.888000e-01,
284,-5.208000e-02,4.992000e-01,
285,-5.022000e-02,5.096000e-01,
286,-5.022000e-02,5.200000e-01,
287,-5.208000e-02,5.200000e-01,
288,-5.208000e-02,5.304000e-01,
289,-5.022000e-02,5.408000e-01,
290,-5.208000e-02,5.512000e-01,
291,-5.022000e-02,5.512000e-01,
292,-5.208000e-02,5.616000e-01,
293,-5.022000e-02,5.616000e-01,
294,-5.208000e-02,5.720000e-01,
295,-5.022000e-02,5.824000e-01,
296,-5.022000e-02,5.928000e-01,
297,-5.022000e-02,5.928000e-01,
298,-5.022000e-02,6.032000e-01,
299,-5.022000e-02,6.032000e-01,
300,-5.022000e-02,6.136000e-01,
301,-5.022000e-02,6.240000e-01,
302,-5.022000e-02,6.240000e-01,
303,-5.022000e-02,6.344000e-01,
304,-5.022000e-02,6.448000e-01,
305,-5.022000e-02,6.448000e-01,
306,-5.022000e-02,6.552000e-01,
307,-5.022000e-02,6.552000e-01,
308,-5.022000e-02,6.656000e-01,
309,-4.836000e-02,6.760000e-01,
310,-4.836000e-02,6.760000e-01,
311,-4.836000e-02,6.864000e-01,
312,-4.836000e-02,6.864000e-01,
313,-5.022000e-02,6.968000e-01,
314,-4.836000e-02,6.968000e-01,
315,-4.836000e-02,7.072000e-01,
316,-4.836000e-02,7.072000e-01,
317,-4.836000e-02,7.176000e-01,
318,-4.836000e-02,7.176000e-01,
319,-4.836000e-02,7.280000e-01,
320,-4.836000e-02,7.280000e-01,
321,-4.836000e-02,7.384000e-01,
322,-4.650000e-02,7.384000e-01,
323,-4.836000e-02,7.488000e-01,
324,-4.650000e-02,7.488000e-01,
325,-4.836000e-02,7.592000e-01,
326,-4.650000e-02,7.592000e-01,
327,-4.650000e-02,7.696000e-01,
328,-4.650000e-02,7.696000e-01,
329,-4.650000e-02,7.800000e-01,
330,-4.650000e-02,7.800000e-01,
331,-4.650000e-02,7.904000e-01,
332,-4.650000e-02,7.904000e-01,
333,-4.650000e-02,7.904000e-01,
334,-4.464000e-02,7.904000e-01,
335,-4.464000e-02,8.008000e-01,
336,-4.464000e-02,8.008000e-01,
337,-4.464000e-02,8.112000e-01,
338,-4.278000e-02,8.112000e-01,
339,-4.278000e-02,8.216000e-01,
340,-4.278000e-02,8.216000e-01,
341,-4.278000e-02,8.112000e-01,
342,-4.278000e-02,8.216000e-01,
343,-4.092000e-02,8.320000e-01,
344,-4.092000e-02,8.320000e-01,
345,-4.092000e-02,8.320000e-01,
346,-4.092000e-02,8.320000e-01,
347,-4.092000e-02,8.424000e-01,
348,-4.092000e-02,8.424000e-01,
349,-3.906000e-02,8.528000e-01,
350,-3.906000e-02,8.528000e-01,
351,-3.906000e-02,8.424000e-01,
352,-3.906000e-02,8.528000e-01,
353,-3.906000e-02,8.528000e-01,
354,-3.906000e-02,8.528000e-01,
355,-3.906000e-02,8.632000e-01,
356,-3.906000e-02,8.632000e-01,
357,-3.720000e-02,8.632000e-01,
358,-3.720000e-02,8.632000e-01,
359,-3.720000e-02,8.736000e-01,
360,-3.720000e-02,8.632000e-01,
361,-3.534000e-02,8.736000e-01,
362,-3.534000e-02,8.736000e-01,
363,-3.534000e-02,8.736000e-01,
364,-3.534000e-02,8.736000e-01,
365,-3.534000e-02,8.840000e-01,
366,-3.534000e-02,8.840000e-01,
367,-3.348000e-02,8.736000e-01,
368,-3.348000e-02,8.840000e-01,
369,-3.348000e-02,8.840000e-01,
370,-3.162000e-02,8.840000e-01,
371,-3.348000e-02,8.840000e-01,
372,-3.162000e-02,8.840000e-01,
373,-3.348000e-02,8.944000e-01,
374,-3.162000e-02,8.840000e-01,
375,-3.162000e-02,8.944000e-01,
376,-3.162000e-02,8.840000e-01,
377,-2.976000e-02,8.840000e-01,
378,-2.976000e-02,8.840000e-01,
379,-2.976000e-02,8.944000e-01,
380,-2.790000e-02,8.840000e-01,
381,-2.976000e-02,8.944000e-01,
382,-2.790000e-02,8.840000e-01,
383,-2.790000e-02,8.944000e-01,
384,-2.604000e-02,8.840000e-01,
385,-2.790000e-02,8.944000e-01,
386,-2.604000e-02,8.840000e-01,
387,-2.604000e-02,8.840000e-01,
388,-2.604000e-02,8.840000e-01,
389,-2.418000e-02,8.840000e-01,
390,-2.418000e-02,8.840000e-01,
391,-2.418000e-02,8.736000e-01,
392,-2.418000e-02,8.840000e-01,
393,-2.232000e-02,8.736000e-01,
394,-2.232000e-02,8.736000e-01,
395,-2.232000e-02,8.840000e-01,
396,-2.046000e-02,8.736000e-01,
397,-2.232000e-02,8.736000e-01,
398,-2.046000e-02,8.736000e-01,
399,-2.046000e-02,8.632000e-01,
400,-1.860000e-02,8.632000e-01,
401,-1.860000e-02,8.632000e-01,
402,-1.860000e-02,8.632000e-01,
403,-1.860000e-02,8.528000e-01,
404,-1.674000e-02,8.528000e-01,
405,-1.674000e-02,8.632000e-01,
406,-1.674000e-02,8.528000e-01,
407,-1.674000e-02,8.528000e-01,
408,-1.488000e-02,8.424000e-01,
409,-1.488000e-02,8.528000e-01,
410,-1.488000e-02,8.424000e-01,
411,-1.302000e-02,8.320000e-01,
412,-1.302000e-02,8.320000e-01,
413,-1.302000e-02,8.320000e-01,
414,-1.302000e-02,8.320000e-01,
415,-1.302000e-02,8.216000e-01,
416,-1.116000e-02,8.216000e-01,
417,-1.116000e-02,8.112000e-01,
418,-1.116000e-02,8.216000e-01,
419,-1.116000e-02,8.112000e-01,
420,-9.300000e-03,8.112000e-01,
421,-9.300000e-03,8.008000e-01,
422,-9.300000e-03,8.008000e-01,
423,-9.300000e-03,7.904000e-01,
424,-7.440000e-03,7.904000e-01,
425,-7.440000e-03,7.904000e-01,
426,-5.580000e-03,7.800000e-01,
427,-7.440000e-03,7.800000e-01,
428,-5.580000e-03,7.800000e-01,
429,-5.580000e-03,7.696000e-01,
430,-5.580000e-03,7.696000e-01,
431,-3.720000e-03,7.592000e-01,
432,-3.720000e-03,7.592000e-01,
433,-3.720000e-03,7.488000e-01,
434,-1.860000e-03,7.488000e-01,
435,-1.860000e-03,7.384000e-01,
436,0.000000e+00,7.384000e-01,
437,0.000000e+00,7.280000e-01,
438,0.000000e+00,7.280000e-01,
439,0.000000e+00,7.176000e-01,
440,1.860000e-03,7.176000e-01,
441,0.000000e+00,7.072000e-01,
442,1.860000e-03,7.072000e-01,
443,1.860000e-03,6.968000e-01,
444,1.860000e-03,6.968000e-01,
445,3.720000e-03,6.864000e-01,
446,3.720000e-03,6.760000e-01,
447,3.720000e-03,6.760000e-01,
448,5.580000e-03,6.656000e-01,
449,5.580000e-03,6.656000e-01,
450,5.580000e-03,6.552000e-01,
451,5.580000e-03,6.552000e-01,
452,7.440000e-03,6.448000e-01,
453,7.440000e-03,6.344000e-01,
454,7.440000e-03,6.344000e-01,
455,9.300000e-03,6.240000e-01,
456,9.300000e-03,6.240000e-01,
457,9.300000e-03,6.136000e-01,
458,1.116000e-02,6.032000e-01,
459,9.300000e-03,6.032000e-01,
460,1.116000e-02,5.928000e-01,
461,1.116000e-02,5.824000e-01,
462,1.302000e-02,5.824000e-01,
463,1.302000e-02,5.720000e-01,
464,1.302000e-02,5.720000e-01,
465,1.488000e-02,5.616000e-01,
466,1.488000e-02,5.512000e-01,
467,1.488000e-02,5.408000e-01,
468,1.488000e-02,5.408000e-01,
469,1.674000e-02,5.304000e-01,
470,1.488000e-02,5.200000e-01,
471,1.674000e-02,5.200000e-01,
472,1.860000e-02,5.096000e-01,
473,1.860000e-02,4.992000e-01,
474,1.860000e-02,4.888000e-01,
475,1.860000e-02,4.784000e-01,
476,2.046000e-02,4.784000e-01,
477,2.046000e-02,4.680000e-01,
478,2.046000e-02,4.576000e-01,
479,2.046000e-02,4.472000e-01,
480,2.232000e-02,4.472000e-01,
481,2.232000e-02,4.368000e-01,
482,2.232000e-02,4.264000e-01,
483,2.232000e-02,4.160000e-01,
484,2.232000e-02,4.160000e-01,
485,2.418000e-02,4.056000e-01,
486,2.418000e-02,3.952000e-01,
487,2.418000e-02,3.848000e-01,
488,2.604000e-02,3.744000e-01,
489,2.418000e-02,3.744000e-01,
490,2.604000e-02,3.640000e-01,
491,2.604000e-02,3.536000e-01,
492,2.604000e-02,3.432000e-01,
493,2.790000e-02,3.328000e-01,
494,2.790000e-02,3.328000e-01,
495,2.790000e-02,3.224000e-01,
496,2.976000e-02,3.120000e-01,
497,2.790000e-02,3.120000e-01,
498,2.976000e-02,2.912000e-01,
499,2.976000e-02,2.912000e-01,
500,3.162000e-02,2.808000e-01,
501,2.976000e-02,2.704000e-01,
502,3.162000e-02,2.600000e-01,
503,3.162000e-02,2.496000e-01,
504,3.162000e-02,2.392000e-01,
505,3.162000e-02,2.288000e-01,
506,3.348000e-02,2.288000e-01,
507,3.162000e-02,2.184000e-01,
508,3.534000e-02,2.080000e-01,
509,3.348000e-02,1.976000e-01,
510,3.534000e-02,1.872000e-01,
511,3.348000e-02,1.872000e-01,
512,3.534000e-02,1.664000e-01,
513,3.534000e-02,1.664000e-01,
514,3.534000e-02,1.560000e-01,
515,3.534000e-02,1.456000e-01,
516,3.534000e-02,1.352000e-01,
517,3.720000e-02,1.248000e-01,
518,3.906000e-02,1.144000e-01,
519,3.720000e-02,1.040000e-01,
520,3.906000e-02,9.360000e-02,
521,3.906000e-02,9.360000e-02,
522,3.906000e-02,8.320000e-02,
523,3.906000e-02,7.280000e-02,
524,4.092000e-02,6.240000e-02,
525,3.906000e-02,5.200000e-02,
526,3.906000e-02,4.160000e-02,
527,4.092000e-02,3.120000e-02,
528,4.092000e-02,2.080000e-02,
529,4.092000e-02,2.080000e-02,
530,4.092000e-02,0.000000e+00,
531,4.092000e-02,0.000000e+00,
532,4.278000e-02,-1.040000e-02,
533,4.278000e-02,-2.080000e-02,
534,4.278000e-02,-3.120000e-02,
535,4.278000e-02,-4.160000e-02,
536,4.464000e-02,-5.200000e-02,
537,4.278000e-02,-6.240000e-02,
538,4.464000e-02,-7.280000e-02,
539,4.464000e-02,-7.280000e-02,
540,4.464000e-02,-9.360000e-02,
541,4.464000e-02,-9.360000e-02,
542,4.464000e-02,-1.040000e-01,
543,4.650000e-02,-1.144000e-01,
544,4.650000e-02,-1.248000e-01,
545,4.650000e-02,-1.352000e-01,
546,4.650000e-02,-1.456000e-01,
547,4.650000e-02,-1.456000e-01,
548,4.650000e-02,-1.664000e-01,
549,4.836000e-02,-1.664000e-01,
550,4.836000e-02,-1.768000e-01,
551,4.650000e-02,-1.872000e-01,
552,4.650000e-02,-2.080000e-01,
553,4.650000e-02,-2.080000e-01,
554,4.836000e-02,-2.184000e-01,
555,4.836000e-02,-2.288000e-01,
556,4.836000e-02,-2.392000e-01,
557,5.022000e-02,-2.496000e-01,
558,4.836000e-02,-2.600000e-01,
559,4.836000e-02,-2.600000e-01,
560,5.022000e-02,-2.704000e-01,
561,4.836000e-02,-2.808000e-01,
562,5.022000e-02,-2.912000e-01,
563,4.836000e-02,-3.016000e-01,
564,5.022000e-02,-3.120000e-01,
565,5.022000e-02,-3.224000e-01,
566,5.022000e-02,-3.328000e-01,
567,5.022000e-02,-3.328000e-01,
568,5.022000e-02,-3.432000e-01,
569,5.208000e-02,-3.536000e-01,
570,5.022000e-02,-3.640000e-01,
571,5.208000e-02,-3.744000e-01,
572,5.022000e-02,-3.848000e-01,
573,5.208000e-02,-3.848000e-01,
574,5.022000e-02,-3.952000e-01,
575,5.208000e-02,-4.056000e-01,
576,5.208000e-02,-4.160000e-01,
577,5.208000e-02,-4.160000e-01,
578,5.208000e-02,-4.264000e-01,
579,5.208000e-02,-4.368000e-01,
580,5.208000e-02,-4.472000e-01,
581,5.208000e-02,-4.576000e-01,
582,5.208000e-02,-4.680000e-01,
583,5.394000e-02,-4.680000e-01,
584,5.208000e-02,-4.888000e-01,
585,5.394000e-02,-4.784000e-01,
586,5.394000e-02,-4.992000e-01,
587,5.208000e-02,-5.096000e-01,
588,5.208000e-02,-5.200000e-01,
589,5.394000e-02,-5.200000e-01,
590,5.394000e-02,-5.304000e-01,
591,5.208000e-02,-5.408000e-01,
592,5.208000e-02,-5.512000e-01,
593,5.208000e-02,-5.512000e-01,
594,5.394000e-02,-5.616000e-01,
595,5.208000e-02,-5.720000e-01,
596,5.394000e-02,-5.720000e-01,
597,5.208000e-02,-5.824000e-01,
598,5.394000e-02,-5.928000e-01,
599,5.208000e-02,-6.032000e-01,
600,5.394000e-02,-6.032000e-01,
601,5.208000e-02,-6.136000e-01,
602,5.394000e-02,-6.240000e-01,
603,5.394000e-02,-6.240000e-01,
604,5.208000e-02,-6.344000e-01,
605,5.208000e-02,-6.448000e-01,
606,5.208000e-02,-6.552000e-01,
607,5.208000e-02,-6.448000e-01,
608,5.208000e-02,-6.656000e-01,
609,5.208000e-02,-6.760000e-01,
610,5.394000e-02,-6.760000e-01,
611,5.208000e-02,-6.864000e-01,
612,5.208000e-02,-6.864000e-01,
613,5.394000e-02,-6.968000e-01,
614,5.208000e-02,-7.072000e-01,
615,5.208000e-02,-7.072000e-01,
616,5.208000e-02,-7.176000e-01,
617,5.208000e-02,-7.176000e-01,
618,5.208000e-02,-7.280000e-01,
619,5.208000e-02,-7.384000e-01,
620,5.208000e-02,-7.384000e-01,
621,5.022000e-02,-7.488000e-01,
622,5.208000e-02,-7.592000e-01,
623,5.022000e-02,-7.488000e-01,
624,5.022000e-02,-7.696000e-01,
625,5.022000e-02,-7.696000e-01,
