parte2/esp10/Data/d4/f2/2.csv

X,CH1,CH2,Start,Increment,
Sequence,Volt,Volt,2.250300e-04,1.570000e-08,
0,8.280000e-02,1.360000e-03,
1,8.280000e-02,1.360000e-03,
2,8.280000e-02,1.360000e-03,
3,8.280000e-02,1.360000e-03,
4,8.190000e-02,1.360000e-03,
5,8.280000e-02,1.700000e-03,
6,8.190000e-02,1.360000e-03,
7,8.190000e-02,1.360000e-03,
8,8.190000e-02,1.700000e-03,
9,8.190000e-02,1.360000e-03,
10,8.190000e-02,1.360000e-03,
11,8.190000e-02,1.020000e-03,
12,8.190000e-02,6.800001e-04,
13,8.190000e-02,1.020000e-03,
14,8.190000e-02,1.020000e-03,
15,8.190000e-02,6.800001e-04,
16,8.100000e-02,1.020000e-03,
17,8.100000e-02,1.020000e-03,
18,8.010001e-02,6.800001e-04,
19,8.100000e-02,6.800001e-04,
20,7.920001e-02,1.360000e-03,
21,7.920001e-02,1.020000e-03,
22,7.830001e-02,1.700000e-03,
23,7.830001e-02,1.360000e-03,
24,7.740001e-02,6.800001e-04,
25,7.830001e-02,6.800001e-04,
26,7.650001e-02,1.020000e-03,
27,7.740001e-02,1.020000e-03,
28,7.650001e-02,1.020000e-03,
29,7.560001e-02,1.020000e-03,
30,7.560001e-02,0.000000e+00,
31,7.470001e-02,3.400000e-04,
32,7.380001e-02,3.400000e-04,
33,7.380001e-02,0.000000e+00,
34,7.380001e-02,1.020000e-03,
35,7.290000e-02,6.800001e-04,
36,7.200000e-02,6.800001e-04,
37,7.200000e-02,1.020000e-03,
38,7.110000e-02,0.000000e+00,
39,7.020000e-02,-3.400000e-04,
40,6.930000e-02,6.800001e-04,
41,6.930000e-02,3.400000e-04,
42,6.750000e-02,6.800001e-04,
43,6.750000e-02,1.020000e-03,
44,6.570000e-02,6.800001e-04,
45,6.570000e-02,1.020000e-03,
46,6.390000e-02,3.400000e-04,
47,6.390000e-02,6.800001e-04,
48,6.210000e-02,3.400000e-04,
49,6.210000e-02,6.800001e-04,
50,6.120000e-02,6.800001e-04,
51,6.120000e-02,3.400000e-04,
52,6.030000e-02,0.000000e+00,
53,6.030000e-02,3.400000e-04,
54,5.850000e-02,-3.400000e-04,
55,5.850000e-02,0.000000e+00,
56,5.670000e-02,6.800001e-04,
57,5.670000e-02,3.400000e-04,
58,5.490000e-02,1.020000e-03,
59,5.400000e-02,1.360000e-03,
60,5.220000e-02,1.020000e-03,
61,5.220000e-02,1.020000e-03,
62,5.040000e-02,6.800001e-04,
63,4.950000e-02,1.020000e-03,
64,4.770000e-02,6.800001e-04,
65,4.860000e-02,3.400000e-04,
66,4.590000e-02,3.400000e-04,
67,4.590000e-02,3.400000e-04,
68,4.410000e-02,0.000000e+00,
69,4.410000e-02,6.800001e-04,
70,4.230000e-02,3.400000e-04,
71,4.140000e-02,-3.400000e-04,
72,3.960000e-02,-6.800001e-04,
73,3.960000e-02,-3.400000e-04,
74,3.870000e-02,-3.400000e-04,
75,3.780000e-02,0.000000e+00,
76,3.690000e-02,0.000000e+00,
77,3.600000e-02,-3.400000e-04,
78,3.420000e-02,3.400000e-04,
79,3.420000e-02,0.000000e+00,
80,3.150000e-02,6.800001e-04,
81,3.240000e-02,1.020000e-03,
82,2.970000e-02,3.400000e-04,
83,2.970000e-02,6.800001e-04,
84,2.700000e-02,-3.400000e-04,
85,2.700000e-02,-6.800001e-04,
86,2.520000e-02,0.000000e+00,
87,2.430000e-02,0.000000e+00,
88,2.160000e-02,-3.400000e-04,
89,2.250000e-02,-3.400000e-04,
90,1.980000e-02,-6.800001e-04,
91,1.980000e-02,-6.800001e-04,
92,1.800000e-02,-6.800001e-04,
93,1.800000e-02,-1.020000e-03,
94,1.620000e-02,-1.360000e-03,
95,1.620000e-02,-1.020000e-03,
96,1.350000e-02,-1.020000e-03,
97,1.350000e-02,-6.800001e-04,
98,1.080000e-02,0.000000e+00,
99,1.080000e-02,-3.400000e-04,
100,8.100000e-03,-3.400000e-04,
101,8.100000e-03,-6.800001e-04,
102,5.400000e-03,-3.400000e-04,
103,6.300000e-03,0.000000e+00,
104,3.600000e-03,-3.400000e-04,
105,3.600000e-03,0.000000e+00,
106,1.800000e-03,-1.360000e-03,
107,1.800000e-03,-1.020000e-03,
108,-1.800000e-03,-1.360000e-03,
109,-1.800000e-03,-1.020000e-03,
110,-3.600000e-03,-1.020000e-03,
111,-3.600000e-03,-6.800001e-04,
112,-7.200000e-03,-1.020000e-03,
113,-7.200000e-03,-6.800001e-04,
114,-9.000001e-03,-1.020000e-03,
115,-9.000001e-03,-6.800001e-04,
116,-1.170000e-02,-6.800001e-04,
117,-1.170000e-02,-1.360000e-03,
118,-1.440000e-02,-6.800001e-04,
119,-1.440000e-02,-6.800001e-04,
120,-1.620000e-02,-6.800001e-04,
121,-1.620000e-02,-3.400000e-04,
122,-1.980000e-02,-6.800001e-04,
123,-1.980000e-02,-1.020000e-03,
124,-2.070000e-02,-1.360000e-03,
125,-2.070000e-02,-1.020000e-03,
126,-2.340000e-02,-1.360000e-03,
127,-2.340000e-02,-1.020000e-03,
128,-2.610000e-02,-1.020000e-03,
129,-2.610000e-02,-1.360000e-03,
130,-2.790000e-02,-1.360000e-03,
131,-2.790000e-02,-1.020000e-03,
132,-3.060000e-02,-1.360000e-03,
133,-3.060000e-02,-1.360000e-03,
134,-3.240000e-02,-6.800001e-04,
135,-3.330000e-02,-6.800001e-04,
136,-3.420000e-02,-1.360000e-03,
137,-3.510000e-02,-1.360000e-03,
138,-3.600000e-02,-1.360000e-03,
139,-3.600000e-02,-1.700000e-03,
140,-3.870000e-02,-6.800001e-04,
141,-3.960000e-02,-6.800001e-04,
142,-4.140000e-02,-1.020000e-03,
143,-4.140000e-02,-6.800001e-04,
144,-4.320000e-02,-1.360000e-03,
145,-4.410000e-02,-1.020000e-03,
146,-4.590000e-02,-3.400000e-04,
147,-4.500000e-02,-6.800001e-04,
148,-4.770000e-02,-6.800001e-04,
149,-4.770000e-02,-6.800001e-04,
150,-4.950000e-02,-1.020000e-03,
151,-4.950000e-02,-6.800001e-04,
152,-5.130000e-02,-1.020000e-03,
153,-5.220000e-02,-6.800001e-04,
154,-5.310000e-02,-1.360000e-03,
155,-5.400000e-02,-1.020000e-03,
156,-5.490000e-02,-1.700000e-03,
157,-5.580000e-02,-1.020000e-03,
158,-5.760000e-02,-1.020000e-03,
159,-5.670000e-02,-3.400000e-04,
160,-5.940000e-02,-1.360000e-03,
161,-5.940000e-02,-1.020000e-03,
162,-6.120000e-02,-1.360000e-03,
163,-6.030000e-02,-1.020000e-03,
164,-6.210000e-02,-6.800001e-04,
165,-6.210000e-02,-3.400000e-04,
166,-6.300000e-02,-2.040000e-03,
167,-6.390000e-02,-1.700000e-03,
168,-6.480000e-02,-1.700000e-03,
169,-6.570000e-02,-1.700000e-03,
170,-6.660000e-02,-6.800001e-04,
171,-6.660000e-02,-1.020000e-03,
172,-6.840000e-02,-1.020000e-03,
173,-6.750000e-02,-1.020000e-03,
174,-6.930000e-02,-1.020000e-03,
175,-6.930000e-02,-6.800001e-04,
176,-7.020000e-02,-1.360000e-03,
177,-7.020000e-02,-1.360000e-03,
178,-7.200000e-02,-1.700000e-03,
179,-7.200000e-02,-2.040000e-03,
180,-7.290000e-02,-1.020000e-03,
181,-7.380001e-02,-6.800001e-04,
182,-7.470001e-02,-1.020000e-03,
183,-7.470001e-02,-6.800001e-04,
184,-7.560001e-02,-1.700000e-03,
185,-7.470001e-02,-2.040000e-03,
186,-7.560001e-02,-1.700000e-03,
187,-7.560001e-02,-1.360000e-03,
188,-7.650001e-02,-1.700000e-03,
189,-7.650001e-02,-2.040000e-03,
190,-7.740001e-02,-1.360000e-03,
191,-7.740001e-02,-1.700000e-03,
192,-7.830001e-02,-1.360000e-03,
193,-7.830001e-02,-1.700000e-03,
194,-8.010001e-02,-6.800001e-04,
195,-7.920001e-02,-6.800001e-04,
196,-8.010001e-02,-6.800001e-04,
197,-8.010001e-02,-3.400000e-04,
198,-8.010001e-02,-1.360000e-03,
199,-8.010001e-02,-1.020000e-03,
200,-8.010001e-02,-1.020000e-03,
201,-8.100000e-02,-1.700000e-03,
202,-8.100000e-02,-1.360000e-03,
203,-8.190000e-02,-6.800001e-04,
204,-8.190000e-02,-6.800001e-04,
205,-8.190000e-02,-6.800001e-04,
206,-8.190000e-02,-1.020000e-03,
207,-8.190000e-02,-1.360000e-03,
208,-8.190000e-02,-1.360000e-03,
209,-8.190000e-02,-1.020000e-03,
210,-8.190000e-02,-3.400000e-04,
211,-8.280000e-02,0.000000e+00,
212,-8.190000e-02,0.000000e+00,
213,-8.190000e-02,-3.400000e-04,
214,-8.190000e-02,-1.020000e-03,
215,-8.280000e-02,-1.020000e-03,
216,-8.190000e-02,-1.020000e-03,
217,-8.280000e-02,-6.800001e-04,
218,-8.190000e-02,-1.020000e-03,
219,-8.190000e-02,-3.400000e-04,
220,-8.190000e-02,-1.360000e-03,
221,-8.190000e-02,-1.020000e-03,
222,-8.190000e-02,-1.020000e-03,
223,-8.100000e-02,-1.360000e-03,
224,-8.100000e-02,-6.800001e-04,
225,-8.010001e-02,-3.400000e-04,
226,-8.010001e-02,-6.800001e-04,
227,-8.010001e-02,-3.400000e-04,
228,-8.010001e-02,-6.800001e-04,
229,-8.100000e-02,-3.400000e-04,
230,-7.920001e-02,-6.800001e-04,
231,-8.010001e-02,-1.020000e-03,
232,-7.830001e-02,-3.400000e-04,
233,-7.830001e-02,0.000000e+00,
234,-7.830001e-02,0.000000e+00,
235,-7.830001e-02,0.000000e+00,
236,-7.740001e-02,-6.800001e-04,
237,-7.740001e-02,-1.020000e-03,
238,-7.650001e-02,-6.800001e-04,
239,-7.650001e-02,-1.020000e-03,
240,-7.560001e-02,-3.400000e-04,
241,-7.560001e-02,0.000000e+00,
242,-7.470001e-02,0.000000e+00,
243,-7.470001e-02,3.400000e-04,
244,-7.380001e-02,-3.400000e-04,
245,-7.380001e-02,0.000000e+00,
246,-7.290000e-02,-3.400000e-04,
247,-7.200000e-02,-6.800001e-04,
248,-7.200000e-02,-3.400000e-04,
249,-7.110000e-02,-3.400000e-04,
250,-7.020000e-02,0.000000e+00,
251,-7.020000e-02,-3.400000e-04,
252,-6.930000e-02,3.400000e-04,
253,-6.840000e-02,0.000000e+00,
254,-6.750000e-02,-3.400000e-04,
255,-6.750000e-02,0.000000e+00,
256,-6.570000e-02,-3.400000e-04,
257,-6.570000e-02,0.000000e+00,
258,-6.390000e-02,-3.400000e-04,
259,-6.390000e-02,0.000000e+00,
260,-6.210000e-02,-6.800001e-04,
261,-6.210000e-02,-6.800001e-04,
262,-6.030000e-02,-6.800001e-04,
263,-6.120000e-02,-3.400000e-04,
264,-5.940000e-02,3.400000e-04,
265,-5.850000e-02,6.800001e-04,
266,-5.760000e-02,1.020000e-03,
267,-5.760000e-02,3.400000e-04,
268,-5.670000e-02,3.400000e-04,
269,-5.670000e-02,-3.400000e-04,
270,-5.490000e-02,3.400000e-04,
271,-5.400000e-02,-3.400000e-04,
272,-5.220000e-02,1.020000e-03,
273,-5.220000e-02,6.800001e-04,
274,-5.040000e-02,0.000000e+00,
275,-5.040000e-02,-3.400000e-04,
276,-4.770000e-02,-6.800001e-04,
277,-4.770000e-02,-6.800001e-04,
278,-4.500000e-02,0.000000e+00,
279,-4.500000e-02,0.000000e+00,
280,-4.410000e-02,-3.400000e-04,
281,-4.410000e-02,-3.400000e-04,
282,-4.140000e-02,0.000000e+00,
283,-4.230000e-02,3.400000e-04,
284,-3.960000e-02,1.020000e-03,
285,-3.960000e-02,6.800001e-04,
286,-3.780000e-02,6.800001e-04,
287,-3.780000e-02,6.800001e-04,
288,-3.600000e-02,6.800001e-04,
289,-3.510000e-02,3.400000e-04,
290,-3.330000e-02,3.400000e-04,
291,-3.330000e-02,3.400000e-04,
292,-3.150000e-02,3.400000e-04,
293,-3.150000e-02,6.800001e-04,
294,-2.880000e-02,1.020000e-03,
295,-2.880000e-02,1.360000e-03,
296,-2.610000e-02,6.800001e-04,
297,-2.700000e-02,3.400000e-04,
298,-2.430000e-02,3.400000e-04,
299,-2.430000e-02,0.000000e+00,
300,-2.160000e-02,3.400000e-04,
301,-2.160000e-02,6.800001e-04,
302,-1.980000e-02,1.360000e-03,
303,-1.890000e-02,1.020000e-03,
304,-1.710000e-02,1.700000e-03,
305,-1.710000e-02,1.360000e-03,
306,-1.440000e-02,1.360000e-03,
307,-1.530000e-02,6.800001e-04,
308,-1.350000e-02,1.020000e-03,
309,-1.260000e-02,6.800001e-04,
310,-1.080000e-02,1.700000e-03,
311,-1.080000e-02,1.360000e-03,
312,-9.000001e-03,1.360000e-03,
313,-8.100000e-03,1.700000e-03,
314,-5.400000e-03,1.020000e-03,
315,-5.400000e-03,1.360000e-03,
316,-1.800000e-03,1.020000e-03,
317,-1.800000e-03,1.360000e-03,
318,0.000000e+00,1.020000e-03,
319,0.000000e+00,6.800001e-04,
320,3.600000e-03,1.020000e-03,
321,3.600000e-03,1.020000e-03,
322,5.400000e-03,1.020000e-03,
323,4.500000e-03,6.800001e-04,
324,8.100000e-03,1.360000e-03,
325,7.200000e-03,1.700000e-03,
326,9.000001e-03,2.380000e-03,
327,9.900001e-03,2.040000e-03,
328,1.170000e-02,2.040000e-03,
329,1.260000e-02,1.700000e-03,
330,1.440000e-02,1.360000e-03,
331,1.440000e-02,1.700000e-03,
332,1.620000e-02,1.360000e-03,
333,1.710000e-02,1.700000e-03,
334,1.980000e-02,1.020000e-03,
335,1.890000e-02,1.020000e-03,
336,2.160000e-02,6.800001e-04,
337,2.160000e-02,6.800001e-04,
338,2.430000e-02,1.020000e-03,
339,2.430000e-02,1.360000e-03,
340,2.610000e-02,1.020000e-03,
341,2.610000e-02,1.360000e-03,
342,2.880000e-02,1.700000e-03,
343,2.880000e-02,1.360000e-03,
344,3.150000e-02,2.040000e-03,
345,3.150000e-02,2.040000e-03,
346,3.330000e-02,1.360000e-03,
347,3.330000e-02,1.700000e-03,
348,3.510000e-02,1.360000e-03,
349,3.510000e-02,1.700000e-03,
350,3.690000e-02,1.700000e-03,
351,3.690000e-02,1.700000e-03,
352,3.960000e-02,1.360000e-03,
353,3.960000e-02,1.020000e-03,
354,4.140000e-02,2.040000e-03,
355,4.140000e-02,2.380000e-03,
356,4.410000e-02,1.700000e-03,
357,4.410000e-02,2.040000e-03,
358,4.680000e-02,6.800001e-04,
359,4.680000e-02,3.400000e-04,
360,4.770000e-02,6.800001e-04,
361,4.860000e-02,3.400000e-04,
362,5.040000e-02,1.360000e-03,
363,4.950000e-02,1.360000e-03,
364,5.130000e-02,2.040000e-03,
365,5.220000e-02,1.700000e-03,
366,5.310000e-02,2.040000e-03,
367,5.310000e-02,2.380000e-03,
368,5.490000e-02,1.360000e-03,
369,5.580000e-02,1.700000e-03,
370,5.670000e-02,2.380000e-03,
371,5.760000e-02,1.700000e-03,
372,5.850000e-02,2.040000e-03,
373,5.940000e-02,1.700000e-03,
374,6.120000e-02,6.800001e-04,
375,6.120000e-02,1.020000e-03,
376,6.300000e-02,1.020000e-03,
377,6.300000e-02,1.020000e-03,
378,6.390000e-02,1.700000e-03,
379,6.390000e-02,1.700000e-03,
380,6.570000e-02,2.040000e-03,
381,6.570000e-02,1.700000e-03,
382,6.750000e-02,1.700000e-03,
383,6.750000e-02,1.700000e-03,
384,6.840000e-02,2.040000e-03,
385,6.840000e-02,2.380000e-03,
386,7.020000e-02,2.380000e-03,
387,6.930000e-02,2.720000e-03,
388,7.110000e-02,2.380000e-03,
389,7.020000e-02,2.040000e-03,
390,7.200000e-02,1.700000e-03,
391,7.200000e-02,1.360000e-03,
392,7.380001e-02,1.360000e-03,
393,7.290000e-02,1.700000e-03,
394,7.470001e-02,1.360000e-03,
395,7.470001e-02,1.700000e-03,
396,7.560001e-02,1.020000e-03,
397,7.560001e-02,1.360000e-03,
398,7.650001e-02,1.360000e-03,
399,7.650001e-02,1.020000e-03,
400,7.740001e-02,1.700000e-03,
401,7.740001e-02,2.040000e-03,
402,7.830001e-02,2.380000e-03,
403,7.830001e-02,2.380000e-03,
404,7.920001e-02,1.700000e-03,
405,7.920001e-02,1.360000e-03,
406,8.010001e-02,2.040000e-03,
407,8.010001e-02,1.700000e-03,
408,8.100000e-02,2.040000e-03,
409,8.010001e-02,2.380000e-03,
410,8.100000e-02,1.700000e-03,
411,8.010001e-02,1.700000e-03,
412,8.100000e-02,1.700000e-03,
413,8.100000e-02,1.360000e-03,
414,8.190000e-02,2.040000e-03,
415,8.190000e-02,1.700000e-03,
416,8.280000e-02,2.040000e-03,
417,8.190000e-02,2.040000e-03,
418,8.280000e-02,1.360000e-03,
419,8.280000e-02,1.360000e-03,
420,8.280000e-02,6.800001e-04,
421,8.280000e-02,1.020000e-03,
422,8.280000e-02,1.020000e-03,
423,8.280000e-02,1.020000e-03,
424,8.280000e-02,1.700000e-03,
425,8.280000e-02,1.700000e-03,
426,8.280000e-02,1.360000e-03,
427,8.280000e-02,1.360000e-03,
428,8.190000e-02,6.800001e-04,
429,8.190000e-02,3.400000e-04,
430,8.280000e-02,1.360000e-03,
431,8.190000e-02,1.700000e-03,
432,8.190000e-02,1.700000e-03,
433,8.190000e-02,2.380000e-03,
434,8.190000e-02,1.700000e-03,
435,8.190000e-02,1.360000e-03,
436,8.190000e-02,1.360000e-03,
437,8.100000e-02,1.360000e-03,
438,8.100000e-02,1.020000e-03,
439,8.100000e-02,1.360000e-03,
440,8.100000e-02,1.360000e-03,
441,8.100000e-02,2.040000e-03,
442,8.100000e-02,1.700000e-03,
443,8.010001e-02,1.360000e-03,
444,7.920001e-02,3.400000e-04,
445,8.010001e-02,6.800001e-04,
446,7.920001e-02,1.360000e-03,
447,7.920001e-02,1.360000e-03,
448,7.830001e-02,1.360000e-03,
449,7.740001e-02,1.700000e-03,
450,7.740001e-02,6.800001e-04,
451,7.740001e-02,3.400000e-04,
452,7.650001e-02,3.400000e-04,
453,7.560001e-02,3.400000e-04,
454,7.470001e-02,6.800001e-04,
455,7.560001e-02,1.020000e-03,
456,7.380001e-02,6.800001e-04,
457,7.380001e-02,6.800001e-04,
458,7.290000e-02,1.020000e-03,
459,7.290000e-02,6.800001e-04,
460,7.200000e-02,1.020000e-03,
461,7.200000e-02,1.360000e-03,
462,7.110000e-02,1.360000e-03,
463,7.110000e-02,1.020000e-03,
464,7.020000e-02,6.800001e-04,
465,6.930000e-02,3.400000e-04,
466,6.840000e-02,0.000000e+00,
467,6.840000e-02,-3.400000e-04,
468,6.660000e-02,3.400000e-04,
469,6.660000e-02,3.400000e-04,
470,6.480000e-02,1.020000e-03,
471,6.480000e-02,1.360000e-03,
472,6.300000e-02,1.020000e-03,
473,6.300000e-02,6.800001e-04,
474,6.210000e-02,6.800001e-04,
475,6.210000e-02,1.020000e-03,
476,6.030000e-02,6.800001e-04,
477,6.030000e-02,6.800001e-04,
478,5.760000e-02,6.800001e-04,
479,5.850000e-02,6.800001e-04,
480,5.670000e-02,3.400000e-04,
481,5.670000e-02,3.400000e-04,
482,5.490000e-02,0.000000e+00,
483,5.490000e-02,-3.400000e-04,
484,5.310000e-02,0.000000e+00,
485,5.310000e-02,3.400000e-04,
486,5.130000e-02,0.000000e+00,
487,5.130000e-02,3.400000e-04,
488,4.950000e-02,-3.400000e-04,
489,4.950000e-02,0.000000e+00,
490,4.680000e-02,0.000000e+00,
491,4.680000e-02,6.800001e-04,
492,4.500000e-02,3.400000e-04,
493,4.500000e-02,6.800001e-04,
494,4.320000e-02,6.800001e-04,
495,4.320000e-02,1.020000e-03,
496,4.140000e-02,3.400000e-04,
497,4.140000e-02,3.400000e-04,
498,3.870000e-02,-3.400000e-04,
499,3.780000e-02,0.000000e+00,
500,3.690000e-02,6.800001e-04,
501,3.600000e-02,3.400000e-04,
502,3.510000e-02,6.800001e-04,
503,3.510000e-02,3.400000e-04,
504,3.240000e-02,-6.800001e-04,
505,3.240000e-02,-1.020000e-03,
506,3.060000e-02,-6.800001e-04,
507,2.970000e-02,-3.400000e-04,
508,2.790000e-02,-3.400000e-04,
509,2.790000e-02,0.000000e+00,
510,2.610000e-02,0.000000e+00,
511,2.520000e-02,0.000000e+00,
512,2.340000e-02,-6.800001e-04,
513,2.250000e-02,-3.400000e-04,
514,2.070000e-02,-6.800001e-04,
515,2.070000e-02,-3.400000e-04,
516,1.800000e-02,-3.400000e-04,
517,1.800000e-02,-3.400000e-04,
518,1.620000e-02,0.000000e+00,
519,1.620000e-02,-3.400000e-04,
520,1.350000e-02,-1.020000e-03,
521,1.350000e-02,-6.800001e-04,
522,1.080000e-02,-6.800001e-04,
523,1.080000e-02,-3.400000e-04,
524,9.000001e-03,0.000000e+00,
525,9.000001e-03,-6.800001e-04,
526,7.200000e-03,-1.020000e-03,
527,7.200000e-03,-1.020000e-03,
528,5.400000e-03,-6.800001e-04,
529,5.400000e-03,-6.800001e-04,
530,1.800000e-03,-3.400000e-04,
531,9.000000e-04,0.000000e+00,
532,-9.000000e-04,0.000000e+00,
533,-9.000000e-04,3.400000e-04,
534,-4.500000e-03,0.000000e+00,
535,-4.500000e-03,-3.400000e-04,
536,-6.300000e-03,-6.800001e-04,
537,-6.300000e-03,-1.020000e-03,
538,-8.100000e-03,-6.800001e-04,
539,-8.100000e-03,-1.020000e-03,
540,-1.170000e-02,-6.800001e-04,
541,-1.080000e-02,-1.020000e-03,
542,-1.350000e-02,-1.700000e-03,
543,-1.260000e-02,-1.360000e-03,
544,-1.530000e-02,-2.040000e-03,
545,-1.620000e-02,-1.360000e-03,
546,-1.800000e-02,-1.020000e-03,
547,-1.800000e-02,-6.800001e-04,
548,-2.070000e-02,-1.020000e-03,
549,-1.980000e-02,-1.360000e-03,
550,-2.250000e-02,-1.360000e-03,
551,-2.250000e-02,-1.700000e-03,
552,-2.430000e-02,-6.800001e-04,
553,-2.430000e-02,-3.400000e-04,
554,-2.790000e-02,-6.800001e-04,
555,-2.700000e-02,-6.800001e-04,
556,-2.970000e-02,-1.360000e-03,
557,-2.970000e-02,-1.020000e-03,
558,-3.240000e-02,-1.020000e-03,
559,-3.240000e-02,-1.700000e-03,
560,-3.510000e-02,-6.800001e-04,
561,-3.510000e-02,-3.400000e-04,
562,-3.600000e-02,-3.400000e-04,
563,-3.600000e-02,0.000000e+00,
564,-3.870000e-02,-1.360000e-03,
565,-3.870000e-02,-1.360000e-03,
566,-4.050000e-02,-1.700000e-03,
567,-4.050000e-02,-1.700000e-03,
568,-4.230000e-02,-1.700000e-03,
569,-4.230000e-02,-1.360000e-03,
570,-4.500000e-02,-6.800001e-04,
571,-4.500000e-02,-1.020000e-03,
572,-4.680000e-02,-6.800001e-04,
573,-4.680000e-02,-1.020000e-03,
574,-4.950000e-02,-1.020000e-03,
575,-4.950000e-02,-1.020000e-03,
576,-5.130000e-02,-6.800001e-04,
577,-5.130000e-02,-6.800001e-04,
578,-5.310000e-02,-1.020000e-03,
579,-5.220000e-02,-1.020000e-03,
580,-5.400000e-02,-1.700000e-03,
581,-5.490000e-02,-2.040000e-03,
582,-5.580000e-02,-1.700000e-03,
583,-5.670000e-02,-1.360000e-03,
584,-5.760000e-02,-1.360000e-03,
585,-5.760000e-02,-1.020000e-03,
586,-6.030000e-02,-1.360000e-03,
587,-5.940000e-02,-1.700000e-03,
588,-6.120000e-02,-1.360000e-03,
589,-6.120000e-02,-1.020000e-03,
590,-6.300000e-02,-1.020000e-03,
591,-6.300000e-02,-1.020000e-03,
592,-6.480000e-02,-1.020000e-03,
593,-6.480000e-02,-6.800001e-04,
594,-6.660000e-02,-6.800001e-04,
595,-6.660000e-02,-1.020000e-03,
596,-6.840000e-02,-1.700000e-03,
597,-6.840000e-02,-1.360000e-03,
598,-6.930000e-02,-1.360000e-03,
599,-6.930000e-02,-1.020000e-03,
600,-7.020000e-02,-1.020000e-03,
601,-7.020000e-02,-1.360000e-03,
602,-7.200000e-02,-2.040000e-03,
603,-7.200000e-02,-1.700000e-03,
604,-7.290000e-02,-1.700000e-03,
605,-7.290000e-02,-1.360000e-03,
606,-7.380001e-02,-6.800001e-04,
607,-7.380001e-02,-6.800001e-04,
608,-7.560001e-02,-1.020000e-03,
609,-7.470001e-02,-1.020000e-03,
610,-7.560001e-02,-1.360000e-03,
611,-7.560001e-02,-1.700000e-03,
612,-7.650001e-02,-1.360000e-03,
613,-7.650001e-02,-1.700000e-03,
614,-7.740001e-02,-1.020000e-03,
615,-7.740001e-02,-6.800001e-04,
616,-7.920001e-02,-6.800001e-04,
617,-7.920001e-02,-3.400000e-04,
618,-7.920001e-02,-1.360000e-03,
619,-7.920001e-02,-1.020000e-03,
620,-8.010001e-02,-1.360000e-03,
621,-8.010001e-02,-1.020000e-03,
622,-8.010001e-02,-3.400000e-04,
623,-8.010001e-02,-6.800001e-04,
624,-8.100000e-02,-1.360000e-03,
625,-8.100000e-02,-1.700000e-03,
626,-8.100000e-02,-2.040000e-03,
