parte2/esp10/Data/d4/f2/4.csv

X,CH1,CH2,Start,Increment,
Sequence,Volt,Volt,2.250300e-04,1.570000e-08,
0,8.370000e-02,1.360000e-03,
1,8.280000e-02,1.360000e-03,
2,8.370000e-02,1.360000e-03,
3,8.280000e-02,1.360000e-03,
4,8.280000e-02,2.720000e-03,
5,8.280000e-02,2.380000e-03,
6,8.190000e-02,2.720000e-03,
7,8.190000e-02,2.380000e-03,
8,8.190000e-02,1.700000e-03,
9,8.190000e-02,1.700000e-03,
10,8.190000e-02,2.040000e-03,
11,8.190000e-02,1.700000e-03,
12,8.190000e-02,1.700000e-03,
13,8.100000e-02,2.040000e-03,
14,8.100000e-02,1.700000e-03,
15,8.010001e-02,2.040000e-03,
16,8.010001e-02,2.040000e-03,
17,8.010001e-02,2.380000e-03,
18,7.920001e-02,2.040000e-03,
19,8.010001e-02,1.700000e-03,
20,8.010001e-02,2.040000e-03,
21,8.010001e-02,2.040000e-03,
22,7.920001e-02,2.040000e-03,
23,7.920001e-02,2.040000e-03,
24,7.830001e-02,1.360000e-03,
25,7.830001e-02,2.040000e-03,
26,7.650001e-02,1.700000e-03,
27,7.650001e-02,1.020000e-03,
28,7.470001e-02,2.720000e-03,
29,7.560001e-02,2.040000e-03,
30,7.470001e-02,2.720000e-03,
31,7.470001e-02,3.060000e-03,
32,7.380001e-02,1.360000e-03,
33,7.470001e-02,1.020000e-03,
34,7.290000e-02,1.020000e-03,
35,7.290000e-02,6.800001e-04,
36,7.110000e-02,1.700000e-03,
37,7.110000e-02,2.040000e-03,
38,7.020000e-02,1.700000e-03,
39,7.020000e-02,1.700000e-03,
40,6.930000e-02,1.360000e-03,
41,6.930000e-02,1.020000e-03,
42,6.750000e-02,2.040000e-03,
43,6.840000e-02,1.700000e-03,
44,6.570000e-02,1.360000e-03,
45,6.570000e-02,1.700000e-03,
46,6.390000e-02,1.360000e-03,
47,6.390000e-02,1.700000e-03,
48,6.300000e-02,1.360000e-03,
49,6.210000e-02,1.360000e-03,
50,6.120000e-02,1.700000e-03,
51,6.120000e-02,2.040000e-03,
52,5.940000e-02,1.700000e-03,
53,5.940000e-02,2.040000e-03,
54,5.850000e-02,1.360000e-03,
55,5.760000e-02,1.700000e-03,
56,5.670000e-02,1.360000e-03,
57,5.580000e-02,1.020000e-03,
58,5.490000e-02,1.360000e-03,
59,5.490000e-02,1.020000e-03,
60,5.220000e-02,1.020000e-03,
61,5.220000e-02,6.800001e-04,
62,5.040000e-02,6.800001e-04,
63,5.040000e-02,3.400000e-04,
64,4.860000e-02,1.360000e-03,
65,4.860000e-02,1.020000e-03,
66,4.680000e-02,1.360000e-03,
67,4.590000e-02,1.020000e-03,
68,4.500000e-02,3.400000e-04,
69,4.410000e-02,0.000000e+00,
70,4.230000e-02,0.000000e+00,
71,4.230000e-02,3.400000e-04,
72,4.050000e-02,6.800001e-04,
73,4.050000e-02,1.020000e-03,
74,3.870000e-02,3.400000e-04,
75,3.780000e-02,0.000000e+00,
76,3.600000e-02,3.400000e-04,
77,3.690000e-02,0.000000e+00,
78,3.330000e-02,1.020000e-03,
79,3.330000e-02,6.800001e-04,
80,3.150000e-02,1.020000e-03,
81,3.150000e-02,6.800001e-04,
82,2.880000e-02,3.400000e-04,
83,2.970000e-02,6.800001e-04,
84,2.790000e-02,0.000000e+00,
85,2.700000e-02,6.800001e-04,
86,2.520000e-02,0.000000e+00,
87,2.520000e-02,3.400000e-04,
88,2.250000e-02,3.400000e-04,
89,2.160000e-02,3.400000e-04,
90,2.070000e-02,6.800001e-04,
91,1.980000e-02,1.020000e-03,
92,1.800000e-02,3.400000e-04,
93,1.800000e-02,6.800001e-04,
94,1.530000e-02,6.800001e-04,
95,1.530000e-02,1.020000e-03,
96,1.350000e-02,6.800001e-04,
97,1.260000e-02,0.000000e+00,
98,9.900001e-03,-3.400000e-04,
99,1.080000e-02,0.000000e+00,
100,7.200000e-03,3.400000e-04,
101,8.100000e-03,0.000000e+00,
102,5.400000e-03,0.000000e+00,
103,6.300000e-03,6.800001e-04,
104,3.600000e-03,-1.020000e-03,
105,3.600000e-03,-1.020000e-03,
106,9.000000e-04,-3.400000e-04,
107,9.000000e-04,0.000000e+00,
108,-1.800000e-03,0.000000e+00,
109,-1.800000e-03,3.400000e-04,
110,-3.600000e-03,0.000000e+00,
111,-3.600000e-03,3.400000e-04,
112,-7.200000e-03,3.400000e-04,
113,-7.200000e-03,0.000000e+00,
114,-8.100000e-03,3.400000e-04,
115,-8.100000e-03,0.000000e+00,
116,-1.170000e-02,-3.400000e-04,
117,-1.170000e-02,-3.400000e-04,
118,-1.440000e-02,6.800001e-04,
119,-1.350000e-02,3.400000e-04,
120,-1.620000e-02,0.000000e+00,
121,-1.620000e-02,3.400000e-04,
122,-1.890000e-02,-6.800001e-04,
123,-1.890000e-02,-1.020000e-03,
124,-2.070000e-02,0.000000e+00,
125,-2.070000e-02,-3.400000e-04,
126,-2.430000e-02,-3.400000e-04,
127,-2.430000e-02,0.000000e+00,
128,-2.610000e-02,-3.400000e-04,
129,-2.520000e-02,-6.800001e-04,
130,-2.790000e-02,-3.400000e-04,
131,-2.790000e-02,-1.020000e-03,
132,-3.060000e-02,-3.400000e-04,
133,-3.060000e-02,-6.800001e-04,
134,-3.240000e-02,0.000000e+00,
135,-3.240000e-02,0.000000e+00,
136,-3.510000e-02,-3.400000e-04,
137,-3.510000e-02,0.000000e+00,
138,-3.780000e-02,-3.400000e-04,
139,-3.690000e-02,-3.400000e-04,
140,-3.960000e-02,0.000000e+00,
141,-3.870000e-02,0.000000e+00,
142,-4.230000e-02,0.000000e+00,
143,-4.140000e-02,3.400000e-04,
144,-4.320000e-02,-6.800001e-04,
145,-4.320000e-02,-3.400000e-04,
146,-4.500000e-02,-1.360000e-03,
147,-4.500000e-02,-1.700000e-03,
148,-4.680000e-02,-6.800001e-04,
149,-4.770000e-02,-1.020000e-03,
150,-4.950000e-02,-6.800001e-04,
151,-4.950000e-02,-1.020000e-03,
152,-5.130000e-02,-6.800001e-04,
153,-5.130000e-02,-1.020000e-03,
154,-5.400000e-02,6.800001e-04,
155,-5.400000e-02,3.400000e-04,
156,-5.580000e-02,0.000000e+00,
157,-5.490000e-02,6.800001e-04,
158,-5.670000e-02,-3.400000e-04,
159,-5.760000e-02,-1.020000e-03,
160,-5.940000e-02,-6.800001e-04,
161,-5.850000e-02,-3.400000e-04,
162,-6.030000e-02,0.000000e+00,
163,-6.120000e-02,-3.400000e-04,
164,-6.210000e-02,-1.700000e-03,
165,-6.210000e-02,-1.360000e-03,
166,-6.300000e-02,-1.700000e-03,
167,-6.390000e-02,-1.700000e-03,
168,-6.480000e-02,-1.020000e-03,
169,-6.390000e-02,-1.020000e-03,
170,-6.570000e-02,-1.020000e-03,
171,-6.570000e-02,-6.800001e-04,
172,-6.840000e-02,-3.400000e-04,
173,-6.750000e-02,-6.800001e-04,
174,-6.930000e-02,-6.800001e-04,
175,-6.930000e-02,-1.020000e-03,
176,-7.110000e-02,0.000000e+00,
177,-7.020000e-02,-3.400000e-04,
178,-7.110000e-02,1.020000e-03,
179,-7.200000e-02,1.020000e-03,
180,-7.290000e-02,-3.400000e-04,
181,-7.290000e-02,0.000000e+00,
182,-7.470001e-02,-1.360000e-03,
183,-7.470001e-02,-1.360000e-03,
184,-7.560001e-02,-6.800001e-04,
185,-7.560001e-02,-3.400000e-04,
186,-7.560001e-02,-1.020000e-03,
187,-7.560001e-02,-6.800001e-04,
188,-7.740001e-02,-1.360000e-03,
189,-7.650001e-02,-1.020000e-03,
190,-7.830001e-02,-6.800001e-04,
191,-7.740001e-02,-6.800001e-04,
192,-7.830001e-02,-6.800001e-04,
193,-7.830001e-02,-1.020000e-03,
194,-7.920001e-02,-6.800001e-04,
195,-7.920001e-02,-3.400000e-04,
196,-8.010001e-02,0.000000e+00,
197,-8.010001e-02,0.000000e+00,
198,-8.100000e-02,0.000000e+00,
199,-8.100000e-02,-3.400000e-04,
200,-8.100000e-02,-3.400000e-04,
201,-8.010001e-02,0.000000e+00,
202,-8.100000e-02,0.000000e+00,
203,-8.100000e-02,0.000000e+00,
204,-8.100000e-02,-3.400000e-04,
205,-8.100000e-02,-6.800001e-04,
206,-8.190000e-02,-1.020000e-03,
207,-8.190000e-02,-1.360000e-03,
208,-8.190000e-02,-1.020000e-03,
209,-8.280000e-02,-6.800001e-04,
210,-8.190000e-02,-3.400000e-04,
211,-8.280000e-02,-6.800001e-04,
212,-8.190000e-02,0.000000e+00,
213,-8.190000e-02,-3.400000e-04,
214,-8.280000e-02,-3.400000e-04,
215,-8.280000e-02,0.000000e+00,
216,-8.190000e-02,0.000000e+00,
217,-8.190000e-02,0.000000e+00,
218,-8.190000e-02,0.000000e+00,
219,-8.190000e-02,0.000000e+00,
220,-8.190000e-02,3.400000e-04,
221,-8.190000e-02,0.000000e+00,
222,-8.190000e-02,0.000000e+00,
223,-8.190000e-02,3.400000e-04,
224,-8.100000e-02,3.400000e-04,
225,-8.190000e-02,3.400000e-04,
226,-8.010001e-02,3.400000e-04,
227,-8.100000e-02,0.000000e+00,
228,-8.010001e-02,-6.800001e-04,
229,-8.010001e-02,-1.020000e-03,
230,-7.920001e-02,-3.400000e-04,
231,-7.920001e-02,-6.800001e-04,
232,-7.920001e-02,3.400000e-04,
233,-7.830001e-02,6.800001e-04,
234,-7.830001e-02,-3.400000e-04,
235,-7.740001e-02,0.000000e+00,
236,-7.740001e-02,0.000000e+00,
237,-7.740001e-02,-3.400000e-04,
238,-7.650001e-02,6.800001e-04,
239,-7.650001e-02,1.020000e-03,
240,-7.560001e-02,3.400000e-04,
241,-7.470001e-02,1.020000e-03,
242,-7.470001e-02,-3.400000e-04,
243,-7.380001e-02,3.400000e-04,
244,-7.290000e-02,6.800001e-04,
245,-7.380001e-02,3.400000e-04,
246,-7.290000e-02,6.800001e-04,
247,-7.200000e-02,3.400000e-04,
248,-7.110000e-02,1.020000e-03,
249,-7.110000e-02,6.800001e-04,
250,-7.020000e-02,6.800001e-04,
251,-7.020000e-02,3.400000e-04,
252,-6.840000e-02,3.400000e-04,
253,-6.840000e-02,0.000000e+00,
254,-6.750000e-02,0.000000e+00,
255,-6.750000e-02,3.400000e-04,
256,-6.570000e-02,0.000000e+00,
257,-6.570000e-02,6.800001e-04,
258,-6.390000e-02,0.000000e+00,
259,-6.390000e-02,3.400000e-04,
260,-6.210000e-02,6.800001e-04,
261,-6.210000e-02,3.400000e-04,
262,-6.120000e-02,0.000000e+00,
263,-6.030000e-02,3.400000e-04,
264,-5.940000e-02,0.000000e+00,
265,-5.850000e-02,0.000000e+00,
266,-5.760000e-02,1.020000e-03,
267,-5.670000e-02,6.800001e-04,
268,-5.580000e-02,1.700000e-03,
269,-5.580000e-02,1.700000e-03,
270,-5.400000e-02,6.800001e-04,
271,-5.490000e-02,1.020000e-03,
272,-5.220000e-02,6.800001e-04,
273,-5.220000e-02,1.020000e-03,
274,-5.040000e-02,1.360000e-03,
275,-5.040000e-02,1.700000e-03,
276,-4.770000e-02,1.020000e-03,
277,-4.860000e-02,1.020000e-03,
278,-4.590000e-02,0.000000e+00,
279,-4.590000e-02,3.400000e-04,
280,-4.410000e-02,3.400000e-04,
281,-4.410000e-02,1.020000e-03,
282,-4.230000e-02,1.700000e-03,
283,-4.140000e-02,1.360000e-03,
284,-3.960000e-02,1.360000e-03,
285,-4.050000e-02,1.700000e-03,
286,-3.780000e-02,1.360000e-03,
287,-3.780000e-02,1.700000e-03,
288,-3.510000e-02,1.360000e-03,
289,-3.510000e-02,6.800001e-04,
290,-3.330000e-02,1.020000e-03,
291,-3.330000e-02,1.360000e-03,
292,-3.060000e-02,1.700000e-03,
293,-3.150000e-02,2.040000e-03,
294,-2.880000e-02,1.700000e-03,
295,-2.880000e-02,1.360000e-03,
296,-2.610000e-02,1.020000e-03,
297,-2.610000e-02,6.800001e-04,
298,-2.430000e-02,1.360000e-03,
299,-2.340000e-02,1.700000e-03,
300,-2.160000e-02,1.700000e-03,
301,-2.160000e-02,1.020000e-03,
302,-1.980000e-02,1.360000e-03,
303,-1.980000e-02,6.800001e-04,
304,-1.710000e-02,1.700000e-03,
305,-1.710000e-02,1.360000e-03,
306,-1.530000e-02,1.700000e-03,
307,-1.440000e-02,1.700000e-03,
308,-1.260000e-02,2.040000e-03,
309,-1.260000e-02,2.380000e-03,
310,-9.900001e-03,2.040000e-03,
311,-9.900001e-03,1.360000e-03,
312,-8.100000e-03,1.700000e-03,
313,-8.100000e-03,1.360000e-03,
314,-5.400000e-03,2.040000e-03,
315,-5.400000e-03,2.380000e-03,
316,-1.800000e-03,2.040000e-03,
317,-1.800000e-03,2.380000e-03,
318,0.000000e+00,1.020000e-03,
319,0.000000e+00,1.020000e-03,
320,2.700000e-03,1.700000e-03,
321,2.700000e-03,2.040000e-03,
322,4.500000e-03,2.380000e-03,
323,4.500000e-03,2.720000e-03,
324,7.200000e-03,1.700000e-03,
325,8.100000e-03,2.040000e-03,
326,9.900001e-03,1.700000e-03,
327,9.900001e-03,1.700000e-03,
328,1.170000e-02,2.380000e-03,
329,1.260000e-02,2.380000e-03,
330,1.440000e-02,2.040000e-03,
331,1.440000e-02,2.040000e-03,
332,1.710000e-02,1.360000e-03,
333,1.620000e-02,1.700000e-03,
334,1.980000e-02,2.040000e-03,
335,1.980000e-02,2.380000e-03,
336,2.160000e-02,2.720000e-03,
337,2.250000e-02,2.380000e-03,
338,2.430000e-02,1.360000e-03,
339,2.430000e-02,1.020000e-03,
340,2.610000e-02,1.360000e-03,
341,2.700000e-02,1.360000e-03,
342,2.880000e-02,2.380000e-03,
343,2.880000e-02,2.720000e-03,
344,3.150000e-02,3.060000e-03,
345,3.060000e-02,3.060000e-03,
346,3.240000e-02,2.720000e-03,
347,3.240000e-02,3.060000e-03,
348,3.510000e-02,2.380000e-03,
349,3.510000e-02,2.720000e-03,
350,3.780000e-02,2.380000e-03,
351,3.780000e-02,2.380000e-03,
352,4.050000e-02,2.040000e-03,
353,4.050000e-02,2.040000e-03,
354,4.230000e-02,1.360000e-03,
355,4.230000e-02,1.700000e-03,
356,4.410000e-02,1.700000e-03,
357,4.410000e-02,1.700000e-03,
358,4.680000e-02,2.720000e-03,
359,4.590000e-02,2.720000e-03,
360,4.860000e-02,2.380000e-03,
361,4.860000e-02,2.380000e-03,
362,5.040000e-02,2.720000e-03,
363,4.950000e-02,2.380000e-03,
364,5.130000e-02,3.400000e-03,
365,5.130000e-02,3.400000e-03,
366,5.310000e-02,2.720000e-03,
367,5.310000e-02,3.060000e-03,
368,5.490000e-02,2.380000e-03,
369,5.580000e-02,2.380000e-03,
370,5.670000e-02,2.380000e-03,
371,5.760000e-02,2.720000e-03,
372,5.940000e-02,2.380000e-03,
373,5.850000e-02,2.040000e-03,
374,6.120000e-02,2.040000e-03,
375,6.030000e-02,2.380000e-03,
376,6.300000e-02,2.720000e-03,
377,6.300000e-02,2.380000e-03,
378,6.480000e-02,2.040000e-03,
379,6.480000e-02,1.700000e-03,
380,6.570000e-02,2.380000e-03,
381,6.570000e-02,2.720000e-03,
382,6.660000e-02,2.720000e-03,
383,6.660000e-02,3.060000e-03,
384,6.840000e-02,3.060000e-03,
385,6.840000e-02,2.720000e-03,
386,6.930000e-02,3.400000e-03,
387,7.020000e-02,3.060000e-03,
388,7.020000e-02,3.060000e-03,
389,7.110000e-02,3.400000e-03,
390,7.200000e-02,2.040000e-03,
391,7.200000e-02,2.380000e-03,
392,7.290000e-02,2.040000e-03,
393,7.380001e-02,2.380000e-03,
394,7.380001e-02,2.380000e-03,
395,7.470001e-02,2.040000e-03,
396,7.560001e-02,2.380000e-03,
397,7.650001e-02,2.380000e-03,
398,7.650001e-02,2.040000e-03,
399,7.740001e-02,2.380000e-03,
400,7.740001e-02,2.040000e-03,
401,7.830001e-02,1.700000e-03,
402,7.920001e-02,2.040000e-03,
403,7.830001e-02,2.040000e-03,
404,7.920001e-02,3.060000e-03,
405,7.830001e-02,3.400000e-03,
406,7.920001e-02,3.400000e-03,
407,8.010001e-02,3.740000e-03,
408,8.100000e-02,2.380000e-03,
409,8.010001e-02,2.380000e-03,
410,8.100000e-02,2.380000e-03,
411,8.100000e-02,2.040000e-03,
412,8.100000e-02,2.720000e-03,
413,8.190000e-02,3.060000e-03,
414,8.190000e-02,2.040000e-03,
415,8.280000e-02,2.040000e-03,
416,8.190000e-02,2.380000e-03,
417,8.280000e-02,2.040000e-03,
418,8.190000e-02,2.720000e-03,
419,8.280000e-02,2.380000e-03,
420,8.280000e-02,2.040000e-03,
421,8.280000e-02,1.700000e-03,
422,8.280000e-02,2.040000e-03,
423,8.280000e-02,2.380000e-03,
424,8.370000e-02,2.380000e-03,
425,8.370000e-02,2.720000e-03,
426,8.370000e-02,2.040000e-03,
427,8.280000e-02,2.040000e-03,
428,8.280000e-02,1.700000e-03,
429,8.280000e-02,2.040000e-03,
430,8.280000e-02,2.040000e-03,
431,8.280000e-02,2.380000e-03,
432,8.280000e-02,1.700000e-03,
433,8.280000e-02,2.040000e-03,
434,8.280000e-02,2.040000e-03,
435,8.190000e-02,2.040000e-03,
436,8.190000e-02,1.700000e-03,
437,8.190000e-02,1.700000e-03,
438,8.100000e-02,1.700000e-03,
439,8.190000e-02,1.360000e-03,
440,8.100000e-02,2.380000e-03,
441,8.100000e-02,2.040000e-03,
442,8.010001e-02,2.380000e-03,
443,8.010001e-02,2.040000e-03,
444,7.920001e-02,1.360000e-03,
445,7.920001e-02,1.700000e-03,
446,7.920001e-02,2.380000e-03,
447,7.920001e-02,1.700000e-03,
448,7.830001e-02,2.380000e-03,
449,7.740001e-02,2.720000e-03,
450,7.740001e-02,1.700000e-03,
451,7.740001e-02,2.040000e-03,
452,7.650001e-02,1.360000e-03,
453,7.650001e-02,1.700000e-03,
454,7.470001e-02,1.700000e-03,
455,7.560001e-02,2.040000e-03,
456,7.380001e-02,2.040000e-03,
457,7.380001e-02,1.700000e-03,
458,7.290000e-02,1.700000e-03,
459,7.290000e-02,1.360000e-03,
460,7.110000e-02,1.360000e-03,
461,7.110000e-02,1.360000e-03,
462,7.110000e-02,1.360000e-03,
463,7.020000e-02,1.700000e-03,
464,7.020000e-02,1.700000e-03,
465,6.930000e-02,2.380000e-03,
466,6.840000e-02,1.700000e-03,
467,6.840000e-02,1.700000e-03,
468,6.660000e-02,1.700000e-03,
469,6.750000e-02,1.360000e-03,
470,6.570000e-02,1.700000e-03,
471,6.480000e-02,1.360000e-03,
472,6.300000e-02,2.380000e-03,
473,6.300000e-02,1.700000e-03,
474,6.120000e-02,2.040000e-03,
475,6.120000e-02,1.700000e-03,
476,5.940000e-02,2.040000e-03,
477,5.940000e-02,1.700000e-03,
478,5.760000e-02,1.360000e-03,
479,5.760000e-02,1.360000e-03,
480,5.670000e-02,1.020000e-03,
481,5.670000e-02,1.020000e-03,
482,5.490000e-02,6.800001e-04,
483,5.490000e-02,6.800001e-04,
484,5.310000e-02,3.400000e-04,
485,5.310000e-02,0.000000e+00,
486,5.130000e-02,0.000000e+00,
487,5.130000e-02,3.400000e-04,
488,4.950000e-02,1.020000e-03,
489,4.860000e-02,1.360000e-03,
490,4.770000e-02,1.360000e-03,
491,4.770000e-02,1.020000e-03,
492,4.500000e-02,1.360000e-03,
493,4.590000e-02,1.020000e-03,
494,4.320000e-02,1.700000e-03,
495,4.320000e-02,1.360000e-03,
496,4.140000e-02,1.020000e-03,
497,4.140000e-02,1.360000e-03,
498,3.960000e-02,6.800001e-04,
499,3.870000e-02,6.800001e-04,
500,3.690000e-02,1.020000e-03,
501,3.600000e-02,1.020000e-03,
502,3.420000e-02,1.020000e-03,
503,3.420000e-02,1.360000e-03,
504,3.150000e-02,6.800001e-04,
505,3.240000e-02,6.800001e-04,
506,2.970000e-02,0.000000e+00,
507,3.060000e-02,3.400000e-04,
508,2.790000e-02,3.400000e-04,
509,2.790000e-02,0.000000e+00,
510,2.610000e-02,0.000000e+00,
511,2.610000e-02,3.400000e-04,
512,2.340000e-02,0.000000e+00,
513,2.340000e-02,3.400000e-04,
514,2.160000e-02,3.400000e-04,
515,2.070000e-02,3.400000e-04,
516,1.890000e-02,6.800001e-04,
517,1.800000e-02,1.020000e-03,
518,1.620000e-02,1.020000e-03,
519,1.620000e-02,1.360000e-03,
520,1.350000e-02,3.400000e-04,
521,1.350000e-02,6.800001e-04,
522,1.170000e-02,0.000000e+00,
523,1.080000e-02,3.400000e-04,
524,9.000001e-03,3.400000e-04,
525,9.000001e-03,6.800001e-04,
526,7.200000e-03,-3.400000e-04,
527,7.200000e-03,0.000000e+00,
528,4.500000e-03,0.000000e+00,
529,5.400000e-03,-3.400000e-04,
530,9.000000e-04,3.400000e-04,
531,9.000000e-04,0.000000e+00,
532,-9.000000e-04,6.800001e-04,
533,-9.000000e-04,6.800001e-04,
534,-3.600000e-03,6.800001e-04,
535,-4.500000e-03,3.400000e-04,
536,-6.300000e-03,0.000000e+00,
537,-6.300000e-03,0.000000e+00,
538,-8.100000e-03,3.400000e-04,
539,-8.100000e-03,0.000000e+00,
540,-1.080000e-02,-6.800001e-04,
541,-1.080000e-02,-3.400000e-04,
542,-1.260000e-02,-6.800001e-04,
543,-1.260000e-02,-3.400000e-04,
544,-1.530000e-02,0.000000e+00,
545,-1.620000e-02,0.000000e+00,
546,-1.800000e-02,-3.400000e-04,
547,-1.800000e-02,-6.800001e-04,
548,-2.070000e-02,-1.020000e-03,
549,-1.980000e-02,-6.800001e-04,
550,-2.250000e-02,0.000000e+00,
551,-2.340000e-02,3.400000e-04,
552,-2.520000e-02,1.020000e-03,
553,-2.520000e-02,3.400000e-04,
554,-2.790000e-02,3.400000e-04,
555,-2.790000e-02,1.020000e-03,
556,-2.970000e-02,-6.800001e-04,
557,-2.970000e-02,-3.400000e-04,
558,-3.150000e-02,-1.020000e-03,
559,-3.240000e-02,-6.800001e-04,
560,-3.420000e-02,0.000000e+00,
561,-3.420000e-02,0.000000e+00,
562,-3.600000e-02,0.000000e+00,
563,-3.600000e-02,3.400000e-04,
564,-3.870000e-02,-6.800001e-04,
565,-3.870000e-02,-3.400000e-04,
566,-4.050000e-02,-6.800001e-04,
567,-4.050000e-02,-1.020000e-03,
568,-4.320000e-02,-3.400000e-04,
569,-4.230000e-02,0.000000e+00,
570,-4.500000e-02,0.000000e+00,
571,-4.500000e-02,-3.400000e-04,
572,-4.680000e-02,-3.400000e-04,
573,-4.770000e-02,-6.800001e-04,
574,-4.950000e-02,-6.800001e-04,
575,-4.950000e-02,-1.020000e-03,
576,-5.130000e-02,-6.800001e-04,
577,-5.130000e-02,-3.400000e-04,
578,-5.220000e-02,0.000000e+00,
579,-5.310000e-02,3.400000e-04,
580,-5.490000e-02,-6.800001e-04,
581,-5.490000e-02,-1.020000e-03,
582,-5.580000e-02,-6.800001e-04,
583,-5.580000e-02,-1.020000e-03,
584,-5.760000e-02,-3.400000e-04,
585,-5.760000e-02,-6.800001e-04,
586,-5.940000e-02,-3.400000e-04,
587,-6.030000e-02,0.000000e+00,
588,-6.120000e-02,-6.800001e-04,
589,-6.120000e-02,-6.800001e-04,
590,-6.300000e-02,-6.800001e-04,
591,-6.300000e-02,-1.020000e-03,
592,-6.480000e-02,-3.400000e-04,
593,-6.480000e-02,-6.800001e-04,
594,-6.570000e-02,-6.800001e-04,
595,-6.570000e-02,0.000000e+00,
596,-6.840000e-02,-6.800001e-04,
597,-6.750000e-02,-3.400000e-04,
598,-6.930000e-02,-3.400000e-04,
599,-6.930000e-02,-6.800001e-04,
600,-7.020000e-02,-1.020000e-03,
601,-7.020000e-02,-1.020000e-03,
602,-7.110000e-02,-1.020000e-03,
603,-7.200000e-02,-1.020000e-03,
604,-7.290000e-02,0.000000e+00,
605,-7.200000e-02,-6.800001e-04,
606,-7.290000e-02,0.000000e+00,
607,-7.380001e-02,-6.800001e-04,
608,-7.470001e-02,-1.020000e-03,
609,-7.470001e-02,-6.800001e-04,
610,-7.560001e-02,-1.020000e-03,
611,-7.560001e-02,-6.800001e-04,
612,-7.650001e-02,0.000000e+00,
613,-7.650001e-02,-3.400000e-04,
614,-7.740001e-02,3.400000e-04,
615,-7.830001e-02,3.400000e-04,
616,-7.830001e-02,-3.400000e-04,
617,-7.830001e-02,-6.800001e-04,
618,-7.920001e-02,-1.360000e-03,
619,-7.920001e-02,-1.020000e-03,
620,-8.010001e-02,-3.400000e-04,
621,-7.920001e-02,-6.800001e-04,
622,-8.010001e-02,0.000000e+00,
623,-8.010001e-02,-3.400000e-04,
624,-8.100000e-02,-6.800001e-04,
625,-8.100000e-02,-1.020000e-03,
626,-8.190000e-02,-3.400000e-04,
627,-8.190000e-02,-6.800001e-04,
628,-8.190000e-02,-3.400000e-04,
629,-8.190000e-02,-3.400000e-04,
630,-8.190000e-02,-6.800001e-04,
