parte2/esp10/Data/d4/f2/5.csv

X,CH1,CH2,Start,Increment,
Sequence,Volt,Volt,-1.163980e-03,2.000000e-06,
0,6.956000e-02,3.560000e-04,
1,7.049999e-02,-3.560000e-04,
2,6.956000e-02,3.560000e-04,
3,7.049999e-02,-3.560000e-04,
4,6.956000e-02,1.068000e-03,
5,6.862000e-02,1.424000e-03,
6,6.674000e-02,-1.780000e-03,
7,6.767999e-02,-1.068000e-03,
8,6.580000e-02,7.120000e-04,
9,6.580000e-02,0.000000e+00,
10,6.485999e-02,0.000000e+00,
11,6.485999e-02,-7.120000e-04,
12,6.298000e-02,1.068000e-03,
13,6.392000e-02,1.424000e-03,
14,6.204000e-02,7.120000e-04,
15,6.109999e-02,0.000000e+00,
16,6.016000e-02,-1.068000e-03,
17,6.109999e-02,-1.780000e-03,
18,5.922000e-02,-3.560000e-04,
19,5.922000e-02,3.560000e-04,
20,5.827999e-02,1.068000e-03,
21,5.827999e-02,3.560000e-04,
22,5.640000e-02,7.120000e-04,
23,5.545999e-02,1.424000e-03,
24,5.452000e-02,-3.560000e-04,
25,5.452000e-02,-7.120000e-04,
26,5.264000e-02,3.560000e-04,
27,5.264000e-02,7.120000e-04,
28,5.076000e-02,-1.068000e-03,
29,5.170000e-02,-3.560000e-04,
30,4.888000e-02,1.424000e-03,
31,4.888000e-02,1.068000e-03,
32,4.794000e-02,3.560000e-04,
33,4.794000e-02,0.000000e+00,
34,4.606000e-02,0.000000e+00,
35,4.606000e-02,7.120000e-04,
36,4.418000e-02,-3.560000e-04,
37,4.418000e-02,3.560000e-04,
38,4.324000e-02,-3.560000e-04,
39,4.324000e-02,-1.068000e-03,
40,4.230000e-02,1.780000e-03,
41,4.136000e-02,1.068000e-03,
42,3.854000e-02,1.780000e-03,
43,3.948000e-02,1.068000e-03,
44,3.760000e-02,1.424000e-03,
45,3.666000e-02,7.120000e-04,
46,3.478000e-02,-7.120000e-04,
47,3.572000e-02,0.000000e+00,
48,3.384000e-02,3.560000e-04,
49,3.384000e-02,7.120000e-04,
50,3.196000e-02,1.068000e-03,
51,3.196000e-02,3.560000e-04,
52,3.008000e-02,-1.424000e-03,
53,2.914000e-02,-7.120000e-04,
54,2.820000e-02,1.068000e-03,
55,2.726000e-02,1.424000e-03,
56,2.632000e-02,-3.560000e-04,
57,2.632000e-02,-1.068000e-03,
58,2.444000e-02,1.068000e-03,
59,2.444000e-02,7.120000e-04,
60,2.256000e-02,-1.068000e-03,
61,2.162000e-02,-3.560000e-04,
62,2.068000e-02,1.068000e-03,
63,1.974000e-02,1.424000e-03,
64,1.880000e-02,1.424000e-03,
65,1.786000e-02,7.120000e-04,
66,1.598000e-02,7.120000e-04,
67,1.598000e-02,3.560000e-04,
68,1.410000e-02,-7.120000e-04,
69,1.504000e-02,0.000000e+00,
70,1.222000e-02,1.780000e-03,
71,1.222000e-02,1.068000e-03,
72,1.128000e-02,1.424000e-03,
73,1.034000e-02,2.136000e-03,
74,7.520000e-03,2.136000e-03,
75,8.459999e-03,2.848000e-03,
76,5.640000e-03,-1.068000e-03,
77,6.580000e-03,-1.424000e-03,
78,4.700000e-03,-3.560000e-04,
79,4.700000e-03,-1.068000e-03,
80,9.399999e-04,-1.780000e-03,
81,1.880000e-03,-7.120000e-04,
82,0.000000e+00,-3.560000e-04,
83,0.000000e+00,3.560000e-04,
84,-2.820000e-03,3.560000e-04,
85,-2.820000e-03,1.068000e-03,
86,-3.760000e-03,0.000000e+00,
87,-3.760000e-03,7.120000e-04,
88,-5.640000e-03,7.120000e-04,
89,-6.580000e-03,0.000000e+00,
90,-8.459999e-03,3.560000e-04,
91,-7.520000e-03,0.000000e+00,
92,-9.400000e-03,0.000000e+00,
93,-9.400000e-03,-7.120000e-04,
94,-1.222000e-02,0.000000e+00,
95,-1.128000e-02,7.120000e-04,
96,-1.410000e-02,-3.560000e-04,
97,-1.504000e-02,3.560000e-04,
98,-1.692000e-02,-3.560000e-04,
99,-1.598000e-02,-1.068000e-03,
100,-1.786000e-02,2.136000e-03,
101,-1.880000e-02,1.424000e-03,
102,-1.974000e-02,3.560000e-04,
103,-2.068000e-02,0.000000e+00,
104,-2.162000e-02,7.120000e-04,
105,-2.162000e-02,1.424000e-03,
106,-2.444000e-02,7.120000e-04,
107,-2.444000e-02,3.560000e-04,
108,-2.632000e-02,1.424000e-03,
109,-2.632000e-02,7.120000e-04,
110,-2.820000e-02,3.560000e-04,
111,-2.820000e-02,7.120000e-04,
112,-2.914000e-02,0.000000e+00,
113,-2.914000e-02,7.120000e-04,
114,-3.196000e-02,1.780000e-03,
115,-3.196000e-02,1.424000e-03,
116,-3.384000e-02,-1.424000e-03,
117,-3.478000e-02,-1.780000e-03,
118,-3.666000e-02,0.000000e+00,
119,-3.572000e-02,7.120000e-04,
120,-3.760000e-02,-1.068000e-03,
121,-3.760000e-02,-3.560000e-04,
122,-3.948000e-02,1.068000e-03,
123,-4.042000e-02,1.780000e-03,
124,-4.042000e-02,3.560000e-04,
125,-4.136000e-02,0.000000e+00,
126,-4.324000e-02,-3.560000e-04,
127,-4.324000e-02,0.000000e+00,
128,-4.512000e-02,-3.560000e-04,
129,-4.512000e-02,-1.068000e-03,
130,-4.606000e-02,-7.120000e-04,
131,-4.606000e-02,0.000000e+00,
132,-4.794000e-02,3.560000e-04,
133,-4.888000e-02,1.068000e-03,
134,-4.982000e-02,3.560000e-04,
135,-4.982000e-02,1.068000e-03,
136,-5.076000e-02,3.560000e-04,
137,-5.170000e-02,1.068000e-03,
138,-5.170000e-02,-3.560000e-04,
139,-5.264000e-02,0.000000e+00,
140,-5.452000e-02,1.068000e-03,
141,-5.452000e-02,1.780000e-03,
142,-5.640000e-02,1.068000e-03,
143,-5.545999e-02,1.780000e-03,
144,-5.734000e-02,3.560000e-03,
145,-5.734000e-02,4.272000e-03,
146,-5.922000e-02,-1.424000e-03,
147,-5.922000e-02,-7.120000e-04,
148,-6.109999e-02,3.560000e-04,
149,-6.109999e-02,1.068000e-03,
150,-6.204000e-02,-3.560000e-04,
151,-6.109999e-02,3.560000e-04,
152,-6.298000e-02,-3.560000e-04,
153,-6.298000e-02,3.560000e-04,
154,-6.392000e-02,7.120000e-04,
155,-6.392000e-02,1.424000e-03,
156,-6.485999e-02,7.120000e-04,
157,-6.580000e-02,0.000000e+00,
158,-6.674000e-02,3.560000e-04,
159,-6.767999e-02,1.068000e-03,
160,-6.674000e-02,3.560000e-04,
161,-6.674000e-02,1.068000e-03,
162,-6.862000e-02,1.068000e-03,
163,-6.862000e-02,7.120000e-04,
164,-6.956000e-02,-3.560000e-04,
165,-6.956000e-02,-1.068000e-03,
166,-7.049999e-02,1.424000e-03,
167,-7.144000e-02,2.136000e-03,
168,-7.144000e-02,0.000000e+00,
169,-7.238000e-02,-3.560000e-04,
170,-7.426000e-02,-3.560000e-04,
171,-7.331999e-02,3.560000e-04,
172,-7.426000e-02,7.120000e-04,
173,-7.426000e-02,1.424000e-03,
174,-7.520000e-02,1.068000e-03,
175,-7.426000e-02,1.424000e-03,
176,-7.520000e-02,7.120000e-04,
177,-7.520000e-02,1.424000e-03,
178,-7.613999e-02,1.068000e-03,
179,-7.708000e-02,1.780000e-03,
180,-7.801999e-02,3.560000e-04,
181,-7.801999e-02,-3.560000e-04,
182,-7.708000e-02,-1.424000e-03,
183,-7.708000e-02,-7.120000e-04,
184,-7.895999e-02,3.560000e-04,
185,-7.895999e-02,1.068000e-03,
186,-7.801999e-02,3.560000e-04,
187,-7.801999e-02,1.068000e-03,
188,-7.895999e-02,7.120000e-04,
189,-7.895999e-02,1.424000e-03,
190,-7.990000e-02,7.120000e-04,
191,-7.895999e-02,3.560000e-04,
192,-7.990000e-02,-3.560000e-04,
193,-7.990000e-02,3.560000e-04,
194,-7.990000e-02,3.560000e-04,
195,-7.990000e-02,-3.560000e-04,
196,-7.990000e-02,3.560000e-04,
197,-8.083999e-02,1.068000e-03,
198,-8.083999e-02,3.560000e-04,
199,-8.083999e-02,0.000000e+00,
200,-7.990000e-02,0.000000e+00,
201,-7.990000e-02,3.560000e-04,
202,-8.083999e-02,1.068000e-03,
203,-8.083999e-02,1.780000e-03,
204,-8.083999e-02,-3.560000e-04,
205,-7.990000e-02,-1.068000e-03,
206,-8.083999e-02,7.120000e-04,
207,-8.083999e-02,0.000000e+00,
208,-8.177999e-02,-3.560000e-04,
209,-8.083999e-02,0.000000e+00,
210,-8.083999e-02,7.120000e-04,
211,-8.083999e-02,1.424000e-03,
212,-8.083999e-02,7.120000e-04,
213,-8.083999e-02,1.424000e-03,
214,-8.083999e-02,7.120000e-04,
215,-8.083999e-02,3.560000e-04,
216,-8.083999e-02,-7.120000e-04,
217,-7.990000e-02,-1.424000e-03,
218,-7.990000e-02,0.000000e+00,
219,-7.990000e-02,-7.120000e-04,
220,-7.990000e-02,1.068000e-03,
221,-7.990000e-02,3.560000e-04,
222,-7.895999e-02,7.120000e-04,
223,-7.990000e-02,1.424000e-03,
224,-7.990000e-02,-1.424000e-03,
225,-7.895999e-02,-7.120000e-04,
226,-7.801999e-02,3.560000e-04,
227,-7.895999e-02,-3.560000e-04,
228,-7.708000e-02,3.560000e-04,
229,-7.801999e-02,1.068000e-03,
230,-7.801999e-02,7.120000e-04,
231,-7.801999e-02,3.560000e-04,
232,-7.613999e-02,2.848000e-03,
233,-7.613999e-02,2.136000e-03,
234,-7.520000e-02,-1.068000e-03,
235,-7.520000e-02,-7.120000e-04,
236,-7.613999e-02,2.136000e-03,
237,-7.520000e-02,1.424000e-03,
238,-7.520000e-02,7.120000e-04,
239,-7.426000e-02,0.000000e+00,
240,-7.426000e-02,-7.120000e-04,
241,-7.426000e-02,-3.560000e-04,
242,-7.331999e-02,-3.560000e-04,
243,-7.331999e-02,3.560000e-04,
244,-7.144000e-02,1.068000e-03,
245,-7.144000e-02,7.120000e-04,
246,-7.049999e-02,1.780000e-03,
247,-7.049999e-02,2.492000e-03,
248,-6.956000e-02,7.120000e-04,
249,-6.862000e-02,1.424000e-03,
250,-6.862000e-02,-7.120000e-04,
251,-6.956000e-02,-1.068000e-03,
252,-6.767999e-02,-7.120000e-04,
253,-6.767999e-02,-3.560000e-04,
254,-6.674000e-02,7.120000e-04,
255,-6.674000e-02,1.068000e-03,
256,-6.580000e-02,-1.424000e-03,
257,-6.485999e-02,-2.136000e-03,
258,-6.392000e-02,2.492000e-03,
259,-6.392000e-02,1.780000e-03,
260,-6.298000e-02,-1.424000e-03,
261,-6.298000e-02,-1.780000e-03,
262,-6.204000e-02,3.560000e-04,
263,-6.109999e-02,1.068000e-03,
264,-5.922000e-02,-3.560000e-04,
265,-5.922000e-02,3.560000e-04,
266,-5.827999e-02,1.424000e-03,
267,-5.922000e-02,7.120000e-04,
268,-5.734000e-02,7.120000e-04,
269,-5.640000e-02,1.424000e-03,
270,-5.545999e-02,-7.120000e-04,
271,-5.545999e-02,0.000000e+00,
272,-5.452000e-02,1.780000e-03,
273,-5.452000e-02,7.120000e-04,
274,-5.170000e-02,7.120000e-04,
275,-5.170000e-02,3.560000e-04,
276,-5.076000e-02,3.560000e-04,
277,-5.076000e-02,1.068000e-03,
278,-4.888000e-02,7.120000e-04,
279,-4.982000e-02,0.000000e+00,
280,-4.794000e-02,-3.560000e-04,
281,-4.794000e-02,7.120000e-04,
282,-4.606000e-02,1.068000e-03,
283,-4.606000e-02,7.120000e-04,
284,-4.418000e-02,3.560000e-04,
285,-4.418000e-02,0.000000e+00,
286,-4.324000e-02,3.560000e-04,
287,-4.324000e-02,1.068000e-03,
288,-4.136000e-02,3.560000e-04,
289,-4.042000e-02,1.068000e-03,
290,-3.854000e-02,3.560000e-04,
291,-3.948000e-02,0.000000e+00,
292,-3.760000e-02,1.068000e-03,
293,-3.760000e-02,1.780000e-03,
294,-3.572000e-02,1.068000e-03,
295,-3.478000e-02,3.560000e-04,
296,-3.384000e-02,0.000000e+00,
297,-3.290000e-02,-7.120000e-04,
298,-3.290000e-02,1.424000e-03,
299,-3.196000e-02,7.120000e-04,
300,-2.914000e-02,7.120000e-04,
301,-2.914000e-02,0.000000e+00,
302,-2.726000e-02,0.000000e+00,
303,-2.726000e-02,7.120000e-04,
304,-2.632000e-02,-1.068000e-03,
305,-2.632000e-02,-3.560000e-04,
306,-2.444000e-02,7.120000e-04,
307,-2.350000e-02,1.068000e-03,
308,-2.162000e-02,7.120000e-04,
309,-2.162000e-02,1.424000e-03,
310,-1.974000e-02,0.000000e+00,
311,-1.974000e-02,7.120000e-04,
312,-1.786000e-02,3.560000e-04,
313,-1.880000e-02,-3.560000e-04,
314,-1.598000e-02,3.560000e-04,
315,-1.598000e-02,-3.560000e-04,
316,-1.410000e-02,1.780000e-03,
317,-1.410000e-02,1.068000e-03,
318,-1.316000e-02,3.560000e-04,
319,-1.222000e-02,1.068000e-03,
320,-1.128000e-02,7.120000e-04,
321,-1.034000e-02,0.000000e+00,
322,-7.520000e-03,0.000000e+00,
323,-7.520000e-03,-7.120000e-04,
324,-5.640000e-03,1.068000e-03,
325,-5.640000e-03,3.560000e-04,
326,-2.820000e-03,-3.560000e-04,
327,-3.760000e-03,3.560000e-04,
328,-1.880000e-03,2.136000e-03,
329,-1.880000e-03,1.424000e-03,
330,9.399999e-04,-7.120000e-04,
331,0.000000e+00,0.000000e+00,
332,9.399999e-04,1.424000e-03,
333,1.880000e-03,2.136000e-03,
334,4.700000e-03,0.000000e+00,
335,4.700000e-03,7.120000e-04,
336,6.580000e-03,-3.560000e-04,
337,5.640000e-03,0.000000e+00,
338,8.459999e-03,1.424000e-03,
339,9.400000e-03,7.120000e-04,
340,1.034000e-02,3.560000e-04,
341,1.034000e-02,-3.560000e-04,
342,1.222000e-02,7.120000e-04,
343,1.316000e-02,3.560000e-04,
344,1.316000e-02,7.120000e-04,
345,1.410000e-02,1.424000e-03,
346,1.598000e-02,3.560000e-04,
347,1.692000e-02,1.068000e-03,
348,1.880000e-02,-7.120000e-04,
349,1.880000e-02,-3.560000e-04,
350,2.162000e-02,3.560000e-04,
351,2.068000e-02,1.068000e-03,
352,2.256000e-02,-7.120000e-04,
353,2.256000e-02,-1.424000e-03,
354,2.444000e-02,1.068000e-03,
355,2.538000e-02,3.560000e-04,
356,2.632000e-02,1.424000e-03,
357,2.632000e-02,7.120000e-04,
358,2.914000e-02,7.120000e-04,
359,2.914000e-02,1.424000e-03,
360,3.008000e-02,0.000000e+00,
361,3.102000e-02,3.560000e-04,
362,3.196000e-02,-7.120000e-04,
363,3.290000e-02,0.000000e+00,
364,3.384000e-02,0.000000e+00,
365,3.384000e-02,7.120000e-04,
366,3.572000e-02,1.068000e-03,
367,3.666000e-02,3.560000e-04,
368,3.760000e-02,7.120000e-04,
369,3.854000e-02,3.560000e-04,
370,4.042000e-02,-7.120000e-04,
371,3.948000e-02,0.000000e+00,
372,4.230000e-02,3.560000e-04,
373,4.136000e-02,-3.560000e-04,
374,4.230000e-02,0.000000e+00,
375,4.324000e-02,-7.120000e-04,
376,4.512000e-02,0.000000e+00,
377,4.606000e-02,7.120000e-04,
378,4.606000e-02,7.120000e-04,
379,4.606000e-02,1.424000e-03,
380,4.794000e-02,0.000000e+00,
381,4.888000e-02,3.560000e-04,
382,4.982000e-02,7.120000e-04,
383,4.982000e-02,0.000000e+00,
384,5.170000e-02,-3.560000e-04,
385,5.170000e-02,3.560000e-04,
386,5.264000e-02,-1.424000e-03,
387,5.358000e-02,-7.120000e-04,
388,5.452000e-02,1.424000e-03,
389,5.545999e-02,7.120000e-04,
390,5.640000e-02,-7.120000e-04,
391,5.545999e-02,0.000000e+00,
392,5.734000e-02,1.068000e-03,
393,5.734000e-02,7.120000e-04,
394,5.922000e-02,-3.560000e-04,
395,5.922000e-02,3.560000e-04,
396,6.109999e-02,1.424000e-03,
397,6.109999e-02,7.120000e-04,
398,6.204000e-02,3.560000e-04,
399,6.204000e-02,1.068000e-03,
400,6.298000e-02,1.068000e-03,
401,6.298000e-02,1.424000e-03,
402,6.485999e-02,-1.780000e-03,
403,6.485999e-02,-1.068000e-03,
404,6.580000e-02,1.424000e-03,
405,6.674000e-02,1.780000e-03,
406,6.767999e-02,-7.120000e-04,
407,6.767999e-02,-3.560000e-04,
408,6.862000e-02,3.560000e-04,
409,6.956000e-02,1.068000e-03,
410,7.049999e-02,1.068000e-03,
411,6.956000e-02,0.000000e+00,
412,6.956000e-02,7.120000e-04,
413,7.049999e-02,1.424000e-03,
414,7.144000e-02,0.000000e+00,
415,7.144000e-02,7.120000e-04,
416,7.331999e-02,7.120000e-04,
417,7.331999e-02,1.424000e-03,
418,7.331999e-02,3.560000e-04,
419,7.426000e-02,-3.560000e-04,
420,7.520000e-02,7.120000e-04,
421,7.520000e-02,1.424000e-03,
422,7.520000e-02,7.120000e-04,
423,7.520000e-02,1.424000e-03,
424,7.708000e-02,-3.560000e-04,
425,7.801999e-02,3.560000e-04,
426,7.801999e-02,7.120000e-04,
427,7.708000e-02,3.560000e-04,
428,7.895999e-02,3.560000e-04,
429,7.801999e-02,1.068000e-03,
430,7.801999e-02,1.068000e-03,
431,7.801999e-02,1.780000e-03,
432,7.895999e-02,1.424000e-03,
433,7.990000e-02,1.068000e-03,
434,7.990000e-02,3.560000e-04,
435,7.990000e-02,-3.560000e-04,
436,7.990000e-02,1.424000e-03,
437,8.083999e-02,1.780000e-03,
438,8.083999e-02,1.780000e-03,
439,8.083999e-02,1.068000e-03,
440,8.083999e-02,7.120000e-04,
441,8.083999e-02,0.000000e+00,
442,8.083999e-02,7.120000e-04,
443,8.083999e-02,0.000000e+00,
444,8.177999e-02,1.068000e-03,
445,8.177999e-02,3.560000e-04,
446,8.177999e-02,-7.120000e-04,
447,8.272000e-02,0.000000e+00,
448,8.272000e-02,1.068000e-03,
449,8.177999e-02,3.560000e-04,
450,8.272000e-02,7.120000e-04,
451,8.177999e-02,1.424000e-03,
452,8.272000e-02,1.780000e-03,
453,8.272000e-02,1.424000e-03,
454,8.272000e-02,-3.560000e-04,
455,8.272000e-02,0.000000e+00,
456,8.272000e-02,1.068000e-03,
457,8.365999e-02,7.120000e-04,
458,8.365999e-02,3.560000e-04,
459,8.272000e-02,7.120000e-04,
460,8.177999e-02,7.120000e-04,
461,8.272000e-02,3.560000e-04,
462,8.365999e-02,0.000000e+00,
463,8.272000e-02,3.560000e-04,
464,8.272000e-02,7.120000e-04,
465,8.177999e-02,1.068000e-03,
466,8.272000e-02,-1.424000e-03,
467,8.177999e-02,-7.120000e-04,
468,8.177999e-02,2.136000e-03,
469,8.272000e-02,1.424000e-03,
470,8.177999e-02,3.560000e-04,
471,8.083999e-02,-3.560000e-04,
472,8.083999e-02,-1.424000e-03,
473,8.083999e-02,-1.780000e-03,
474,8.083999e-02,3.560000e-04,
475,8.177999e-02,-3.560000e-04,
476,7.990000e-02,0.000000e+00,
477,7.990000e-02,-7.120000e-04,
478,7.895999e-02,-7.120000e-04,
479,7.895999e-02,0.000000e+00,
480,7.895999e-02,3.560000e-04,
481,7.895999e-02,1.068000e-03,
482,7.895999e-02,-3.560000e-04,
483,7.895999e-02,-7.120000e-04,
484,7.801999e-02,-3.560000e-04,
485,7.708000e-02,3.560000e-04,
486,7.708000e-02,1.068000e-03,
487,7.708000e-02,1.780000e-03,
488,7.613999e-02,7.120000e-04,
489,7.613999e-02,3.560000e-04,
490,7.520000e-02,0.000000e+00,
491,7.520000e-02,7.120000e-04,
492,7.520000e-02,0.000000e+00,
493,7.520000e-02,-7.120000e-04,
494,7.426000e-02,-2.136000e-03,
495,7.426000e-02,-1.780000e-03,
496,7.331999e-02,7.120000e-04,
497,7.238000e-02,1.424000e-03,
498,7.144000e-02,0.000000e+00,
499,7.238000e-02,3.560000e-04,
500,7.144000e-02,1.424000e-03,
501,7.144000e-02,7.120000e-04,
502,6.956000e-02,1.068000e-03,
503,6.956000e-02,3.560000e-04,
504,6.862000e-02,-3.560000e-04,
505,6.767999e-02,0.000000e+00,
506,6.674000e-02,3.560000e-04,
507,6.674000e-02,1.068000e-03,
508,6.580000e-02,0.000000e+00,
509,6.674000e-02,7.120000e-04,
510,6.392000e-02,1.424000e-03,
511,6.485999e-02,7.120000e-04,
512,6.392000e-02,0.000000e+00,
513,6.485999e-02,1.068000e-03,
514,6.204000e-02,0.000000e+00,
515,6.204000e-02,7.120000e-04,
516,6.109999e-02,0.000000e+00,
517,6.109999e-02,-7.120000e-04,
518,5.922000e-02,1.424000e-03,
519,5.922000e-02,1.068000e-03,
520,5.827999e-02,3.560000e-04,
521,5.827999e-02,-3.560000e-04,
522,5.640000e-02,1.780000e-03,
523,5.640000e-02,1.068000e-03,
524,5.545999e-02,3.560000e-04,
525,5.545999e-02,1.424000e-03,
526,5.264000e-02,0.000000e+00,
527,5.264000e-02,7.120000e-04,
528,5.170000e-02,3.560000e-04,
529,5.170000e-02,0.000000e+00,
530,5.076000e-02,0.000000e+00,
531,4.982000e-02,-7.120000e-04,
532,4.794000e-02,3.560000e-04,
533,4.794000e-02,1.068000e-03,
534,4.606000e-02,0.000000e+00,
535,4.606000e-02,3.560000e-04,
536,4.418000e-02,-3.560000e-04,
537,4.512000e-02,-7.120000e-04,
538,4.324000e-02,0.000000e+00,
539,4.230000e-02,7.120000e-04,
540,4.136000e-02,7.120000e-04,
541,4.042000e-02,3.560000e-04,
542,3.854000e-02,1.068000e-03,
543,3.948000e-02,3.560000e-04,
544,3.760000e-02,7.120000e-04,
545,3.760000e-02,3.560000e-04,
546,3.572000e-02,-7.120000e-04,
547,3.572000e-02,0.000000e+00,
548,3.384000e-02,-3.560000e-04,
549,3.384000e-02,-1.068000e-03,
550,3.196000e-02,3.560000e-04,
551,3.196000e-02,0.000000e+00,
552,3.008000e-02,0.000000e+00,
553,3.102000e-02,3.560000e-04,
554,2.820000e-02,-3.560000e-04,
555,2.820000e-02,-1.068000e-03,
556,2.726000e-02,7.120000e-04,
557,2.632000e-02,1.068000e-03,
558,2.444000e-02,0.000000e+00,
559,2.350000e-02,7.120000e-04,
560,2.256000e-02,-1.424000e-03,
561,2.162000e-02,-7.120000e-04,
562,2.068000e-02,1.068000e-03,
563,2.068000e-02,1.780000e-03,
564,1.974000e-02,2.136000e-03,
565,1.880000e-02,1.780000e-03,
566,1.598000e-02,-1.068000e-03,
567,1.692000e-02,-3.560000e-04,
568,1.410000e-02,0.000000e+00,
569,1.410000e-02,7.120000e-04,
570,1.222000e-02,0.000000e+00,
571,1.316000e-02,7.120000e-04,
572,1.034000e-02,1.068000e-03,
573,9.400000e-03,3.560000e-04,
574,9.400000e-03,-3.560000e-04,
575,9.400000e-03,3.560000e-04,
576,5.640000e-03,7.120000e-04,
577,5.640000e-03,0.000000e+00,
578,4.700000e-03,-3.560000e-04,
579,3.760000e-03,-1.068000e-03,
580,1.880000e-03,1.424000e-03,
581,9.399999e-04,1.068000e-03,
582,0.000000e+00,1.424000e-03,
583,-9.399999e-04,7.120000e-04,
584,-1.880000e-03,3.560000e-04,
585,-1.880000e-03,0.000000e+00,
586,-4.700000e-03,-1.068000e-03,
587,-3.760000e-03,-7.120000e-04,
588,-5.640000e-03,7.120000e-04,
589,-6.580000e-03,1.424000e-03,
590,-7.520000e-03,1.068000e-03,
591,-8.459999e-03,3.560000e-04,
592,-9.400000e-03,3.560000e-04,
593,-9.400000e-03,7.120000e-04,
594,-1.222000e-02,0.000000e+00,
595,-1.222000e-02,7.120000e-04,
596,-1.410000e-02,-1.068000e-03,
597,-1.410000e-02,-3.560000e-04,
598,-1.598000e-02,3.560000e-04,
599,-1.504000e-02,1.068000e-03,
600,-1.786000e-02,3.560000e-04,
601,-1.880000e-02,1.068000e-03,
602,-2.068000e-02,3.204000e-03,
603,-2.162000e-02,2.492000e-03,
604,-2.162000e-02,0.000000e+00,
605,-2.162000e-02,3.560000e-04,
606,-2.444000e-02,7.120000e-04,
607,-2.444000e-02,3.560000e-04,
608,-2.632000e-02,-3.560000e-04,
609,-2.538000e-02,0.000000e+00,
610,-2.820000e-02,-7.120000e-04,
611,-2.914000e-02,0.000000e+00,
612,-3.008000e-02,-3.560000e-04,
613,-2.914000e-02,3.560000e-04,
614,-3.196000e-02,1.780000e-03,
615,-3.196000e-02,1.068000e-03,
616,-3.384000e-02,-1.068000e-03,
617,-3.478000e-02,-7.120000e-04,
618,-3.572000e-02,-7.120000e-04,
619,-3.572000e-02,-1.424000e-03,
620,-3.760000e-02,1.780000e-03,
621,-3.666000e-02,2.492000e-03,
622,-3.854000e-02,-3.560000e-04,
623,-3.948000e-02,3.560000e-04,
624,-4.042000e-02,-3.560000e-04,
625,-4.136000e-02,3.560000e-04,
626,-4.230000e-02,-7.120000e-04,
627,-4.230000e-02,-3.560000e-04,
628,-4.512000e-02,-7.120000e-04,
629,-4.512000e-02,0.000000e+00,
630,-4.606000e-02,7.120000e-04,
