parte2/esp10/Data/d5/f2/2.csv

X,CH1,CH2,Start,Increment,
Sequence,Volt,Volt,2.076000e-04,4.060000e-08,
0,-5.704000e-02,4.624000e-03,
1,-5.796000e-02,4.896000e-03,
2,-5.704000e-02,4.624000e-03,
3,-5.796000e-02,4.896000e-03,
4,-5.520000e-02,4.352000e-03,
5,-5.612000e-02,4.624000e-03,
6,-5.428000e-02,4.624000e-03,
7,-5.428000e-02,4.352000e-03,
8,-5.152000e-02,4.352000e-03,
9,-5.152000e-02,4.896000e-03,
10,-4.968000e-02,5.168000e-03,
11,-5.060000e-02,5.712000e-03,
12,-4.876000e-02,4.080000e-03,
13,-4.876000e-02,4.624000e-03,
14,-4.784000e-02,5.168000e-03,
15,-4.692000e-02,5.440000e-03,
16,-4.600000e-02,4.896000e-03,
17,-4.600000e-02,5.168000e-03,
18,-4.324000e-02,5.440000e-03,
19,-4.324000e-02,5.712000e-03,
20,-4.140000e-02,6.528000e-03,
21,-4.232000e-02,6.256000e-03,
22,-3.956000e-02,6.256000e-03,
23,-3.956000e-02,6.528000e-03,
24,-3.772000e-02,6.528000e-03,
25,-3.864000e-02,6.256000e-03,
26,-3.680000e-02,6.528000e-03,
27,-3.680000e-02,5.984000e-03,
28,-3.496000e-02,5.984000e-03,
29,-3.404000e-02,6.256000e-03,
30,-3.220000e-02,5.984000e-03,
31,-3.220000e-02,6.256000e-03,
32,-3.036000e-02,7.616000e-03,
33,-3.036000e-02,7.616000e-03,
34,-2.944000e-02,7.344000e-03,
35,-2.852000e-02,7.072000e-03,
36,-2.576000e-02,7.072000e-03,
37,-2.668000e-02,7.072000e-03,
38,-2.484000e-02,7.616000e-03,
39,-2.484000e-02,7.344000e-03,
40,-2.208000e-02,7.072000e-03,
41,-2.208000e-02,6.528000e-03,
42,-2.024000e-02,7.888000e-03,
43,-1.932000e-02,7.888000e-03,
44,-1.932000e-02,7.616000e-03,
45,-1.932000e-02,7.888000e-03,
46,-1.656000e-02,7.344000e-03,
47,-1.656000e-02,7.888000e-03,
48,-1.472000e-02,8.160000e-03,
49,-1.472000e-02,8.160000e-03,
50,-1.288000e-02,8.704000e-03,
51,-1.288000e-02,8.432000e-03,
52,-1.012000e-02,8.432000e-03,
53,-1.104000e-02,8.704000e-03,
54,-8.280001e-03,8.976000e-03,
55,-7.360000e-03,8.704000e-03,
56,-6.440000e-03,8.160000e-03,
57,-6.440000e-03,7.616000e-03,
58,-3.680000e-03,9.248001e-03,
59,-4.600000e-03,8.976000e-03,
60,-1.840000e-03,8.432000e-03,
61,-1.840000e-03,8.160000e-03,
62,0.000000e+00,8.976000e-03,
63,0.000000e+00,9.248001e-03,
64,2.760000e-03,9.248001e-03,
65,2.760000e-03,9.520000e-03,
66,3.680000e-03,8.432000e-03,
67,4.600000e-03,8.704000e-03,
68,6.440000e-03,9.248001e-03,
69,6.440000e-03,8.976000e-03,
70,8.280001e-03,8.704000e-03,
71,9.200000e-03,8.160000e-03,
72,1.196000e-02,8.432000e-03,
73,1.104000e-02,8.704000e-03,
74,1.196000e-02,1.006400e-02,
75,1.288000e-02,9.520000e-03,
76,1.472000e-02,8.976000e-03,
77,1.564000e-02,8.432000e-03,
78,1.656000e-02,8.976000e-03,
79,1.656000e-02,9.520000e-03,
80,1.932000e-02,1.006400e-02,
81,1.932000e-02,9.520000e-03,
82,2.116000e-02,9.520000e-03,
83,2.116000e-02,9.248001e-03,
84,2.392000e-02,9.248001e-03,
85,2.392000e-02,9.792000e-03,
86,2.484000e-02,9.792000e-03,
87,2.484000e-02,9.520000e-03,
88,2.668000e-02,9.248001e-03,
89,2.668000e-02,8.704000e-03,
90,2.944000e-02,9.792000e-03,
91,2.852000e-02,1.006400e-02,
92,3.036000e-02,9.248001e-03,
93,3.128000e-02,8.976000e-03,
94,3.220000e-02,1.033600e-02,
95,3.312000e-02,1.006400e-02,
96,3.496000e-02,1.033600e-02,
97,3.496000e-02,9.792000e-03,
98,3.680000e-02,9.520000e-03,
99,3.680000e-02,9.248001e-03,
100,3.864000e-02,1.006400e-02,
101,3.864000e-02,9.792000e-03,
102,4.048000e-02,9.792000e-03,
103,4.048000e-02,1.006400e-02,
104,4.140000e-02,8.976000e-03,
105,4.232000e-02,9.248001e-03,
106,4.324000e-02,1.006400e-02,
107,4.416000e-02,9.520000e-03,
108,4.600000e-02,9.792000e-03,
109,4.600000e-02,9.520000e-03,
110,4.692000e-02,9.520000e-03,
111,4.692000e-02,9.792000e-03,
112,4.876000e-02,9.792000e-03,
113,4.968000e-02,9.248001e-03,
114,5.152000e-02,9.248001e-03,
115,5.152000e-02,8.976000e-03,
116,5.152000e-02,1.006400e-02,
117,5.244000e-02,9.792000e-03,
118,5.336000e-02,8.704000e-03,
119,5.428000e-02,8.432000e-03,
120,5.612000e-02,9.520000e-03,
121,5.612000e-02,8.976000e-03,
122,5.704000e-02,9.792000e-03,
123,5.704000e-02,9.520000e-03,
124,5.796000e-02,8.160000e-03,
125,5.888000e-02,8.704000e-03,
126,5.980000e-02,9.792000e-03,
127,5.980000e-02,1.033600e-02,
128,6.072000e-02,9.248001e-03,
129,6.164000e-02,8.976000e-03,
130,6.256000e-02,7.616000e-03,
131,6.348000e-02,7.888000e-03,
132,6.440000e-02,8.432000e-03,
133,6.532000e-02,8.160000e-03,
134,6.624001e-02,8.704000e-03,
135,6.532000e-02,8.432000e-03,
136,6.624001e-02,7.888000e-03,
137,6.716000e-02,8.160000e-03,
138,6.808000e-02,7.616000e-03,
139,6.808000e-02,7.888000e-03,
140,6.992000e-02,8.432000e-03,
141,6.900000e-02,8.160000e-03,
142,6.992000e-02,7.888000e-03,
143,7.084000e-02,7.616000e-03,
144,7.176000e-02,7.888000e-03,
145,7.176000e-02,8.160000e-03,
146,7.268000e-02,7.072000e-03,
147,7.268000e-02,7.616000e-03,
148,7.360000e-02,7.616000e-03,
149,7.360000e-02,7.616000e-03,
150,7.452000e-02,7.072000e-03,
151,7.360000e-02,6.800000e-03,
152,7.544000e-02,7.344000e-03,
153,7.636000e-02,6.800000e-03,
154,7.544000e-02,7.344000e-03,
155,7.636000e-02,7.072000e-03,
156,7.728000e-02,6.528000e-03,
157,7.728000e-02,6.800000e-03,
158,7.820000e-02,7.344000e-03,
159,7.728000e-02,6.800000e-03,
160,7.820000e-02,6.800000e-03,
161,7.912000e-02,6.528000e-03,
162,7.912000e-02,5.984000e-03,
163,7.912000e-02,5.984000e-03,
164,8.004000e-02,6.528000e-03,
165,8.004000e-02,6.256000e-03,
166,8.004000e-02,6.256000e-03,
167,8.004000e-02,6.528000e-03,
168,8.096001e-02,5.712000e-03,
169,8.004000e-02,5.168000e-03,
170,8.096001e-02,6.256000e-03,
171,8.096001e-02,5.984000e-03,
172,8.096001e-02,5.168000e-03,
173,8.188000e-02,5.440000e-03,
174,8.280000e-02,5.984000e-03,
175,8.188000e-02,5.712000e-03,
176,8.188000e-02,5.440000e-03,
177,8.188000e-02,4.896000e-03,
178,8.188000e-02,4.896000e-03,
179,8.280000e-02,5.168000e-03,
180,8.280000e-02,3.808000e-03,
181,8.280000e-02,4.352000e-03,
182,8.280000e-02,4.624000e-03,
183,8.280000e-02,4.352000e-03,
184,8.280000e-02,4.624000e-03,
185,8.280000e-02,4.352000e-03,
186,8.280000e-02,3.536000e-03,
187,8.280000e-02,3.808000e-03,
188,8.280000e-02,4.080000e-03,
189,8.280000e-02,4.352000e-03,
190,8.280000e-02,3.264000e-03,
191,8.280000e-02,3.536000e-03,
192,8.280000e-02,3.808000e-03,
193,8.280000e-02,4.080000e-03,
194,8.188000e-02,2.992000e-03,
195,8.188000e-02,2.720000e-03,
196,8.188000e-02,3.536000e-03,
197,8.280000e-02,2.720000e-03,
198,8.188000e-02,2.992000e-03,
199,8.188000e-02,3.264000e-03,
200,8.188000e-02,2.448000e-03,
201,8.096001e-02,2.176000e-03,
202,8.096001e-02,2.720000e-03,
203,8.096001e-02,2.992000e-03,
204,8.096001e-02,1.088000e-03,
205,8.096001e-02,1.632000e-03,
206,8.004000e-02,1.904000e-03,
207,8.096001e-02,1.632000e-03,
208,7.912000e-02,2.176000e-03,
209,7.912000e-02,1.904000e-03,
210,7.912000e-02,5.440000e-04,
211,7.820000e-02,2.720000e-04,
212,7.820000e-02,1.632000e-03,
213,7.820000e-02,1.904000e-03,
214,7.728000e-02,1.088000e-03,
215,7.728000e-02,8.160000e-04,
216,7.636000e-02,1.360000e-03,
217,7.636000e-02,1.088000e-03,
218,7.636000e-02,1.088000e-03,
219,7.544000e-02,8.160000e-04,
220,7.452000e-02,5.440000e-04,
221,7.452000e-02,0.000000e+00,
222,7.452000e-02,2.720000e-04,
223,7.360000e-02,0.000000e+00,
224,7.360000e-02,0.000000e+00,
225,7.360000e-02,5.440000e-04,
226,7.268000e-02,-5.440000e-04,
227,7.176000e-02,-8.160000e-04,
228,7.084000e-02,-5.440000e-04,
229,7.176000e-02,-8.160000e-04,
230,6.992000e-02,-2.720000e-04,
231,6.992000e-02,-5.440000e-04,
232,6.900000e-02,-8.160000e-04,
233,6.808000e-02,-1.088000e-03,
234,6.716000e-02,-8.160000e-04,
235,6.808000e-02,-5.440000e-04,
236,6.624001e-02,-1.360000e-03,
237,6.624001e-02,-1.632000e-03,
238,6.440000e-02,-8.160000e-04,
239,6.440000e-02,-1.088000e-03,
240,6.348000e-02,-1.632000e-03,
241,6.348000e-02,-1.904000e-03,
242,6.256000e-02,-2.176000e-03,
243,6.256000e-02,-2.448000e-03,
244,6.072000e-02,-2.448000e-03,
245,6.072000e-02,-2.720000e-03,
246,5.980000e-02,-2.720000e-03,
247,5.980000e-02,-2.448000e-03,
248,5.796000e-02,-2.992000e-03,
249,5.796000e-02,-2.720000e-03,
250,5.704000e-02,-2.176000e-03,
251,5.612000e-02,-2.720000e-03,
252,5.520000e-02,-4.080000e-03,
253,5.428000e-02,-4.352000e-03,
254,5.336000e-02,-3.536000e-03,
255,5.336000e-02,-3.264000e-03,
256,5.152000e-02,-2.992000e-03,
257,5.244000e-02,-3.264000e-03,
258,4.968000e-02,-4.352000e-03,
259,5.060000e-02,-4.080000e-03,
260,4.784000e-02,-4.080000e-03,
261,4.784000e-02,-3.808000e-03,
262,4.600000e-02,-4.352000e-03,
263,4.692000e-02,-4.624000e-03,
264,4.508000e-02,-4.352000e-03,
265,4.416000e-02,-4.080000e-03,
266,4.324000e-02,-4.624000e-03,
267,4.324000e-02,-4.352000e-03,
268,4.140000e-02,-4.896000e-03,
269,4.140000e-02,-5.168000e-03,
270,3.956000e-02,-4.080000e-03,
271,3.956000e-02,-4.352000e-03,
272,3.772000e-02,-5.440000e-03,
273,3.772000e-02,-5.984000e-03,
274,3.588000e-02,-5.712000e-03,
275,3.588000e-02,-5.440000e-03,
276,3.404000e-02,-5.168000e-03,
277,3.404000e-02,-5.440000e-03,
278,3.220000e-02,-5.984000e-03,
279,3.220000e-02,-6.528000e-03,
280,3.036000e-02,-5.712000e-03,
281,3.036000e-02,-5.440000e-03,
282,2.852000e-02,-5.984000e-03,
283,2.760000e-02,-6.256000e-03,
284,2.668000e-02,-5.712000e-03,
285,2.576000e-02,-6.256000e-03,
286,2.392000e-02,-5.984000e-03,
287,2.392000e-02,-5.440000e-03,
288,2.300000e-02,-6.800000e-03,
289,2.208000e-02,-6.256000e-03,
290,2.024000e-02,-5.712000e-03,
291,2.024000e-02,-5.984000e-03,
292,1.840000e-02,-7.344000e-03,
293,1.840000e-02,-7.616000e-03,
294,1.656000e-02,-6.528000e-03,
295,1.656000e-02,-6.800000e-03,
296,1.380000e-02,-6.800000e-03,
297,1.380000e-02,-7.072000e-03,
298,1.196000e-02,-7.616000e-03,
299,1.196000e-02,-7.344000e-03,
300,1.012000e-02,-7.616000e-03,
301,1.012000e-02,-8.160000e-03,
302,8.280001e-03,-6.800000e-03,
303,7.360000e-03,-6.528000e-03,
304,5.520000e-03,-7.616000e-03,
305,5.520000e-03,-7.888000e-03,
306,3.680000e-03,-7.888000e-03,
307,3.680000e-03,-7.616000e-03,
308,1.840000e-03,-7.344000e-03,
309,9.200000e-04,-6.800000e-03,
310,-9.200000e-04,-7.616000e-03,
311,-9.200000e-04,-7.344000e-03,
312,-2.760000e-03,-7.888000e-03,
313,-2.760000e-03,-7.616000e-03,
314,-4.600000e-03,-7.888000e-03,
315,-5.520000e-03,-8.160000e-03,
316,-6.440000e-03,-7.888000e-03,
317,-7.360000e-03,-8.432000e-03,
318,-8.280001e-03,-7.888000e-03,
319,-9.200000e-03,-7.616000e-03,
320,-1.196000e-02,-8.160000e-03,
321,-1.196000e-02,-8.704000e-03,
322,-1.288000e-02,-7.616000e-03,
323,-1.380000e-02,-7.072000e-03,
324,-1.564000e-02,-8.704000e-03,
325,-1.564000e-02,-8.976000e-03,
326,-1.748000e-02,-7.888000e-03,
327,-1.656000e-02,-8.432000e-03,
328,-1.932000e-02,-7.888000e-03,
329,-1.932000e-02,-7.616000e-03,
330,-2.116000e-02,-9.248001e-03,
331,-2.208000e-02,-8.976000e-03,
332,-2.300000e-02,-7.616000e-03,
333,-2.392000e-02,-8.160000e-03,
334,-2.576000e-02,-8.432000e-03,
335,-2.484000e-02,-7.888000e-03,
336,-2.760000e-02,-8.704000e-03,
337,-2.760000e-02,-8.976000e-03,
338,-2.944000e-02,-8.160000e-03,
339,-2.944000e-02,-8.432000e-03,
340,-3.128000e-02,-8.432000e-03,
341,-3.128000e-02,-8.976000e-03,
342,-3.312000e-02,-8.160000e-03,
343,-3.312000e-02,-7.888000e-03,
344,-3.496000e-02,-8.704000e-03,
345,-3.496000e-02,-8.976000e-03,
346,-3.680000e-02,-8.432000e-03,
347,-3.680000e-02,-8.160000e-03,
348,-3.864000e-02,-8.704000e-03,
349,-3.864000e-02,-8.976000e-03,
350,-4.048000e-02,-8.160000e-03,
351,-4.140000e-02,-8.432000e-03,
352,-4.232000e-02,-8.704000e-03,
353,-4.324000e-02,-8.432000e-03,
354,-4.416000e-02,-8.704000e-03,
355,-4.416000e-02,-8.976000e-03,
356,-4.600000e-02,-7.888000e-03,
357,-4.600000e-02,-8.160000e-03,
358,-4.784000e-02,-8.160000e-03,
359,-4.784000e-02,-7.616000e-03,
360,-4.968000e-02,-8.432000e-03,
361,-4.876000e-02,-7.888000e-03,
362,-5.060000e-02,-7.888000e-03,
363,-5.060000e-02,-8.160000e-03,
364,-5.336000e-02,-8.160000e-03,
365,-5.336000e-02,-7.888000e-03,
366,-5.336000e-02,-7.616000e-03,
367,-5.428000e-02,-7.888000e-03,
368,-5.612000e-02,-8.160000e-03,
369,-5.520000e-02,-8.704000e-03,
370,-5.704000e-02,-7.344000e-03,
371,-5.796000e-02,-7.616000e-03,
372,-5.888000e-02,-8.704000e-03,
373,-5.888000e-02,-8.432000e-03,
374,-6.072000e-02,-7.344000e-03,
375,-5.980000e-02,-6.800000e-03,
376,-6.164000e-02,-7.616000e-03,
377,-6.164000e-02,-7.888000e-03,
378,-6.348000e-02,-7.344000e-03,
379,-6.348000e-02,-7.616000e-03,
380,-6.440000e-02,-6.800000e-03,
381,-6.440000e-02,-7.344000e-03,
382,-6.532000e-02,-6.800000e-03,
383,-6.624001e-02,-6.528000e-03,
384,-6.716000e-02,-7.616000e-03,
385,-6.716000e-02,-7.072000e-03,
386,-6.808000e-02,-7.072000e-03,
387,-6.900000e-02,-6.528000e-03,
388,-6.992000e-02,-6.528000e-03,
389,-6.900000e-02,-6.800000e-03,
390,-6.992000e-02,-6.800000e-03,
391,-6.992000e-02,-6.256000e-03,
392,-7.176000e-02,-6.800000e-03,
393,-7.176000e-02,-7.344000e-03,
394,-7.268000e-02,-6.800000e-03,
395,-7.176000e-02,-6.800000e-03,
396,-7.360000e-02,-6.256000e-03,
397,-7.360000e-02,-5.712000e-03,
398,-7.452000e-02,-5.984000e-03,
399,-7.452000e-02,-5.984000e-03,
400,-7.452000e-02,-6.528000e-03,
401,-7.544000e-02,-6.256000e-03,
402,-7.544000e-02,-5.712000e-03,
403,-7.636000e-02,-5.984000e-03,
404,-7.636000e-02,-5.712000e-03,
405,-7.636000e-02,-5.984000e-03,
406,-7.728000e-02,-5.168000e-03,
407,-7.728000e-02,-5.440000e-03,
408,-7.820000e-02,-6.256000e-03,
409,-7.820000e-02,-5.984000e-03,
410,-7.820000e-02,-5.440000e-03,
411,-7.912000e-02,-5.440000e-03,
412,-7.912000e-02,-4.624000e-03,
413,-8.004000e-02,-4.896000e-03,
414,-7.912000e-02,-4.352000e-03,
415,-8.004000e-02,-4.080000e-03,
416,-8.004000e-02,-5.712000e-03,
417,-8.004000e-02,-5.984000e-03,
418,-8.004000e-02,-4.352000e-03,
419,-8.004000e-02,-4.080000e-03,
420,-8.096001e-02,-4.624000e-03,
421,-8.096001e-02,-4.896000e-03,
422,-8.096001e-02,-4.352000e-03,
423,-8.096001e-02,-4.080000e-03,
424,-8.188000e-02,-4.352000e-03,
425,-8.188000e-02,-4.624000e-03,
426,-8.096001e-02,-3.808000e-03,
427,-8.096001e-02,-4.080000e-03,
428,-8.188000e-02,-3.264000e-03,
429,-8.188000e-02,-2.992000e-03,
430,-8.188000e-02,-3.264000e-03,
431,-8.280000e-02,-3.536000e-03,
432,-8.096001e-02,-3.808000e-03,
433,-8.096001e-02,-3.536000e-03,
434,-8.188000e-02,-2.448000e-03,
435,-8.188000e-02,-2.720000e-03,
436,-8.096001e-02,-3.264000e-03,
437,-8.188000e-02,-3.536000e-03,
438,-8.096001e-02,-1.632000e-03,
439,-8.188000e-02,-1.904000e-03,
440,-8.096001e-02,-2.992000e-03,
441,-8.188000e-02,-3.264000e-03,
442,-8.096001e-02,-2.448000e-03,
443,-8.096001e-02,-2.992000e-03,
444,-8.096001e-02,-8.160000e-04,
445,-8.096001e-02,-1.360000e-03,
446,-8.004000e-02,-1.632000e-03,
447,-8.004000e-02,-1.088000e-03,
448,-8.004000e-02,-2.448000e-03,
449,-8.004000e-02,-2.176000e-03,
450,-7.912000e-02,-2.720000e-04,
451,-8.004000e-02,-5.440000e-04,
452,-7.912000e-02,-1.088000e-03,
453,-7.912000e-02,-8.160000e-04,
454,-7.912000e-02,-5.440000e-04,
455,-7.912000e-02,0.000000e+00,
456,-7.820000e-02,-5.440000e-04,
457,-7.820000e-02,-8.160000e-04,
458,-7.728000e-02,0.000000e+00,
459,-7.728000e-02,2.720000e-04,
460,-7.728000e-02,0.000000e+00,
461,-7.728000e-02,5.440000e-04,
462,-7.636000e-02,5.440000e-04,
463,-7.544000e-02,1.088000e-03,
464,-7.544000e-02,2.720000e-04,
465,-7.452000e-02,0.000000e+00,
466,-7.452000e-02,1.088000e-03,
467,-7.452000e-02,1.360000e-03,
468,-7.360000e-02,2.720000e-04,
469,-7.268000e-02,8.160000e-04,
470,-7.176000e-02,1.632000e-03,
471,-7.176000e-02,2.176000e-03,
472,-7.176000e-02,2.720000e-04,
473,-7.084000e-02,5.440000e-04,
474,-6.992000e-02,8.160000e-04,
475,-6.992000e-02,1.360000e-03,
476,-6.900000e-02,2.992000e-03,
477,-6.900000e-02,2.448000e-03,
478,-6.808000e-02,1.088000e-03,
479,-6.716000e-02,1.632000e-03,
480,-6.716000e-02,1.360000e-03,
481,-6.624001e-02,1.904000e-03,
482,-6.532000e-02,3.536000e-03,
483,-6.532000e-02,3.536000e-03,
484,-6.440000e-02,1.360000e-03,
485,-6.440000e-02,1.088000e-03,
486,-6.256000e-02,3.808000e-03,
487,-6.256000e-02,3.536000e-03,
488,-6.164000e-02,2.992000e-03,
489,-6.164000e-02,2.720000e-03,
490,-5.980000e-02,3.264000e-03,
491,-5.980000e-02,3.536000e-03,
492,-5.888000e-02,2.992000e-03,
493,-5.888000e-02,3.264000e-03,
494,-5.704000e-02,3.536000e-03,
495,-5.704000e-02,2.992000e-03,
496,-5.520000e-02,3.536000e-03,
497,-5.520000e-02,3.808000e-03,
498,-5.336000e-02,4.624000e-03,
499,-5.336000e-02,4.080000e-03,
500,-5.244000e-02,4.624000e-03,
501,-5.244000e-02,4.352000e-03,
502,-5.060000e-02,4.624000e-03,
503,-5.060000e-02,4.352000e-03,
504,-4.876000e-02,4.624000e-03,
505,-4.876000e-02,4.352000e-03,
506,-4.784000e-02,5.168000e-03,
507,-4.784000e-02,4.896000e-03,
508,-4.600000e-02,5.440000e-03,
509,-4.600000e-02,5.440000e-03,
510,-4.324000e-02,5.168000e-03,
511,-4.416000e-02,4.896000e-03,
512,-4.232000e-02,5.984000e-03,
513,-4.232000e-02,5.712000e-03,
514,-4.048000e-02,5.984000e-03,
515,-3.956000e-02,6.528000e-03,
516,-3.864000e-02,5.440000e-03,
517,-3.864000e-02,5.712000e-03,
518,-3.680000e-02,7.344000e-03,
519,-3.680000e-02,7.072000e-03,
520,-3.588000e-02,5.984000e-03,
521,-3.496000e-02,6.528000e-03,
522,-3.312000e-02,6.800000e-03,
523,-3.312000e-02,6.528000e-03,
524,-3.128000e-02,6.800000e-03,
525,-3.036000e-02,7.344000e-03,
526,-2.944000e-02,7.072000e-03,
527,-2.852000e-02,6.528000e-03,
528,-2.760000e-02,6.528000e-03,
529,-2.760000e-02,7.072000e-03,
530,-2.484000e-02,7.888000e-03,
531,-2.484000e-02,7.616000e-03,
532,-2.392000e-02,6.800000e-03,
533,-2.300000e-02,7.072000e-03,
534,-2.116000e-02,7.616000e-03,
535,-2.116000e-02,8.160000e-03,
536,-1.932000e-02,7.344000e-03,
537,-1.932000e-02,7.072000e-03,
538,-1.748000e-02,8.160000e-03,
539,-1.748000e-02,7.888000e-03,
540,-1.472000e-02,7.888000e-03,
541,-1.472000e-02,8.160000e-03,
542,-1.288000e-02,7.888000e-03,
543,-1.288000e-02,7.616000e-03,
544,-1.104000e-02,7.888000e-03,
545,-1.104000e-02,7.344000e-03,
546,-8.280001e-03,7.888000e-03,
547,-8.280001e-03,7.616000e-03,
548,-6.440000e-03,7.888000e-03,
549,-6.440000e-03,7.344000e-03,
550,-4.600000e-03,8.704000e-03,
551,-4.600000e-03,8.432000e-03,
552,-2.760000e-03,7.344000e-03,
553,-2.760000e-03,7.616000e-03,
554,0.000000e+00,8.976000e-03,
555,0.000000e+00,8.704000e-03,
556,9.200000e-04,8.432000e-03,
557,1.840000e-03,8.976000e-03,
558,4.600000e-03,8.432000e-03,
559,4.600000e-03,8.432000e-03,
560,5.520000e-03,8.704000e-03,
561,5.520000e-03,8.704000e-03,
562,8.280001e-03,9.520000e-03,
563,9.200000e-03,8.976000e-03,
564,1.012000e-02,8.976000e-03,
565,1.012000e-02,8.432000e-03,
566,1.196000e-02,9.248001e-03,
567,1.288000e-02,8.976000e-03,
568,1.380000e-02,9.248001e-03,
569,1.472000e-02,8.976000e-03,
570,1.564000e-02,8.976000e-03,
571,1.656000e-02,9.248001e-03,
572,1.840000e-02,9.792000e-03,
573,1.840000e-02,9.520000e-03,
574,2.024000e-02,9.792000e-03,
575,2.116000e-02,1.006400e-02,
576,2.300000e-02,9.520000e-03,
577,2.300000e-02,9.792000e-03,
578,2.392000e-02,9.520000e-03,
579,2.392000e-02,9.792000e-03,
580,2.576000e-02,9.792000e-03,
581,2.668000e-02,9.520000e-03,
582,2.852000e-02,9.792000e-03,
583,2.852000e-02,1.006400e-02,
584,3.036000e-02,9.792000e-03,
585,2.944000e-02,1.006400e-02,
586,3.220000e-02,1.033600e-02,
587,3.220000e-02,1.006400e-02,
588,3.404000e-02,9.792000e-03,
589,3.404000e-02,1.033600e-02,
590,3.680000e-02,8.976000e-03,
591,3.680000e-02,9.520000e-03,
592,3.772000e-02,1.033600e-02,
593,3.864000e-02,1.060800e-02,
594,3.956000e-02,9.520000e-03,
595,3.956000e-02,9.248001e-03,
596,4.140000e-02,9.248001e-03,
597,4.140000e-02,8.704000e-03,
598,4.416000e-02,9.792000e-03,
599,4.324000e-02,1.033600e-02,
600,4.508000e-02,9.248001e-03,
601,4.508000e-02,8.976000e-03,
602,4.692000e-02,9.520000e-03,
603,4.692000e-02,1.006400e-02,
604,4.784000e-02,8.976000e-03,
605,4.784000e-02,8.704000e-03,
606,5.060000e-02,9.792000e-03,
607,5.060000e-02,9.520000e-03,
608,5.244000e-02,8.976000e-03,
609,5.152000e-02,9.248001e-03,
610,5.336000e-02,8.976000e-03,
611,5.336000e-02,9.248001e-03,
612,5.520000e-02,9.520000e-03,
613,5.520000e-02,9.248001e-03,
614,5.704000e-02,8.432000e-03,
615,5.704000e-02,8.704000e-03,
616,5.796000e-02,8.704000e-03,
617,5.888000e-02,8.432000e-03,
618,5.980000e-02,8.704000e-03,
619,5.980000e-02,8.976000e-03,
620,6.164000e-02,9.248001e-03,
621,6.072000e-02,8.704000e-03,
622,6.256000e-02,7.888000e-03,
623,6.348000e-02,8.432000e-03,
624,6.348000e-02,8.704000e-03,
625,6.348000e-02,8.160000e-03,
626,6.532000e-02,8.432000e-03,
627,6.532000e-02,8.704000e-03,
628,6.716000e-02,7.888000e-03,
