parte2/esp10/Data/d5/f1/2.csv

X,CH1,CH2,Start,Increment,
Sequence,Volt,Volt,-1.163980e-03,2.000000e-06,
0,6.956000e-02,3.160000e-04,
1,6.956000e-02,9.480000e-04,
2,6.956000e-02,3.160000e-04,
3,6.956000e-02,9.480000e-04,
4,6.862000e-02,-1.264000e-03,
5,6.862000e-02,-6.320000e-04,
6,6.674000e-02,-6.320000e-04,
7,6.674000e-02,0.000000e+00,
8,6.674000e-02,6.320000e-04,
9,6.580000e-02,1.264000e-03,
10,6.580000e-02,-1.264000e-03,
11,6.580000e-02,-2.212000e-03,
12,6.392000e-02,0.000000e+00,
13,6.298000e-02,-6.320000e-04,
14,6.204000e-02,-1.264000e-03,
15,6.204000e-02,-6.320000e-04,
16,6.109999e-02,0.000000e+00,
17,6.016000e-02,-6.320000e-04,
18,5.922000e-02,-3.160000e-04,
19,5.922000e-02,-9.480000e-04,
20,5.734000e-02,-9.480000e-04,
21,5.640000e-02,-3.160000e-04,
22,5.640000e-02,-6.320000e-04,
23,5.734000e-02,-9.480000e-04,
24,5.452000e-02,-9.480000e-04,
25,5.452000e-02,-3.160000e-04,
26,5.170000e-02,-1.580000e-03,
27,5.264000e-02,-9.480000e-04,
28,5.170000e-02,-6.320000e-04,
29,5.076000e-02,-1.264000e-03,
30,5.076000e-02,-1.264000e-03,
31,4.982000e-02,-1.580000e-03,
32,4.794000e-02,3.160000e-04,
33,4.888000e-02,-3.160000e-04,
34,4.700000e-02,6.320000e-04,
35,4.794000e-02,0.000000e+00,
36,4.418000e-02,0.000000e+00,
37,4.512000e-02,6.320000e-04,
38,4.324000e-02,6.320000e-04,
39,4.418000e-02,9.480000e-04,
40,4.230000e-02,-6.320000e-04,
41,4.230000e-02,-1.264000e-03,
42,3.948000e-02,-3.160000e-04,
43,3.854000e-02,-1.264000e-03,
44,3.854000e-02,6.320000e-04,
45,3.854000e-02,9.480000e-04,
46,3.572000e-02,0.000000e+00,
47,3.666000e-02,-9.480000e-04,
48,3.478000e-02,-6.320000e-04,
49,3.478000e-02,0.000000e+00,
50,3.196000e-02,0.000000e+00,
51,3.290000e-02,6.320000e-04,
52,3.008000e-02,3.160000e-04,
53,3.008000e-02,-3.160000e-04,
54,2.820000e-02,-3.160000e-04,
55,2.726000e-02,3.160000e-04,
56,2.726000e-02,-2.528000e-03,
57,2.632000e-02,-1.896000e-03,
58,2.538000e-02,9.480000e-04,
59,2.444000e-02,0.000000e+00,
60,2.256000e-02,-3.160000e-04,
61,2.256000e-02,-9.480000e-04,
62,2.068000e-02,0.000000e+00,
63,2.068000e-02,-6.320000e-04,
64,1.786000e-02,-3.160000e-04,
65,1.880000e-02,-6.320000e-04,
66,1.598000e-02,6.320000e-04,
67,1.598000e-02,1.264000e-03,
68,1.410000e-02,-6.320000e-04,
69,1.504000e-02,-1.580000e-03,
70,1.316000e-02,-1.896000e-03,
71,1.222000e-02,-2.528000e-03,
72,1.034000e-02,-6.320000e-04,
73,1.128000e-02,-1.264000e-03,
74,7.520000e-03,1.580000e-03,
75,7.520000e-03,1.896000e-03,
76,7.520000e-03,-1.264000e-03,
77,6.580000e-03,-1.896000e-03,
78,4.700000e-03,-9.480000e-04,
79,4.700000e-03,-1.580000e-03,
80,1.880000e-03,-9.480000e-04,
81,2.820000e-03,-1.580000e-03,
82,-9.399999e-04,2.212000e-03,
83,0.000000e+00,1.580000e-03,
84,-9.399999e-04,0.000000e+00,
85,-1.880000e-03,9.480000e-04,
86,-3.760000e-03,-1.264000e-03,
87,-3.760000e-03,-6.320000e-04,
88,-6.580000e-03,9.480000e-04,
89,-5.640000e-03,3.160000e-04,
90,-7.520000e-03,-6.320000e-04,
91,-7.520000e-03,-9.480000e-04,
92,-1.034000e-02,0.000000e+00,
93,-1.034000e-02,-6.320000e-04,
94,-1.222000e-02,-1.896000e-03,
95,-1.316000e-02,-1.264000e-03,
96,-1.504000e-02,1.264000e-03,
97,-1.410000e-02,6.320000e-04,
98,-1.598000e-02,-1.264000e-03,
99,-1.598000e-02,-6.320000e-04,
100,-1.880000e-02,0.000000e+00,
101,-1.786000e-02,-3.160000e-04,
102,-2.068000e-02,-6.320000e-04,
103,-2.068000e-02,-1.264000e-03,
104,-2.162000e-02,9.480000e-04,
105,-2.068000e-02,3.160000e-04,
106,-2.444000e-02,-1.264000e-03,
107,-2.444000e-02,-1.896000e-03,
108,-2.632000e-02,0.000000e+00,
109,-2.538000e-02,6.320000e-04,
110,-2.820000e-02,-3.160000e-04,
111,-2.914000e-02,3.160000e-04,
112,-2.914000e-02,-9.480000e-04,
113,-2.914000e-02,-3.160000e-04,
114,-3.196000e-02,-9.480000e-04,
115,-3.102000e-02,-3.160000e-04,
116,-3.384000e-02,0.000000e+00,
117,-3.384000e-02,6.320000e-04,
118,-3.572000e-02,-3.160000e-04,
119,-3.572000e-02,0.000000e+00,
120,-3.760000e-02,-1.580000e-03,
121,-3.854000e-02,-2.212000e-03,
122,-4.042000e-02,1.264000e-03,
123,-4.042000e-02,1.896000e-03,
124,-4.042000e-02,-6.320000e-04,
125,-4.136000e-02,0.000000e+00,
126,-4.230000e-02,-3.160000e-04,
127,-4.230000e-02,3.160000e-04,
128,-4.418000e-02,0.000000e+00,
129,-4.418000e-02,-9.480000e-04,
130,-4.700000e-02,3.160000e-04,
131,-4.606000e-02,0.000000e+00,
132,-4.888000e-02,-3.160000e-04,
133,-4.888000e-02,-9.480000e-04,
134,-4.982000e-02,0.000000e+00,
135,-4.888000e-02,-6.320000e-04,
136,-5.170000e-02,0.000000e+00,
137,-5.076000e-02,-6.320000e-04,
138,-5.264000e-02,-1.896000e-03,
139,-5.264000e-02,-2.528000e-03,
140,-5.452000e-02,-9.480000e-04,
141,-5.545999e-02,-1.580000e-03,
142,-5.545999e-02,3.160000e-04,
143,-5.640000e-02,-3.160000e-04,
144,-5.827999e-02,-6.320000e-04,
145,-5.734000e-02,0.000000e+00,
146,-5.827999e-02,-9.480000e-04,
147,-5.922000e-02,-1.580000e-03,
148,-6.016000e-02,-1.264000e-03,
149,-6.016000e-02,-1.896000e-03,
150,-6.204000e-02,1.580000e-03,
151,-6.298000e-02,9.480000e-04,
152,-6.298000e-02,0.000000e+00,
153,-6.298000e-02,-6.320000e-04,
154,-6.485999e-02,-6.320000e-04,
155,-6.392000e-02,3.160000e-04,
156,-6.485999e-02,6.320000e-04,
157,-6.580000e-02,1.264000e-03,
158,-6.674000e-02,0.000000e+00,
159,-6.674000e-02,6.320000e-04,
160,-6.767999e-02,-6.320000e-04,
161,-6.767999e-02,-3.160000e-04,
162,-6.956000e-02,0.000000e+00,
163,-6.956000e-02,-3.160000e-04,
164,-7.049999e-02,-1.580000e-03,
165,-7.049999e-02,-9.480000e-04,
166,-7.144000e-02,9.480000e-04,
167,-7.144000e-02,1.264000e-03,
168,-7.238000e-02,-9.480000e-04,
169,-7.144000e-02,-3.160000e-04,
170,-7.238000e-02,-3.160000e-04,
171,-7.331999e-02,3.160000e-04,
172,-7.331999e-02,-1.264000e-03,
173,-7.426000e-02,-6.320000e-04,
174,-7.520000e-02,0.000000e+00,
175,-7.426000e-02,-6.320000e-04,
176,-7.520000e-02,-3.160000e-04,
177,-7.426000e-02,-6.320000e-04,
178,-7.613999e-02,6.320000e-04,
179,-7.613999e-02,3.160000e-04,
180,-7.613999e-02,-9.480000e-04,
181,-7.708000e-02,-1.580000e-03,
182,-7.801999e-02,-9.480000e-04,
183,-7.708000e-02,-1.580000e-03,
184,-7.801999e-02,0.000000e+00,
185,-7.801999e-02,-6.320000e-04,
186,-7.895999e-02,3.160000e-04,
187,-7.801999e-02,-3.160000e-04,
188,-7.895999e-02,3.160000e-04,
189,-7.895999e-02,9.480000e-04,
190,-7.895999e-02,-1.580000e-03,
191,-7.895999e-02,-9.480000e-04,
192,-7.895999e-02,-1.264000e-03,
193,-7.895999e-02,-6.320000e-04,
194,-8.083999e-02,1.264000e-03,
195,-7.990000e-02,1.896000e-03,
196,-7.990000e-02,-6.320000e-04,
197,-7.990000e-02,0.000000e+00,
198,-7.990000e-02,9.480000e-04,
199,-7.990000e-02,1.580000e-03,
200,-8.177999e-02,-3.160000e-04,
201,-8.083999e-02,-9.480000e-04,
202,-8.083999e-02,0.000000e+00,
203,-8.083999e-02,6.320000e-04,
204,-8.083999e-02,6.320000e-04,
205,-8.083999e-02,1.264000e-03,
206,-8.083999e-02,-6.320000e-04,
207,-8.177999e-02,-1.264000e-03,
208,-8.177999e-02,-3.160000e-04,
209,-8.177999e-02,3.160000e-04,
210,-8.177999e-02,-6.320000e-04,
211,-8.177999e-02,0.000000e+00,
212,-8.177999e-02,-6.320000e-04,
213,-8.083999e-02,3.160000e-04,
214,-7.990000e-02,-6.320000e-04,
215,-8.083999e-02,0.000000e+00,
216,-8.083999e-02,-9.480000e-04,
217,-7.990000e-02,-3.160000e-04,
218,-8.083999e-02,9.480000e-04,
219,-8.083999e-02,1.580000e-03,
220,-7.895999e-02,6.320000e-04,
221,-7.990000e-02,0.000000e+00,
222,-7.895999e-02,3.160000e-04,
223,-7.990000e-02,9.480000e-04,
224,-7.895999e-02,3.160000e-04,
225,-7.990000e-02,-3.160000e-04,
226,-7.801999e-02,9.480000e-04,
227,-7.895999e-02,1.580000e-03,
228,-7.708000e-02,-1.264000e-03,
229,-7.801999e-02,-6.320000e-04,
230,-7.708000e-02,1.580000e-03,
231,-7.801999e-02,2.212000e-03,
232,-7.708000e-02,-6.320000e-04,
233,-7.708000e-02,0.000000e+00,
234,-7.520000e-02,3.160000e-04,
235,-7.613999e-02,-3.160000e-04,
236,-7.520000e-02,6.320000e-04,
237,-7.426000e-02,0.000000e+00,
238,-7.426000e-02,-9.480000e-04,
239,-7.426000e-02,-1.580000e-03,
240,-7.426000e-02,3.160000e-04,
241,-7.426000e-02,-3.160000e-04,
242,-7.331999e-02,3.160000e-04,
243,-7.238000e-02,9.480000e-04,
244,-7.238000e-02,9.480000e-04,
245,-7.144000e-02,1.580000e-03,
246,-7.238000e-02,-6.320000e-04,
247,-7.238000e-02,-1.264000e-03,
248,-7.049999e-02,-3.160000e-04,
249,-6.956000e-02,-9.480000e-04,
250,-6.862000e-02,-3.160000e-04,
251,-6.862000e-02,-9.480000e-04,
252,-6.674000e-02,1.896000e-03,
253,-6.767999e-02,1.264000e-03,
254,-6.580000e-02,-6.320000e-04,
255,-6.674000e-02,0.000000e+00,
256,-6.674000e-02,1.264000e-03,
257,-6.674000e-02,6.320000e-04,
258,-6.485999e-02,-3.160000e-04,
259,-6.485999e-02,-9.480000e-04,
260,-6.298000e-02,6.320000e-04,
261,-6.204000e-02,3.160000e-04,
262,-6.204000e-02,-6.320000e-04,
263,-6.204000e-02,-1.264000e-03,
264,-6.016000e-02,2.212000e-03,
265,-6.016000e-02,1.580000e-03,
266,-5.922000e-02,6.320000e-04,
267,-5.827999e-02,1.264000e-03,
268,-5.734000e-02,-3.160000e-04,
269,-5.734000e-02,-9.480000e-04,
270,-5.640000e-02,6.320000e-04,
271,-5.640000e-02,0.000000e+00,
272,-5.358000e-02,3.160000e-04,
273,-5.358000e-02,-3.160000e-04,
274,-5.264000e-02,-3.160000e-04,
275,-5.264000e-02,-6.320000e-04,
276,-5.170000e-02,-6.320000e-04,
277,-5.076000e-02,0.000000e+00,
278,-4.888000e-02,-3.160000e-04,
279,-4.888000e-02,-9.480000e-04,
280,-4.794000e-02,3.160000e-04,
281,-4.794000e-02,-3.160000e-04,
282,-4.700000e-02,9.480000e-04,
283,-4.700000e-02,3.160000e-04,
284,-4.324000e-02,-9.480000e-04,
285,-4.418000e-02,-6.320000e-04,
286,-4.230000e-02,-6.320000e-04,
287,-4.324000e-02,0.000000e+00,
288,-4.136000e-02,-6.320000e-04,
289,-4.136000e-02,0.000000e+00,
290,-3.948000e-02,-9.480000e-04,
291,-3.854000e-02,-3.160000e-04,
292,-3.760000e-02,-9.480000e-04,
293,-3.760000e-02,-3.160000e-04,
294,-3.572000e-02,-3.160000e-04,
295,-3.572000e-02,-9.480000e-04,
296,-3.384000e-02,9.480000e-04,
297,-3.384000e-02,1.580000e-03,
298,-3.102000e-02,-6.320000e-04,
299,-3.196000e-02,-1.264000e-03,
300,-3.102000e-02,0.000000e+00,
301,-3.008000e-02,-6.320000e-04,
302,-2.726000e-02,6.320000e-04,
303,-2.726000e-02,-3.160000e-04,
304,-2.632000e-02,-3.160000e-04,
305,-2.538000e-02,-9.480000e-04,
306,-2.350000e-02,-6.320000e-04,
307,-2.350000e-02,0.000000e+00,
308,-2.162000e-02,9.480000e-04,
309,-2.162000e-02,3.160000e-04,
310,-1.880000e-02,6.320000e-04,
311,-1.974000e-02,0.000000e+00,
312,-1.786000e-02,0.000000e+00,
313,-1.786000e-02,-6.320000e-04,
314,-1.504000e-02,-1.264000e-03,
315,-1.598000e-02,-6.320000e-04,
316,-1.316000e-02,6.320000e-04,
317,-1.316000e-02,1.264000e-03,
318,-1.222000e-02,-1.264000e-03,
319,-1.222000e-02,-6.320000e-04,
320,-1.034000e-02,0.000000e+00,
321,-9.400000e-03,-6.320000e-04,
322,-8.459999e-03,6.320000e-04,
323,-7.520000e-03,0.000000e+00,
324,-5.640000e-03,-3.160000e-04,
325,-5.640000e-03,-6.320000e-04,
326,-3.760000e-03,3.160000e-04,
327,-2.820000e-03,-3.160000e-04,
328,-9.399999e-04,-6.320000e-04,
329,-9.399999e-04,-9.480000e-04,
330,0.000000e+00,-6.320000e-04,
331,-9.399999e-04,0.000000e+00,
332,1.880000e-03,-6.320000e-04,
333,1.880000e-03,0.000000e+00,
334,4.700000e-03,-3.160000e-04,
335,3.760000e-03,0.000000e+00,
336,7.520000e-03,-3.160000e-04,
337,6.580000e-03,3.160000e-04,
338,9.400000e-03,-3.160000e-04,
339,8.459999e-03,3.160000e-04,
340,1.034000e-02,-6.320000e-04,
341,1.034000e-02,-1.264000e-03,
342,1.222000e-02,0.000000e+00,
343,1.222000e-02,6.320000e-04,
344,1.410000e-02,-3.160000e-04,
345,1.410000e-02,-9.480000e-04,
346,1.598000e-02,0.000000e+00,
347,1.598000e-02,6.320000e-04,
348,1.880000e-02,0.000000e+00,
349,1.880000e-02,-6.320000e-04,
350,2.162000e-02,-3.160000e-04,
351,2.068000e-02,-9.480000e-04,
352,2.256000e-02,-9.480000e-04,
353,2.350000e-02,-6.320000e-04,
354,2.350000e-02,0.000000e+00,
355,2.444000e-02,-6.320000e-04,
356,2.726000e-02,-1.580000e-03,
357,2.632000e-02,-9.480000e-04,
358,2.820000e-02,3.160000e-04,
359,2.820000e-02,-3.160000e-04,
360,3.008000e-02,-9.480000e-04,
361,3.008000e-02,0.000000e+00,
362,3.290000e-02,-9.480000e-04,
363,3.196000e-02,-3.160000e-04,
364,3.384000e-02,9.480000e-04,
365,3.384000e-02,3.160000e-04,
366,3.478000e-02,0.000000e+00,
367,3.478000e-02,3.160000e-04,
368,3.760000e-02,-1.580000e-03,
369,3.760000e-02,-9.480000e-04,
370,3.948000e-02,-9.480000e-04,
371,3.948000e-02,-6.320000e-04,
372,4.136000e-02,-6.320000e-04,
373,4.136000e-02,0.000000e+00,
374,4.418000e-02,0.000000e+00,
375,4.324000e-02,6.320000e-04,
376,4.606000e-02,3.160000e-04,
377,4.512000e-02,9.480000e-04,
378,4.606000e-02,-2.212000e-03,
379,4.700000e-02,-1.580000e-03,
380,4.888000e-02,0.000000e+00,
381,4.794000e-02,-3.160000e-04,
382,5.076000e-02,-6.320000e-04,
383,4.982000e-02,-1.264000e-03,
384,5.170000e-02,-3.160000e-04,
385,5.170000e-02,3.160000e-04,
386,5.358000e-02,-9.480000e-04,
387,5.358000e-02,-1.580000e-03,
388,5.452000e-02,0.000000e+00,
389,5.452000e-02,9.480000e-04,
390,5.640000e-02,3.160000e-04,
391,5.545999e-02,-3.160000e-04,
392,5.827999e-02,6.320000e-04,
393,5.734000e-02,1.264000e-03,
394,5.922000e-02,-3.160000e-04,
395,5.922000e-02,-6.320000e-04,
396,6.109999e-02,-6.320000e-04,
397,6.109999e-02,-1.264000e-03,
398,6.204000e-02,9.480000e-04,
399,6.298000e-02,3.160000e-04,
400,6.392000e-02,-6.320000e-04,
401,6.392000e-02,-1.264000e-03,
402,6.485999e-02,-3.160000e-04,
403,6.392000e-02,0.000000e+00,
404,6.674000e-02,3.160000e-04,
405,6.767999e-02,-3.160000e-04,
406,6.674000e-02,3.160000e-04,
407,6.767999e-02,9.480000e-04,
408,6.862000e-02,-6.320000e-04,
409,6.767999e-02,-1.264000e-03,
410,7.049999e-02,0.000000e+00,
411,7.049999e-02,6.320000e-04,
412,7.144000e-02,-1.264000e-03,
413,7.049999e-02,-6.320000e-04,
414,7.144000e-02,0.000000e+00,
415,7.144000e-02,6.320000e-04,
416,7.238000e-02,-1.580000e-03,
417,7.331999e-02,-9.480000e-04,
418,7.331999e-02,6.320000e-04,
419,7.331999e-02,0.000000e+00,
420,7.426000e-02,-6.320000e-04,
421,7.426000e-02,-1.264000e-03,
422,7.520000e-02,1.580000e-03,
423,7.520000e-02,9.480000e-04,
424,7.613999e-02,6.320000e-04,
425,7.613999e-02,0.000000e+00,
426,7.801999e-02,-3.160000e-04,
427,7.708000e-02,-9.480000e-04,
428,7.801999e-02,-6.320000e-04,
429,7.801999e-02,-1.264000e-03,
430,7.895999e-02,-3.160000e-04,
431,7.895999e-02,-9.480000e-04,
432,7.895999e-02,-1.264000e-03,
433,7.895999e-02,-6.320000e-04,
434,7.990000e-02,0.000000e+00,
435,7.990000e-02,-3.160000e-04,
436,7.990000e-02,0.000000e+00,
437,8.083999e-02,-6.320000e-04,
438,8.083999e-02,-9.480000e-04,
439,8.083999e-02,-1.580000e-03,
440,8.083999e-02,0.000000e+00,
441,8.177999e-02,3.160000e-04,
442,8.083999e-02,3.160000e-04,
443,8.177999e-02,-6.320000e-04,
444,8.177999e-02,-9.480000e-04,
445,8.272000e-02,-1.264000e-03,
446,8.177999e-02,-3.160000e-04,
447,8.083999e-02,-9.480000e-04,
448,8.272000e-02,-3.160000e-04,
449,8.272000e-02,-9.480000e-04,
450,8.272000e-02,-6.320000e-04,
451,8.272000e-02,0.000000e+00,
452,8.272000e-02,-6.320000e-04,
453,8.272000e-02,-1.264000e-03,
454,8.272000e-02,-1.264000e-03,
455,8.272000e-02,-6.320000e-04,
456,8.272000e-02,0.000000e+00,
457,8.177999e-02,6.320000e-04,
458,8.272000e-02,-6.320000e-04,
459,8.272000e-02,-1.264000e-03,
460,8.177999e-02,9.480000e-04,
461,8.272000e-02,3.160000e-04,
462,8.272000e-02,-6.320000e-04,
463,8.272000e-02,-3.160000e-04,
464,8.177999e-02,0.000000e+00,
465,8.177999e-02,-6.320000e-04,
466,8.272000e-02,-3.160000e-04,
467,8.177999e-02,3.160000e-04,
468,8.177999e-02,1.580000e-03,
469,8.177999e-02,9.480000e-04,
470,8.177999e-02,-3.160000e-04,
471,8.177999e-02,3.160000e-04,
472,8.083999e-02,0.000000e+00,
473,8.083999e-02,6.320000e-04,
474,7.990000e-02,0.000000e+00,
475,7.990000e-02,-6.320000e-04,
476,7.990000e-02,-6.320000e-04,
477,7.990000e-02,-9.480000e-04,
478,7.990000e-02,6.320000e-04,
479,7.990000e-02,0.000000e+00,
480,7.895999e-02,-3.160000e-04,
481,7.801999e-02,-6.320000e-04,
482,7.801999e-02,-6.320000e-04,
483,7.801999e-02,-1.264000e-03,
484,7.708000e-02,-1.264000e-03,
485,7.708000e-02,-1.896000e-03,
486,7.708000e-02,-6.320000e-04,
487,7.708000e-02,0.000000e+00,
488,7.613999e-02,6.320000e-04,
489,7.520000e-02,3.160000e-04,
490,7.520000e-02,9.480000e-04,
491,7.520000e-02,3.160000e-04,
492,7.426000e-02,6.320000e-04,
493,7.520000e-02,9.480000e-04,
494,7.331999e-02,0.000000e+00,
495,7.426000e-02,6.320000e-04,
496,7.238000e-02,3.160000e-04,
497,7.238000e-02,9.480000e-04,
498,7.144000e-02,0.000000e+00,
499,7.144000e-02,-6.320000e-04,
500,7.144000e-02,-3.160000e-04,
501,7.144000e-02,3.160000e-04,
502,7.049999e-02,-3.160000e-04,
503,6.956000e-02,-9.480000e-04,
504,6.767999e-02,-6.320000e-04,
505,6.767999e-02,0.000000e+00,
506,6.767999e-02,0.000000e+00,
507,6.674000e-02,-6.320000e-04,
508,6.580000e-02,0.000000e+00,
509,6.580000e-02,-6.320000e-04,
510,6.485999e-02,-1.264000e-03,
511,6.485999e-02,-6.320000e-04,
512,6.298000e-02,6.320000e-04,
513,6.298000e-02,1.264000e-03,
514,6.204000e-02,-9.480000e-04,
515,6.204000e-02,-3.160000e-04,
516,6.109999e-02,-1.264000e-03,
517,6.109999e-02,-6.320000e-04,
518,5.922000e-02,9.480000e-04,
519,5.827999e-02,1.580000e-03,
520,5.734000e-02,1.580000e-03,
521,5.734000e-02,9.480000e-04,
522,5.734000e-02,-3.160000e-04,
523,5.640000e-02,3.160000e-04,
524,5.452000e-02,-3.160000e-04,
525,5.452000e-02,0.000000e+00,
526,5.264000e-02,3.160000e-04,
527,5.264000e-02,-6.320000e-04,
528,5.076000e-02,-6.320000e-04,
529,5.170000e-02,-1.264000e-03,
530,4.982000e-02,-9.480000e-04,
531,4.982000e-02,-1.580000e-03,
532,4.794000e-02,-9.480000e-04,
533,4.888000e-02,-1.264000e-03,
534,4.606000e-02,-6.320000e-04,
535,4.700000e-02,0.000000e+00,
536,4.418000e-02,-9.480000e-04,
537,4.512000e-02,-1.580000e-03,
538,4.324000e-02,0.000000e+00,
539,4.418000e-02,-3.160000e-04,
540,4.136000e-02,-6.320000e-04,
541,4.230000e-02,0.000000e+00,
542,3.948000e-02,-1.264000e-03,
543,3.948000e-02,-1.896000e-03,
544,3.760000e-02,6.320000e-04,
545,3.760000e-02,0.000000e+00,
546,3.572000e-02,0.000000e+00,
547,3.572000e-02,-6.320000e-04,
548,3.384000e-02,0.000000e+00,
549,3.478000e-02,-6.320000e-04,
550,3.102000e-02,-3.160000e-04,
551,3.196000e-02,-9.480000e-04,
552,3.008000e-02,0.000000e+00,
553,2.914000e-02,3.160000e-04,
554,2.820000e-02,-9.480000e-04,
555,2.820000e-02,-6.320000e-04,
556,2.632000e-02,-6.320000e-04,
557,2.632000e-02,-1.264000e-03,
558,2.444000e-02,1.580000e-03,
559,2.444000e-02,9.480000e-04,
560,2.162000e-02,-1.264000e-03,
561,2.162000e-02,-6.320000e-04,
562,2.068000e-02,-9.480000e-04,
563,2.068000e-02,-1.580000e-03,
564,1.880000e-02,-3.160000e-04,
565,1.880000e-02,-6.320000e-04,
566,1.786000e-02,-9.480000e-04,
567,1.692000e-02,0.000000e+00,
568,1.504000e-02,6.320000e-04,
569,1.504000e-02,3.160000e-04,
570,1.222000e-02,-9.480000e-04,
571,1.222000e-02,-3.160000e-04,
572,1.034000e-02,0.000000e+00,
573,1.034000e-02,6.320000e-04,
574,8.459999e-03,-1.580000e-03,
575,8.459999e-03,-9.480000e-04,
576,6.580000e-03,3.160000e-04,
577,6.580000e-03,9.480000e-04,
578,3.760000e-03,-6.320000e-04,
579,3.760000e-03,-1.264000e-03,
580,1.880000e-03,0.000000e+00,
581,1.880000e-03,6.320000e-04,
582,0.000000e+00,-3.160000e-04,
583,9.399999e-04,3.160000e-04,
584,-1.880000e-03,0.000000e+00,
585,-1.880000e-03,6.320000e-04,
586,-3.760000e-03,3.160000e-04,
587,-3.760000e-03,9.480000e-04,
588,-5.640000e-03,-1.264000e-03,
589,-6.580000e-03,-1.896000e-03,
590,-8.459999e-03,-9.480000e-04,
591,-8.459999e-03,-3.160000e-04,
592,-9.400000e-03,3.160000e-04,
593,-1.034000e-02,-3.160000e-04,
594,-1.222000e-02,6.320000e-04,
595,-1.222000e-02,1.264000e-03,
596,-1.410000e-02,-9.480000e-04,
597,-1.316000e-02,-3.160000e-04,
598,-1.598000e-02,-3.160000e-04,
599,-1.598000e-02,3.160000e-04,
600,-1.786000e-02,-1.264000e-03,
601,-1.880000e-02,-6.320000e-04,
602,-1.974000e-02,-1.264000e-03,
603,-1.974000e-02,-9.480000e-04,
604,-2.256000e-02,-1.580000e-03,
605,-2.256000e-02,-9.480000e-04,
606,-2.350000e-02,-3.160000e-04,
607,-2.444000e-02,3.160000e-04,
608,-2.632000e-02,0.000000e+00,
609,-2.632000e-02,3.160000e-04,
610,-2.820000e-02,-3.160000e-04,
611,-2.914000e-02,-1.264000e-03,
612,-3.008000e-02,-3.160000e-04,
613,-2.914000e-02,3.160000e-04,
614,-3.196000e-02,0.000000e+00,
615,-3.102000e-02,-6.320000e-04,
616,-3.384000e-02,-6.320000e-04,
617,-3.384000e-02,0.000000e+00,
618,-3.572000e-02,-9.480000e-04,
619,-3.572000e-02,-3.160000e-04,
620,-3.760000e-02,0.000000e+00,
621,-3.760000e-02,-3.160000e-04,
622,-3.854000e-02,-6.320000e-04,
623,-3.854000e-02,0.000000e+00,
624,-4.042000e-02,0.000000e+00,
