parte2/esp10/Data/d5/f1/4.csv

X,CH1,CH2,Start,Increment,
Sequence,Volt,Volt,-1.163980e-03,2.000000e-06,
0,6.956000e-02,1.264000e-03,
1,6.956000e-02,1.580000e-03,
2,6.956000e-02,1.264000e-03,
3,6.956000e-02,1.580000e-03,
4,6.862000e-02,1.264000e-03,
5,6.862000e-02,6.320000e-04,
6,6.767999e-02,3.160000e-04,
7,6.767999e-02,-3.160000e-04,
8,6.485999e-02,0.000000e+00,
9,6.485999e-02,-3.160000e-04,
10,6.392000e-02,6.320000e-04,
11,6.485999e-02,1.264000e-03,
12,6.298000e-02,3.160000e-04,
13,6.392000e-02,6.320000e-04,
14,6.298000e-02,6.320000e-04,
15,6.298000e-02,0.000000e+00,
16,6.016000e-02,0.000000e+00,
17,6.109999e-02,-6.320000e-04,
18,5.827999e-02,3.160000e-04,
19,5.827999e-02,-3.160000e-04,
20,5.734000e-02,0.000000e+00,
21,5.734000e-02,-6.320000e-04,
22,5.640000e-02,-9.480000e-04,
23,5.545999e-02,-3.160000e-04,
24,5.545999e-02,-6.320000e-04,
25,5.452000e-02,0.000000e+00,
26,5.358000e-02,6.320000e-04,
27,5.358000e-02,1.264000e-03,
28,5.170000e-02,-6.320000e-04,
29,5.170000e-02,0.000000e+00,
30,4.982000e-02,9.480000e-04,
31,4.982000e-02,3.160000e-04,
32,4.794000e-02,1.264000e-03,
33,4.794000e-02,9.480000e-04,
34,4.606000e-02,0.000000e+00,
35,4.606000e-02,6.320000e-04,
36,4.418000e-02,-9.480000e-04,
37,4.512000e-02,-3.160000e-04,
38,4.230000e-02,1.264000e-03,
39,4.324000e-02,6.320000e-04,
40,4.042000e-02,-6.320000e-04,
41,4.042000e-02,-1.264000e-03,
42,3.948000e-02,-9.480000e-04,
43,3.948000e-02,0.000000e+00,
44,3.760000e-02,-3.160000e-04,
45,3.760000e-02,-9.480000e-04,
46,3.572000e-02,9.480000e-04,
47,3.572000e-02,6.320000e-04,
48,3.478000e-02,3.160000e-04,
49,3.384000e-02,-3.160000e-04,
50,3.196000e-02,3.160000e-04,
51,3.196000e-02,6.320000e-04,
52,3.008000e-02,-1.264000e-03,
53,3.008000e-02,-6.320000e-04,
54,2.820000e-02,0.000000e+00,
55,2.820000e-02,-6.320000e-04,
56,2.632000e-02,-3.160000e-04,
57,2.632000e-02,3.160000e-04,
58,2.444000e-02,0.000000e+00,
59,2.538000e-02,3.160000e-04,
60,2.256000e-02,0.000000e+00,
61,2.256000e-02,6.320000e-04,
62,2.068000e-02,0.000000e+00,
63,1.974000e-02,3.160000e-04,
64,1.974000e-02,9.480000e-04,
65,1.880000e-02,3.160000e-04,
66,1.692000e-02,3.160000e-04,
67,1.692000e-02,9.480000e-04,
68,1.598000e-02,0.000000e+00,
69,1.504000e-02,-6.320000e-04,
70,1.222000e-02,-6.320000e-04,
71,1.222000e-02,-1.264000e-03,
72,1.034000e-02,0.000000e+00,
73,1.128000e-02,6.320000e-04,
74,7.520000e-03,-6.320000e-04,
75,8.459999e-03,0.000000e+00,
76,5.640000e-03,0.000000e+00,
77,6.580000e-03,-3.160000e-04,
78,3.760000e-03,9.480000e-04,
79,3.760000e-03,3.160000e-04,
80,1.880000e-03,6.320000e-04,
81,2.820000e-03,1.264000e-03,
82,0.000000e+00,0.000000e+00,
83,9.399999e-04,6.320000e-04,
84,-2.820000e-03,-3.160000e-04,
85,-1.880000e-03,-6.320000e-04,
86,-4.700000e-03,0.000000e+00,
87,-3.760000e-03,3.160000e-04,
88,-6.580000e-03,-6.320000e-04,
89,-6.580000e-03,0.000000e+00,
90,-7.520000e-03,6.320000e-04,
91,-7.520000e-03,0.000000e+00,
92,-1.034000e-02,-1.264000e-03,
93,-1.034000e-02,-6.320000e-04,
94,-1.222000e-02,-3.160000e-04,
95,-1.128000e-02,0.000000e+00,
96,-1.410000e-02,-9.480000e-04,
97,-1.410000e-02,-1.580000e-03,
98,-1.692000e-02,-6.320000e-04,
99,-1.692000e-02,-3.160000e-04,
100,-1.786000e-02,6.320000e-04,
101,-1.786000e-02,0.000000e+00,
102,-1.974000e-02,-9.480000e-04,
103,-2.068000e-02,-3.160000e-04,
104,-2.162000e-02,3.160000e-04,
105,-2.256000e-02,-3.160000e-04,
106,-2.444000e-02,1.580000e-03,
107,-2.444000e-02,1.264000e-03,
108,-2.632000e-02,9.480000e-04,
109,-2.632000e-02,1.580000e-03,
110,-2.726000e-02,-3.160000e-04,
111,-2.726000e-02,-9.480000e-04,
112,-3.008000e-02,-3.160000e-04,
113,-3.008000e-02,0.000000e+00,
114,-3.196000e-02,9.480000e-04,
115,-3.290000e-02,6.320000e-04,
116,-3.290000e-02,-6.320000e-04,
117,-3.384000e-02,0.000000e+00,
118,-3.572000e-02,-3.160000e-04,
119,-3.572000e-02,3.160000e-04,
120,-3.760000e-02,3.160000e-04,
121,-3.760000e-02,1.264000e-03,
122,-3.948000e-02,-3.160000e-04,
123,-3.948000e-02,3.160000e-04,
124,-4.136000e-02,3.160000e-04,
125,-4.042000e-02,6.320000e-04,
126,-4.324000e-02,0.000000e+00,
127,-4.324000e-02,-6.320000e-04,
128,-4.418000e-02,1.896000e-03,
129,-4.418000e-02,1.264000e-03,
130,-4.700000e-02,9.480000e-04,
131,-4.700000e-02,1.264000e-03,
132,-4.794000e-02,3.160000e-04,
133,-4.888000e-02,-3.160000e-04,
134,-4.888000e-02,3.160000e-04,
135,-4.982000e-02,9.480000e-04,
136,-5.170000e-02,-9.480000e-04,
137,-5.170000e-02,-1.580000e-03,
138,-5.264000e-02,9.480000e-04,
139,-5.358000e-02,1.896000e-03,
140,-5.452000e-02,-3.160000e-04,
141,-5.452000e-02,-6.320000e-04,
142,-5.545999e-02,-6.320000e-04,
143,-5.545999e-02,-3.160000e-04,
144,-5.734000e-02,6.320000e-04,
145,-5.827999e-02,1.264000e-03,
146,-5.922000e-02,-3.160000e-04,
147,-5.922000e-02,6.320000e-04,
148,-6.016000e-02,9.480000e-04,
149,-6.016000e-02,3.160000e-04,
150,-6.204000e-02,-3.160000e-04,
151,-6.204000e-02,-6.320000e-04,
152,-6.392000e-02,-1.264000e-03,
153,-6.392000e-02,-6.320000e-04,
154,-6.392000e-02,3.160000e-04,
155,-6.392000e-02,-3.160000e-04,
156,-6.580000e-02,-1.264000e-03,
157,-6.580000e-02,-6.320000e-04,
158,-6.674000e-02,1.896000e-03,
159,-6.580000e-02,1.264000e-03,
160,-6.767999e-02,3.160000e-04,
161,-6.862000e-02,-3.160000e-04,
162,-6.862000e-02,-1.580000e-03,
163,-6.767999e-02,-9.480000e-04,
164,-6.956000e-02,9.480000e-04,
165,-6.862000e-02,1.580000e-03,
166,-7.144000e-02,3.160000e-04,
167,-7.144000e-02,9.480000e-04,
168,-7.144000e-02,3.160000e-04,
169,-7.144000e-02,6.320000e-04,
170,-7.238000e-02,1.264000e-03,
171,-7.238000e-02,6.320000e-04,
172,-7.426000e-02,-3.160000e-04,
173,-7.426000e-02,3.160000e-04,
174,-7.520000e-02,3.160000e-04,
175,-7.426000e-02,-3.160000e-04,
176,-7.520000e-02,3.160000e-04,
177,-7.520000e-02,6.320000e-04,
178,-7.708000e-02,3.160000e-04,
179,-7.708000e-02,9.480000e-04,
180,-7.708000e-02,6.320000e-04,
181,-7.613999e-02,1.264000e-03,
182,-7.708000e-02,6.320000e-04,
183,-7.708000e-02,0.000000e+00,
184,-7.801999e-02,2.528000e-03,
185,-7.801999e-02,1.896000e-03,
186,-7.895999e-02,9.480000e-04,
187,-7.895999e-02,3.160000e-04,
188,-7.801999e-02,3.160000e-04,
189,-7.895999e-02,9.480000e-04,
190,-7.895999e-02,1.264000e-03,
191,-7.895999e-02,6.320000e-04,
192,-7.990000e-02,0.000000e+00,
193,-7.895999e-02,-6.320000e-04,
194,-7.990000e-02,6.320000e-04,
195,-8.083999e-02,0.000000e+00,
196,-8.083999e-02,6.320000e-04,
197,-7.990000e-02,-3.160000e-04,
198,-8.083999e-02,3.160000e-04,
199,-8.083999e-02,9.480000e-04,
200,-8.083999e-02,-6.320000e-04,
201,-8.083999e-02,0.000000e+00,
202,-8.083999e-02,9.480000e-04,
203,-8.177999e-02,1.264000e-03,
204,-8.083999e-02,3.160000e-04,
205,-8.177999e-02,6.320000e-04,
206,-8.177999e-02,0.000000e+00,
207,-8.083999e-02,-3.160000e-04,
208,-8.083999e-02,-3.160000e-04,
209,-8.083999e-02,3.160000e-04,
210,-8.083999e-02,6.320000e-04,
211,-8.177999e-02,0.000000e+00,
212,-8.083999e-02,0.000000e+00,
213,-8.083999e-02,-6.320000e-04,
214,-8.083999e-02,0.000000e+00,
215,-8.083999e-02,-6.320000e-04,
216,-8.083999e-02,1.264000e-03,
217,-7.990000e-02,6.320000e-04,
218,-7.990000e-02,0.000000e+00,
219,-7.990000e-02,-6.320000e-04,
220,-7.990000e-02,6.320000e-04,
221,-7.990000e-02,3.160000e-04,
222,-7.990000e-02,1.264000e-03,
223,-8.083999e-02,1.580000e-03,
224,-7.895999e-02,9.480000e-04,
225,-7.990000e-02,3.160000e-04,
226,-7.895999e-02,-3.160000e-04,
227,-7.895999e-02,-9.480000e-04,
228,-7.801999e-02,3.160000e-04,
229,-7.895999e-02,9.480000e-04,
230,-7.801999e-02,9.480000e-04,
231,-7.708000e-02,1.580000e-03,
232,-7.613999e-02,0.000000e+00,
233,-7.708000e-02,6.320000e-04,
234,-7.613999e-02,6.320000e-04,
235,-7.613999e-02,0.000000e+00,
236,-7.520000e-02,1.264000e-03,
237,-7.613999e-02,6.320000e-04,
238,-7.426000e-02,-1.264000e-03,
239,-7.520000e-02,-6.320000e-04,
240,-7.426000e-02,6.320000e-04,
241,-7.331999e-02,0.000000e+00,
242,-7.238000e-02,1.264000e-03,
243,-7.238000e-02,9.480000e-04,
244,-7.238000e-02,1.264000e-03,
245,-7.144000e-02,9.480000e-04,
246,-7.049999e-02,-9.480000e-04,
247,-7.144000e-02,-3.160000e-04,
248,-7.049999e-02,1.896000e-03,
249,-7.049999e-02,2.528000e-03,
250,-6.862000e-02,0.000000e+00,
251,-6.862000e-02,6.320000e-04,
252,-6.767999e-02,-9.480000e-04,
253,-6.767999e-02,-3.160000e-04,
254,-6.674000e-02,-3.160000e-04,
255,-6.674000e-02,3.160000e-04,
256,-6.580000e-02,1.264000e-03,
257,-6.485999e-02,6.320000e-04,
258,-6.392000e-02,-3.160000e-04,
259,-6.298000e-02,-9.480000e-04,
260,-6.298000e-02,0.000000e+00,
261,-6.298000e-02,-6.320000e-04,
262,-6.109999e-02,3.160000e-04,
263,-6.109999e-02,-3.160000e-04,
264,-6.016000e-02,-3.160000e-04,
265,-5.922000e-02,3.160000e-04,
266,-5.827999e-02,0.000000e+00,
267,-5.827999e-02,6.320000e-04,
268,-5.827999e-02,3.160000e-04,
269,-5.734000e-02,-3.160000e-04,
270,-5.640000e-02,0.000000e+00,
271,-5.640000e-02,-6.320000e-04,
272,-5.358000e-02,1.264000e-03,
273,-5.358000e-02,1.896000e-03,
274,-5.264000e-02,1.264000e-03,
275,-5.264000e-02,9.480000e-04,
276,-5.170000e-02,-9.480000e-04,
277,-5.076000e-02,-6.320000e-04,
278,-5.076000e-02,6.320000e-04,
279,-5.170000e-02,1.264000e-03,
280,-4.794000e-02,2.844000e-03,
281,-4.794000e-02,2.212000e-03,
282,-4.606000e-02,-3.160000e-04,
283,-4.700000e-02,3.160000e-04,
284,-4.418000e-02,1.580000e-03,
285,-4.418000e-02,1.896000e-03,
286,-4.324000e-02,1.896000e-03,
287,-4.324000e-02,1.264000e-03,
288,-4.042000e-02,9.480000e-04,
289,-4.136000e-02,1.264000e-03,
290,-3.948000e-02,-9.480000e-04,
291,-3.854000e-02,-6.320000e-04,
292,-3.760000e-02,1.896000e-03,
293,-3.666000e-02,1.580000e-03,
294,-3.572000e-02,-6.320000e-04,
295,-3.478000e-02,0.000000e+00,
296,-3.290000e-02,0.000000e+00,
297,-3.290000e-02,3.160000e-04,
298,-3.196000e-02,1.264000e-03,
299,-3.196000e-02,6.320000e-04,
300,-3.008000e-02,3.160000e-04,
301,-3.102000e-02,9.480000e-04,
302,-2.632000e-02,9.480000e-04,
303,-2.632000e-02,1.580000e-03,
304,-2.632000e-02,1.896000e-03,
305,-2.538000e-02,1.264000e-03,
306,-2.444000e-02,6.320000e-04,
307,-2.444000e-02,0.000000e+00,
308,-2.256000e-02,6.320000e-04,
309,-2.162000e-02,1.264000e-03,
310,-2.068000e-02,9.480000e-04,
311,-1.974000e-02,1.580000e-03,
312,-1.786000e-02,-9.480000e-04,
313,-1.786000e-02,-3.160000e-04,
314,-1.598000e-02,-6.320000e-04,
315,-1.598000e-02,0.000000e+00,
316,-1.504000e-02,1.264000e-03,
317,-1.504000e-02,9.480000e-04,
318,-1.222000e-02,-2.212000e-03,
319,-1.222000e-02,-1.264000e-03,
320,-9.400000e-03,-6.320000e-04,
321,-9.400000e-03,-1.264000e-03,
322,-7.520000e-03,9.480000e-04,
323,-8.459999e-03,3.160000e-04,
324,-5.640000e-03,9.480000e-04,
325,-5.640000e-03,1.264000e-03,
326,-3.760000e-03,-3.160000e-04,
327,-4.700000e-03,-9.480000e-04,
328,-1.880000e-03,1.264000e-03,
329,-1.880000e-03,6.320000e-04,
330,0.000000e+00,0.000000e+00,
331,0.000000e+00,-3.160000e-04,
332,1.880000e-03,0.000000e+00,
333,2.820000e-03,6.320000e-04,
334,4.700000e-03,1.896000e-03,
335,4.700000e-03,1.264000e-03,
336,6.580000e-03,3.160000e-04,
337,6.580000e-03,0.000000e+00,
338,8.459999e-03,3.160000e-04,
339,9.400000e-03,9.480000e-04,
340,1.034000e-02,6.320000e-04,
341,1.034000e-02,1.264000e-03,
342,1.222000e-02,-9.480000e-04,
343,1.222000e-02,-1.580000e-03,
344,1.410000e-02,-6.320000e-04,
345,1.504000e-02,0.000000e+00,
346,1.598000e-02,1.580000e-03,
347,1.598000e-02,1.264000e-03,
348,1.880000e-02,-9.480000e-04,
349,1.974000e-02,-3.160000e-04,
350,2.162000e-02,3.160000e-04,
351,2.068000e-02,-3.160000e-04,
352,2.256000e-02,1.580000e-03,
353,2.256000e-02,9.480000e-04,
354,2.444000e-02,-9.480000e-04,
355,2.538000e-02,-3.160000e-04,
356,2.632000e-02,3.160000e-04,
357,2.726000e-02,9.480000e-04,
358,2.820000e-02,1.580000e-03,
359,2.820000e-02,9.480000e-04,
360,3.008000e-02,3.160000e-04,
361,3.102000e-02,0.000000e+00,
362,3.290000e-02,1.264000e-03,
363,3.196000e-02,9.480000e-04,
364,3.478000e-02,3.160000e-04,
365,3.384000e-02,-3.160000e-04,
366,3.572000e-02,6.320000e-04,
367,3.666000e-02,0.000000e+00,
368,3.854000e-02,-3.160000e-04,
369,3.854000e-02,-9.480000e-04,
370,3.854000e-02,1.264000e-03,
371,3.948000e-02,3.160000e-04,
372,4.042000e-02,6.320000e-04,
373,4.042000e-02,1.264000e-03,
374,4.324000e-02,3.160000e-04,
375,4.324000e-02,9.480000e-04,
376,4.512000e-02,3.160000e-04,
377,4.418000e-02,9.480000e-04,
378,4.606000e-02,3.160000e-04,
379,4.606000e-02,9.480000e-04,
380,4.888000e-02,0.000000e+00,
381,4.982000e-02,6.320000e-04,
382,4.982000e-02,9.480000e-04,
383,4.982000e-02,6.320000e-04,
384,5.170000e-02,0.000000e+00,
385,5.076000e-02,-6.320000e-04,
386,5.358000e-02,0.000000e+00,
387,5.358000e-02,-6.320000e-04,
388,5.545999e-02,6.320000e-04,
389,5.545999e-02,1.264000e-03,
390,5.640000e-02,9.480000e-04,
391,5.734000e-02,1.580000e-03,
392,5.827999e-02,0.000000e+00,
393,5.827999e-02,-6.320000e-04,
394,5.827999e-02,9.480000e-04,
395,5.922000e-02,1.580000e-03,
396,6.109999e-02,-6.320000e-04,
397,6.016000e-02,-3.160000e-04,
398,6.204000e-02,3.160000e-04,
399,6.204000e-02,-3.160000e-04,
400,6.392000e-02,-6.320000e-04,
401,6.298000e-02,-3.160000e-04,
402,6.580000e-02,-9.480000e-04,
403,6.580000e-02,-3.160000e-04,
404,6.674000e-02,0.000000e+00,
405,6.674000e-02,6.320000e-04,
406,6.767999e-02,6.320000e-04,
407,6.674000e-02,0.000000e+00,
408,6.862000e-02,3.160000e-04,
409,6.767999e-02,9.480000e-04,
410,6.956000e-02,3.160000e-04,
411,6.956000e-02,-3.160000e-04,
412,7.144000e-02,1.896000e-03,
413,7.144000e-02,1.580000e-03,
414,7.144000e-02,9.480000e-04,
415,7.144000e-02,1.580000e-03,
416,7.331999e-02,9.480000e-04,
417,7.238000e-02,3.160000e-04,
418,7.426000e-02,-1.580000e-03,
419,7.331999e-02,-1.264000e-03,
420,7.426000e-02,0.000000e+00,
421,7.331999e-02,6.320000e-04,
422,7.520000e-02,1.264000e-03,
423,7.520000e-02,6.320000e-04,
424,7.708000e-02,6.320000e-04,
425,7.708000e-02,0.000000e+00,
426,7.708000e-02,1.264000e-03,
427,7.708000e-02,1.580000e-03,
428,7.801999e-02,1.264000e-03,
429,7.801999e-02,6.320000e-04,
430,7.895999e-02,-3.160000e-04,
431,7.895999e-02,-9.480000e-04,
432,7.990000e-02,-3.160000e-04,
433,7.990000e-02,3.160000e-04,
434,7.990000e-02,1.264000e-03,
435,7.990000e-02,1.896000e-03,
436,7.990000e-02,3.160000e-04,
437,7.895999e-02,9.480000e-04,
438,8.177999e-02,3.160000e-04,
439,8.083999e-02,9.480000e-04,
440,8.083999e-02,9.480000e-04,
441,8.083999e-02,1.896000e-03,
442,8.177999e-02,3.160000e-04,
443,8.272000e-02,-3.160000e-04,
444,8.177999e-02,9.480000e-04,
445,8.177999e-02,1.580000e-03,
446,8.177999e-02,0.000000e+00,
447,8.177999e-02,6.320000e-04,
448,8.272000e-02,-6.320000e-04,
449,8.177999e-02,-1.264000e-03,
450,8.177999e-02,3.160000e-04,
451,8.272000e-02,0.000000e+00,
452,8.365999e-02,0.000000e+00,
453,8.272000e-02,-6.320000e-04,
454,8.272000e-02,1.896000e-03,
455,8.177999e-02,2.212000e-03,
456,8.272000e-02,3.160000e-04,
457,8.177999e-02,-3.160000e-04,
458,8.272000e-02,3.160000e-04,
459,8.272000e-02,-3.160000e-04,
460,8.272000e-02,-6.320000e-04,
461,8.365999e-02,0.000000e+00,
462,8.272000e-02,1.896000e-03,
463,8.272000e-02,1.264000e-03,
464,8.272000e-02,1.896000e-03,
465,8.365999e-02,2.528000e-03,
466,8.177999e-02,3.160000e-04,
467,8.177999e-02,-3.160000e-04,
468,8.177999e-02,6.320000e-04,
469,8.177999e-02,0.000000e+00,
470,8.177999e-02,1.580000e-03,
471,8.083999e-02,9.480000e-04,
472,8.083999e-02,3.160000e-04,
473,7.990000e-02,-3.160000e-04,
474,8.083999e-02,2.212000e-03,
475,7.990000e-02,1.580000e-03,
476,7.990000e-02,-9.480000e-04,
477,7.990000e-02,-3.160000e-04,
478,7.990000e-02,-9.480000e-04,
479,7.990000e-02,-3.160000e-04,
480,7.895999e-02,0.000000e+00,
481,7.990000e-02,-6.320000e-04,
482,7.895999e-02,6.320000e-04,
483,7.895999e-02,0.000000e+00,
484,7.708000e-02,-6.320000e-04,
485,7.801999e-02,-9.480000e-04,
486,7.708000e-02,9.480000e-04,
487,7.708000e-02,3.160000e-04,
488,7.613999e-02,-3.160000e-04,
489,7.613999e-02,0.000000e+00,
490,7.613999e-02,-2.212000e-03,
491,7.520000e-02,-1.580000e-03,
492,7.520000e-02,0.000000e+00,
493,7.426000e-02,-6.320000e-04,
494,7.331999e-02,6.320000e-04,
495,7.331999e-02,1.264000e-03,
496,7.331999e-02,-6.320000e-04,
497,7.331999e-02,0.000000e+00,
498,7.238000e-02,-1.264000e-03,
499,7.144000e-02,-6.320000e-04,
500,7.049999e-02,-6.320000e-04,
501,7.144000e-02,-1.264000e-03,
502,6.956000e-02,0.000000e+00,
503,6.862000e-02,-6.320000e-04,
504,6.862000e-02,-6.320000e-04,
505,6.862000e-02,0.000000e+00,
506,6.767999e-02,-3.160000e-04,
507,6.767999e-02,3.160000e-04,
508,6.674000e-02,-1.896000e-03,
509,6.580000e-02,-1.264000e-03,
510,6.485999e-02,6.320000e-04,
511,6.485999e-02,0.000000e+00,
512,6.392000e-02,1.896000e-03,
513,6.392000e-02,1.264000e-03,
514,6.204000e-02,-3.160000e-04,
515,6.298000e-02,-9.480000e-04,
516,6.109999e-02,0.000000e+00,
517,6.016000e-02,-6.320000e-04,
518,5.922000e-02,6.320000e-04,
519,5.922000e-02,1.264000e-03,
520,5.734000e-02,1.264000e-03,
521,5.734000e-02,1.896000e-03,
522,5.545999e-02,3.160000e-04,
523,5.545999e-02,9.480000e-04,
524,5.452000e-02,-6.320000e-04,
525,5.358000e-02,0.000000e+00,
526,5.358000e-02,-9.480000e-04,
527,5.358000e-02,-6.320000e-04,
528,5.076000e-02,-3.160000e-04,
529,5.170000e-02,3.160000e-04,
530,4.982000e-02,1.580000e-03,
531,4.982000e-02,9.480000e-04,
532,4.794000e-02,-3.160000e-04,
533,4.794000e-02,-9.480000e-04,
534,4.700000e-02,-9.480000e-04,
535,4.606000e-02,-3.160000e-04,
536,4.512000e-02,-3.160000e-04,
537,4.512000e-02,-6.320000e-04,
538,4.230000e-02,-3.160000e-04,
539,4.230000e-02,3.160000e-04,
540,4.136000e-02,-6.320000e-04,
541,4.136000e-02,0.000000e+00,
542,3.948000e-02,3.160000e-04,
543,3.948000e-02,-3.160000e-04,
544,3.760000e-02,-3.160000e-04,
545,3.760000e-02,3.160000e-04,
546,3.572000e-02,-1.264000e-03,
547,3.666000e-02,-6.320000e-04,
548,3.384000e-02,6.320000e-04,
549,3.478000e-02,0.000000e+00,
550,3.196000e-02,3.160000e-04,
551,3.102000e-02,-3.160000e-04,
552,3.008000e-02,-3.160000e-04,
553,3.008000e-02,-6.320000e-04,
554,2.726000e-02,-1.264000e-03,
555,2.820000e-02,-9.480000e-04,
556,2.726000e-02,0.000000e+00,
557,2.726000e-02,-6.320000e-04,
558,2.538000e-02,3.160000e-04,
559,2.444000e-02,9.480000e-04,
560,2.256000e-02,1.264000e-03,
561,2.256000e-02,6.320000e-04,
562,2.068000e-02,-1.264000e-03,
563,1.974000e-02,-9.480000e-04,
564,1.880000e-02,-1.580000e-03,
565,1.880000e-02,-9.480000e-04,
566,1.598000e-02,6.320000e-04,
567,1.598000e-02,0.000000e+00,
568,1.410000e-02,0.000000e+00,
569,1.410000e-02,6.320000e-04,
570,1.316000e-02,-3.160000e-04,
571,1.316000e-02,-9.480000e-04,
572,1.034000e-02,6.320000e-04,
573,1.034000e-02,0.000000e+00,
574,8.459999e-03,3.160000e-04,
575,8.459999e-03,-3.160000e-04,
576,6.580000e-03,0.000000e+00,
577,6.580000e-03,6.320000e-04,
578,4.700000e-03,9.480000e-04,
579,4.700000e-03,3.160000e-04,
580,2.820000e-03,6.320000e-04,
581,1.880000e-03,0.000000e+00,
582,0.000000e+00,-1.580000e-03,
583,-9.399999e-04,-9.480000e-04,
584,-1.880000e-03,1.264000e-03,
585,-1.880000e-03,9.480000e-04,
586,-3.760000e-03,-6.320000e-04,
587,-4.700000e-03,-9.480000e-04,
588,-6.580000e-03,-3.160000e-04,
589,-5.640000e-03,6.320000e-04,
590,-7.520000e-03,3.160000e-04,
591,-8.459999e-03,-3.160000e-04,
592,-9.400000e-03,0.000000e+00,
593,-1.034000e-02,-6.320000e-04,
594,-1.128000e-02,-3.160000e-04,
595,-1.222000e-02,3.160000e-04,
596,-1.410000e-02,1.264000e-03,
597,-1.410000e-02,1.896000e-03,
598,-1.598000e-02,9.480000e-04,
599,-1.598000e-02,6.320000e-04,
600,-1.786000e-02,0.000000e+00,
601,-1.880000e-02,3.160000e-04,
602,-1.974000e-02,0.000000e+00,
603,-2.068000e-02,6.320000e-04,
604,-2.256000e-02,9.480000e-04,
605,-2.256000e-02,1.264000e-03,
606,-2.444000e-02,6.320000e-04,
607,-2.444000e-02,0.000000e+00,
608,-2.726000e-02,-3.160000e-04,
609,-2.632000e-02,3.160000e-04,
610,-2.820000e-02,1.264000e-03,
611,-2.726000e-02,9.480000e-04,
612,-3.008000e-02,-9.480000e-04,
613,-3.102000e-02,-1.580000e-03,
614,-3.196000e-02,9.480000e-04,
615,-3.196000e-02,3.160000e-04,
616,-3.384000e-02,1.580000e-03,
617,-3.384000e-02,9.480000e-04,
618,-3.572000e-02,-9.480000e-04,
619,-3.572000e-02,-1.580000e-03,
620,-3.760000e-02,-3.160000e-04,
621,-3.666000e-02,-6.320000e-04,
622,-3.948000e-02,6.320000e-04,
623,-3.948000e-02,1.264000e-03,
624,-4.230000e-02,-6.320000e-04,
625,-4.136000e-02,-1.264000e-03,
626,-4.230000e-02,-6.320000e-04,
627,-4.324000e-02,-3.160000e-04,
628,-4.418000e-02,1.896000e-03,
