parte2/esp10/Data/d5/f1/5.csv

X,CH1,CH2,Start,Increment,
Sequence,Volt,Volt,-1.163980e-03,2.000000e-06,
0,7.049999e-02,-3.160000e-04,
1,6.956000e-02,3.160000e-04,
2,7.049999e-02,-3.160000e-04,
3,6.956000e-02,3.160000e-04,
4,6.862000e-02,6.320000e-04,
5,6.767999e-02,3.160000e-04,
6,6.674000e-02,3.160000e-04,
7,6.767999e-02,6.320000e-04,
8,6.674000e-02,-3.160000e-04,
9,6.580000e-02,-9.480000e-04,
10,6.485999e-02,-3.160000e-04,
11,6.485999e-02,-9.480000e-04,
12,6.298000e-02,6.320000e-04,
13,6.392000e-02,0.000000e+00,
14,6.298000e-02,-9.480000e-04,
15,6.298000e-02,-1.580000e-03,
16,6.016000e-02,-3.160000e-04,
17,6.109999e-02,0.000000e+00,
18,5.922000e-02,-6.320000e-04,
19,6.016000e-02,-3.160000e-04,
20,5.827999e-02,-6.320000e-04,
21,5.827999e-02,-3.160000e-04,
22,5.640000e-02,0.000000e+00,
23,5.640000e-02,6.320000e-04,
24,5.545999e-02,0.000000e+00,
25,5.640000e-02,-6.320000e-04,
26,5.358000e-02,3.160000e-04,
27,5.358000e-02,-3.160000e-04,
28,5.076000e-02,1.264000e-03,
29,5.076000e-02,9.480000e-04,
30,4.982000e-02,-6.320000e-04,
31,4.982000e-02,-1.264000e-03,
32,4.794000e-02,0.000000e+00,
33,4.794000e-02,-6.320000e-04,
34,4.606000e-02,1.264000e-03,
35,4.700000e-02,6.320000e-04,
36,4.418000e-02,-6.320000e-04,
37,4.418000e-02,0.000000e+00,
38,4.324000e-02,-3.160000e-04,
39,4.324000e-02,-6.320000e-04,
40,4.042000e-02,-6.320000e-04,
41,4.136000e-02,-1.264000e-03,
42,3.948000e-02,1.264000e-03,
43,3.854000e-02,2.212000e-03,
44,3.854000e-02,-9.480000e-04,
45,3.760000e-02,-1.580000e-03,
46,3.572000e-02,1.264000e-03,
47,3.478000e-02,9.480000e-04,
48,3.384000e-02,-3.160000e-04,
49,3.290000e-02,3.160000e-04,
50,3.196000e-02,0.000000e+00,
51,3.196000e-02,-6.320000e-04,
52,2.914000e-02,3.160000e-04,
53,2.914000e-02,-3.160000e-04,
54,2.820000e-02,3.160000e-04,
55,2.820000e-02,9.480000e-04,
56,2.632000e-02,6.320000e-04,
57,2.632000e-02,0.000000e+00,
58,2.444000e-02,3.160000e-04,
59,2.350000e-02,9.480000e-04,
60,2.350000e-02,0.000000e+00,
61,2.256000e-02,6.320000e-04,
62,2.068000e-02,-6.320000e-04,
63,2.068000e-02,-3.160000e-04,
64,1.880000e-02,-6.320000e-04,
65,1.880000e-02,-1.264000e-03,
66,1.598000e-02,6.320000e-04,
67,1.598000e-02,0.000000e+00,
68,1.410000e-02,-1.580000e-03,
69,1.410000e-02,-9.480000e-04,
70,1.222000e-02,0.000000e+00,
71,1.316000e-02,-3.160000e-04,
72,1.128000e-02,-6.320000e-04,
73,1.034000e-02,-3.160000e-04,
74,8.459999e-03,0.000000e+00,
75,9.400000e-03,-3.160000e-04,
76,6.580000e-03,9.480000e-04,
77,6.580000e-03,3.160000e-04,
78,3.760000e-03,-9.480000e-04,
79,2.820000e-03,-3.160000e-04,
80,2.820000e-03,-1.264000e-03,
81,2.820000e-03,-6.320000e-04,
82,0.000000e+00,0.000000e+00,
83,0.000000e+00,3.160000e-04,
84,-9.399999e-04,-3.160000e-04,
85,-9.399999e-04,0.000000e+00,
86,-2.820000e-03,6.320000e-04,
87,-3.760000e-03,0.000000e+00,
88,-6.580000e-03,-3.160000e-04,
89,-5.640000e-03,0.000000e+00,
90,-8.459999e-03,6.320000e-04,
91,-8.459999e-03,3.160000e-04,
92,-1.034000e-02,0.000000e+00,
93,-1.034000e-02,6.320000e-04,
94,-1.316000e-02,6.320000e-04,
95,-1.316000e-02,1.264000e-03,
96,-1.410000e-02,0.000000e+00,
97,-1.504000e-02,6.320000e-04,
98,-1.598000e-02,-1.264000e-03,
99,-1.504000e-02,-6.320000e-04,
100,-1.786000e-02,3.160000e-04,
101,-1.786000e-02,-3.160000e-04,
102,-1.974000e-02,-3.160000e-04,
103,-2.068000e-02,-9.480000e-04,
104,-2.256000e-02,0.000000e+00,
105,-2.350000e-02,-6.320000e-04,
106,-2.444000e-02,0.000000e+00,
107,-2.444000e-02,6.320000e-04,
108,-2.726000e-02,9.480000e-04,
109,-2.726000e-02,3.160000e-04,
110,-2.726000e-02,0.000000e+00,
111,-2.726000e-02,-6.320000e-04,
112,-2.914000e-02,-1.264000e-03,
113,-2.914000e-02,-6.320000e-04,
114,-3.196000e-02,-6.320000e-04,
115,-3.196000e-02,0.000000e+00,
116,-3.384000e-02,6.320000e-04,
117,-3.478000e-02,0.000000e+00,
118,-3.572000e-02,0.000000e+00,
119,-3.572000e-02,3.160000e-04,
120,-3.760000e-02,3.160000e-04,
121,-3.666000e-02,-3.160000e-04,
122,-3.948000e-02,3.160000e-04,
123,-3.948000e-02,0.000000e+00,
124,-3.948000e-02,-9.480000e-04,
125,-4.042000e-02,-3.160000e-04,
126,-4.324000e-02,-1.580000e-03,
127,-4.230000e-02,-9.480000e-04,
128,-4.512000e-02,-3.160000e-04,
129,-4.512000e-02,-9.480000e-04,
130,-4.606000e-02,-9.480000e-04,
131,-4.700000e-02,-3.160000e-04,
132,-4.794000e-02,-6.320000e-04,
133,-4.794000e-02,-1.580000e-03,
134,-4.982000e-02,0.000000e+00,
135,-4.982000e-02,6.320000e-04,
136,-5.170000e-02,0.000000e+00,
137,-5.170000e-02,3.160000e-04,
138,-5.264000e-02,-1.264000e-03,
139,-5.264000e-02,-1.896000e-03,
140,-5.452000e-02,1.580000e-03,
141,-5.452000e-02,2.212000e-03,
142,-5.545999e-02,-1.264000e-03,
143,-5.640000e-02,-1.896000e-03,
144,-5.640000e-02,3.160000e-04,
145,-5.734000e-02,-3.160000e-04,
146,-5.922000e-02,0.000000e+00,
147,-5.922000e-02,-6.320000e-04,
148,-6.109999e-02,9.480000e-04,
149,-6.016000e-02,3.160000e-04,
150,-6.109999e-02,3.160000e-04,
151,-6.204000e-02,-3.160000e-04,
152,-6.298000e-02,-1.896000e-03,
153,-6.298000e-02,-1.264000e-03,
154,-6.392000e-02,6.320000e-04,
155,-6.485999e-02,1.264000e-03,
156,-6.485999e-02,-1.264000e-03,
157,-6.580000e-02,-1.896000e-03,
158,-6.580000e-02,0.000000e+00,
159,-6.580000e-02,-6.320000e-04,
160,-6.767999e-02,0.000000e+00,
161,-6.862000e-02,6.320000e-04,
162,-6.862000e-02,-3.160000e-04,
163,-6.862000e-02,3.160000e-04,
164,-7.049999e-02,-3.160000e-04,
165,-7.049999e-02,3.160000e-04,
166,-7.049999e-02,3.160000e-04,
167,-7.144000e-02,-3.160000e-04,
168,-7.331999e-02,0.000000e+00,
169,-7.238000e-02,6.320000e-04,
170,-7.331999e-02,0.000000e+00,
171,-7.238000e-02,9.480000e-04,
172,-7.331999e-02,3.160000e-04,
173,-7.426000e-02,-3.160000e-04,
174,-7.426000e-02,-9.480000e-04,
175,-7.426000e-02,-3.160000e-04,
176,-7.613999e-02,9.480000e-04,
177,-7.520000e-02,1.580000e-03,
178,-7.613999e-02,1.264000e-03,
179,-7.520000e-02,6.320000e-04,
180,-7.613999e-02,-9.480000e-04,
181,-7.708000e-02,-3.160000e-04,
182,-7.801999e-02,3.160000e-04,
183,-7.895999e-02,9.480000e-04,
184,-7.801999e-02,-9.480000e-04,
185,-7.801999e-02,-3.160000e-04,
186,-7.895999e-02,0.000000e+00,
187,-7.895999e-02,6.320000e-04,
188,-7.801999e-02,-1.264000e-03,
189,-7.801999e-02,-6.320000e-04,
190,-7.990000e-02,1.580000e-03,
191,-7.990000e-02,9.480000e-04,
192,-7.990000e-02,-6.320000e-04,
193,-7.990000e-02,0.000000e+00,
194,-7.990000e-02,1.580000e-03,
195,-8.083999e-02,2.212000e-03,
196,-8.177999e-02,6.320000e-04,
197,-8.083999e-02,-3.160000e-04,
198,-8.083999e-02,-6.320000e-04,
199,-8.083999e-02,-1.264000e-03,
200,-8.177999e-02,3.160000e-04,
201,-8.177999e-02,9.480000e-04,
202,-8.083999e-02,-1.896000e-03,
203,-8.177999e-02,-1.264000e-03,
204,-8.177999e-02,1.264000e-03,
205,-8.177999e-02,6.320000e-04,
206,-8.083999e-02,1.264000e-03,
207,-8.083999e-02,1.896000e-03,
208,-8.083999e-02,6.320000e-04,
209,-8.177999e-02,9.480000e-04,
210,-8.083999e-02,-9.480000e-04,
211,-8.177999e-02,-3.160000e-04,
212,-8.083999e-02,-1.580000e-03,
213,-8.083999e-02,-9.480000e-04,
214,-8.083999e-02,6.320000e-04,
215,-7.990000e-02,9.480000e-04,
216,-8.083999e-02,-3.160000e-04,
217,-8.083999e-02,3.160000e-04,
218,-8.083999e-02,0.000000e+00,
219,-7.990000e-02,-6.320000e-04,
220,-8.083999e-02,0.000000e+00,
221,-8.083999e-02,6.320000e-04,
222,-7.895999e-02,6.320000e-04,
223,-7.895999e-02,1.264000e-03,
224,-7.990000e-02,0.000000e+00,
225,-7.990000e-02,-3.160000e-04,
226,-7.801999e-02,6.320000e-04,
227,-7.801999e-02,0.000000e+00,
228,-7.801999e-02,-1.580000e-03,
229,-7.801999e-02,-9.480000e-04,
230,-7.801999e-02,-9.480000e-04,
231,-7.708000e-02,-3.160000e-04,
232,-7.613999e-02,-3.160000e-04,
233,-7.708000e-02,3.160000e-04,
234,-7.613999e-02,9.480000e-04,
235,-7.613999e-02,1.264000e-03,
236,-7.520000e-02,6.320000e-04,
237,-7.520000e-02,1.264000e-03,
238,-7.520000e-02,6.320000e-04,
239,-7.520000e-02,0.000000e+00,
240,-7.331999e-02,-6.320000e-04,
241,-7.426000e-02,0.000000e+00,
242,-7.331999e-02,3.160000e-04,
243,-7.331999e-02,-3.160000e-04,
244,-7.238000e-02,2.212000e-03,
245,-7.144000e-02,1.580000e-03,
246,-7.144000e-02,6.320000e-04,
247,-7.049999e-02,0.000000e+00,
248,-7.049999e-02,0.000000e+00,
249,-6.956000e-02,6.320000e-04,
250,-6.956000e-02,-3.160000e-04,
251,-6.862000e-02,3.160000e-04,
252,-6.767999e-02,0.000000e+00,
253,-6.767999e-02,-3.160000e-04,
254,-6.767999e-02,-6.320000e-04,
255,-6.674000e-02,0.000000e+00,
256,-6.485999e-02,3.160000e-04,
257,-6.485999e-02,0.000000e+00,
258,-6.392000e-02,-3.160000e-04,
259,-6.392000e-02,3.160000e-04,
260,-6.298000e-02,2.212000e-03,
261,-6.204000e-02,1.580000e-03,
262,-6.204000e-02,-9.480000e-04,
263,-6.109999e-02,-3.160000e-04,
264,-6.016000e-02,-6.320000e-04,
265,-6.016000e-02,-3.160000e-04,
266,-5.922000e-02,3.160000e-04,
267,-5.922000e-02,-3.160000e-04,
268,-5.640000e-02,0.000000e+00,
269,-5.734000e-02,-6.320000e-04,
270,-5.640000e-02,-3.160000e-04,
271,-5.545999e-02,3.160000e-04,
272,-5.358000e-02,6.320000e-04,
273,-5.452000e-02,0.000000e+00,
274,-5.264000e-02,-1.264000e-03,
275,-5.264000e-02,-6.320000e-04,
276,-5.076000e-02,1.264000e-03,
277,-5.076000e-02,6.320000e-04,
278,-4.982000e-02,1.264000e-03,
279,-4.982000e-02,6.320000e-04,
280,-4.794000e-02,-3.160000e-04,
281,-4.888000e-02,-9.480000e-04,
282,-4.606000e-02,-6.320000e-04,
283,-4.606000e-02,0.000000e+00,
284,-4.418000e-02,3.160000e-04,
285,-4.512000e-02,-3.160000e-04,
286,-4.324000e-02,-6.320000e-04,
287,-4.230000e-02,0.000000e+00,
288,-4.136000e-02,1.264000e-03,
289,-4.136000e-02,6.320000e-04,
290,-3.948000e-02,0.000000e+00,
291,-3.948000e-02,6.320000e-04,
292,-3.760000e-02,6.320000e-04,
293,-3.760000e-02,0.000000e+00,
294,-3.572000e-02,6.320000e-04,
295,-3.572000e-02,0.000000e+00,
296,-3.384000e-02,3.160000e-04,
297,-3.290000e-02,-3.160000e-04,
298,-3.196000e-02,3.160000e-04,
299,-3.196000e-02,-3.160000e-04,
300,-3.008000e-02,1.264000e-03,
301,-3.008000e-02,6.320000e-04,
302,-2.820000e-02,9.480000e-04,
303,-2.726000e-02,3.160000e-04,
304,-2.632000e-02,1.264000e-03,
305,-2.632000e-02,6.320000e-04,
306,-2.444000e-02,-3.160000e-04,
307,-2.444000e-02,-9.480000e-04,
308,-2.256000e-02,-3.160000e-04,
309,-2.162000e-02,-9.480000e-04,
310,-2.068000e-02,1.580000e-03,
311,-2.068000e-02,2.212000e-03,
312,-1.880000e-02,-3.160000e-04,
313,-1.786000e-02,-1.264000e-03,
314,-1.598000e-02,0.000000e+00,
315,-1.504000e-02,-6.320000e-04,
316,-1.504000e-02,1.264000e-03,
317,-1.410000e-02,1.896000e-03,
318,-1.222000e-02,-3.160000e-04,
319,-1.222000e-02,0.000000e+00,
320,-1.034000e-02,-3.160000e-04,
321,-1.034000e-02,3.160000e-04,
322,-8.459999e-03,-3.160000e-04,
323,-7.520000e-03,3.160000e-04,
324,-5.640000e-03,6.320000e-04,
325,-5.640000e-03,1.264000e-03,
326,-3.760000e-03,3.160000e-04,
327,-3.760000e-03,9.480000e-04,
328,-1.880000e-03,-3.160000e-04,
329,-2.820000e-03,3.160000e-04,
330,0.000000e+00,-3.160000e-04,
331,0.000000e+00,0.000000e+00,
332,2.820000e-03,1.264000e-03,
333,2.820000e-03,1.896000e-03,
334,3.760000e-03,3.160000e-04,
335,2.820000e-03,9.480000e-04,
336,6.580000e-03,0.000000e+00,
337,6.580000e-03,3.160000e-04,
338,8.459999e-03,1.264000e-03,
339,9.400000e-03,6.320000e-04,
340,1.034000e-02,2.212000e-03,
341,1.034000e-02,1.580000e-03,
342,1.222000e-02,2.844000e-03,
343,1.222000e-02,2.212000e-03,
344,1.410000e-02,-6.320000e-04,
345,1.410000e-02,3.160000e-04,
346,1.692000e-02,3.160000e-04,
347,1.692000e-02,6.320000e-04,
348,1.786000e-02,9.480000e-04,
349,1.880000e-02,3.160000e-04,
350,2.068000e-02,6.320000e-04,
351,2.068000e-02,1.264000e-03,
352,2.350000e-02,-9.480000e-04,
353,2.256000e-02,-6.320000e-04,
354,2.444000e-02,-6.320000e-04,
355,2.538000e-02,0.000000e+00,
356,2.632000e-02,1.896000e-03,
357,2.632000e-02,1.264000e-03,
358,2.820000e-02,-3.160000e-04,
359,2.914000e-02,3.160000e-04,
360,3.008000e-02,3.160000e-04,
361,3.102000e-02,6.320000e-04,
362,3.290000e-02,-9.480000e-04,
363,3.290000e-02,-3.160000e-04,
364,3.478000e-02,-3.160000e-04,
365,3.478000e-02,3.160000e-04,
366,3.572000e-02,1.580000e-03,
367,3.572000e-02,9.480000e-04,
368,3.854000e-02,0.000000e+00,
369,3.854000e-02,6.320000e-04,
370,3.948000e-02,-6.320000e-04,
371,4.042000e-02,0.000000e+00,
372,4.136000e-02,-9.480000e-04,
373,4.136000e-02,-3.160000e-04,
374,4.324000e-02,6.320000e-04,
375,4.324000e-02,3.160000e-04,
376,4.418000e-02,1.264000e-03,
377,4.324000e-02,1.580000e-03,
378,4.606000e-02,6.320000e-04,
379,4.512000e-02,1.264000e-03,
380,4.888000e-02,0.000000e+00,
381,4.794000e-02,-3.160000e-04,
382,5.076000e-02,3.160000e-04,
383,5.076000e-02,9.480000e-04,
384,5.170000e-02,-3.160000e-04,
385,5.170000e-02,6.320000e-04,
386,5.358000e-02,1.264000e-03,
387,5.264000e-02,9.480000e-04,
388,5.545999e-02,1.580000e-03,
389,5.545999e-02,9.480000e-04,
390,5.545999e-02,3.160000e-04,
391,5.640000e-02,-3.160000e-04,
392,5.734000e-02,3.160000e-04,
393,5.827999e-02,-3.160000e-04,
394,5.922000e-02,-9.480000e-04,
395,5.922000e-02,-3.160000e-04,
396,6.016000e-02,9.480000e-04,
397,6.109999e-02,1.580000e-03,
398,6.204000e-02,1.580000e-03,
399,6.109999e-02,2.212000e-03,
400,6.392000e-02,6.320000e-04,
401,6.392000e-02,3.160000e-04,
402,6.392000e-02,-6.320000e-04,
403,6.485999e-02,0.000000e+00,
404,6.580000e-02,0.000000e+00,
405,6.580000e-02,6.320000e-04,
406,6.767999e-02,1.580000e-03,
407,6.674000e-02,9.480000e-04,
408,6.862000e-02,1.896000e-03,
409,6.862000e-02,1.264000e-03,
410,6.956000e-02,9.480000e-04,
411,6.956000e-02,1.580000e-03,
412,7.144000e-02,3.160000e-04,
413,7.144000e-02,-3.160000e-04,
414,7.238000e-02,0.000000e+00,
415,7.144000e-02,3.160000e-04,
416,7.331999e-02,0.000000e+00,
417,7.331999e-02,3.160000e-04,
418,7.426000e-02,3.160000e-04,
419,7.426000e-02,-3.160000e-04,
420,7.520000e-02,0.000000e+00,
421,7.426000e-02,-3.160000e-04,
422,7.613999e-02,-3.160000e-04,
423,7.708000e-02,3.160000e-04,
424,7.708000e-02,9.480000e-04,
425,7.613999e-02,6.320000e-04,
426,7.708000e-02,9.480000e-04,
427,7.801999e-02,3.160000e-04,
428,7.801999e-02,1.580000e-03,
429,7.801999e-02,1.264000e-03,
430,7.895999e-02,6.320000e-04,
431,7.801999e-02,0.000000e+00,
432,7.895999e-02,3.160000e-04,
433,7.895999e-02,9.480000e-04,
434,7.990000e-02,9.480000e-04,
435,7.990000e-02,3.160000e-04,
436,8.083999e-02,1.580000e-03,
437,8.083999e-02,9.480000e-04,
438,8.083999e-02,6.320000e-04,
439,8.083999e-02,0.000000e+00,
440,8.177999e-02,1.264000e-03,
441,8.177999e-02,6.320000e-04,
442,8.083999e-02,0.000000e+00,
443,8.177999e-02,-6.320000e-04,
444,8.177999e-02,6.320000e-04,
445,8.177999e-02,1.264000e-03,
446,8.272000e-02,6.320000e-04,
447,8.177999e-02,0.000000e+00,
448,8.272000e-02,-3.160000e-04,
449,8.177999e-02,-9.480000e-04,
450,8.272000e-02,3.160000e-04,
451,8.272000e-02,-3.160000e-04,
452,8.272000e-02,-3.160000e-04,
453,8.272000e-02,-6.320000e-04,
454,8.272000e-02,9.480000e-04,
455,8.272000e-02,3.160000e-04,
456,8.272000e-02,6.320000e-04,
457,8.365999e-02,1.264000e-03,
458,8.177999e-02,-3.160000e-04,
459,8.177999e-02,-9.480000e-04,
460,8.272000e-02,-6.320000e-04,
461,8.272000e-02,-9.480000e-04,
462,8.177999e-02,0.000000e+00,
463,8.177999e-02,-6.320000e-04,
464,8.272000e-02,0.000000e+00,
465,8.272000e-02,-6.320000e-04,
466,8.177999e-02,0.000000e+00,
467,8.083999e-02,3.160000e-04,
468,8.177999e-02,9.480000e-04,
469,8.083999e-02,1.580000e-03,
470,8.177999e-02,0.000000e+00,
471,8.177999e-02,6.320000e-04,
472,8.083999e-02,-6.320000e-04,
473,8.083999e-02,3.160000e-04,
474,8.083999e-02,0.000000e+00,
475,8.177999e-02,-6.320000e-04,
476,7.990000e-02,6.320000e-04,
477,8.083999e-02,9.480000e-04,
478,7.895999e-02,-3.160000e-04,
479,7.895999e-02,3.160000e-04,
480,7.990000e-02,-6.320000e-04,
481,7.895999e-02,0.000000e+00,
482,7.801999e-02,-6.320000e-04,
483,7.895999e-02,-1.264000e-03,
484,7.801999e-02,9.480000e-04,
485,7.801999e-02,1.580000e-03,
486,7.708000e-02,0.000000e+00,
487,7.708000e-02,-6.320000e-04,
488,7.613999e-02,0.000000e+00,
489,7.520000e-02,6.320000e-04,
490,7.520000e-02,3.160000e-04,
491,7.613999e-02,9.480000e-04,
492,7.426000e-02,3.160000e-04,
493,7.426000e-02,0.000000e+00,
494,7.426000e-02,-1.264000e-03,
495,7.426000e-02,-6.320000e-04,
496,7.331999e-02,6.320000e-04,
497,7.238000e-02,0.000000e+00,
498,7.049999e-02,3.160000e-04,
499,7.144000e-02,9.480000e-04,
500,7.049999e-02,6.320000e-04,
501,7.049999e-02,0.000000e+00,
502,6.956000e-02,6.320000e-04,
503,6.956000e-02,3.160000e-04,
504,6.767999e-02,0.000000e+00,
505,6.767999e-02,6.320000e-04,
506,6.767999e-02,-6.320000e-04,
507,6.674000e-02,-1.264000e-03,
508,6.580000e-02,6.320000e-04,
509,6.485999e-02,9.480000e-04,
510,6.485999e-02,9.480000e-04,
511,6.485999e-02,6.320000e-04,
512,6.392000e-02,3.160000e-04,
513,6.298000e-02,-3.160000e-04,
514,6.204000e-02,1.580000e-03,
515,6.204000e-02,9.480000e-04,
516,6.016000e-02,-6.320000e-04,
517,6.109999e-02,-3.160000e-04,
518,6.016000e-02,3.160000e-04,
519,5.922000e-02,9.480000e-04,
520,5.827999e-02,-1.264000e-03,
521,5.734000e-02,-1.896000e-03,
522,5.640000e-02,6.320000e-04,
523,5.545999e-02,1.264000e-03,
524,5.452000e-02,6.320000e-04,
525,5.452000e-02,1.264000e-03,
526,5.358000e-02,-6.320000e-04,
527,5.358000e-02,0.000000e+00,
528,5.170000e-02,-3.160000e-04,
529,5.170000e-02,-9.480000e-04,
530,4.982000e-02,-3.160000e-04,
531,4.982000e-02,3.160000e-04,
532,4.794000e-02,-9.480000e-04,
533,4.794000e-02,-3.160000e-04,
534,4.700000e-02,-3.160000e-04,
535,4.700000e-02,3.160000e-04,
536,4.418000e-02,-3.160000e-04,
537,4.418000e-02,-9.480000e-04,
538,4.324000e-02,3.160000e-04,
539,4.230000e-02,9.480000e-04,
540,4.136000e-02,3.160000e-04,
541,4.136000e-02,-3.160000e-04,
542,3.854000e-02,-6.320000e-04,
543,3.948000e-02,-1.264000e-03,
544,3.854000e-02,3.160000e-04,
545,3.760000e-02,6.320000e-04,
546,3.572000e-02,-3.160000e-04,
547,3.478000e-02,0.000000e+00,
548,3.478000e-02,9.480000e-04,
549,3.478000e-02,3.160000e-04,
550,3.196000e-02,0.000000e+00,
551,3.290000e-02,-3.160000e-04,
552,3.008000e-02,-9.480000e-04,
553,3.008000e-02,-6.320000e-04,
554,2.820000e-02,-6.320000e-04,
555,2.726000e-02,0.000000e+00,
556,2.632000e-02,0.000000e+00,
557,2.726000e-02,6.320000e-04,
558,2.350000e-02,1.264000e-03,
559,2.350000e-02,6.320000e-04,
560,2.256000e-02,6.320000e-04,
561,2.162000e-02,0.000000e+00,
562,2.068000e-02,0.000000e+00,
563,2.162000e-02,-6.320000e-04,
564,1.880000e-02,-1.264000e-03,
565,1.880000e-02,-6.320000e-04,
566,1.692000e-02,-1.264000e-03,
567,1.598000e-02,-1.896000e-03,
568,1.504000e-02,6.320000e-04,
569,1.410000e-02,0.000000e+00,
570,1.222000e-02,-3.160000e-04,
571,1.128000e-02,-9.480000e-04,
572,1.034000e-02,0.000000e+00,
573,1.034000e-02,-6.320000e-04,
574,8.459999e-03,-1.264000e-03,
575,8.459999e-03,-6.320000e-04,
576,5.640000e-03,-6.320000e-04,
577,6.580000e-03,0.000000e+00,
578,4.700000e-03,-3.160000e-04,
579,4.700000e-03,-9.480000e-04,
580,1.880000e-03,0.000000e+00,
581,1.880000e-03,6.320000e-04,
582,0.000000e+00,1.264000e-03,
583,9.399999e-04,6.320000e-04,
584,-1.880000e-03,-9.480000e-04,
585,-1.880000e-03,-3.160000e-04,
586,-3.760000e-03,-6.320000e-04,
587,-3.760000e-03,0.000000e+00,
588,-5.640000e-03,-6.320000e-04,
589,-5.640000e-03,-3.160000e-04,
590,-8.459999e-03,-9.480000e-04,
591,-8.459999e-03,-3.160000e-04,
592,-9.400000e-03,3.160000e-04,
593,-1.034000e-02,1.264000e-03,
594,-1.222000e-02,1.580000e-03,
595,-1.222000e-02,9.480000e-04,
596,-1.410000e-02,0.000000e+00,
597,-1.410000e-02,9.480000e-04,
598,-1.598000e-02,-1.896000e-03,
599,-1.692000e-02,-1.264000e-03,
600,-1.786000e-02,-9.480000e-04,
601,-1.786000e-02,-3.160000e-04,
602,-2.068000e-02,0.000000e+00,
603,-2.068000e-02,-9.480000e-04,
604,-2.162000e-02,-3.160000e-04,
605,-2.162000e-02,3.160000e-04,
606,-2.444000e-02,-1.264000e-03,
607,-2.444000e-02,-6.320000e-04,
608,-2.632000e-02,3.160000e-04,
609,-2.632000e-02,-3.160000e-04,
610,-2.726000e-02,3.160000e-04,
611,-2.820000e-02,9.480000e-04,
612,-3.008000e-02,9.480000e-04,
613,-3.008000e-02,3.160000e-04,
614,-3.290000e-02,-3.160000e-04,
615,-3.196000e-02,-6.320000e-04,
616,-3.384000e-02,0.000000e+00,
617,-3.384000e-02,-6.320000e-04,
618,-3.478000e-02,-1.264000e-03,
619,-3.572000e-02,-6.320000e-04,
620,-3.760000e-02,-6.320000e-04,
621,-3.760000e-02,0.000000e+00,
622,-3.948000e-02,6.320000e-04,
623,-4.042000e-02,0.000000e+00,
624,-4.042000e-02,3.160000e-04,
625,-4.136000e-02,6.320000e-04,
626,-4.324000e-02,-9.480000e-04,
627,-4.324000e-02,-3.160000e-04,
628,-4.512000e-02,0.000000e+00,
